
<svg xmlns="http://www.w3.org/2000/svg" version="1.1" xmlns:xlink="http://www.w3.org/1999/xlink" preserveAspectRatio="none" x="0px" y="0px" width="728px" height="90px" viewBox="0 0 728 90">
<defs>
<image id="DIY_Free_Support_728x90_psd_Asset_08_BTN_copy_2_Assets_Arrow" x="0" y="0" width="9" height="13" xlink:href="data:image/png;base64,iVBORw0KGgoAAAANSUhEUgAAAAkAAAANCAYAAAB7AEQGAAABB0lEQVQYlXXRsUrDUBQG4BO9
FB18BKfGrSC4NDh1cJYOgoKb4ls4XCT2HTpoIDj5DI4iHQQJXWuVkEVBS3NvTpObc3MdbIyt
8Z8/zs85B2AeRGwjogP/BREdypXUpGQt5JwzSpPIzKPzGsg7wEbX3ZDw0yzB3QUYXDZbz1f7
E0o+KqipUEqd1EI9m5pC59+QlPkD3x76XZX8qs2keR94HiuBEKK1vtbwVlkDAACKTEJ4ewYy
err/AZrUpJxAaWzG/kEx7Nmn1QmyWVhVCDP2D+XQbVbb8Q6w15vjSKfCUBqbF/9IBq69cCcL
ACBwbWdjc+fOslYgDh/3ts9Hg9rXBBdb7eUJZb4AXxTXXwtK7dQAAAAASUVORK5CYII="/>

<g id="DIY_Free_Support_728x90_psd_Asset_08__copy_4_0_Layer0_0_MEMBER_0_FILL">
<path fill="#FFFFFF" stroke="none" d="
M 1.75 -2.15
L 1.65 -2.5 1.05 -2.25 1.05 -3 0.75 -3 0.75 -2.3 0.15 -2.5 0.05 -2.2 0.65 -2 0.25 -1.45 0.55 -1.25 0.9 -1.85 1.25 -1.25 1.5 -1.45 1.15 -2 1.75 -2.15 Z"/>
</g>

<g id="DIY_Free_Support_728x90_psd_Asset_08__copy_4_0_Layer0_0_MEMBER_1_FILL">
<path fill="#FFFFFF" stroke="none" d="
M 1.95 -1.2
Q 1.95 -0.65 2.25 -0.3 2.6 0.05 3.1 0.05 3.6 0.05 3.9 -0.25 4.2 -0.55 4.2 -0.95
L 3.8 -0.95
Q 3.8 -0.75 3.6 -0.45 3.4 -0.25 3.1 -0.25 2.8 -0.25 2.55 -0.55 2.35 -0.8 2.35 -1.2
L 2.35 -1.75
Q 2.35 -2.2 2.55 -2.45 2.8 -2.7 3.1 -2.7 3.45 -2.7 3.6 -2.5 3.8 -2.3 3.8 -2
L 4.15 -2 4.2 -2.05
Q 4.2 -2.45 3.9 -2.75 3.65 -3 3.1 -3 2.55 -3 2.25 -2.65 1.95 -2.25 1.95 -1.75
L 1.95 -1.2 Z"/>
</g>

<g id="DIY_Free_Support_728x90_psd_Asset_08__copy_4_0_Layer0_0_MEMBER_2_FILL">
<path fill="#FFFFFF" stroke="none" d="
M 4.8 -2.65
Q 4.5 -2.25 4.5 -1.75
L 4.5 -1.2
Q 4.5 -0.65 4.8 -0.3 5.15 0.05 5.65 0.05 6.1 0.05 6.55 -0.3 6.85 -0.65 6.85 -1.2
L 6.85 -1.75
Q 6.85 -2.25 6.55 -2.65 6.2 -3 5.65 -3 5.1 -3 4.8 -2.65
M 4.9 -1.2
L 4.9 -1.75
Q 4.9 -2.2 5.1 -2.45 5.35 -2.7 5.65 -2.7 6 -2.7 6.25 -2.45 6.45 -2.2 6.45 -1.75
L 6.45 -1.2
Q 6.45 -0.75 6.25 -0.55 6.05 -0.3 5.65 -0.3 5.3 -0.3 5.1 -0.55 4.9 -0.75 4.9 -1.2 Z"/>
</g>

<g id="DIY_Free_Support_728x90_psd_Asset_08__copy_4_0_Layer0_0_MEMBER_3_FILL">
<path fill="#FFFFFF" stroke="none" d="
M 7.75 -2.3
L 7.8 -2.3 9.2 0 9.6 0 9.6 -3 9.2 -3 9.2 -0.7 7.75 -3 7.35 -3 7.35 0 7.75 0 7.75 -2.3 Z"/>
</g>

<g id="DIY_Free_Support_728x90_psd_Asset_08__copy_4_0_Layer0_0_MEMBER_4_FILL">
<path fill="#FFFFFF" stroke="none" d="
M 12.45 -1.7
Q 12.45 -2.3 12.1 -2.6 11.7 -3 11.15 -3
L 10.25 -3 10.25 0 11.15 0
Q 11.75 0 12.1 -0.35 12.45 -0.7 12.45 -1.3
L 12.45 -1.7
M 11.8 -2.4
Q 12.05 -2.05 12.05 -1.7
L 12.05 -1.3
Q 12.05 -0.85 11.8 -0.6 11.6 -0.3 11.15 -0.3
L 10.65 -0.3 10.65 -2.65 11.15 -2.65
Q 11.55 -2.65 11.8 -2.4 Z"/>
</g>

<g id="DIY_Free_Support_728x90_psd_Asset_08__copy_4_0_Layer0_0_MEMBER_5_FILL">
<path fill="#FFFFFF" stroke="none" d="
M 13.3 -3
L 12.9 -3 12.9 0 13.3 0 13.3 -3 Z"/>
</g>

<g id="DIY_Free_Support_728x90_psd_Asset_08__copy_4_0_Layer0_0_MEMBER_6_FILL">
<path fill="#FFFFFF" stroke="none" d="
M 15.95 -2.65
L 15.95 -3 13.6 -3 13.6 -2.65 14.55 -2.65 14.55 0 14.95 0 14.95 -2.65 15.95 -2.65 Z"/>
</g>

<g id="DIY_Free_Support_728x90_psd_Asset_08__copy_4_0_Layer0_0_MEMBER_7_FILL">
<path fill="#FFFFFF" stroke="none" d="
M 16.7 -3
L 16.3 -3 16.3 0 16.7 0 16.7 -3 Z"/>
</g>

<g id="DIY_Free_Support_728x90_psd_Asset_08__copy_4_0_Layer0_0_MEMBER_8_FILL">
<path fill="#FFFFFF" stroke="none" d="
M 17.2 -1.2
Q 17.2 -0.65 17.55 -0.3 17.9 0.05 18.4 0.05 18.9 0.05 19.25 -0.3 19.6 -0.65 19.6 -1.2
L 19.6 -1.75
Q 19.6 -2.3 19.25 -2.65 18.95 -3 18.4 -3 17.85 -3 17.55 -2.65 17.2 -2.3 17.2 -1.75
L 17.2 -1.2
M 17.6 -1.2
L 17.6 -1.75
Q 17.6 -2.05 17.8 -2.45 18.05 -2.7 18.4 -2.7 18.7 -2.7 18.95 -2.45 19.2 -2.1 19.2 -1.75
L 19.2 -1.2
Q 19.2 -0.8 18.95 -0.55 18.75 -0.3 18.4 -0.3 18 -0.3 17.8 -0.55 17.6 -0.85 17.6 -1.2 Z"/>
</g>

<g id="DIY_Free_Support_728x90_psd_Asset_08__copy_4_0_Layer0_0_MEMBER_9_FILL">
<path fill="#FFFFFF" stroke="none" d="
M 20.5 -3
L 20.1 -3 20.1 0 20.5 0 20.5 -2.3 21.95 0 22.35 0 22.35 -3 21.95 -3 21.95 -0.7 21.9 -0.7 20.5 -3 Z"/>
</g>

<g id="DIY_Free_Support_728x90_psd_Asset_08__copy_4_0_Layer0_0_MEMBER_10_FILL">
<path fill="#FFFFFF" stroke="none" d="
M 24.95 -2.15
Q 25 -2.45 24.7 -2.75 24.45 -3 23.9 -3 23.4 -3 23.2 -2.8 22.9 -2.55 22.9 -2.2 22.9 -1.9 23.15 -1.65 23.4 -1.45 23.9 -1.3 24.35 -1.2 24.45 -1.1 24.6 -0.95 24.6 -0.75 24.6 -0.55 24.4 -0.4 24.25 -0.25 23.95 -0.25 23.65 -0.25 23.4 -0.4 23.2 -0.55 23.2 -0.85
L 22.8 -0.85
Q 22.8 -0.4 23.15 -0.2 23.5 0.05 23.95 0.05 24.35 0.05 24.7 -0.2 25 -0.35 25 -0.75 25 -1.05 24.75 -1.3 24.45 -1.6 24.05 -1.65 23.75 -1.7 23.45 -1.9 23.3 -1.95 23.3 -2.2 23.3 -2.4 23.45 -2.55 23.6 -2.7 23.9 -2.7 24.25 -2.7 24.4 -2.55 24.6 -2.4 24.6 -2.1
L 24.95 -2.1 24.95 -2.15 Z"/>
</g>

<g id="DIY_Free_Support_728x90_psd_Asset_08__copy_4_0_Layer0_0_MEMBER_11_FILL">
<path fill="#FFFFFF" stroke="none" d="
M 26.75 -0.75
L 28 -0.75 28.3 0 28.7 0 27.6 -3 27.25 -3 26.1 0 26.5 0 26.75 -0.75
M 26.9 -1.1
L 27.4 -2.45 27.9 -1.1 26.9 -1.1 Z"/>
</g>

<g id="DIY_Free_Support_728x90_psd_Asset_08__copy_4_0_Layer0_0_MEMBER_12_FILL">
<path fill="#FFFFFF" stroke="none" d="
M 29.4 -1.2
L 30.15 -1.2
Q 30.65 -1.2 30.9 -1.45 31.15 -1.7 31.15 -2.1 31.15 -2.4 30.9 -2.75 30.55 -3 30.15 -3
L 29 -3 29 0 29.4 0 29.4 -1.2
M 29.4 -1.5
L 29.4 -2.65 30.15 -2.65
Q 30.45 -2.65 30.6 -2.5 30.75 -2.35 30.75 -2.1 30.75 -1.85 30.6 -1.65 30.45 -1.5 30.15 -1.5
L 29.4 -1.5 Z"/>
</g>

<g id="DIY_Free_Support_728x90_psd_Asset_08__copy_4_0_Layer0_0_MEMBER_13_FILL">
<path fill="#FFFFFF" stroke="none" d="
M 32 -1.2
L 32.75 -1.2
Q 33.25 -1.2 33.45 -1.45 33.75 -1.65 33.75 -2.1 33.75 -2.45 33.45 -2.75 33.2 -3 32.75 -3
L 31.6 -3 31.6 0 32 0 32 -1.2
M 32 -1.5
L 32 -2.65 32.75 -2.65
Q 33.05 -2.65 33.2 -2.5 33.35 -2.35 33.35 -2.1 33.35 -1.85 33.2 -1.65 33.05 -1.5 32.75 -1.5
L 32 -1.5 Z"/>
</g>

<g id="DIY_Free_Support_728x90_psd_Asset_08__copy_4_0_Layer0_0_MEMBER_14_FILL">
<path fill="#FFFFFF" stroke="none" d="
M 34.55 -0.3
L 34.55 -3 34.15 -3 34.15 0 36 0 36 -0.3 34.55 -0.3 Z"/>
</g>

<g id="DIY_Free_Support_728x90_psd_Asset_08__copy_4_0_Layer0_0_MEMBER_15_FILL">
<path fill="#FFFFFF" stroke="none" d="
M 36.65 -1.45
L 35.9 -3 35.45 -3 36.45 -1.05 36.45 0 36.85 0 36.85 -1.05 37.9 -3 37.45 -3 36.65 -1.45 Z"/>
</g>

<g id="DIY_Free_Support_728x90_psd_Asset_08_BTN_copy_2_file_free_now_0_Layer0_0_MEMBER_0_FILL">
<path fill="#FFFFFF" stroke="none" d="
M 4.65 -5.8
L 0.6 -5.8 0.6 0 2 0 2 -2.2 4.4 -2.2 4.4 -3.35 2 -3.35 2 -4.6 4.65 -4.6 4.65 -5.8 Z"/>
</g>

<g id="DIY_Free_Support_728x90_psd_Asset_08_BTN_copy_2_file_free_now_0_Layer0_0_MEMBER_1_FILL">
<path fill="#FFFFFF" stroke="none" d="
M 7.2 -5.8
L 5.8 -5.8 5.8 0 7.2 0 7.2 -5.8 Z"/>
</g>

<g id="DIY_Free_Support_728x90_psd_Asset_08_BTN_copy_2_file_free_now_0_Layer0_0_MEMBER_2_FILL">
<path fill="#FFFFFF" stroke="none" d="
M 10.05 -5.8
L 8.65 -5.8 8.65 0 12.6 0 12.6 -1.2 10.05 -1.2 10.05 -5.8 Z"/>
</g>

<g id="DIY_Free_Support_728x90_psd_Asset_08_BTN_copy_2_file_free_now_0_Layer0_0_MEMBER_3_FILL">
<path fill="#FFFFFF" stroke="none" d="
M 15.15 -1.2
L 15.15 -2.35 17.65 -2.35 17.65 -3.55 15.15 -3.55 15.15 -4.6 17.9 -4.6 17.9 -5.8 13.7 -5.8 13.7 0 17.9 0 17.9 -1.2 15.15 -1.2 Z"/>
</g>

<g id="DIY_Free_Support_728x90_psd_Asset_08_BTN_copy_2_file_free_now_0_Layer0_0_MEMBER_4_FILL">
<path fill="#FFFFFF" stroke="none" d="
M 25.25 -5.8
L 21.15 -5.8 21.15 0 22.55 0 22.55 -2.2 25 -2.2 25 -3.35 22.55 -3.35 22.55 -4.6 25.25 -4.6 25.25 -5.8 Z"/>
</g>

<g id="DIY_Free_Support_728x90_psd_Asset_08_BTN_copy_2_file_free_now_0_Layer0_0_MEMBER_5_FILL">
<path fill="#FFFFFF" stroke="none" d="
M 27.75 -1.75
L 28.65 -1.75 29.65 0 31.3 0 30.15 -1.95
Q 31.2 -2.5 31.2 -3.75 31.2 -4.65 30.65 -5.2 30.1 -5.8 29.05 -5.8
L 26.3 -5.8 26.3 0 27.75 0 27.75 -1.75
M 28.85 -4.65
Q 29.8 -4.65 29.8 -3.75 29.8 -2.85 28.85 -2.85
L 27.75 -2.85 27.75 -4.65 28.85 -4.65 Z"/>
</g>

<g id="DIY_Free_Support_728x90_psd_Asset_08_BTN_copy_2_file_free_now_0_Layer0_0_MEMBER_6_FILL">
<path fill="#FFFFFF" stroke="none" d="
M 33.85 -1.2
L 33.85 -2.35 36.35 -2.35 36.35 -3.55 33.85 -3.55 33.85 -4.6 36.6 -4.6 36.6 -5.8 32.4 -5.8 32.4 0 36.6 0 36.6 -1.2 33.85 -1.2 Z"/>
</g>

<g id="DIY_Free_Support_728x90_psd_Asset_08_BTN_copy_2_file_free_now_0_Layer0_0_MEMBER_7_FILL">
<path fill="#FFFFFF" stroke="none" d="
M 39.25 -3.55
L 39.25 -4.6 42 -4.6 42 -5.8 37.8 -5.8 37.8 0 42.05 0 42.05 -1.2 39.25 -1.2 39.25 -2.35 41.75 -2.35 41.75 -3.55 39.25 -3.55 Z"/>
</g>

<g id="DIY_Free_Support_728x90_psd_Asset_08_BTN_copy_2_file_free_now_0_Layer0_0_MEMBER_8_FILL">
<path fill="#FFFFFF" stroke="none" d="
M 49.2 -5.8
L 44.65 -5.8 44.65 -4.6 46.2 -4.6 46.2 0 47.65 0 47.65 -4.6 49.2 -4.6 49.2 -5.8 Z"/>
</g>

<g id="DIY_Free_Support_728x90_psd_Asset_08_BTN_copy_2_file_free_now_0_Layer0_0_MEMBER_9_FILL">
<path fill="#FFFFFF" stroke="none" d="
M 49.9 -2.55
Q 49.9 -1.35 50.55 -0.65 51.25 0.1 52.55 0.1 53.85 0.1 54.6 -0.65 55.25 -1.35 55.25 -2.55
L 55.25 -3.3
Q 55.25 -4.45 54.6 -5.2 53.85 -5.95 52.55 -5.95 51.3 -5.95 50.55 -5.2 49.9 -4.45 49.9 -3.3
L 49.9 -2.55
M 51.35 -3.35
Q 51.35 -4.75 52.55 -4.75 53.8 -4.75 53.8 -3.35
L 53.8 -2.45
Q 53.8 -1.05 52.55 -1.05 51.35 -1.05 51.35 -2.45
L 51.35 -3.35 Z"/>
</g>

<g id="DIY_Free_Support_728x90_psd_Asset_08_BTN_copy_2_file_free_now_0_Layer0_0_MEMBER_10_FILL">
<path fill="#FFFFFF" stroke="none" d="
M 58.95 -5.8
L 56.4 -5.8 56.4 0 58.95 0
Q 60.1 0 60.8 -0.65 61.4 -1.25 61.4 -2.3
L 61.4 -3.5
Q 61.4 -4.55 60.8 -5.15 60.1 -5.8 58.95 -5.8
M 59.95 -3.5
L 59.95 -2.3
Q 59.95 -1.15 58.7 -1.15
L 57.85 -1.15 57.85 -4.65 58.7 -4.65
Q 59.95 -4.65 59.95 -3.5 Z"/>
</g>

<g id="DIY_Free_Support_728x90_psd_Asset_08_BTN_copy_2_file_free_now_0_Layer0_0_MEMBER_11_FILL">
<path fill="#FFFFFF" stroke="none" d="
M 63.65 -1.1
L 65.75 -1.1 66.05 0 67.5 0 65.4 -5.8 63.95 -5.8 61.9 0 63.3 0 63.65 -1.1
M 64 -2.2
L 64.7 -4.5 65.4 -2.2 64 -2.2 Z"/>
</g>

<g id="DIY_Free_Support_728x90_psd_Asset_08_BTN_copy_2_file_free_now_0_Layer0_0_MEMBER_12_FILL">
<path fill="#FFFFFF" stroke="none" d="
M 70.55 -2.05
L 72.5 -5.8 70.95 -5.8 69.85 -3.4 68.75 -5.8 67.2 -5.8 69.15 -2.05 69.15 0 70.55 0 70.55 -2.05 Z"/>
</g>

<g id="DIY_Free_Support_728x90_psd_Asset_08_Why_pay_for_tax_software__copy_2_0_Layer0_0_MEMBER_0_FILL">
<path fill="#FFFFFF" stroke="none" d="
M 4.1 -5.8
L 3.15 -5.8 2.15 -2 2.1 -2 1.35 -5.8 0.05 -5.8 1.4 0 2.65 0 3.6 -3.6 3.65 -3.6 4.6 0 5.9 0 7.2 -5.8 5.9 -5.8 5.15 -2 4.1 -5.8 Z"/>
</g>

<g id="DIY_Free_Support_728x90_psd_Asset_08_Why_pay_for_tax_software__copy_2_0_Layer0_0_MEMBER_1_FILL">
<path fill="#FFFFFF" stroke="none" d="
M 8.85 -2.35
L 11 -2.35 11 0 12.35 0 12.35 -5.8 11 -5.8 11 -3.4 8.85 -3.4 8.85 -5.8 7.5 -5.8 7.5 0 8.85 0 8.85 -2.35 Z"/>
</g>

<g id="DIY_Free_Support_728x90_psd_Asset_08_Why_pay_for_tax_software__copy_2_0_Layer0_0_MEMBER_2_FILL">
<path fill="#FFFFFF" stroke="none" d="
M 15.1 -3.25
L 13.95 -5.8 12.5 -5.8 14.4 -2.1 14.4 0 15.75 0 15.75 -2.05 17.75 -5.8 16.3 -5.8 15.1 -3.25 Z"/>
</g>

<g id="DIY_Free_Support_728x90_psd_Asset_08_Why_pay_for_tax_software__copy_2_0_Layer0_0_MEMBER_3_FILL">
<path fill="#FFFFFF" stroke="none" d="
M 24.4 -3.9
Q 24.4 -4.75 23.8 -5.3 23.25 -5.8 22.15 -5.8
L 19.8 -5.8 19.8 0 21.15 0 21.15 -2 22.15 -2
Q 23.25 -2 23.8 -2.5 24.4 -3 24.4 -3.9
M 22.85 -4.55
Q 23.05 -4.3 23.05 -3.9 23.05 -3.5 22.85 -3.25 22.65 -3.05 22.15 -3.05
L 21.15 -3.05 21.15 -4.75 22.15 -4.75
Q 22.65 -4.75 22.85 -4.55 Z"/>
</g>

<g id="DIY_Free_Support_728x90_psd_Asset_08_Why_pay_for_tax_software__copy_2_0_Layer0_0_MEMBER_4_FILL">
<path fill="#FFFFFF" stroke="none" d="
M 25.5 -1.15
L 27.35 -1.15 27.7 0 29.05 0 27.15 -5.8 25.7 -5.8 23.85 0 25.2 0 25.5 -1.15
M 25.8 -2.15
L 26.4 -4.25 26.45 -4.25 27.05 -2.15 25.8 -2.15 Z"/>
</g>

<g id="DIY_Free_Support_728x90_psd_Asset_08_Why_pay_for_tax_software__copy_2_0_Layer0_0_MEMBER_5_FILL">
<path fill="#FFFFFF" stroke="none" d="
M 30.8 -3.25
L 29.65 -5.8 28.2 -5.8 30.1 -2.1 30.1 0 31.45 0 31.45 -2.05 33.45 -5.8 31.95 -5.8 30.8 -3.25 Z"/>
</g>

<g id="DIY_Free_Support_728x90_psd_Asset_08_Why_pay_for_tax_software__copy_2_0_Layer0_0_MEMBER_6_FILL">
<path fill="#FFFFFF" stroke="none" d="
M 39.2 -2.35
L 39.2 -3.4 36.85 -3.4 36.85 -4.75 39.6 -4.75 39.6 -5.8 35.5 -5.8 35.5 0 36.85 0 36.85 -2.35 39.2 -2.35 Z"/>
</g>

<g id="DIY_Free_Support_728x90_psd_Asset_08_Why_pay_for_tax_software__copy_2_0_Layer0_0_MEMBER_7_FILL">
<path fill="#FFFFFF" stroke="none" d="
M 39.85 -3.45
L 39.85 -2.4
Q 39.85 -1.4 40.55 -0.6 41.25 0.1 42.35 0.1 43.4 0.1 44.1 -0.6 44.8 -1.4 44.8 -2.4
L 44.8 -3.45
Q 44.8 -4.5 44.1 -5.2 43.4 -5.9 42.35 -5.9 41.25 -5.9 40.55 -5.2 39.85 -4.5 39.85 -3.45
M 43.15 -4.45
Q 43.45 -4.05 43.45 -3.45
L 43.45 -2.4
Q 43.45 -1.7 43.15 -1.35 42.85 -0.95 42.35 -0.95 41.8 -0.95 41.5 -1.35 41.2 -1.7 41.2 -2.4
L 41.2 -3.45
Q 41.2 -4.05 41.5 -4.45 41.8 -4.85 42.35 -4.85 42.85 -4.85 43.15 -4.45 Z"/>
</g>

<g id="DIY_Free_Support_728x90_psd_Asset_08_Why_pay_for_tax_software__copy_2_0_Layer0_0_MEMBER_8_FILL">
<path fill="#FFFFFF" stroke="none" d="
M 49.8 -4.05
Q 49.8 -4.9 49.2 -5.35 48.6 -5.8 47.6 -5.8
L 45.35 -5.8 45.35 0 46.75 0 46.75 -2.25 47.65 -2.25
Q 48.05 -2.25 48.3 -2 48.5 -1.8 48.5 -1.35
L 48.55 -0.45
Q 48.65 -0.1 48.8 0
L 50.15 0 50.15 -0.1
Q 49.95 -0.2 49.95 -0.5
L 49.85 -1 49.85 -1.4
Q 49.85 -2 49.65 -2.25 49.35 -2.6 48.85 -2.75 49.3 -3 49.55 -3.3 49.8 -3.65 49.8 -4.05
M 48.45 -4
Q 48.45 -3.6 48.25 -3.45 47.95 -3.25 47.6 -3.25
L 46.75 -3.25 46.75 -4.75 47.6 -4.75
Q 48.05 -4.75 48.25 -4.55 48.45 -4.35 48.45 -4 Z"/>
</g>

<g id="DIY_Free_Support_728x90_psd_Asset_08_Why_pay_for_tax_software__copy_2_0_Layer0_0_MEMBER_9_FILL">
<path fill="#FFFFFF" stroke="none" d="
M 4.5 3.4
L 4.5 2.35 0.1 2.35 0.1 3.4 1.6 3.4 1.6 8.15 3 8.15 3 3.4 4.5 3.4 Z"/>
</g>

<g id="DIY_Free_Support_728x90_psd_Asset_08_Why_pay_for_tax_software__copy_2_0_Layer0_0_MEMBER_10_FILL">
<path fill="#FFFFFF" stroke="none" d="
M 7.3 2.35
L 5.85 2.35 4 8.15 5.35 8.15 5.65 7.05 7.5 7.05 7.85 8.15 9.2 8.15 7.3 2.35
M 5.95 6
L 6.6 3.95 7.2 6 5.95 6 Z"/>
</g>

<g id="DIY_Free_Support_728x90_psd_Asset_08_Why_pay_for_tax_software__copy_2_0_Layer0_0_MEMBER_11_FILL">
<path fill="#FFFFFF" stroke="none" d="
M 11.55 4.3
L 10.6 2.35 9.05 2.35 10.7 5.25 9 8.15 10.55 8.15 11.55 6.15 12.55 8.15 14.15 8.15 12.4 5.25 14.05 2.35 12.5 2.35 11.55 4.3 Z"/>
</g>

<g id="DIY_Free_Support_728x90_psd_Asset_08_Why_pay_for_tax_software__copy_2_0_Layer0_0_MEMBER_12_FILL">
<path fill="#FFFFFF" stroke="none" d="
M 20.65 4.1
L 20.65 4.05
Q 20.65 3.25 20.05 2.8 19.5 2.3 18.45 2.3 17.55 2.3 16.85 2.75 16.25 3.2 16.25 3.9 16.25 4.7 16.75 5.05 17.3 5.45 18.4 5.8
L 19.1 6.15
Q 19.35 6.3 19.35 6.65 19.35 6.9 19.1 7.05 18.95 7.25 18.5 7.25 18 7.25 17.65 7 17.4 6.85 17.4 6.3
L 16.1 6.3 16.1 6.35
Q 16 7.3 16.8 7.75 17.45 8.25 18.5 8.25 19.5 8.25 20.1 7.8 20.7 7.45 20.7 6.6 20.7 5.95 20.2 5.45 19.7 5 18.7 4.7
L 17.8 4.35
Q 17.6 4.2 17.6 3.9 17.6 3.65 17.8 3.5 18 3.3 18.45 3.3 18.9 3.3 19.1 3.5 19.35 3.75 19.35 4.1
L 20.65 4.1 Z"/>
</g>

<g id="DIY_Free_Support_728x90_psd_Asset_08_Why_pay_for_tax_software__copy_2_0_Layer0_0_MEMBER_13_FILL">
<path fill="#FFFFFF" stroke="none" d="
M 26 5.8
L 26 4.75
Q 26 3.7 25.3 3 24.65 2.3 23.55 2.3 22.4 2.3 21.75 3 21.05 3.7 21.05 4.75
L 21.05 5.8
Q 21.05 6.85 21.75 7.55 22.45 8.25 23.55 8.25 24.6 8.25 25.3 7.55 26 6.9 26 5.8
M 22.4 5.8
L 22.4 4.75
Q 22.4 4.15 22.7 3.7 23 3.3 23.55 3.3 24.05 3.3 24.35 3.7 24.65 4.15 24.65 4.75
L 24.65 5.8
Q 24.65 6.45 24.35 6.8 24.1 7.2 23.55 7.2 22.95 7.2 22.7 6.8 22.4 6.45 22.4 5.8 Z"/>
</g>

<g id="DIY_Free_Support_728x90_psd_Asset_08_Why_pay_for_tax_software__copy_2_0_Layer0_0_MEMBER_14_FILL">
<path fill="#FFFFFF" stroke="none" d="
M 30.65 3.4
L 30.65 2.35 26.6 2.35 26.6 8.15 27.95 8.15 27.95 5.85 30.25 5.85 30.25 4.8 27.95 4.8 27.95 3.4 30.65 3.4 Z"/>
</g>

<g id="DIY_Free_Support_728x90_psd_Asset_08_Why_pay_for_tax_software__copy_2_0_Layer0_0_MEMBER_15_FILL">
<path fill="#FFFFFF" stroke="none" d="
M 35.2 3.4
L 35.2 2.35 30.8 2.35 30.8 3.4 32.3 3.4 32.3 8.15 33.65 8.15 33.65 3.4 35.2 3.4 Z"/>
</g>

<g id="DIY_Free_Support_728x90_psd_Asset_08_Why_pay_for_tax_software__copy_2_0_Layer0_0_MEMBER_16_FILL">
<path fill="#FFFFFF" stroke="none" d="
M 42.35 2.35
L 41.05 2.35 40.3 6.15 39.25 2.35 38.3 2.35 37.3 6.15 37.25 6.15 36.5 2.35 35.2 2.35 36.55 8.15 37.8 8.15 38.75 4.6 38.8 4.6 39.75 8.15 41.05 8.15 42.35 2.35 Z"/>
</g>

<g id="DIY_Free_Support_728x90_psd_Asset_08_Why_pay_for_tax_software__copy_2_0_Layer0_0_MEMBER_17_FILL">
<path fill="#FFFFFF" stroke="none" d="
M 45.4 2.35
L 43.95 2.35 42.05 8.15 43.4 8.15 43.75 7.05 45.6 7.05 45.9 8.15 47.25 8.15 45.4 2.35
M 44.05 6
L 44.65 3.95 45.3 6 44.05 6 Z"/>
</g>

<g id="DIY_Free_Support_728x90_psd_Asset_08_Why_pay_for_tax_software__copy_2_0_Layer0_0_MEMBER_18_FILL">
<path fill="#FFFFFF" stroke="none" d="
M 51.9 4.1
Q 51.9 3.3 51.3 2.85 50.75 2.35 49.7 2.35
L 47.5 2.35 47.5 8.15 48.85 8.15 48.85 5.95 49.75 5.95
Q 50.2 5.95 50.4 6.15 50.6 6.35 50.6 6.8
L 50.65 7.75
Q 50.75 8.1 50.9 8.15
L 52.25 8.15 52.25 8.1 52.05 7.7 51.95 7.15 51.95 6.8
Q 51.95 6.25 51.75 5.9 51.5 5.55 50.95 5.4 51.45 5.15 51.65 4.9 51.9 4.5 51.9 4.1
M 50.35 3.6
Q 50.55 3.8 50.55 4.2 50.55 4.55 50.35 4.7 50.15 4.9 49.7 4.9
L 48.85 4.9 48.85 3.4 49.7 3.4
Q 50.15 3.4 50.35 3.6 Z"/>
</g>

<g id="DIY_Free_Support_728x90_psd_Asset_08_Why_pay_for_tax_software__copy_2_0_Layer0_0_MEMBER_19_FILL">
<path fill="#FFFFFF" stroke="none" d="
M 56.3 5.7
L 56.3 4.65 54 4.65 54 3.4 56.7 3.4 56.7 2.35 52.65 2.35 52.65 8.15 56.7 8.15 56.7 7.15 54 7.15 54 5.7 56.3 5.7 Z"/>
</g>

<g id="DIY_Free_Support_728x90_psd_Asset_08_Why_pay_for_tax_software__copy_2_0_Layer0_0_MEMBER_20_FILL">
<path fill="#FFFFFF" stroke="none" d="
M 59.25 8.15
L 59.25 7.1 57.9 7.1 57.9 8.15 59.25 8.15
M 60.2 2.75
Q 59.6 2.3 58.7 2.3 57.7 2.3 57.25 2.7 56.7 3.1 56.75 3.95
L 58.05 3.95
Q 58.05 3.65 58.25 3.5 58.4 3.3 58.7 3.3 58.9 3.3 59.2 3.5 59.35 3.75 59.35 4.05 59.35 4.4 59.2 4.6 59.1 4.85 58.8 5.05 58.2 5.45 58.1 5.7 57.9 5.9 57.9 6.5
L 59.25 6.5 59.3 6 59.65 5.65
Q 60.25 5.25 60.45 4.95 60.7 4.55 60.7 4.05 60.7 3.25 60.2 2.75 Z"/>
</g>

<g id="DIY_Free_Support_728x90_psd_Asset_08__copy_3_0_Layer0_0_MEMBER_0_FILL">
<path fill="#FFFFFF" stroke="none" d="
M 2.3 -2.65
Q 1.95 -3 1.4 -3 0.85 -3 0.55 -2.65 0.25 -2.25 0.25 -1.75
L 0.25 -1.2
Q 0.25 -0.65 0.55 -0.3 0.9 0.05 1.4 0.05 1.85 0.05 2.3 -0.3 2.6 -0.65 2.6 -1.2
L 2.6 -1.75
Q 2.6 -2.25 2.3 -2.65
M 2 -2.45
Q 2.2 -2.2 2.2 -1.75
L 2.2 -1.2
Q 2.2 -0.75 2 -0.55 1.8 -0.3 1.4 -0.3 1.05 -0.3 0.85 -0.55 0.65 -0.75 0.65 -1.2
L 0.65 -1.75
Q 0.65 -2.2 0.85 -2.45 1.1 -2.7 1.4 -2.7 1.75 -2.7 2 -2.45 Z"/>
</g>

<g id="DIY_Free_Support_728x90_psd_Asset_08__copy_3_0_Layer0_0_MEMBER_1_FILL">
<path fill="#FFFFFF" stroke="none" d="
M 3.5 -2.3
L 3.55 -2.3 4.95 0 5.35 0 5.35 -3 4.95 -3 4.95 -0.7 3.5 -3 3.1 -3 3.1 0 3.5 0 3.5 -2.3 Z"/>
</g>

<g id="DIY_Free_Support_728x90_psd_Asset_08__copy_3_0_Layer0_0_MEMBER_2_FILL">
<path fill="#FFFFFF" stroke="none" d="
M 6.4 -0.3
L 6.4 -3 6 -3 6 0 7.8 0 7.8 -0.3 6.4 -0.3 Z"/>
</g>

<g id="DIY_Free_Support_728x90_psd_Asset_08__copy_3_0_Layer0_0_MEMBER_3_FILL">
<path fill="#FFFFFF" stroke="none" d="
M 8.6 -3
L 8.15 -3 8.15 0 8.6 0 8.6 -3 Z"/>
</g>

<g id="DIY_Free_Support_728x90_psd_Asset_08__copy_3_0_Layer0_0_MEMBER_4_FILL">
<path fill="#FFFFFF" stroke="none" d="
M 9.65 -3
L 9.25 -3 9.25 0 9.65 0 9.65 -2.3 11.1 0 11.5 0 11.5 -3 11.1 -3 11.1 -0.7 11.05 -0.7 9.65 -3 Z"/>
</g>

<g id="DIY_Free_Support_728x90_psd_Asset_08__copy_3_0_Layer0_0_MEMBER_5_FILL">
<path fill="#FFFFFF" stroke="none" d="
M 12.5 -0.3
L 12.5 -1.4 13.9 -1.4 13.9 -1.7 12.5 -1.7 12.5 -2.65 14.05 -2.65 14.05 -3 12.1 -3 12.1 0 14.1 0 14.1 -0.3 12.5 -0.3 Z"/>
</g>

<g id="DIY_Free_Support_728x90_psd_Asset_08__copy_3_0_Layer0_0_MEMBER_6_FILL">
<path fill="#FFFFFF" stroke="none" d="
M 16.9 -2.4
Q 16.9 -2.55 16.7 -2.85 16.5 -3 16.15 -3 15.85 -3 15.6 -2.85 15.4 -2.55 15.4 -2.3
L 15.5 -1.95 15.7 -1.6 15.3 -1.25 15.15 -0.8
Q 15.15 -0.45 15.4 -0.2 15.75 0.05 16.1 0.05
L 16.55 0 16.9 -0.2 17.05 0 17.55 0 17.15 -0.45
Q 17.35 -0.8 17.4 -0.9
L 17.45 -1.4 17.1 -1.4 17.05 -1.05 16.95 -0.75 16.25 -1.6 16.8 -2.05 16.9 -2.4
M 15.9 -2.6
L 16.15 -2.7 16.4 -2.6
Q 16.5 -2.55 16.5 -2.4
L 16.45 -2.2
Q 16.45 -2.05 16.3 -2
L 16.05 -1.8 15.85 -2.1 15.8 -2.3 15.9 -2.6
M 16.1 -0.25
Q 15.85 -0.25 15.7 -0.4 15.55 -0.55 15.55 -0.8
L 15.6 -1.05 15.85 -1.3 15.95 -1.35 16.7 -0.45 16.4 -0.3 16.1 -0.25 Z"/>
</g>

<g id="DIY_Free_Support_728x90_psd_Asset_08__copy_3_0_Layer0_0_MEMBER_7_FILL">
<path fill="#FFFFFF" stroke="none" d="
M 19.75 -3
L 18.85 -3 18.85 0 19.75 0
Q 20.35 0 20.7 -0.35 21.05 -0.8 21.05 -1.3
L 21.05 -1.7
Q 21.05 -2.25 20.7 -2.6 20.3 -3 19.75 -3
M 19.25 -2.65
L 19.75 -2.65
Q 20.15 -2.65 20.4 -2.4 20.65 -2.05 20.65 -1.7
L 20.65 -1.3
Q 20.65 -0.85 20.4 -0.6 20.2 -0.3 19.75 -0.3
L 19.25 -0.3 19.25 -2.65 Z"/>
</g>

<g id="DIY_Free_Support_728x90_psd_Asset_08__copy_3_0_Layer0_0_MEMBER_8_FILL">
<path fill="#FFFFFF" stroke="none" d="
M 22.5 -3
Q 22 -3 21.65 -2.65 21.35 -2.25 21.35 -1.75
L 21.35 -1.2
Q 21.35 -0.65 21.65 -0.3 22.1 0.05 22.5 0.05 22.95 0.05 23.4 -0.3 23.75 -0.75 23.75 -1.2
L 23.75 -1.75
Q 23.75 -2.2 23.4 -2.65 23.05 -3 22.5 -3
M 21.75 -1.75
Q 21.75 -2.2 21.95 -2.45 22.2 -2.7 22.5 -2.7 22.85 -2.7 23.1 -2.45 23.35 -2.1 23.35 -1.75
L 23.35 -1.2
Q 23.35 -0.8 23.1 -0.55 22.9 -0.3 22.5 -0.3 22.15 -0.3 21.95 -0.55 21.75 -0.75 21.75 -1.2
L 21.75 -1.75 Z"/>
</g>

<g id="DIY_Free_Support_728x90_psd_Asset_08__copy_3_0_Layer0_0_MEMBER_9_FILL">
<path fill="#FFFFFF" stroke="none" d="
M 24.9 -0.65
L 24.35 -3 23.95 -3 24.7 0 25.05 0 25.65 -2.05 25.7 -2.35 25.75 -2.05 26.35 0 26.7 0 27.4 -3 27 -3 26.55 -1.05 26.5 -0.65 25.85 -3 25.5 -3 24.95 -1.05 24.9 -0.65 Z"/>
</g>

<g id="DIY_Free_Support_728x90_psd_Asset_08__copy_3_0_Layer0_0_MEMBER_10_FILL">
<path fill="#FFFFFF" stroke="none" d="
M 28.2 -2.3
L 28.25 -2.3 29.65 0 30.05 0 30.05 -3 29.65 -3 29.65 -0.7 28.2 -3 27.8 -3 27.8 0 28.2 0 28.2 -2.3 Z"/>
</g>

<g id="DIY_Free_Support_728x90_psd_Asset_08__copy_3_0_Layer0_0_MEMBER_11_FILL">
<path fill="#FFFFFF" stroke="none" d="
M 31.1 -0.3
L 31.1 -3 30.7 -3 30.7 0 32.5 0 32.5 -0.3 31.1 -0.3 Z"/>
</g>

<g id="DIY_Free_Support_728x90_psd_Asset_08__copy_3_0_Layer0_0_MEMBER_12_FILL">
<path fill="#FFFFFF" stroke="none" d="
M 32.65 -1.75
L 32.65 -1.2
Q 32.65 -0.65 33 -0.3 33.35 0.05 33.85 0.05 34.35 0.05 34.7 -0.3 35.05 -0.65 35.05 -1.2
L 35.05 -1.75
Q 35.05 -2.3 34.7 -2.65 34.4 -3 33.85 -3 33.3 -3 33 -2.65 32.65 -2.3 32.65 -1.75
M 34.45 -2.45
Q 34.65 -2.2 34.65 -1.75
L 34.65 -1.2
Q 34.65 -0.75 34.45 -0.55 34.25 -0.3 33.85 -0.3 33.45 -0.3 33.3 -0.55 33.05 -0.8 33.05 -1.2
L 33.05 -1.75
Q 33.05 -2.1 33.3 -2.45 33.45 -2.7 33.85 -2.7 34.2 -2.7 34.45 -2.45 Z"/>
</g>

<g id="DIY_Free_Support_728x90_psd_Asset_08__copy_3_0_Layer0_0_MEMBER_13_FILL">
<path fill="#FFFFFF" stroke="none" d="
M 35.85 -0.75
L 37.1 -0.75 37.4 0 37.8 0 36.7 -3 36.35 -3 35.2 0 35.6 0 35.85 -0.75
M 36 -1.1
L 36.5 -2.45 37 -1.1 36 -1.1 Z"/>
</g>

<g id="DIY_Free_Support_728x90_psd_Asset_08__copy_3_0_Layer0_0_MEMBER_14_FILL">
<path fill="#FFFFFF" stroke="none" d="
M 40.3 -1.7
Q 40.3 -2.3 39.95 -2.6 39.65 -3 39 -3
L 38.1 -3 38.1 0 39 0
Q 39.65 0 39.95 -0.35 40.3 -0.7 40.3 -1.3
L 40.3 -1.7
M 39.7 -2.4
Q 39.9 -2.15 39.9 -1.7
L 39.9 -1.3
Q 39.9 -0.8 39.7 -0.6 39.4 -0.3 39 -0.3
L 38.5 -0.3 38.5 -2.65 39 -2.65
Q 39.35 -2.65 39.7 -2.4 Z"/>
</g>
</defs>

<g transform="matrix( 1, 0, 0, 1, 0,-256) ">
<g transform="matrix( 1, 0, 0, 1, 398,322) ">
<g transform="matrix( 2.868011474609375, 0, 0, 2.8675994873046875, -0.15,8.75) ">
<use xlink:href="#DIY_Free_Support_728x90_psd_Asset_08__copy_4_0_Layer0_0_MEMBER_0_FILL"/>
</g>

<g transform="matrix( 2.868011474609375, 0, 0, 2.8675994873046875, -0.15,8.75) ">
<use xlink:href="#DIY_Free_Support_728x90_psd_Asset_08__copy_4_0_Layer0_0_MEMBER_1_FILL"/>
</g>

<g transform="matrix( 2.868011474609375, 0, 0, 2.8675994873046875, -0.15,8.75) ">
<use xlink:href="#DIY_Free_Support_728x90_psd_Asset_08__copy_4_0_Layer0_0_MEMBER_2_FILL"/>
</g>

<g transform="matrix( 2.868011474609375, 0, 0, 2.8675994873046875, -0.15,8.75) ">
<use xlink:href="#DIY_Free_Support_728x90_psd_Asset_08__copy_4_0_Layer0_0_MEMBER_3_FILL"/>
</g>

<g transform="matrix( 2.868011474609375, 0, 0, 2.8675994873046875, -0.15,8.75) ">
<use xlink:href="#DIY_Free_Support_728x90_psd_Asset_08__copy_4_0_Layer0_0_MEMBER_4_FILL"/>
</g>

<g transform="matrix( 2.868011474609375, 0, 0, 2.8675994873046875, -0.15,8.75) ">
<use xlink:href="#DIY_Free_Support_728x90_psd_Asset_08__copy_4_0_Layer0_0_MEMBER_5_FILL"/>
</g>

<g transform="matrix( 2.868011474609375, 0, 0, 2.8675994873046875, -0.15,8.75) ">
<use xlink:href="#DIY_Free_Support_728x90_psd_Asset_08__copy_4_0_Layer0_0_MEMBER_6_FILL"/>
</g>

<g transform="matrix( 2.868011474609375, 0, 0, 2.8675994873046875, -0.15,8.75) ">
<use xlink:href="#DIY_Free_Support_728x90_psd_Asset_08__copy_4_0_Layer0_0_MEMBER_7_FILL"/>
</g>

<g transform="matrix( 2.868011474609375, 0, 0, 2.8675994873046875, -0.15,8.75) ">
<use xlink:href="#DIY_Free_Support_728x90_psd_Asset_08__copy_4_0_Layer0_0_MEMBER_8_FILL"/>
</g>

<g transform="matrix( 2.868011474609375, 0, 0, 2.8675994873046875, -0.15,8.75) ">
<use xlink:href="#DIY_Free_Support_728x90_psd_Asset_08__copy_4_0_Layer0_0_MEMBER_9_FILL"/>
</g>

<g transform="matrix( 2.868011474609375, 0, 0, 2.8675994873046875, -0.15,8.75) ">
<use xlink:href="#DIY_Free_Support_728x90_psd_Asset_08__copy_4_0_Layer0_0_MEMBER_10_FILL"/>
</g>

<g transform="matrix( 2.868011474609375, 0, 0, 2.8675994873046875, -0.15,8.75) ">
<use xlink:href="#DIY_Free_Support_728x90_psd_Asset_08__copy_4_0_Layer0_0_MEMBER_11_FILL"/>
</g>

<g transform="matrix( 2.868011474609375, 0, 0, 2.8675994873046875, -0.15,8.75) ">
<use xlink:href="#DIY_Free_Support_728x90_psd_Asset_08__copy_4_0_Layer0_0_MEMBER_12_FILL"/>
</g>

<g transform="matrix( 2.868011474609375, 0, 0, 2.8675994873046875, -0.15,8.75) ">
<use xlink:href="#DIY_Free_Support_728x90_psd_Asset_08__copy_4_0_Layer0_0_MEMBER_13_FILL"/>
</g>

<g transform="matrix( 2.868011474609375, 0, 0, 2.8675994873046875, -0.15,8.75) ">
<use xlink:href="#DIY_Free_Support_728x90_psd_Asset_08__copy_4_0_Layer0_0_MEMBER_14_FILL"/>
</g>

<g transform="matrix( 2.868011474609375, 0, 0, 2.8675994873046875, -0.15,8.75) ">
<use xlink:href="#DIY_Free_Support_728x90_psd_Asset_08__copy_4_0_Layer0_0_MEMBER_15_FILL"/>
</g>
</g>

<g transform="matrix( 1, 0, 0, 1, 373,282) ">
<g transform="matrix( 1, 0, 0, 1, 14,9) ">
<g transform="matrix( 1.6842041015625, 0, 0, 1.6857757568359375, -0.2,10.8) ">
<use xlink:href="#DIY_Free_Support_728x90_psd_Asset_08_BTN_copy_2_file_free_now_0_Layer0_0_MEMBER_0_FILL"/>
</g>

<g transform="matrix( 1.6842041015625, 0, 0, 1.6857757568359375, -0.2,10.8) ">
<use xlink:href="#DIY_Free_Support_728x90_psd_Asset_08_BTN_copy_2_file_free_now_0_Layer0_0_MEMBER_1_FILL"/>
</g>

<g transform="matrix( 1.6842041015625, 0, 0, 1.6857757568359375, -0.2,10.8) ">
<use xlink:href="#DIY_Free_Support_728x90_psd_Asset_08_BTN_copy_2_file_free_now_0_Layer0_0_MEMBER_2_FILL"/>
</g>

<g transform="matrix( 1.6842041015625, 0, 0, 1.6857757568359375, -0.2,10.8) ">
<use xlink:href="#DIY_Free_Support_728x90_psd_Asset_08_BTN_copy_2_file_free_now_0_Layer0_0_MEMBER_3_FILL"/>
</g>

<g transform="matrix( 1.6842041015625, 0, 0, 1.6857757568359375, -0.2,10.8) ">
<use xlink:href="#DIY_Free_Support_728x90_psd_Asset_08_BTN_copy_2_file_free_now_0_Layer0_0_MEMBER_4_FILL"/>
</g>

<g transform="matrix( 1.6842041015625, 0, 0, 1.6857757568359375, -0.2,10.8) ">
<use xlink:href="#DIY_Free_Support_728x90_psd_Asset_08_BTN_copy_2_file_free_now_0_Layer0_0_MEMBER_5_FILL"/>
</g>

<g transform="matrix( 1.6842041015625, 0, 0, 1.6857757568359375, -0.2,10.8) ">
<use xlink:href="#DIY_Free_Support_728x90_psd_Asset_08_BTN_copy_2_file_free_now_0_Layer0_0_MEMBER_6_FILL"/>
</g>

<g transform="matrix( 1.6842041015625, 0, 0, 1.6857757568359375, -0.2,10.8) ">
<use xlink:href="#DIY_Free_Support_728x90_psd_Asset_08_BTN_copy_2_file_free_now_0_Layer0_0_MEMBER_7_FILL"/>
</g>

<g transform="matrix( 1.6842041015625, 0, 0, 1.6857757568359375, -0.2,10.8) ">
<use xlink:href="#DIY_Free_Support_728x90_psd_Asset_08_BTN_copy_2_file_free_now_0_Layer0_0_MEMBER_8_FILL"/>
</g>

<g transform="matrix( 1.6842041015625, 0, 0, 1.6857757568359375, -0.2,10.8) ">
<use xlink:href="#DIY_Free_Support_728x90_psd_Asset_08_BTN_copy_2_file_free_now_0_Layer0_0_MEMBER_9_FILL"/>
</g>

<g transform="matrix( 1.6842041015625, 0, 0, 1.6857757568359375, -0.2,10.8) ">
<use xlink:href="#DIY_Free_Support_728x90_psd_Asset_08_BTN_copy_2_file_free_now_0_Layer0_0_MEMBER_10_FILL"/>
</g>

<g transform="matrix( 1.6842041015625, 0, 0, 1.6857757568359375, -0.2,10.8) ">
<use xlink:href="#DIY_Free_Support_728x90_psd_Asset_08_BTN_copy_2_file_free_now_0_Layer0_0_MEMBER_11_FILL"/>
</g>

<g transform="matrix( 1.6842041015625, 0, 0, 1.6857757568359375, -0.2,10.8) ">
<use xlink:href="#DIY_Free_Support_728x90_psd_Asset_08_BTN_copy_2_file_free_now_0_Layer0_0_MEMBER_12_FILL"/>
</g>
</g>

<g transform="matrix( 1, 0, 0, 1, 145,9) ">
<g transform="matrix( 1, 0, 0, 1, 0,0) ">
<use xlink:href="#DIY_Free_Support_728x90_psd_Asset_08_BTN_copy_2_Assets_Arrow"/>
</g>
</g>
</g>

<g transform="matrix( 1, 0, 0, 1, 160,270) ">
<g transform="matrix( 2.868011474609375, 0, 0, 2.8675994873046875, 0.05,17.6) ">
<use xlink:href="#DIY_Free_Support_728x90_psd_Asset_08_Why_pay_for_tax_software__copy_2_0_Layer0_0_MEMBER_0_FILL"/>
</g>

<g transform="matrix( 2.868011474609375, 0, 0, 2.8675994873046875, 0.05,17.6) ">
<use xlink:href="#DIY_Free_Support_728x90_psd_Asset_08_Why_pay_for_tax_software__copy_2_0_Layer0_0_MEMBER_1_FILL"/>
</g>

<g transform="matrix( 2.868011474609375, 0, 0, 2.8675994873046875, 0.05,17.6) ">
<use xlink:href="#DIY_Free_Support_728x90_psd_Asset_08_Why_pay_for_tax_software__copy_2_0_Layer0_0_MEMBER_2_FILL"/>
</g>

<g transform="matrix( 2.868011474609375, 0, 0, 2.8675994873046875, 0.05,17.6) ">
<use xlink:href="#DIY_Free_Support_728x90_psd_Asset_08_Why_pay_for_tax_software__copy_2_0_Layer0_0_MEMBER_3_FILL"/>
</g>

<g transform="matrix( 2.868011474609375, 0, 0, 2.8675994873046875, 0.05,17.6) ">
<use xlink:href="#DIY_Free_Support_728x90_psd_Asset_08_Why_pay_for_tax_software__copy_2_0_Layer0_0_MEMBER_4_FILL"/>
</g>

<g transform="matrix( 2.868011474609375, 0, 0, 2.8675994873046875, 0.05,17.6) ">
<use xlink:href="#DIY_Free_Support_728x90_psd_Asset_08_Why_pay_for_tax_software__copy_2_0_Layer0_0_MEMBER_5_FILL"/>
</g>

<g transform="matrix( 2.868011474609375, 0, 0, 2.8675994873046875, 0.05,17.6) ">
<use xlink:href="#DIY_Free_Support_728x90_psd_Asset_08_Why_pay_for_tax_software__copy_2_0_Layer0_0_MEMBER_6_FILL"/>
</g>

<g transform="matrix( 2.868011474609375, 0, 0, 2.8675994873046875, 0.05,17.6) ">
<use xlink:href="#DIY_Free_Support_728x90_psd_Asset_08_Why_pay_for_tax_software__copy_2_0_Layer0_0_MEMBER_7_FILL"/>
</g>

<g transform="matrix( 2.868011474609375, 0, 0, 2.8675994873046875, 0.05,17.6) ">
<use xlink:href="#DIY_Free_Support_728x90_psd_Asset_08_Why_pay_for_tax_software__copy_2_0_Layer0_0_MEMBER_8_FILL"/>
</g>

<g transform="matrix( 2.868011474609375, 0, 0, 2.8675994873046875, 0.05,17.6) ">
<use xlink:href="#DIY_Free_Support_728x90_psd_Asset_08_Why_pay_for_tax_software__copy_2_0_Layer0_0_MEMBER_9_FILL"/>
</g>

<g transform="matrix( 2.868011474609375, 0, 0, 2.8675994873046875, 0.05,17.6) ">
<use xlink:href="#DIY_Free_Support_728x90_psd_Asset_08_Why_pay_for_tax_software__copy_2_0_Layer0_0_MEMBER_10_FILL"/>
</g>

<g transform="matrix( 2.868011474609375, 0, 0, 2.8675994873046875, 0.05,17.6) ">
<use xlink:href="#DIY_Free_Support_728x90_psd_Asset_08_Why_pay_for_tax_software__copy_2_0_Layer0_0_MEMBER_11_FILL"/>
</g>

<g transform="matrix( 2.868011474609375, 0, 0, 2.8675994873046875, 0.05,17.6) ">
<use xlink:href="#DIY_Free_Support_728x90_psd_Asset_08_Why_pay_for_tax_software__copy_2_0_Layer0_0_MEMBER_12_FILL"/>
</g>

<g transform="matrix( 2.868011474609375, 0, 0, 2.8675994873046875, 0.05,17.6) ">
<use xlink:href="#DIY_Free_Support_728x90_psd_Asset_08_Why_pay_for_tax_software__copy_2_0_Layer0_0_MEMBER_13_FILL"/>
</g>

<g transform="matrix( 2.868011474609375, 0, 0, 2.8675994873046875, 0.05,17.6) ">
<use xlink:href="#DIY_Free_Support_728x90_psd_Asset_08_Why_pay_for_tax_software__copy_2_0_Layer0_0_MEMBER_14_FILL"/>
</g>

<g transform="matrix( 2.868011474609375, 0, 0, 2.8675994873046875, 0.05,17.6) ">
<use xlink:href="#DIY_Free_Support_728x90_psd_Asset_08_Why_pay_for_tax_software__copy_2_0_Layer0_0_MEMBER_15_FILL"/>
</g>

<g transform="matrix( 2.868011474609375, 0, 0, 2.8675994873046875, 0.05,17.6) ">
<use xlink:href="#DIY_Free_Support_728x90_psd_Asset_08_Why_pay_for_tax_software__copy_2_0_Layer0_0_MEMBER_16_FILL"/>
</g>

<g transform="matrix( 2.868011474609375, 0, 0, 2.8675994873046875, 0.05,17.6) ">
<use xlink:href="#DIY_Free_Support_728x90_psd_Asset_08_Why_pay_for_tax_software__copy_2_0_Layer0_0_MEMBER_17_FILL"/>
</g>

<g transform="matrix( 2.868011474609375, 0, 0, 2.8675994873046875, 0.05,17.6) ">
<use xlink:href="#DIY_Free_Support_728x90_psd_Asset_08_Why_pay_for_tax_software__copy_2_0_Layer0_0_MEMBER_18_FILL"/>
</g>

<g transform="matrix( 2.868011474609375, 0, 0, 2.8675994873046875, 0.05,17.6) ">
<use xlink:href="#DIY_Free_Support_728x90_psd_Asset_08_Why_pay_for_tax_software__copy_2_0_Layer0_0_MEMBER_19_FILL"/>
</g>

<g transform="matrix( 2.868011474609375, 0, 0, 2.8675994873046875, 0.05,17.6) ">
<use xlink:href="#DIY_Free_Support_728x90_psd_Asset_08_Why_pay_for_tax_software__copy_2_0_Layer0_0_MEMBER_20_FILL"/>
</g>
</g>

<g transform="matrix( 1, 0, 0, 1, 160,322) ">
<g transform="matrix( 2.868011474609375, 0, 0, 2.8675994873046875, -0.15,8.75) ">
<use xlink:href="#DIY_Free_Support_728x90_psd_Asset_08__copy_3_0_Layer0_0_MEMBER_0_FILL"/>
</g>

<g transform="matrix( 2.868011474609375, 0, 0, 2.8675994873046875, -0.15,8.75) ">
<use xlink:href="#DIY_Free_Support_728x90_psd_Asset_08__copy_3_0_Layer0_0_MEMBER_1_FILL"/>
</g>

<g transform="matrix( 2.868011474609375, 0, 0, 2.8675994873046875, -0.15,8.75) ">
<use xlink:href="#DIY_Free_Support_728x90_psd_Asset_08__copy_3_0_Layer0_0_MEMBER_2_FILL"/>
</g>

<g transform="matrix( 2.868011474609375, 0, 0, 2.8675994873046875, -0.15,8.75) ">
<use xlink:href="#DIY_Free_Support_728x90_psd_Asset_08__copy_3_0_Layer0_0_MEMBER_3_FILL"/>
</g>

<g transform="matrix( 2.868011474609375, 0, 0, 2.8675994873046875, -0.15,8.75) ">
<use xlink:href="#DIY_Free_Support_728x90_psd_Asset_08__copy_3_0_Layer0_0_MEMBER_4_FILL"/>
</g>

<g transform="matrix( 2.868011474609375, 0, 0, 2.8675994873046875, -0.15,8.75) ">
<use xlink:href="#DIY_Free_Support_728x90_psd_Asset_08__copy_3_0_Layer0_0_MEMBER_5_FILL"/>
</g>

<g transform="matrix( 2.868011474609375, 0, 0, 2.8675994873046875, -0.15,8.75) ">
<use xlink:href="#DIY_Free_Support_728x90_psd_Asset_08__copy_3_0_Layer0_0_MEMBER_6_FILL"/>
</g>

<g transform="matrix( 2.868011474609375, 0, 0, 2.8675994873046875, -0.15,8.75) ">
<use xlink:href="#DIY_Free_Support_728x90_psd_Asset_08__copy_3_0_Layer0_0_MEMBER_7_FILL"/>
</g>

<g transform="matrix( 2.868011474609375, 0, 0, 2.8675994873046875, -0.15,8.75) ">
<use xlink:href="#DIY_Free_Support_728x90_psd_Asset_08__copy_3_0_Layer0_0_MEMBER_8_FILL"/>
</g>

<g transform="matrix( 2.868011474609375, 0, 0, 2.8675994873046875, -0.15,8.75) ">
<use xlink:href="#DIY_Free_Support_728x90_psd_Asset_08__copy_3_0_Layer0_0_MEMBER_9_FILL"/>
</g>

<g transform="matrix( 2.868011474609375, 0, 0, 2.8675994873046875, -0.15,8.75) ">
<use xlink:href="#DIY_Free_Support_728x90_psd_Asset_08__copy_3_0_Layer0_0_MEMBER_10_FILL"/>
</g>

<g transform="matrix( 2.868011474609375, 0, 0, 2.8675994873046875, -0.15,8.75) ">
<use xlink:href="#DIY_Free_Support_728x90_psd_Asset_08__copy_3_0_Layer0_0_MEMBER_11_FILL"/>
</g>

<g transform="matrix( 2.868011474609375, 0, 0, 2.8675994873046875, -0.15,8.75) ">
<use xlink:href="#DIY_Free_Support_728x90_psd_Asset_08__copy_3_0_Layer0_0_MEMBER_12_FILL"/>
</g>

<g transform="matrix( 2.868011474609375, 0, 0, 2.8675994873046875, -0.15,8.75) ">
<use xlink:href="#DIY_Free_Support_728x90_psd_Asset_08__copy_3_0_Layer0_0_MEMBER_13_FILL"/>
</g>

<g transform="matrix( 2.868011474609375, 0, 0, 2.8675994873046875, -0.15,8.75) ">
<use xlink:href="#DIY_Free_Support_728x90_psd_Asset_08__copy_3_0_Layer0_0_MEMBER_14_FILL"/>
</g>
</g>
</g>
</svg>
