
<svg xmlns="http://www.w3.org/2000/svg" version="1.1" xmlns:xlink="http://www.w3.org/1999/xlink" preserveAspectRatio="none" x="0px" y="0px" width="728px" height="90px" viewBox="0 0 728 90">
<defs>
<g id="DIY_Free_Support_728x90_psd_Asset_03_And_on_the_phone_0_Layer0_0_MEMBER_0_FILL">
<path fill="#FFFFFF" stroke="none" d="
M -296.75 -4.5
L -289.4 -4.5 -288.1 0 -282.65 0 -290.2 -23.25 -296 -23.25 -303.5 0 -298.05 0 -296.75 -4.5
M -295.55 -8.65
L -293.15 -17 -293.05 -17 -290.6 -8.65 -295.55 -8.65 Z"/>
</g>

<g id="DIY_Free_Support_728x90_psd_Asset_03_And_on_the_phone_0_Layer0_0_MEMBER_1_FILL">
<path fill="#FFFFFF" stroke="none" d="
M -275.6 -14.8
L -275.5 -14.8 -267 0 -261.6 0 -261.6 -23.25 -267 -23.25 -267 -8.45 -267.1 -8.45 -275.6 -23.25 -281 -23.25 -281 0 -275.6 0 -275.6 -14.8 Z"/>
</g>

<g id="DIY_Free_Support_728x90_psd_Asset_03_And_on_the_phone_0_Layer0_0_MEMBER_2_FILL">
<path fill="#FFFFFF" stroke="none" d="
M -249.55 -23.25
L -257.95 -23.25 -257.95 0 -249.55 0
Q -245.5 0 -242.7 -2.65 -239.95 -5.3 -239.95 -9.55
L -239.95 -13.7
Q -239.95 -17.95 -242.7 -20.55 -245.45 -23.25 -249.55 -23.25
M -252.55 -19.1
L -249.95 -19.1
Q -247.75 -19.1 -246.55 -17.65 -245.35 -16.15 -245.35 -13.75
L -245.35 -9.55
Q -245.35 -7.05 -246.55 -5.65 -247.75 -4.15 -249.95 -4.15
L -252.55 -4.15 -252.55 -19.1 Z"/>
</g>

<g id="DIY_Free_Support_728x90_psd_Asset_03_And_on_the_phone_0_Layer0_0_MEMBER_3_FILL">
<path fill="#FFFFFF" stroke="none" d="
M -226.25 -20.8
Q -229 -17.9 -229 -13.7
L -229 -9.55
Q -229 -5.25 -226.25 -2.45 -223.45 0.35 -219.05 0.35 -214.65 0.35 -211.95 -2.45 -209.25 -5.2 -209.25 -9.55
L -209.25 -13.7
Q -209.25 -17.95 -212 -20.8 -214.7 -23.6 -219.1 -23.6 -223.45 -23.6 -226.25 -20.8
M -223.6 -9.55
L -223.6 -13.75
Q -223.6 -16.25 -222.45 -17.85 -221.25 -19.45 -219.1 -19.45 -216.95 -19.45 -215.8 -17.85 -214.6 -16.2 -214.6 -13.75
L -214.6 -9.55
Q -214.6 -7.05 -215.8 -5.4 -216.95 -3.8 -219.05 -3.8 -221.25 -3.8 -222.45 -5.4 -223.6 -7.1 -223.6 -9.55 Z"/>
</g>

<g id="DIY_Free_Support_728x90_psd_Asset_03_And_on_the_phone_0_Layer0_0_MEMBER_4_FILL">
<path fill="#FFFFFF" stroke="none" d="
M -200.7 -14.8
L -200.6 -14.8 -192.1 0 -186.7 0 -186.7 -23.25 -192.1 -23.25 -192.1 -8.45 -192.2 -8.45 -200.7 -23.25 -206.1 -23.25 -206.1 0 -200.7 0 -200.7 -14.8 Z"/>
</g>

<g id="DIY_Free_Support_728x90_psd_Asset_03_And_on_the_phone_0_Layer0_0_MEMBER_5_FILL">
<path fill="#FFFFFF" stroke="none" d="
M -176.3 -19.1
L -170.25 -19.1 -170.25 0 -164.8 0 -164.8 -19.1 -158.7 -19.1 -158.7 -23.25 -176.3 -23.25 -176.3 -19.1 Z"/>
</g>

<g id="DIY_Free_Support_728x90_psd_Asset_03_And_on_the_phone_0_Layer0_0_MEMBER_6_FILL">
<path fill="#FFFFFF" stroke="none" d="
M -151.1 -9.35
L -142.5 -9.35 -142.5 0 -137.1 0 -137.1 -23.25 -142.5 -23.25 -142.5 -13.5 -151.1 -13.5 -151.1 -23.25 -156.5 -23.25 -156.5 0 -151.1 0 -151.1 -9.35 Z"/>
</g>

<g id="DIY_Free_Support_728x90_psd_Asset_03_And_on_the_phone_0_Layer0_0_MEMBER_7_FILL">
<path fill="#FFFFFF" stroke="none" d="
M -128.05 -4.15
L -128.05 -9.95 -118.9 -9.95 -118.9 -14.1 -128.05 -14.1 -128.05 -19.1 -117.25 -19.1 -117.25 -23.25 -133.45 -23.25 -133.45 0 -117.3 0 -117.3 -4.15 -128.05 -4.15 Z"/>
</g>

<g id="DIY_Free_Support_728x90_psd_Asset_03_And_on_the_phone_0_Layer0_0_MEMBER_8_FILL">
<path fill="#FFFFFF" stroke="none" d="
M -97.25 -7.95
Q -93.1 -7.95 -90.7 -10.05 -88.3 -12.15 -88.3 -15.6 -88.3 -18.95 -90.7 -21.15 -93.1 -23.25 -97.25 -23.25
L -106.7 -23.25 -106.7 0 -101.3 0 -101.3 -7.95 -97.25 -7.95
M -101.3 -12.1
L -101.3 -19.1 -97.25 -19.1
Q -95.5 -19.1 -94.6 -18.1 -93.65 -17.05 -93.65 -15.55 -93.65 -14.15 -94.6 -13.1 -95.5 -12.1 -97.25 -12.1
L -101.3 -12.1 Z"/>
</g>

<g id="DIY_Free_Support_728x90_psd_Asset_03_And_on_the_phone_0_Layer0_0_MEMBER_9_FILL">
<path fill="#FFFFFF" stroke="none" d="
M -79.85 -9.35
L -71.2 -9.35 -71.2 0 -65.85 0 -65.85 -23.25 -71.2 -23.25 -71.2 -13.5 -79.85 -13.5 -79.85 -23.25 -85.25 -23.25 -85.25 0 -79.85 0 -79.85 -9.35 Z"/>
</g>

<g id="DIY_Free_Support_728x90_psd_Asset_03_And_on_the_phone_0_Layer0_0_MEMBER_10_FILL">
<path fill="#FFFFFF" stroke="none" d="
M -62.7 -13.7
L -62.7 -9.55
Q -62.7 -5.2 -59.95 -2.45 -57.2 0.35 -52.8 0.35 -48.4 0.35 -45.7 -2.45 -42.95 -5.2 -42.95 -9.55
L -42.95 -13.7
Q -42.95 -17.9 -45.7 -20.8 -48.5 -23.6 -52.85 -23.6 -57.2 -23.6 -60 -20.8 -62.7 -17.95 -62.7 -13.7
M -49.5 -17.85
Q -48.35 -16.15 -48.35 -13.75
L -48.35 -9.55
Q -48.35 -7.1 -49.5 -5.4 -50.7 -3.8 -52.8 -3.8 -55 -3.8 -56.15 -5.4 -57.35 -7.05 -57.35 -9.55
L -57.35 -13.75
Q -57.35 -16.25 -56.2 -17.85 -55 -19.45 -52.85 -19.45 -50.7 -19.45 -49.5 -17.85 Z"/>
</g>

<g id="DIY_Free_Support_728x90_psd_Asset_03_And_on_the_phone_0_Layer0_0_MEMBER_11_FILL">
<path fill="#FFFFFF" stroke="none" d="
M -34.4 -14.8
L -34.35 -14.8 -25.8 0 -20.45 0 -20.45 -23.25 -25.8 -23.25 -25.8 -8.45 -25.9 -8.45 -34.4 -23.25 -39.85 -23.25 -39.85 0 -34.4 0 -34.4 -14.8 Z"/>
</g>

<g id="DIY_Free_Support_728x90_psd_Asset_03_And_on_the_phone_0_Layer0_0_MEMBER_12_FILL">
<path fill="#FFFFFF" stroke="none" d="
M -0.6 -19.1
L -0.6 -23.25 -16.8 -23.25 -16.8 0 -0.6 0 -0.6 -4.15 -11.35 -4.15 -11.35 -9.95 -2.25 -9.95 -2.25 -14.1 -11.35 -14.1 -11.35 -19.1 -0.6 -19.1 Z"/>
</g>
</defs>

<g transform="matrix( 1, 0, 0, 1, -329,-286) ">
<g transform="matrix( 1, 0, 0, 1, 771,310) ">
<g transform="matrix( 0.66973876953125, 0, 0, 0.672821044921875, 203.4,15.65) ">
<use xlink:href="#DIY_Free_Support_728x90_psd_Asset_03_And_on_the_phone_0_Layer0_0_MEMBER_0_FILL"/>
</g>

<g transform="matrix( 0.66973876953125, 0, 0, 0.672821044921875, 203.4,15.65) ">
<use xlink:href="#DIY_Free_Support_728x90_psd_Asset_03_And_on_the_phone_0_Layer0_0_MEMBER_1_FILL"/>
</g>

<g transform="matrix( 0.66973876953125, 0, 0, 0.672821044921875, 203.4,15.65) ">
<use xlink:href="#DIY_Free_Support_728x90_psd_Asset_03_And_on_the_phone_0_Layer0_0_MEMBER_2_FILL"/>
</g>

<g transform="matrix( 0.66973876953125, 0, 0, 0.672821044921875, 203.4,15.65) ">
<use xlink:href="#DIY_Free_Support_728x90_psd_Asset_03_And_on_the_phone_0_Layer0_0_MEMBER_3_FILL"/>
</g>

<g transform="matrix( 0.66973876953125, 0, 0, 0.672821044921875, 203.4,15.65) ">
<use xlink:href="#DIY_Free_Support_728x90_psd_Asset_03_And_on_the_phone_0_Layer0_0_MEMBER_4_FILL"/>
</g>

<g transform="matrix( 0.66973876953125, 0, 0, 0.672821044921875, 203.4,15.65) ">
<use xlink:href="#DIY_Free_Support_728x90_psd_Asset_03_And_on_the_phone_0_Layer0_0_MEMBER_5_FILL"/>
</g>

<g transform="matrix( 0.66973876953125, 0, 0, 0.672821044921875, 203.4,15.65) ">
<use xlink:href="#DIY_Free_Support_728x90_psd_Asset_03_And_on_the_phone_0_Layer0_0_MEMBER_6_FILL"/>
</g>

<g transform="matrix( 0.66973876953125, 0, 0, 0.672821044921875, 203.4,15.65) ">
<use xlink:href="#DIY_Free_Support_728x90_psd_Asset_03_And_on_the_phone_0_Layer0_0_MEMBER_7_FILL"/>
</g>

<g transform="matrix( 0.66973876953125, 0, 0, 0.672821044921875, 203.4,15.65) ">
<use xlink:href="#DIY_Free_Support_728x90_psd_Asset_03_And_on_the_phone_0_Layer0_0_MEMBER_8_FILL"/>
</g>

<g transform="matrix( 0.66973876953125, 0, 0, 0.672821044921875, 203.4,15.65) ">
<use xlink:href="#DIY_Free_Support_728x90_psd_Asset_03_And_on_the_phone_0_Layer0_0_MEMBER_9_FILL"/>
</g>

<g transform="matrix( 0.66973876953125, 0, 0, 0.672821044921875, 203.4,15.65) ">
<use xlink:href="#DIY_Free_Support_728x90_psd_Asset_03_And_on_the_phone_0_Layer0_0_MEMBER_10_FILL"/>
</g>

<g transform="matrix( 0.66973876953125, 0, 0, 0.672821044921875, 203.4,15.65) ">
<use xlink:href="#DIY_Free_Support_728x90_psd_Asset_03_And_on_the_phone_0_Layer0_0_MEMBER_11_FILL"/>
</g>

<g transform="matrix( 0.66973876953125, 0, 0, 0.672821044921875, 203.4,15.65) ">
<use xlink:href="#DIY_Free_Support_728x90_psd_Asset_03_And_on_the_phone_0_Layer0_0_MEMBER_12_FILL"/>
</g>
</g>
</g>
</svg>
