
<svg xmlns="http://www.w3.org/2000/svg" version="1.1" xmlns:xlink="http://www.w3.org/1999/xlink" preserveAspectRatio="none" x="0px" y="0px" width="160px" height="600px" viewBox="0 0 160 600">
<defs>
<g id="DIY_Free_Support_160x600_psd_Asset_03_And_on_the_phone_0_Layer0_0_MEMBER_0_FILL">
<path fill="#FFFFFF" stroke="none" d="
M -114.9 -25.35
L -121.2 -25.35 -129.4 0 -123.45 0 -122.05 -4.95 -114.05 -4.95 -112.6 0 -106.7 0 -114.9 -25.35
M -120.75 -9.45
L -118.1 -18.55 -118 -18.55 -115.35 -9.45 -120.75 -9.45 Z"/>
</g>

<g id="DIY_Free_Support_160x600_psd_Asset_03_And_on_the_phone_0_Layer0_0_MEMBER_1_FILL">
<path fill="#FFFFFF" stroke="none" d="
M -99 -16.15
L -98.9 -16.15 -89.6 0 -83.7 0 -83.7 -25.35 -89.6 -25.35 -89.6 -9.25 -89.7 -9.2 -99 -25.35 -104.9 -25.35 -104.9 0 -99 0 -99 -16.15 Z"/>
</g>

<g id="DIY_Free_Support_160x600_psd_Asset_03_And_on_the_phone_0_Layer0_0_MEMBER_2_FILL">
<path fill="#FFFFFF" stroke="none" d="
M -70.55 -25.35
L -79.75 -25.35 -79.75 0 -70.55 0
Q -66.05 0 -63.1 -2.9 -60.05 -5.85 -60.05 -10.4
L -60.05 -14.95
Q -60.05 -19.45 -63.1 -22.45 -66.05 -25.35 -70.55 -25.35
M -73.85 -20.85
L -71 -20.85
Q -68.65 -20.85 -67.3 -19.25 -66 -17.65 -66 -15
L -66 -10.4
Q -66 -7.65 -67.3 -6.15 -68.6 -4.55 -71 -4.55
L -73.85 -4.55 -73.85 -20.85 Z"/>
</g>

<g id="DIY_Free_Support_160x600_psd_Asset_03_And_on_the_phone_0_Layer0_0_MEMBER_3_FILL">
<path fill="#FFFFFF" stroke="none" d="
M -48.1 -10.4
Q -48.1 -5.65 -45.15 -2.65 -42.15 0.35 -37.3 0.35 -32.55 0.35 -29.55 -2.65 -26.6 -5.65 -26.6 -10.4
L -26.6 -14.95
Q -26.6 -19.6 -29.55 -22.7 -32.6 -25.75 -37.35 -25.75 -42.1 -25.75 -45.15 -22.7 -48.1 -19.65 -48.1 -14.95
L -48.1 -10.4
M -42.25 -15
Q -42.25 -17.75 -41 -19.45 -39.7 -21.2 -37.35 -21.2 -35.05 -21.2 -33.75 -19.45 -32.45 -17.8 -32.45 -15
L -32.45 -10.4
Q -32.45 -7.6 -33.7 -5.9 -35 -4.15 -37.3 -4.15 -39.65 -4.15 -40.95 -5.9 -42.25 -7.55 -42.25 -10.4
L -42.25 -15 Z"/>
</g>

<g id="DIY_Free_Support_160x600_psd_Asset_03_And_on_the_phone_0_Layer0_0_MEMBER_4_FILL">
<path fill="#FFFFFF" stroke="none" d="
M -17.25 -16.15
L -17.15 -16.15 -7.85 0 -2 0 -2 -25.35 -7.85 -25.35 -7.85 -9.25 -8 -9.2 -17.25 -25.35 -23.15 -25.35 -23.15 0 -17.25 0 -17.25 -16.15 Z"/>
</g>

<g id="DIY_Free_Support_160x600_psd_Asset_03_And_on_the_phone_0_Layer0_0_MEMBER_5_FILL">
<path fill="#FFFFFF" stroke="none" d="
M -173.1 14.85
L -173.1 10.3 -192.35 10.3 -192.35 14.85 -185.7 14.85 -185.7 35.65 -179.8 35.65 -179.8 14.85 -173.1 14.85 Z"/>
</g>

<g id="DIY_Free_Support_160x600_psd_Asset_03_And_on_the_phone_0_Layer0_0_MEMBER_6_FILL">
<path fill="#FFFFFF" stroke="none" d="
M -149.55 35.65
L -149.55 10.3 -155.45 10.3 -155.45 20.95 -164.8 20.95 -164.8 10.3 -170.7 10.3 -170.7 35.65 -164.8 35.65 -164.8 25.45 -155.45 25.45 -155.45 35.65 -149.55 35.65 Z"/>
</g>

<g id="DIY_Free_Support_160x600_psd_Asset_03_And_on_the_phone_0_Layer0_0_MEMBER_7_FILL">
<path fill="#FFFFFF" stroke="none" d="
M -129.7 20.3
L -139.65 20.3 -139.65 14.85 -127.9 14.85 -127.9 10.3 -145.55 10.3 -145.55 35.65 -127.95 35.65 -127.95 31.15 -139.65 31.15 -139.65 24.8 -129.7 24.8 -129.7 20.3 Z"/>
</g>

<g id="DIY_Free_Support_160x600_psd_Asset_03_And_on_the_phone_0_Layer0_0_MEMBER_8_FILL">
<path fill="#FFFFFF" stroke="none" d="
M -98.95 24.7
Q -96.3 22.35 -96.3 18.65 -96.3 14.95 -98.95 12.6 -101.65 10.3 -106.1 10.3
L -116.4 10.3 -116.4 35.65 -110.5 35.65 -110.5 27 -106.1 27
Q -101.65 27 -98.95 24.7
M -110.5 22.45
L -110.5 14.85 -106.1 14.85
Q -104.15 14.85 -103.2 15.9 -102.2 16.95 -102.2 18.7 -102.2 20.4 -103.2 21.4 -104.15 22.45 -106.1 22.45
L -110.5 22.45 Z"/>
</g>

<g id="DIY_Free_Support_160x600_psd_Asset_03_And_on_the_phone_0_Layer0_0_MEMBER_9_FILL">
<path fill="#FFFFFF" stroke="none" d="
M -71.85 35.65
L -71.85 10.3 -77.7 10.3 -77.7 20.95 -87.1 20.95 -87.1 10.3 -93 10.3 -93 35.65 -87.1 35.65 -87.1 25.45 -77.7 25.45 -77.7 35.65 -71.85 35.65 Z"/>
</g>

<g id="DIY_Free_Support_160x600_psd_Asset_03_And_on_the_phone_0_Layer0_0_MEMBER_10_FILL">
<path fill="#FFFFFF" stroke="none" d="
M -46.85 20.7
Q -46.85 16.1 -49.85 13 -52.8 9.95 -57.65 9.95 -62.45 9.95 -65.45 13 -68.4 16.1 -68.4 20.7
L -68.4 25.25
Q -68.4 29.95 -65.4 33 -62.35 36.05 -57.6 36.05 -52.8 36.05 -49.85 33 -46.85 29.95 -46.85 25.25
L -46.85 20.7
M -54 16.2
Q -52.75 17.95 -52.75 20.65
L -52.75 25.25
Q -52.75 28.05 -54 29.75 -55.25 31.5 -57.6 31.5 -60 31.5 -61.25 29.75 -62.55 28 -62.55 25.25
L -62.55 20.65
Q -62.55 18 -61.3 16.2 -60 14.45 -57.65 14.45 -55.3 14.45 -54 16.2 Z"/>
</g>

<g id="DIY_Free_Support_160x600_psd_Asset_03_And_on_the_phone_0_Layer0_0_MEMBER_11_FILL">
<path fill="#FFFFFF" stroke="none" d="
M -22.3 10.3
L -28.15 10.3 -28.15 26.45 -28.25 26.45 -37.55 10.3 -43.45 10.3 -43.45 35.65 -37.55 35.65 -37.55 19.55 -37.45 19.5 -28.15 35.65 -22.3 35.65 -22.3 10.3 Z"/>
</g>

<g id="DIY_Free_Support_160x600_psd_Asset_03_And_on_the_phone_0_Layer0_0_MEMBER_12_FILL">
<path fill="#FFFFFF" stroke="none" d="
M -2.45 20.3
L -12.4 20.3 -12.4 14.85 -0.65 14.85 -0.65 10.3 -18.3 10.3 -18.3 35.65 -0.7 35.65 -0.7 31.15 -12.4 31.15 -12.4 24.8 -2.45 24.8 -2.45 20.3 Z"/>
</g>
</defs>

<g transform="matrix( 1, 0, 0, 1, -1050,-536) ">
<g transform="matrix( 1, 0, 0, 1, 1067,688) ">
<g transform="matrix( 0.66973876953125, 0, 0, 0.672821044921875, 129.4,16.65) ">
<use xlink:href="#DIY_Free_Support_160x600_psd_Asset_03_And_on_the_phone_0_Layer0_0_MEMBER_0_FILL"/>
</g>

<g transform="matrix( 0.66973876953125, 0, 0, 0.672821044921875, 129.4,16.65) ">
<use xlink:href="#DIY_Free_Support_160x600_psd_Asset_03_And_on_the_phone_0_Layer0_0_MEMBER_1_FILL"/>
</g>

<g transform="matrix( 0.66973876953125, 0, 0, 0.672821044921875, 129.4,16.65) ">
<use xlink:href="#DIY_Free_Support_160x600_psd_Asset_03_And_on_the_phone_0_Layer0_0_MEMBER_2_FILL"/>
</g>

<g transform="matrix( 0.66973876953125, 0, 0, 0.672821044921875, 129.4,16.65) ">
<use xlink:href="#DIY_Free_Support_160x600_psd_Asset_03_And_on_the_phone_0_Layer0_0_MEMBER_3_FILL"/>
</g>

<g transform="matrix( 0.66973876953125, 0, 0, 0.672821044921875, 129.4,16.65) ">
<use xlink:href="#DIY_Free_Support_160x600_psd_Asset_03_And_on_the_phone_0_Layer0_0_MEMBER_4_FILL"/>
</g>

<g transform="matrix( 0.66973876953125, 0, 0, 0.672821044921875, 129.4,16.65) ">
<use xlink:href="#DIY_Free_Support_160x600_psd_Asset_03_And_on_the_phone_0_Layer0_0_MEMBER_5_FILL"/>
</g>

<g transform="matrix( 0.66973876953125, 0, 0, 0.672821044921875, 129.4,16.65) ">
<use xlink:href="#DIY_Free_Support_160x600_psd_Asset_03_And_on_the_phone_0_Layer0_0_MEMBER_6_FILL"/>
</g>

<g transform="matrix( 0.66973876953125, 0, 0, 0.672821044921875, 129.4,16.65) ">
<use xlink:href="#DIY_Free_Support_160x600_psd_Asset_03_And_on_the_phone_0_Layer0_0_MEMBER_7_FILL"/>
</g>

<g transform="matrix( 0.66973876953125, 0, 0, 0.672821044921875, 129.4,16.65) ">
<use xlink:href="#DIY_Free_Support_160x600_psd_Asset_03_And_on_the_phone_0_Layer0_0_MEMBER_8_FILL"/>
</g>

<g transform="matrix( 0.66973876953125, 0, 0, 0.672821044921875, 129.4,16.65) ">
<use xlink:href="#DIY_Free_Support_160x600_psd_Asset_03_And_on_the_phone_0_Layer0_0_MEMBER_9_FILL"/>
</g>

<g transform="matrix( 0.66973876953125, 0, 0, 0.672821044921875, 129.4,16.65) ">
<use xlink:href="#DIY_Free_Support_160x600_psd_Asset_03_And_on_the_phone_0_Layer0_0_MEMBER_10_FILL"/>
</g>

<g transform="matrix( 0.66973876953125, 0, 0, 0.672821044921875, 129.4,16.65) ">
<use xlink:href="#DIY_Free_Support_160x600_psd_Asset_03_And_on_the_phone_0_Layer0_0_MEMBER_11_FILL"/>
</g>

<g transform="matrix( 0.66973876953125, 0, 0, 0.672821044921875, 129.4,16.65) ">
<use xlink:href="#DIY_Free_Support_160x600_psd_Asset_03_And_on_the_phone_0_Layer0_0_MEMBER_12_FILL"/>
</g>
</g>
</g>
</svg>
