<?xml version="1.0" encoding="utf-8"?>
<!-- Generator: Adobe Illustrator 19.2.1, SVG Export Plug-In . SVG Version: 6.00 Build 0)  -->
<svg version="1.1" id="Layer_1" xmlns="http://www.w3.org/2000/svg" xmlns:xlink="http://www.w3.org/1999/xlink" x="0px" y="0px"
	 viewBox="0 0 728 90" style="enable-background:new 0 0 728 90;" xml:space="preserve">
<style type="text/css">
	.st0{fill:#FFFFFF;}
</style>
<g transform="matrix( 1, 0, 0, 1, 0,-286) ">
	<g transform="matrix( 1, 0, 0, 1, 224,307) ">
		<g transform="matrix( 0.66973876953125, 0, 0, 0.672821044921875, -1.6,21.65) ">
			<g>
				<g id="DIY_Free_Support_728x90_psd_Asset_04_Free_filing___Free_support__0_Layer0_0_MEMBER_0_FILL">
					<path class="st0" d="M21.8-12.4v-5.4H9.5v-7.4h14.4v-5.5H2.4V0h7.1v-12.4H21.8z"/>
				</g>
			</g>
		</g>
		<g transform="matrix( 0.66973876953125, 0, 0, 0.672821044921875, -1.6,21.65) ">
			<g>
				<g id="DIY_Free_Support_728x90_psd_Asset_04_Free_filing___Free_support__0_Layer0_0_MEMBER_1_FILL">
					<path class="st0" d="M35-11.8H40c1.5,0,2.6,0.4,3.3,1.1c0.8,0.8,1.2,1.9,1.2,3.4v1.8c0,1,0.1,2,0.3,3.1
						c0.1,1.1,0.5,1.8,1.1,2.3h7.3v-0.4c-0.6-0.4-1-1.2-1.3-2.2c-0.2-1.2-0.4-2.2-0.4-2.8v-2c0-1.9-0.4-3.4-1.2-4.6
						c-0.8-1.2-2.2-2.1-4-2.7c1.6-0.7,2.8-1.6,3.7-2.8c0.8-1.2,1.3-2.6,1.3-4.1c0-2.8-1-5.1-3.1-6.8c-2.1-1.6-4.9-2.4-8.5-2.4H27.9
						V0H35V-11.8 M35-17.2v-7.9h4.6c1.5,0,2.6,0.4,3.3,1.1c0.8,0.8,1.2,1.8,1.2,3c0,1.2-0.4,2.1-1.2,2.8c-0.8,0.7-1.9,1-3.3,1H35z"
						/>
				</g>
			</g>
		</g>
		<g transform="matrix( 0.66973876953125, 0, 0, 0.672821044921875, -1.6,21.65) ">
			<g>
				<g id="DIY_Free_Support_728x90_psd_Asset_04_Free_filing___Free_support__0_Layer0_0_MEMBER_2_FILL">
					<path class="st0" d="M64.3-25.2h14.2v-5.5H57.2V0h21.3v-5.5H64.3v-7.7h12v-5.5h-12V-25.2z"/>
				</g>
			</g>
		</g>
		<g transform="matrix( 0.66973876953125, 0, 0, 0.672821044921875, -1.6,21.65) ">
			<g>
				<g id="DIY_Free_Support_728x90_psd_Asset_04_Free_filing___Free_support__0_Layer0_0_MEMBER_3_FILL">
					<path class="st0" d="M104.3-25.2v-5.5H83V0h21.3v-5.5H90.1v-7.7h12v-5.5h-12v-6.5H104.3z"/>
				</g>
			</g>
		</g>
		<g transform="matrix( 0.66973876953125, 0, 0, 0.672821044921875, -1.6,21.65) ">
			<g>
				<g id="DIY_Free_Support_728x90_psd_Asset_04_Free_filing___Free_support__0_Layer0_0_MEMBER_4_FILL">
					<path class="st0" d="M139.8-12.4v-5.4h-12.3v-7.4h14.4v-5.5h-21.5V0h7.1v-12.4H139.8z"/>
				</g>
			</g>
		</g>
		<g transform="matrix( 0.66973876953125, 0, 0, 0.672821044921875, -1.6,21.65) ">
			<g>
				<g id="DIY_Free_Support_728x90_psd_Asset_04_Free_filing___Free_support__0_Layer0_0_MEMBER_5_FILL">
					<path class="st0" d="M153.2-30.7h-7.1V0h7.1V-30.7z"/>
				</g>
			</g>
		</g>
		<g transform="matrix( 0.66973876953125, 0, 0, 0.672821044921875, -1.6,21.65) ">
			<g>
				<g id="DIY_Free_Support_728x90_psd_Asset_04_Free_filing___Free_support__0_Layer0_0_MEMBER_6_FILL">
					<path class="st0" d="M166.3-5.5v-25.2h-7.1V0h20.3v-5.5H166.3z"/>
				</g>
			</g>
		</g>
		<g transform="matrix( 0.66973876953125, 0, 0, 0.672821044921875, -1.6,21.65) ">
			<g>
				<g id="DIY_Free_Support_728x90_psd_Asset_04_Free_filing___Free_support__0_Layer0_0_MEMBER_7_FILL">
					<path class="st0" d="M190.8-30.7h-7.1V0h7.1V-30.7z"/>
				</g>
			</g>
		</g>
		<g transform="matrix( 0.66973876953125, 0, 0, 0.672821044921875, -1.6,21.65) ">
			<g>
				<g id="DIY_Free_Support_728x90_psd_Asset_04_Free_filing___Free_support__0_Layer0_0_MEMBER_8_FILL">
					<path class="st0" d="M203.9-19.5l0.1,0L215.2,0h7.1v-30.7h-7.1v19.5l-0.1,0l-11.2-19.5h-7.1V0h7.1V-19.5z"/>
				</g>
			</g>
		</g>
		<g transform="matrix( 0.66973876953125, 0, 0, 0.672821044921875, -1.6,21.65) ">
			<g>
				<g id="DIY_Free_Support_728x90_psd_Asset_04_Free_filing___Free_support__0_Layer0_0_MEMBER_9_FILL">
					<path class="st0" d="M239.7-31.1c-3.6,0-6.6,1.2-8.9,3.6c-2.3,2.3-3.4,5.3-3.4,9v6.4c0,3.7,1.2,6.7,3.5,9.1
						c2.3,2.3,5.4,3.5,9.3,3.5c2.9,0,5.4-0.5,7.4-1.4c2-0.9,3.5-2,4.5-3.3v-11.5h-11.9v4.7h4.8v4.9c-0.5,0.4-1.1,0.7-1.8,0.8
						s-1.8,0.3-3.1,0.3c-1.8,0-3.2-0.7-4.2-1.9c-1-1.2-1.5-2.9-1.5-5.1v-6.4c0-2.1,0.5-3.8,1.5-5.1c1.1-1.3,2.4-2,4-2
						c1.7,0,2.9,0.4,3.7,1.2c0.8,0.8,1.3,2,1.6,3.6h6.6l0.1-0.1c-0.3-3.1-1.4-5.6-3.3-7.5C246.6-30.2,243.6-31.1,239.7-31.1z"/>
				</g>
			</g>
		</g>
		<g transform="matrix( 0.66973876953125, 0, 0, 0.672821044921875, -1.6,21.65) ">
			<g>
				<g id="DIY_Free_Support_728x90_psd_Asset_04_Free_filing___Free_support__0_Layer0_0_MEMBER_10_FILL">
					<path class="st0" d="M279.5-31.1c-2.6,0-4.7,0.8-6.3,2.3c-1.6,1.6-2.4,3.6-2.4,6c0,1.1,0.2,2.2,0.6,3.2c0.5,1.1,1.1,2.3,2,3.5
						l0,0c-1.9,1.4-3.2,2.7-4,3.7c-0.9,1.2-1.3,2.6-1.3,4.1c0,2.6,0.9,4.7,2.7,6.3s4.2,2.4,7.3,2.4c1.4,0,2.7-0.2,4-0.6
						c1.2-0.3,2.4-0.9,3.7-1.7l1.6,1.8h7.8l0-0.1l-4.6-5.4c1-1.2,1.7-2.7,2.1-4.4c0.4-1.8,0.6-3.6,0.6-5.5h-5c0,1-0.1,1.9-0.4,3
						c-0.3,1-0.7,1.9-1.1,2.6l-5.1-5.9l1.8-1.3c1.1-0.8,2-1.8,2.6-2.9c0.6-1.1,1-2.4,1-3.8c0-2-0.7-3.8-2.1-5.3
						C283.6-30.4,281.7-31.1,279.5-31.1 M279.5-25.6c0.7,0,1.2,0.2,1.7,0.7c0.4,0.5,0.6,1.1,0.6,1.7c0,0.6-0.1,1.1-0.4,1.6
						c-0.3,0.5-0.9,1-1.6,1.5l-1.3,0.8c-0.6-0.7-1-1.4-1.2-1.9c-0.3-0.5-0.4-1.1-0.4-1.7c0-0.8,0.2-1.4,0.7-2
						C278.1-25.4,278.7-25.6,279.5-25.6 M278.7-5.1c-1,0-1.8-0.3-2.4-1s-0.9-1.5-0.9-2.6c0-0.7,0.1-1.3,0.3-1.8
						c0.1-0.4,0.4-0.9,0.9-1.6l0.2-0.1l5.6,6.3c-0.5,0.3-1.1,0.5-1.8,0.6L278.7-5.1z"/>
				</g>
			</g>
		</g>
		<g transform="matrix( 0.66973876953125, 0, 0, 0.672821044921875, -1.6,21.65) ">
			<g>
				<g id="DIY_Free_Support_728x90_psd_Asset_04_Free_filing___Free_support__0_Layer0_0_MEMBER_11_FILL">
					<path class="st0" d="M318.4-17.8v-7.4h14.4v-5.5h-21.5V0h7.1v-12.4h12.3v-5.4H318.4z"/>
				</g>
			</g>
		</g>
		<g transform="matrix( 0.66973876953125, 0, 0, 0.672821044921875, -1.6,21.65) ">
			<g>
				<g id="DIY_Free_Support_728x90_psd_Asset_04_Free_filing___Free_support__0_Layer0_0_MEMBER_12_FILL">
					<path class="st0" d="M357-28.2c-2.1-1.6-4.9-2.4-8.4-2.4h-11.8V0h7.2v-11.8h4.9c1.4,0,2.6,0.4,3.4,1.1c0.8,0.8,1.1,1.9,1.1,3.4
						v1.8c0,0.8,0.1,1.9,0.3,3.1c0.2,1.1,0.6,1.9,1.1,2.3h7.4v-0.4c-0.6-0.4-1-1.2-1.3-2.2c-0.2-1-0.4-1.9-0.4-2.8v-2
						c0-1.8-0.4-3.3-1.3-4.6c-0.8-1.2-2.1-2.1-4-2.7c1.6-0.7,2.8-1.6,3.7-2.8c0.8-1.1,1.3-2.5,1.3-4.1
						C360.1-24.3,359.1-26.5,357-28.2 M351.9-18.2c-0.8,0.7-1.8,1-3.3,1h-4.7v-7.9h4.6c1.4,0,2.5,0.4,3.3,1.1s1.1,1.8,1.1,3
						C353-19.8,352.7-18.9,351.9-18.2z"/>
				</g>
			</g>
		</g>
		<g transform="matrix( 0.66973876953125, 0, 0, 0.672821044921875, -1.6,21.65) ">
			<g>
				<g id="DIY_Free_Support_728x90_psd_Asset_04_Free_filing___Free_support__0_Layer0_0_MEMBER_13_FILL">
					<path class="st0" d="M387.4-25.2v-5.5H366V0h21.3v-5.5h-14.1v-7.7h12v-5.5h-12v-6.5H387.4z"/>
				</g>
			</g>
		</g>
		<g transform="matrix( 0.66973876953125, 0, 0, 0.672821044921875, -1.6,21.65) ">
			<g>
				<g id="DIY_Free_Support_728x90_psd_Asset_04_Free_filing___Free_support__0_Layer0_0_MEMBER_14_FILL">
					<path class="st0" d="M399-5.5v-7.7h12v-5.5h-12v-6.5h14.2v-5.5h-21.3V0h21.3v-5.5H399z"/>
				</g>
			</g>
		</g>
		<g transform="matrix( 0.66973876953125, 0, 0, 0.672821044921875, -1.6,21.65) ">
			<g>
				<g id="DIY_Free_Support_728x90_psd_Asset_04_Free_filing___Free_support__0_Layer0_0_MEMBER_15_FILL">
					<path class="st0" d="M441-31.1c-3.4,0-6.3,0.8-8.5,2.4c-2.2,1.6-3.3,3.7-3.3,6.2c0,2.7,0.9,4.7,2.8,6c1.9,1.4,4.8,2.8,8.6,4
						c1.8,0.6,3.1,1.3,3.9,1.9c0.7,0.6,1.1,1.5,1.1,2.5c0,0.9-0.4,1.7-1.1,2.3c-0.7,0.6-1.8,0.9-3.3,0.9c-1.9,0-3.4-0.4-4.4-1.2
						c-0.9-0.7-1.4-2-1.4-3.8h-6.9l-0.1,0.2c0,3.2,1.2,5.7,3.7,7.5c2.6,1.8,5.6,2.7,9,2.7c3.5,0,6.3-0.8,8.4-2.3
						c2.1-1.5,3.1-3.6,3.1-6.3c0-2.7-0.9-4.7-2.6-6.3c-1.7-1.5-4.3-2.8-7.9-3.9c-2.2-0.8-3.8-1.4-4.6-2c-0.8-0.5-1.2-1.2-1.2-2.2
						c0-0.9,0.4-1.7,1.2-2.3c0.8-0.6,1.9-1,3.4-1c1.5,0,2.6,0.4,3.4,1.2c0.8,0.7,1.2,1.7,1.3,2.9h6.9l0-0.1c0.1-2.7-1-5-3.1-6.8
						C447.2-30.2,444.4-31.1,441-31.1z"/>
				</g>
			</g>
		</g>
		<g transform="matrix( 0.66973876953125, 0, 0, 0.672821044921875, -1.6,21.65) ">
			<g>
				<g id="DIY_Free_Support_728x90_psd_Asset_04_Free_filing___Free_support__0_Layer0_0_MEMBER_16_FILL">
					<path class="st0" d="M482.2-30.7h-7.1v20.1c0,1.9-0.5,3.3-1.4,4.2c-0.9,0.9-2.3,1.3-4.1,1.3s-3.1-0.4-4.1-1.3
						c-1-0.9-1.4-2.3-1.4-4.2v-20.1h-7.1v20.1c0,3.5,1.2,6.2,3.5,8.1c2.3,1.9,5.3,2.9,9.2,2.9c3.8,0,6.8-1,9.1-2.9
						c2.3-1.9,3.5-4.6,3.5-8.1V-30.7z"/>
				</g>
			</g>
		</g>
		<g transform="matrix( 0.66973876953125, 0, 0, 0.672821044921875, -1.6,21.65) ">
			<g>
				<g id="DIY_Free_Support_728x90_psd_Asset_04_Free_filing___Free_support__0_Layer0_0_MEMBER_17_FILL">
					<path class="st0" d="M500.3-30.7h-12.4V0h7.1v-10.5h5.3c3.6,0,6.5-0.9,8.7-2.8c2.1-1.9,3.2-4.3,3.2-7.3s-1.1-5.4-3.2-7.3
						C506.8-29.7,503.9-30.7,500.3-30.7 M495-25.2h5.3c1.6,0,2.7,0.4,3.5,1.3c0.8,0.9,1.2,2,1.2,3.4c0,1.3-0.4,2.4-1.2,3.3
						c-0.8,0.9-2,1.3-3.5,1.3H495V-25.2z"/>
				</g>
			</g>
		</g>
		<g transform="matrix( 0.66973876953125, 0, 0, 0.672821044921875, -1.6,21.65) ">
			<g>
				<g id="DIY_Free_Support_728x90_psd_Asset_04_Free_filing___Free_support__0_Layer0_0_MEMBER_18_FILL">
					<path class="st0" d="M537.6-27.9c-2.2-1.9-5-2.8-8.6-2.8h-12.5V0h7.2v-10.5h5.3c3.6,0,6.5-0.9,8.6-2.8c2.1-1.8,3.2-4.3,3.2-7.3
						S539.7-26,537.6-27.9 M523.6-16v-9.2h5.3c1.6,0,2.7,0.4,3.5,1.3c0.8,0.8,1.3,2,1.3,3.4c0,1.3-0.4,2.4-1.3,3.3
						c-0.8,0.9-2,1.3-3.5,1.3H523.6z"/>
				</g>
			</g>
		</g>
		<g transform="matrix( 0.66973876953125, 0, 0, 0.672821044921875, -1.6,21.65) ">
			<g>
				<g id="DIY_Free_Support_728x90_psd_Asset_04_Free_filing___Free_support__0_Layer0_0_MEMBER_19_FILL">
					<path class="st0" d="M557.8-31.1c-3.8,0-7,1.2-9.4,3.7c-2.4,2.5-3.6,5.6-3.6,9.3v5.6c0,3.8,1.2,6.9,3.7,9.3
						c2.4,2.5,5.6,3.7,9.5,3.7c3.8,0,7-1.2,9.3-3.7c2.4-2.4,3.6-5.5,3.6-9.3v-5.6c0-3.8-1.2-6.9-3.6-9.3
						C564.8-29.9,561.7-31.1,557.8-31.1 M563.7-18.1v5.6c0,2.2-0.5,4-1.5,5.4c-1,1.4-2.4,2.1-4.3,2.1c-1.9,0-3.4-0.7-4.5-2.1
						c-1-1.4-1.5-3.2-1.5-5.4v-5.6c0-2.2,0.5-4,1.5-5.4c1-1.4,2.5-2.1,4.4-2.1c1.9,0,3.3,0.7,4.4,2.1
						C563.2-22.1,563.7-20.3,563.7-18.1z"/>
				</g>
			</g>
		</g>
		<g transform="matrix( 0.66973876953125, 0, 0, 0.672821044921875, -1.6,21.65) ">
			<g>
				<g id="DIY_Free_Support_728x90_psd_Asset_04_Free_filing___Free_support__0_Layer0_0_MEMBER_20_FILL">
					<path class="st0" d="M596-28.2c-2.1-1.6-5-2.4-8.5-2.4h-11.8V0h7.2v-11.8h4.9c1.4,0,2.6,0.4,3.4,1.1c0.8,0.8,1.1,1.9,1.1,3.4
						v1.8c0,1.2,0.1,2.2,0.3,3.1c0.2,1.1,0.6,1.9,1.1,2.3h7.3v-0.4c-0.6-0.4-1-1.2-1.3-2.2c-0.2-1-0.3-1.9-0.3-2.8v-2
						c0-1.8-0.4-3.3-1.3-4.6c-0.8-1.2-2.2-2.1-4-2.7c1.6-0.7,2.8-1.6,3.7-2.8c0.8-1.1,1.3-2.5,1.3-4.1
						C599.1-24.3,598.1-26.5,596-28.2 M590.8-18.2c-0.8,0.7-1.8,1-3.3,1h-4.7v-7.9h4.6c1.4,0,2.5,0.4,3.3,1.1s1.2,1.8,1.2,3
						C592-19.8,591.6-18.9,590.8-18.2z"/>
				</g>
			</g>
		</g>
		<g transform="matrix( 0.66973876953125, 0, 0, 0.672821044921875, -1.6,21.65) ">
			<g>
				<g id="DIY_Free_Support_728x90_psd_Asset_04_Free_filing___Free_support__0_Layer0_0_MEMBER_21_FILL">
					<path class="st0" d="M602.8-30.7v5.5h8V0h7.2v-25.2h8v-5.5H602.8z"/>
				</g>
			</g>
		</g>
		<g transform="matrix( 0.66973876953125, 0, 0, 0.672821044921875, -1.6,21.65) ">
			<g>
				<g id="DIY_Free_Support_728x90_psd_Asset_04_Free_filing___Free_support__0_Layer0_0_MEMBER_22_FILL">
					<path class="st0" d="M643.1-24.5l0.6-8.4H639l0.5,8.2l-6.9-3l-1.4,4.3l7.1,2.1l-5,6.3l3.8,2.6l4-6.6l4.1,6.8l3.8-2.7L644-21
						l7.3-2.1l-1.4-4.4L643.1-24.5z"/>
				</g>
			</g>
		</g>
	</g>
</g>
</svg>
