<?xml version="1.0" encoding="utf-8"?>
<!-- Generator: Adobe Illustrator 19.2.1, SVG Export Plug-In . SVG Version: 6.00 Build 0)  -->
<svg version="1.1" id="Layer_1" xmlns="http://www.w3.org/2000/svg" xmlns:xlink="http://www.w3.org/1999/xlink" x="0px" y="0px"
	 viewBox="0 0 300 600" style="enable-background:new 0 0 300 600;" xml:space="preserve">
<style type="text/css">
	.st0{fill:#FFFFFF;}
</style>
<g transform="matrix( 1, 0, 0, 1, -664,-536) ">
	<g transform="matrix( 1, 0, 0, 1, 685,774) ">
		<g transform="matrix( 0.66973876953125, 0, 0, 0.672821044921875, -1.6,31.65) ">
			<g>
				<g id="DIY_Free_Support_300x600_psd_Asset_04_Free_filing___Free__support__0_Layer0_0_MEMBER_0_FILL">
					<path class="st0" d="M33.8-19.2v-8.5h-19v-11.4h22.3v-8.5H3.7V0h11.1v-19.2H33.8z"/>
				</g>
			</g>
		</g>
		<g transform="matrix( 0.66973876953125, 0, 0, 0.672821044921875, -1.6,31.65) ">
			<g>
				<g id="DIY_Free_Support_300x600_psd_Asset_04_Free_filing___Free__support__0_Layer0_0_MEMBER_1_FILL">
					<path class="st0" d="M74.3-43.8c-3.2-2.5-7.6-3.8-13.1-3.8H42.9V0h11v-18.2h7.6c2.3,0,4.1,0.6,5.3,1.8c1.2,1.2,1.8,2.9,1.8,5.2
						v2.9c0,1.7,0.1,3.3,0.4,4.8c0.2,1.7,0.8,2.9,1.7,3.6h11.3v-0.6c-0.9-0.7-1.6-1.9-1.9-3.4c-0.4-1.7-0.5-3.1-0.5-4.3v-3
						c0-2.8-0.6-5.2-1.9-7.2c-1.3-1.9-3.4-3.3-6.3-4.1c2.5-1.1,4.5-2.5,5.8-4.3c1.3-1.8,1.9-3.9,1.9-6.4
						C79.1-37.7,77.5-41.2,74.3-43.8 M66.3-28.3c-1.1,1-2.8,1.5-5.1,1.5h-7.3v-12.4h7.2c2.2,0,3.9,0.6,5.1,1.8
						c1.2,1.2,1.8,2.8,1.8,4.7S67.5-29.2,66.3-28.3z"/>
				</g>
			</g>
		</g>
		<g transform="matrix( 0.66973876953125, 0, 0, 0.672821044921875, -1.6,31.65) ">
			<g>
				<g id="DIY_Free_Support_300x600_psd_Asset_04_Free_filing___Free__support__0_Layer0_0_MEMBER_2_FILL">
					<path class="st0" d="M120.9-39.1v-8.5H87.8V0h33v-8.5H98.9v-11.9h18.6v-8.5H98.9v-10.2H120.9z"/>
				</g>
			</g>
		</g>
		<g transform="matrix( 0.66973876953125, 0, 0, 0.672821044921875, -1.6,31.65) ">
			<g>
				<g id="DIY_Free_Support_300x600_psd_Asset_04_Free_filing___Free__support__0_Layer0_0_MEMBER_3_FILL">
					<path class="st0" d="M160.6-39.1v-8.5h-33.1V0h33v-8.5h-21.9v-11.9h18.6v-8.5h-18.6v-10.2H160.6z"/>
				</g>
			</g>
		</g>
		<g transform="matrix( 0.66973876953125, 0, 0, 0.672821044921875, -1.6,31.65) ">
			<g>
				<g id="DIY_Free_Support_300x600_psd_Asset_04_Free_filing___Free__support__0_Layer0_0_MEMBER_4_FILL">
					<path class="st0" d="M196.6-27.7v-11.4h22.3v-8.5h-33.4V0h11.1v-19.2h19v-8.5H196.6z"/>
				</g>
			</g>
		</g>
		<g transform="matrix( 0.66973876953125, 0, 0, 0.672821044921875, -1.6,31.65) ">
			<g>
				<g id="DIY_Free_Support_300x600_psd_Asset_04_Free_filing___Free__support__0_Layer0_0_MEMBER_5_FILL">
					<path class="st0" d="M236-47.6h-11V0h11V-47.6z"/>
				</g>
			</g>
		</g>
		<g transform="matrix( 0.66973876953125, 0, 0, 0.672821044921875, -1.6,31.65) ">
			<g>
				<g id="DIY_Free_Support_300x600_psd_Asset_04_Free_filing___Free__support__0_Layer0_0_MEMBER_6_FILL">
					<path class="st0" d="M255.9-8.5v-39.1h-11.1V0h31.5v-8.5H255.9z"/>
				</g>
			</g>
		</g>
		<g transform="matrix( 0.66973876953125, 0, 0, 0.672821044921875, -1.6,31.65) ">
			<g>
				<g id="DIY_Free_Support_300x600_psd_Asset_04_Free_filing___Free__support__0_Layer0_0_MEMBER_7_FILL">
					<path class="st0" d="M293.3-47.6h-11V0h11V-47.6z"/>
				</g>
			</g>
		</g>
		<g transform="matrix( 0.66973876953125, 0, 0, 0.672821044921875, -1.6,31.65) ">
			<g>
				<g id="DIY_Free_Support_300x600_psd_Asset_04_Free_filing___Free__support__0_Layer0_0_MEMBER_8_FILL">
					<path class="st0" d="M313.2-30.3l0.2,0L330.8,0h11v-47.6h-11v30.3l-0.2,0l-17.4-30.3h-11V0h11V-30.3z"/>
				</g>
			</g>
		</g>
		<g transform="matrix( 0.66973876953125, 0, 0, 0.672821044921875, -1.6,31.65) ">
			<g>
				<g id="DIY_Free_Support_300x600_psd_Asset_04_Free_filing___Free__support__0_Layer0_0_MEMBER_9_FILL">
					<path class="st0" d="M349.2-18.8c0,5.8,1.8,10.5,5.5,14.1c3.6,3.6,8.4,5.5,14.3,5.5c4.6,0,8.5-0.7,11.6-2.2
						c3.1-1.5,5.4-3.2,7-5.1v-17.9h-18.5v7.4h7.5v7.5c-0.7,0.6-1.7,1-2.8,1.3c-1.1,0.3-2.7,0.5-4.8,0.5c-2.8,0-5-1-6.5-3.1
						c-1.5-2-2.3-4.6-2.3-7.9v-10c0-3.2,0.8-5.8,2.4-7.9c1.5-2,3.6-3,6.2-3c2.6,0,4.5,0.6,5.8,1.9c1.2,1.2,2,3.1,2.4,5.6h10.3
						l0.1-0.2c-0.5-4.9-2.2-8.8-5.2-11.6c-3.1-2.8-7.7-4.3-13.8-4.3c-5.6,0-10.2,1.8-13.9,5.5c-3.6,3.7-5.4,8.3-5.4,14.1V-18.8z"/>
				</g>
			</g>
		</g>
		<g transform="matrix( 0.66973876953125, 0, 0, 0.672821044921875, -1.6,31.65) ">
			<g>
				<g id="DIY_Free_Support_300x600_psd_Asset_04_Free_filing___Free__support__0_Layer0_0_MEMBER_10_FILL">
					<path class="st0" d="M54.2,29.9c0-5.5-1.9-10.2-5.6-14.1c-3.7-3.8-8.6-5.8-14.6-5.8c-7,0-12.7,2.1-16.9,6.2
						c-4.3,4.1-6.4,9.4-6.4,16c0,2.9,0.6,5.8,1.8,8.7c1.2,2.8,3,5.9,5.4,9.3l-0.2,0.1c-4.8,3.5-8.4,6.9-10.7,10
						c-2.3,3.1-3.5,6.8-3.5,11.2c0,6.9,2.4,12.5,7.3,16.8s11.4,6.5,19.6,6.5c4,0,7.5-0.5,10.7-1.4c3.2-1,6.5-2.5,9.8-4.5l4.2,4.8H76
						l0.2-0.3L63.7,79.1c2.6-3.5,4.5-7.5,5.6-11.9c1.2-4.4,1.8-9.3,1.8-14.7H57.7c0,2.7-0.4,5.3-1.1,8c-0.7,2.4-1.7,4.7-3,7
						L39.7,51.5l4.9-3.5c3-2.1,5.3-4.7,7-7.9C53.4,36.9,54.2,33.5,54.2,29.9 M40.2,31.2c0,1.6-0.4,3-1.1,4.2c-0.7,1.3-2.1,2.6-4.2,4
						l-3.4,2.1c-1.5-1.9-2.6-3.6-3.2-5c-0.7-1.6-1.1-3.1-1.1-4.5c0-2.1,0.6-3.8,1.8-5.2c1.2-1.4,2.8-2.1,4.9-2.1
						c1.9,0,3.4,0.7,4.5,2C39.6,28.1,40.2,29.6,40.2,31.2 M22.6,70.2c0-1.8,0.2-3.3,0.7-4.7c0.4-1.3,1.2-2.8,2.4-4.3l0.5-0.3
						L41.4,78c-1.5,0.7-3.1,1.2-4.8,1.6c-1.6,0.3-3.2,0.5-4.9,0.5c-2.6,0-4.7-0.9-6.4-2.8C23.5,75.5,22.6,73.1,22.6,70.2z"/>
				</g>
			</g>
		</g>
		<g transform="matrix( 0.66973876953125, 0, 0, 0.672821044921875, -1.6,31.65) ">
			<g>
				<g id="DIY_Free_Support_300x600_psd_Asset_04_Free_filing___Free__support__0_Layer0_0_MEMBER_11_FILL">
					<path class="st0" d="M177.2,26V11.2h-57.9v82.5h19.1V60.5h33V45.8h-33V26H177.2z"/>
				</g>
			</g>
		</g>
		<g transform="matrix( 0.66973876953125, 0, 0, 0.672821044921875, -1.6,31.65) ">
			<g>
				<g id="DIY_Free_Support_300x600_psd_Asset_04_Free_filing___Free__support__0_Layer0_0_MEMBER_12_FILL">
					<path class="st0" d="M246.4,47c2.2-3,3.4-6.7,3.4-11c0-7.7-2.8-13.7-8.4-18.1c-5.5-4.4-13.1-6.7-22.7-6.7h-31.7v82.5h19.2V62.1
						h13.2c4,0,7,1,9.1,3.1c2.1,2.1,3.2,5.1,3.2,9v5c0,2.7,0.2,5.5,0.7,8.3c0.4,2.9,1.4,5,2.9,6.3h19.7v-1.2
						c-1.6-1.1-2.7-3.1-3.3-5.9c-0.6-2.9-1-5.3-1-7.3v-5.2c0-5-1.1-9.1-3.3-12.5c-2.2-3.3-5.8-5.7-10.9-7.1
						C240.8,52.5,244.1,50.1,246.4,47 M206.1,47.4V26h12.5c3.9,0,6.8,1,8.9,3c2.1,2.1,3.1,4.8,3.1,8.2c0,3.3-1,5.8-3,7.5
						c-2,1.8-5,2.6-8.8,2.6H206.1z"/>
				</g>
			</g>
		</g>
		<g transform="matrix( 0.66973876953125, 0, 0, 0.672821044921875, -1.6,31.65) ">
			<g>
				<g id="DIY_Free_Support_300x600_psd_Asset_04_Free_filing___Free__support__0_Layer0_0_MEMBER_13_FILL">
					<path class="st0" d="M322.1,26V11.2h-57.4v82.5H322V78.9h-38.1V58.4h32.3V43.7h-32.3V26H322.1z"/>
				</g>
			</g>
		</g>
		<g transform="matrix( 0.66973876953125, 0, 0, 0.672821044921875, -1.6,31.65) ">
			<g>
				<g id="DIY_Free_Support_300x600_psd_Asset_04_Free_filing___Free__support__0_Layer0_0_MEMBER_14_FILL">
					<path class="st0" d="M390.6,26V11.2h-57.4v82.5h57.3V78.9h-38.1V58.4h32.4V43.7h-32.4V26H390.6z"/>
				</g>
			</g>
		</g>
		<g transform="matrix( 0.66973876953125, 0, 0, 0.672821044921875, -1.6,31.65) ">
			<g>
				<g id="DIY_Free_Support_300x600_psd_Asset_04_Free_filing___Free__support__0_Layer0_0_MEMBER_15_FILL">
					<path class="st0" d="M47.7,121.6c0.1-5.1-1.9-9.3-5.9-12.6c-4-3.3-9.2-4.9-15.5-4.9c-6.4,0-11.6,1.5-15.8,4.5
						c-4.1,2.9-6.2,6.8-6.2,11.6c0,4.9,1.7,8.7,5.2,11.3c3.5,2.6,8.8,5.1,16,7.4c3.5,1.2,5.8,2.3,7.1,3.4c1.3,1.1,2,2.7,2,4.7
						c0,1.8-0.7,3.2-2,4.3c-1.3,1.1-3.4,1.7-6.1,1.7c-3.6,0-6.3-0.7-8-2.2c-1.8-1.4-2.7-3.8-2.7-7.1H3l-0.1,0.3
						C2.8,150,5.1,154.7,9.8,158c4.8,3.3,10.4,4.9,16.8,4.9s11.6-1.4,15.5-4.3c3.9-2.8,5.8-6.8,5.8-11.8c0-4.9-1.6-8.8-4.9-11.7
						c-3.4-2.9-8.2-5.2-14.6-7.1c-4.2-1.6-7.1-2.8-8.6-3.8c-1.5-1-2.3-2.3-2.3-4c0-1.8,0.8-3.2,2.3-4.3c1.5-1.2,3.6-1.8,6.2-1.8
						c2.7,0,4.8,0.7,6.4,2.2c1.5,1.4,2.3,3.3,2.3,5.6h12.8L47.7,121.6z"/>
				</g>
			</g>
		</g>
		<g transform="matrix( 0.66973876953125, 0, 0, 0.672821044921875, -1.6,31.65) ">
			<g>
				<g id="DIY_Free_Support_300x600_psd_Asset_04_Free_filing___Free__support__0_Layer0_0_MEMBER_16_FILL">
					<path class="st0" d="M56.8,105v37.4c0,6.5,2.2,11.5,6.5,15.1c4.3,3.6,10,5.4,17.1,5.4c7,0,12.7-1.8,17-5.4
						c4.3-3.6,6.5-8.6,6.5-15.1V105H90.7v37.4c0,3.5-0.9,6.1-2.6,7.8c-1.8,1.7-4.3,2.5-7.6,2.5c-3.3,0-5.8-0.8-7.6-2.5
						c-1.8-1.6-2.7-4.2-2.7-7.8V105H56.8z"/>
				</g>
			</g>
		</g>
		<g transform="matrix( 0.66973876953125, 0, 0, 0.672821044921875, -1.6,31.65) ">
			<g>
				<g id="DIY_Free_Support_300x600_psd_Asset_04_Free_filing___Free__support__0_Layer0_0_MEMBER_17_FILL">
					<path class="st0" d="M159.9,123.7c0-5.6-2-10.1-5.9-13.5c-4-3.5-9.3-5.2-16.1-5.2h-23.2V162h13.2v-19.6h9.9
						c6.8,0,12.2-1.7,16.1-5.1C157.9,133.8,159.9,129.3,159.9,123.7 M127.9,115.2h9.9c2.9,0,5,0.8,6.5,2.4c1.5,1.7,2.3,3.8,2.3,6.3
						c0,2.5-0.8,4.5-2.3,6.1c-1.5,1.6-3.7,2.4-6.5,2.4h-9.9V115.2z"/>
				</g>
			</g>
		</g>
		<g transform="matrix( 0.66973876953125, 0, 0, 0.672821044921875, -1.6,31.65) ">
			<g>
				<g id="DIY_Free_Support_300x600_psd_Asset_04_Free_filing___Free__support__0_Layer0_0_MEMBER_18_FILL">
					<path class="st0" d="M214.6,123.7c0-5.6-2-10.1-6-13.5c-4-3.5-9.4-5.2-16.1-5.2h-23.1V162h13.3v-19.6h9.9
						c6.8,0,12.2-1.7,16.1-5.1C212.6,133.8,214.6,129.3,214.6,123.7 M182.6,115.2h9.9c2.9,0,5.1,0.8,6.6,2.4
						c1.5,1.7,2.3,3.8,2.2,6.3c0,2.5-0.7,4.5-2.2,6.1c-1.5,1.6-3.7,2.4-6.6,2.4h-9.9V115.2z"/>
				</g>
			</g>
		</g>
		<g transform="matrix( 0.66973876953125, 0, 0, 0.672821044921875, -1.6,31.65) ">
			<g>
				<g id="DIY_Free_Support_300x600_psd_Asset_04_Free_filing___Free__support__0_Layer0_0_MEMBER_19_FILL">
					<path class="st0" d="M222.7,128.4v10.3c0,7.1,2.3,12.9,6.8,17.4c4.5,4.6,10.4,6.9,17.6,6.9c7.2,0,13-2.3,17.4-6.9
						c4.4-4.5,6.7-10.3,6.7-17.4v-10.3c0-7-2.2-12.8-6.7-17.4c-4.5-4.6-10.3-6.9-17.5-6.9c-7.2,0-13,2.3-17.5,6.9
						C225,115.6,222.7,121.4,222.7,128.4 M235.9,128.3c0-4.1,1-7.5,2.9-10.1s4.6-3.9,8.2-3.9c3.5,0,6.2,1.3,8.1,3.9
						c1.9,2.6,2.9,5.9,2.9,10v10.4c0,4.1-0.9,7.5-2.9,10.1c-1.9,2.6-4.6,3.9-8,3.9c-3.6,0-6.3-1.3-8.2-3.9
						c-1.9-2.6-2.9-5.9-2.9-10.1V128.3z"/>
				</g>
			</g>
		</g>
		<g transform="matrix( 0.66973876953125, 0, 0, 0.672821044921875, -1.6,31.65) ">
			<g>
				<g id="DIY_Free_Support_300x600_psd_Asset_04_Free_filing___Free__support__0_Layer0_0_MEMBER_20_FILL">
					<path class="st0" d="M325.6,157.2c-0.4-1.8-0.6-3.5-0.6-5.1v-3.6c0-3.5-0.8-6.4-2.3-8.6c-1.6-2.3-4.1-3.9-7.6-4.9
						c3.1-1.4,5.4-3.1,6.9-5.2c1.5-2.1,2.3-4.6,2.3-7.6c0-5.3-1.9-9.5-5.8-12.5c-3.8-3.1-9-4.6-15.7-4.6h-22V162h13.3v-21.9h9.1
						c2.8,0,4.9,0.7,6.4,2.2c1.4,1.5,2.1,3.6,2.1,6.2v3.4c0,1.9,0.2,3.8,0.5,5.8c0.3,2.1,1,3.5,2.1,4.3h13.6v-0.8
						C326.8,160.4,326.1,159,325.6,157.2 M309,117.3c1.4,1.4,2.1,3.3,2.1,5.7c0,2.3-0.7,4-2.1,5.3c-1.4,1.2-3.4,1.8-6.1,1.8h-8.8
						v-14.8h8.6C305.5,115.2,307.6,115.9,309,117.3z"/>
				</g>
			</g>
		</g>
		<g transform="matrix( 0.66973876953125, 0, 0, 0.672821044921875, -1.6,31.65) ">
			<g>
				<g id="DIY_Free_Support_300x600_psd_Asset_04_Free_filing___Free__support__0_Layer0_0_MEMBER_21_FILL">
					<path class="st0" d="M375.7,115.2V105h-43.3v10.2h14.9V162h13.3v-46.9H375.7z"/>
				</g>
			</g>
		</g>
		<g transform="matrix( 0.66973876953125, 0, 0, 0.672821044921875, -1.6,31.65) ">
			<g>
				<g id="DIY_Free_Support_300x600_psd_Asset_04_Free_filing___Free__support__0_Layer0_0_MEMBER_22_FILL">
					<path class="st0" d="M398.8,131.4l5-3.6l-6.3-8.1l9.5-2.7l-1.9-5.9l-9,3.9l0.7-11h-6.1l0.6,10.9l-9.1-4l-1.9,5.7l9.4,2.8
						l-6.5,8.4l4.9,3.5l5.4-8.8L398.8,131.4z"/>
				</g>
			</g>
		</g>
	</g>
</g>
</svg>
