
<svg xmlns="http://www.w3.org/2000/svg" version="1.1" xmlns:xlink="http://www.w3.org/1999/xlink" preserveAspectRatio="none" x="0px" y="0px" width="160px" height="600px" viewBox="0 0 160 600">
<defs>
<g id="DIY_Simple_to_Complicated_160x600_psd_Asset_03_to__complicated_returns_0_Layer0_0_MEMBER_0_FILL">
<path fill="#FFFFFF" stroke="none" d="
M 2.65 -2.8
L 2.65 -3.4 0.05 -3.4 0.05 -2.8 0.95 -2.8 0.95 0 1.75 0 1.75 -2.8 2.65 -2.8 Z"/>
</g>

<g id="DIY_Simple_to_Complicated_160x600_psd_Asset_03_to__complicated_returns_0_Layer0_0_MEMBER_1_FILL">
<path fill="#FFFFFF" stroke="none" d="
M 3.1 -3.05
Q 2.7 -2.65 2.7 -2
L 2.7 -1.4
Q 2.7 -0.85 3.1 -0.35 3.6 0.05 4.15 0.05 4.8 0.05 5.2 -0.35 5.6 -0.85 5.6 -1.4
L 5.6 -2
Q 5.6 -2.65 5.2 -3.05 4.8 -3.45 4.15 -3.45 3.5 -3.45 3.1 -3.05
M 4.65 -2.6
Q 4.8 -2.35 4.8 -2
L 4.8 -1.4
Q 4.8 -1 4.65 -0.8 4.5 -0.55 4.15 -0.55 3.9 -0.55 3.65 -0.8 3.5 -1 3.5 -1.4
L 3.5 -2
Q 3.5 -2.35 3.65 -2.6 3.9 -2.85 4.15 -2.85 4.5 -2.85 4.65 -2.6 Z"/>
</g>

<g id="DIY_Simple_to_Complicated_160x600_psd_Asset_03_to__complicated_returns_0_Layer0_0_MEMBER_2_FILL">
<path fill="#FFFFFF" stroke="none" d="
M 2.95 2.6
Q 2.9 2.05 2.55 1.65 2.2 1.35 1.55 1.35 0.9 1.35 0.55 1.75 0.2 2.1 0.2 2.75
L 0.2 3.45
Q 0.2 4.1 0.6 4.45 1 4.85 1.6 4.85 2.25 4.85 2.55 4.55 2.85 4.25 2.95 3.6
L 2.15 3.6
Q 2.15 3.95 2 4.1 1.95 4.25 1.6 4.25 1.3 4.25 1.15 4 1 3.8 1 3.45
L 1 2.75
Q 1 2.4 1.15 2.15 1.3 1.95 1.55 1.95 1.85 1.95 2 2.1 2.15 2.25 2.15 2.6
L 2.95 2.6 Z"/>
</g>

<g id="DIY_Simple_to_Complicated_160x600_psd_Asset_03_to__complicated_returns_0_Layer0_0_MEMBER_3_FILL">
<path fill="#FFFFFF" stroke="none" d="
M 6.05 3.4
L 6.05 2.8
Q 6.05 2.15 5.65 1.75 5.3 1.35 4.6 1.35 3.9 1.35 3.55 1.75 3.15 2.15 3.15 2.8
L 3.15 3.4
Q 3.15 3.95 3.55 4.45 3.95 4.85 4.6 4.85 5.25 4.85 5.65 4.45 6.05 3.95 6.05 3.4
M 5.25 2.8
L 5.25 3.4
Q 5.25 3.8 5.1 4 4.85 4.25 4.6 4.25 4.35 4.25 4.1 4 3.95 3.8 3.95 3.4
L 3.95 2.8
Q 3.95 2.45 4.1 2.2 4.25 1.95 4.6 1.95 4.9 1.95 5.1 2.2 5.25 2.45 5.25 2.8 Z"/>
</g>

<g id="DIY_Simple_to_Complicated_160x600_psd_Asset_03_to__complicated_returns_0_Layer0_0_MEMBER_4_FILL">
<path fill="#FFFFFF" stroke="none" d="
M 10 1.4
L 9 1.4 8.2 3.75 7.45 1.4 6.4 1.4 6.4 4.8 7.2 4.8 7.1 2.4 7.95 4.8 8.45 4.8 9.3 2.4 9.25 4.8 10 4.8 10 1.4 Z"/>
</g>

<g id="DIY_Simple_to_Complicated_160x600_psd_Asset_03_to__complicated_returns_0_Layer0_0_MEMBER_5_FILL">
<path fill="#FFFFFF" stroke="none" d="
M 13.15 2.5
Q 13.15 2.05 12.8 1.7 12.45 1.4 11.8 1.4
L 10.45 1.4 10.45 4.8 11.25 4.8 11.25 3.65 11.8 3.65
Q 12.45 3.65 12.8 3.3 13.15 2.95 13.15 2.5
M 11.25 3
L 11.25 2 11.8 2
Q 12.05 2 12.2 2.15 12.35 2.3 12.35 2.5 12.35 2.75 12.2 2.9 12 3 11.8 3
L 11.25 3 Z"/>
</g>

<g id="DIY_Simple_to_Complicated_160x600_psd_Asset_03_to__complicated_returns_0_Layer0_0_MEMBER_6_FILL">
<path fill="#FFFFFF" stroke="none" d="
M 14.25 4.2
L 14.25 1.4 13.45 1.4 13.45 4.8 15.75 4.8 15.75 4.2 14.25 4.2 Z"/>
</g>

<g id="DIY_Simple_to_Complicated_160x600_psd_Asset_03_to__complicated_returns_0_Layer0_0_MEMBER_7_FILL">
<path fill="#FFFFFF" stroke="none" d="
M 16.8 4.8
L 16.8 1.4 16 1.4 16 4.8 16.8 4.8 Z"/>
</g>

<g id="DIY_Simple_to_Complicated_160x600_psd_Asset_03_to__complicated_returns_0_Layer0_0_MEMBER_8_FILL">
<path fill="#FFFFFF" stroke="none" d="
M 19.55 1.65
Q 19.2 1.35 18.55 1.35 17.9 1.35 17.55 1.75 17.15 2.15 17.15 2.75
L 17.15 3.45
Q 17.15 4.05 17.55 4.45 18.05 4.85 18.6 4.85 19.25 4.85 19.55 4.55 19.9 4.2 19.9 3.6
L 19.15 3.6
Q 19.15 3.95 19 4.1 18.85 4.25 18.6 4.25 18.3 4.25 18.15 4 17.95 3.8 17.95 3.45
L 17.95 2.75
Q 17.95 2.4 18.1 2.15 18.25 1.95 18.55 1.95 18.85 1.95 19 2.1 19.15 2.25 19.15 2.6
L 19.9 2.6
Q 19.9 2.1 19.55 1.65 Z"/>
</g>

<g id="DIY_Simple_to_Complicated_160x600_psd_Asset_03_to__complicated_returns_0_Layer0_0_MEMBER_9_FILL">
<path fill="#FFFFFF" stroke="none" d="
M 21.9 1.4
L 21.05 1.4 19.95 4.8 20.75 4.8 20.95 4.15 22.05 4.15 22.2 4.8 23 4.8 21.9 1.4
M 21.85 3.5
L 21.15 3.5 21.5 2.3 21.85 3.5 Z"/>
</g>

<g id="DIY_Simple_to_Complicated_160x600_psd_Asset_03_to__complicated_returns_0_Layer0_0_MEMBER_10_FILL">
<path fill="#FFFFFF" stroke="none" d="
M 25.3 2
L 25.3 1.4 22.75 1.4 22.75 2 23.6 2 23.6 4.8 24.4 4.8 24.4 2 25.3 2 Z"/>
</g>

<g id="DIY_Simple_to_Complicated_160x600_psd_Asset_03_to__complicated_returns_0_Layer0_0_MEMBER_11_FILL">
<path fill="#FFFFFF" stroke="none" d="
M 27.9 2
L 27.9 1.4 25.5 1.4 25.5 4.8 27.9 4.8 27.9 4.2 26.3 4.2 26.3 3.35 27.65 3.35 27.65 2.75 26.3 2.75 26.3 2 27.9 2 Z"/>
</g>

<g id="DIY_Simple_to_Complicated_160x600_psd_Asset_03_to__complicated_returns_0_Layer0_0_MEMBER_12_FILL">
<path fill="#FFFFFF" stroke="none" d="
M 30.75 3.4
L 30.75 2.8
Q 30.75 2.15 30.35 1.8 30 1.4 29.35 1.4
L 28.1 1.4 28.1 4.8 29.35 4.8
Q 29.95 4.8 30.35 4.4 30.75 4.05 30.75 3.4
M 28.9 2
L 29.3 2
Q 29.65 2 29.8 2.2 29.95 2.45 29.95 2.8
L 29.95 3.4
Q 29.95 3.8 29.8 3.95 29.65 4.2 29.3 4.2
L 28.9 4.2 28.9 2 Z"/>
</g>

<g id="DIY_Simple_to_Complicated_160x600_psd_Asset_03_to__complicated_returns_0_Layer0_0_MEMBER_13_FILL">
<path fill="#FFFFFF" stroke="none" d="
M 2.75 7.65
L 2.85 7.2
Q 2.85 6.75 2.5 6.45 2.25 6.2 1.6 6.2
L 0.25 6.2 0.25 9.6 1.05 9.6 1.05 8.3 1.6 8.3 2 8.4 2.1 8.8 2.1 9 2.15 9.35 2.25 9.6 3.1 9.6 3.1 9.55
Q 2.95 9.5 2.95 9.3
L 2.9 9 2.9 8.8
Q 2.9 8.5 2.75 8.25
L 2.3 7.95
Q 2.6 7.9 2.75 7.65
M 1.95 7.55
Q 1.8 7.7 1.6 7.7
L 1.05 7.7 1.05 6.8 1.6 6.8 1.95 6.9
Q 2.1 7.05 2.1 7.25 2.1 7.5 1.95 7.55 Z"/>
</g>

<g id="DIY_Simple_to_Complicated_160x600_psd_Asset_03_to__complicated_returns_0_Layer0_0_MEMBER_14_FILL">
<path fill="#FFFFFF" stroke="none" d="
M 4.1 9
L 4.1 8.15 5.45 8.15 5.45 7.55 4.1 7.55 4.1 6.8 5.7 6.8 5.7 6.2 3.3 6.2 3.3 9.6 5.7 9.6 5.7 9 4.1 9 Z"/>
</g>

<g id="DIY_Simple_to_Complicated_160x600_psd_Asset_03_to__complicated_returns_0_Layer0_0_MEMBER_15_FILL">
<path fill="#FFFFFF" stroke="none" d="
M 8.35 6.8
L 8.35 6.2 5.75 6.2 5.75 6.8 6.65 6.8 6.65 9.6 7.45 9.6 7.45 6.8 8.35 6.8 Z"/>
</g>

<g id="DIY_Simple_to_Complicated_160x600_psd_Asset_03_to__complicated_returns_0_Layer0_0_MEMBER_16_FILL">
<path fill="#FFFFFF" stroke="none" d="
M 11.35 6.2
L 10.55 6.2 10.55 8.4
Q 10.55 8.75 10.4 8.9 10.25 9.05 9.95 9.05 9.65 9.05 9.5 8.9 9.35 8.75 9.35 8.4
L 9.35 6.2 8.55 6.2 8.55 8.4
Q 8.55 9 8.9 9.3 9.3 9.65 9.95 9.65 10.6 9.65 10.95 9.3 11.35 9 11.35 8.4
L 11.35 6.2 Z"/>
</g>

<g id="DIY_Simple_to_Complicated_160x600_psd_Asset_03_to__complicated_returns_0_Layer0_0_MEMBER_17_FILL">
<path fill="#FFFFFF" stroke="none" d="
M 14.2 7.65
Q 14.35 7.5 14.35 7.2 14.35 6.75 14 6.45 13.7 6.2 13.05 6.2
L 11.75 6.2 11.75 9.6 12.55 9.6 12.55 8.3 13.1 8.3 13.45 8.4
Q 13.6 8.55 13.6 8.8
L 13.6 9.35 13.75 9.6 14.55 9.6 14.55 9.55 14.4 9.3 14.4 8.8
Q 14.4 8.5 14.25 8.25
L 13.8 7.95
Q 14.05 7.9 14.2 7.65
M 13.45 7.55
Q 13.3 7.7 13.05 7.7
L 12.55 7.7 12.55 6.8 13.05 6.8 13.45 6.9 13.55 7.25 13.45 7.55 Z"/>
</g>

<g id="DIY_Simple_to_Complicated_160x600_psd_Asset_03_to__complicated_returns_0_Layer0_0_MEMBER_18_FILL">
<path fill="#FFFFFF" stroke="none" d="
M 14.8 6.2
L 14.8 9.6 15.6 9.6 15.6 7.4 16.85 9.6 17.65 9.6 17.65 6.2 16.85 6.2 16.85 8.35 15.6 6.2 14.8 6.2 Z"/>
</g>

<g id="DIY_Simple_to_Complicated_160x600_psd_Asset_03_to__complicated_returns_0_Layer0_0_MEMBER_19_FILL">
<path fill="#FFFFFF" stroke="none" d="
M 20.65 7.2
Q 20.65 6.65 20.3 6.45 19.95 6.15 19.35 6.15 18.7 6.15 18.4 6.4 18.05 6.7 18.05 7.1 18.05 7.55 18.35 7.75 18.6 7.95 19.3 8.2
L 19.75 8.4
Q 19.85 8.5 19.85 8.7 19.85 8.9 19.75 8.95
L 19.4 9.05
Q 19.05 9.05 18.9 8.9 18.75 8.85 18.75 8.5
L 17.95 8.5
Q 17.95 9.05 18.4 9.35 18.8 9.65 19.4 9.65 19.95 9.65 20.3 9.4 20.65 9.1 20.65 8.7 20.65 8.25 20.35 8 20.15 7.8 19.5 7.55
L 19 7.35
Q 18.85 7.3 18.85 7.1 18.85 6.95 19 6.85 19.05 6.75 19.35 6.75 19.65 6.75 19.75 6.85
L 19.85 7.2 20.65 7.2 Z"/>
</g>
</defs>

<g transform="matrix( 1, 0, 0, 1, -1224,-127) ">
<g transform="matrix( 1, 0, 0, 1, 1238,316) ">
<g transform="matrix( 4.2702178955078125, 0, 0, 4.2696075439453125, 0.5,15.2) ">
<use xlink:href="#DIY_Simple_to_Complicated_160x600_psd_Asset_03_to__complicated_returns_0_Layer0_0_MEMBER_0_FILL"/>
</g>

<g transform="matrix( 4.2702178955078125, 0, 0, 4.2696075439453125, 0.5,15.2) ">
<use xlink:href="#DIY_Simple_to_Complicated_160x600_psd_Asset_03_to__complicated_returns_0_Layer0_0_MEMBER_1_FILL"/>
</g>

<g transform="matrix( 4.2702178955078125, 0, 0, 4.2696075439453125, 0.5,15.2) ">
<use xlink:href="#DIY_Simple_to_Complicated_160x600_psd_Asset_03_to__complicated_returns_0_Layer0_0_MEMBER_2_FILL"/>
</g>

<g transform="matrix( 4.2702178955078125, 0, 0, 4.2696075439453125, 0.5,15.2) ">
<use xlink:href="#DIY_Simple_to_Complicated_160x600_psd_Asset_03_to__complicated_returns_0_Layer0_0_MEMBER_3_FILL"/>
</g>

<g transform="matrix( 4.2702178955078125, 0, 0, 4.2696075439453125, 0.5,15.2) ">
<use xlink:href="#DIY_Simple_to_Complicated_160x600_psd_Asset_03_to__complicated_returns_0_Layer0_0_MEMBER_4_FILL"/>
</g>

<g transform="matrix( 4.2702178955078125, 0, 0, 4.2696075439453125, 0.5,15.2) ">
<use xlink:href="#DIY_Simple_to_Complicated_160x600_psd_Asset_03_to__complicated_returns_0_Layer0_0_MEMBER_5_FILL"/>
</g>

<g transform="matrix( 4.2702178955078125, 0, 0, 4.2696075439453125, 0.5,15.2) ">
<use xlink:href="#DIY_Simple_to_Complicated_160x600_psd_Asset_03_to__complicated_returns_0_Layer0_0_MEMBER_6_FILL"/>
</g>

<g transform="matrix( 4.2702178955078125, 0, 0, 4.2696075439453125, 0.5,15.2) ">
<use xlink:href="#DIY_Simple_to_Complicated_160x600_psd_Asset_03_to__complicated_returns_0_Layer0_0_MEMBER_7_FILL"/>
</g>

<g transform="matrix( 4.2702178955078125, 0, 0, 4.2696075439453125, 0.5,15.2) ">
<use xlink:href="#DIY_Simple_to_Complicated_160x600_psd_Asset_03_to__complicated_returns_0_Layer0_0_MEMBER_8_FILL"/>
</g>

<g transform="matrix( 4.2702178955078125, 0, 0, 4.2696075439453125, 0.5,15.2) ">
<use xlink:href="#DIY_Simple_to_Complicated_160x600_psd_Asset_03_to__complicated_returns_0_Layer0_0_MEMBER_9_FILL"/>
</g>

<g transform="matrix( 4.2702178955078125, 0, 0, 4.2696075439453125, 0.5,15.2) ">
<use xlink:href="#DIY_Simple_to_Complicated_160x600_psd_Asset_03_to__complicated_returns_0_Layer0_0_MEMBER_10_FILL"/>
</g>

<g transform="matrix( 4.2702178955078125, 0, 0, 4.2696075439453125, 0.5,15.2) ">
<use xlink:href="#DIY_Simple_to_Complicated_160x600_psd_Asset_03_to__complicated_returns_0_Layer0_0_MEMBER_11_FILL"/>
</g>

<g transform="matrix( 4.2702178955078125, 0, 0, 4.2696075439453125, 0.5,15.2) ">
<use xlink:href="#DIY_Simple_to_Complicated_160x600_psd_Asset_03_to__complicated_returns_0_Layer0_0_MEMBER_12_FILL"/>
</g>

<g transform="matrix( 4.2702178955078125, 0, 0, 4.2696075439453125, 0.5,15.2) ">
<use xlink:href="#DIY_Simple_to_Complicated_160x600_psd_Asset_03_to__complicated_returns_0_Layer0_0_MEMBER_13_FILL"/>
</g>

<g transform="matrix( 4.2702178955078125, 0, 0, 4.2696075439453125, 0.5,15.2) ">
<use xlink:href="#DIY_Simple_to_Complicated_160x600_psd_Asset_03_to__complicated_returns_0_Layer0_0_MEMBER_14_FILL"/>
</g>

<g transform="matrix( 4.2702178955078125, 0, 0, 4.2696075439453125, 0.5,15.2) ">
<use xlink:href="#DIY_Simple_to_Complicated_160x600_psd_Asset_03_to__complicated_returns_0_Layer0_0_MEMBER_15_FILL"/>
</g>

<g transform="matrix( 4.2702178955078125, 0, 0, 4.2696075439453125, 0.5,15.2) ">
<use xlink:href="#DIY_Simple_to_Complicated_160x600_psd_Asset_03_to__complicated_returns_0_Layer0_0_MEMBER_16_FILL"/>
</g>

<g transform="matrix( 4.2702178955078125, 0, 0, 4.2696075439453125, 0.5,15.2) ">
<use xlink:href="#DIY_Simple_to_Complicated_160x600_psd_Asset_03_to__complicated_returns_0_Layer0_0_MEMBER_17_FILL"/>
</g>

<g transform="matrix( 4.2702178955078125, 0, 0, 4.2696075439453125, 0.5,15.2) ">
<use xlink:href="#DIY_Simple_to_Complicated_160x600_psd_Asset_03_to__complicated_returns_0_Layer0_0_MEMBER_18_FILL"/>
</g>

<g transform="matrix( 4.2702178955078125, 0, 0, 4.2696075439453125, 0.5,15.2) ">
<use xlink:href="#DIY_Simple_to_Complicated_160x600_psd_Asset_03_to__complicated_returns_0_Layer0_0_MEMBER_19_FILL"/>
</g>
</g>
</g>
</svg>
