
<svg xmlns="http://www.w3.org/2000/svg" version="1.1" xmlns:xlink="http://www.w3.org/1999/xlink" preserveAspectRatio="none" x="0px" y="0px" width="300px" height="600px" viewBox="0 0 300 600">
<defs>
<g id="DIY_Free_Support_300x600_psd_Asset_01_01_0_Layer1_0_FILL">
<path fill="#FFFFFF" stroke="none" d="
M 24.05 -19.65
L 10.5 -19.65 10.5 -27.75 26.45 -27.75 26.45 -33.8 2.65 -33.8 2.65 0 10.5 0 10.5 -13.6 24.05 -13.6 24.05 -19.65 Z"/>
</g>

<g id="DIY_Free_Support_300x600_psd_Asset_01_01_0_Layer1_1_FILL">
<path fill="#FFFFFF" stroke="none" d="
M 51.9 -31.1
Q 48.45 -33.8 42.6 -33.8
L 29.6 -33.8 29.6 0 37.45 0 37.45 -12.95 42.85 -12.95
Q 45.35 -12.95 46.6 -11.7 47.9 -10.4 47.9 -8
L 47.9 -5.95
Q 47.9 -4.1 48.15 -2.55 48.45 -0.75 49.4 0
L 57.45 0 57.45 -0.45
Q 56.45 -1.2 56.1 -2.9 55.7 -4.65 55.7 -5.9
L 55.7 -8.05
Q 55.7 -11.1 54.35 -13.15 53.05 -15.2 49.85 -16.1 52.65 -17.35 53.95 -19.15 55.35 -21.1 55.35 -23.65 55.35 -28.4 51.9 -31.1
M 37.45 -19
L 37.45 -27.75 42.6 -27.75
Q 44.95 -27.75 46.2 -26.5 47.5 -25.25 47.5 -23.2 47.5 -21.15 46.25 -20.1 45 -19 42.65 -19
L 37.45 -19 Z"/>
</g>

<g id="DIY_Free_Support_300x600_psd_Asset_01_01_0_Layer1_2_FILL">
<path fill="#FFFFFF" stroke="none" d="
M 68.5 -20.5
L 68.5 -27.75 84.15 -27.75 84.15 -33.8 60.6 -33.8 60.6 0 84.1 0 84.1 -6.05 68.5 -6.05 68.5 -14.45 81.75 -14.45 81.75 -20.5 68.5 -20.5 Z"/>
</g>

<g id="DIY_Free_Support_300x600_psd_Asset_01_01_0_Layer1_3_FILL">
<path fill="#FFFFFF" stroke="none" d="
M 111.35 -27.75
L 111.35 -33.8 87.8 -33.8 87.8 0 111.35 0 111.35 -6.05 95.7 -6.05 95.7 -14.45 108.95 -14.45 108.95 -20.5 95.7 -20.5 95.7 -27.75 111.35 -27.75 Z"/>
</g>

<g id="DIY_Free_Support_300x600_psd_Asset_01_01_0_Layer1_4_FILL">
<path fill="#FFFFFF" stroke="none" d="
M 150.3 -33.8
L 124.7 -33.8 124.7 -27.75 133.55 -27.75 133.55 0 141.4 0 141.4 -27.75 150.3 -27.75 150.3 -33.8 Z"/>
</g>

<g id="DIY_Free_Support_300x600_psd_Asset_01_01_0_Layer1_5_FILL">
<path fill="#FFFFFF" stroke="none" d="
M 156.05 -30.25
Q 152.05 -26.15 152.05 -19.95
L 152.05 -13.85
Q 152.05 -7.6 156.05 -3.55 160.05 0.5 166.45 0.5 172.9 0.5 176.8 -3.55 180.8 -7.6 180.8 -13.85
L 180.8 -19.95
Q 180.8 -26.15 176.8 -30.25 172.75 -34.3 166.4 -34.3 160.05 -34.3 156.05 -30.25
M 161.6 -7.85
Q 159.85 -10.2 159.85 -13.85
L 159.85 -20
Q 159.85 -23.55 161.55 -25.95 163.25 -28.25 166.4 -28.25 169.55 -28.25 171.25 -25.95 172.95 -23.65 172.95 -20
L 172.95 -13.85
Q 172.95 -10.15 171.25 -7.85 169.55 -5.55 166.45 -5.55 163.25 -5.55 161.6 -7.85 Z"/>
</g>

<g id="DIY_Free_Support_300x600_psd_Asset_01_01_0_Layer1_6_FILL">
<path fill="#FFFFFF" stroke="none" d="
M 214.05 -33.8
L 205.6 -33.8 194.7 0 202.6 0 204.5 -6.55 215.15 -6.55 217.05 0 224.95 0 214.05 -33.8
M 209.75 -24.7
L 209.85 -24.7 213.4 -12.6 206.25 -12.6 209.75 -24.7 Z"/>
</g>

<g id="DIY_Free_Support_300x600_psd_Asset_01_01_0_Layer1_7_FILL">
<path fill="#FFFFFF" stroke="none" d="
M 230.35 -31.7
Q 226.7 -29.1 226.7 -24.8 226.7 -20.35 229.8 -18.15 232.9 -15.8 239.25 -13.8 242.5 -12.6 243.5 -11.75 244.7 -10.75 244.7 -8.95 244.7 -7.35 243.5 -6.4 242.35 -5.45 239.9 -5.45 236.65 -5.45 235.1 -6.7 233.5 -7.9 233.5 -10.85
L 225.85 -10.85 225.85 -10.75
Q 225.7 -5.3 229.9 -2.4 234.15 0.5 239.9 0.5 245.6 0.5 249.1 -2.05 252.55 -4.5 252.55 -9 252.55 -13.45 249.65 -15.9 246.75 -18.4 240.95 -20.15 237.3 -21.5 235.85 -22.4 234.5 -23.2 234.5 -24.75 234.5 -26.3 235.85 -27.35 237.2 -28.4 239.6 -28.4 241.95 -28.4 243.35 -27.1 244.75 -25.8 244.75 -23.85
L 252.35 -23.85 252.4 -23.95
Q 252.5 -28.55 248.9 -31.4 245.4 -34.3 239.7 -34.3 234 -34.3 230.35 -31.7 Z"/>
</g>

<g id="DIY_Free_Support_300x600_psd_Asset_01_01_0_Layer1_8_FILL">
<path fill="#FFFFFF" stroke="none" d="
M 274.4 -33.8
L 266.95 -20.6 264.3 -20.6 264.3 -33.8 256.4 -33.8 256.4 0 264.3 0 264.3 -13.55 267.9 -13.55 275.5 0 285.05 0 273.7 -18.5 284.15 -33.8 274.4 -33.8 Z"/>
</g>

<g id="DIY_Free_Support_300x600_psd_Asset_01_01_0_Layer1_9_FILL">
<path fill="#FFFFFF" stroke="none" d="
M 16.45 13.25
Q 10.05 13.25 6.05 17.3 2.05 21.45 2.05 27.6
L 2.05 33.7
Q 2.05 39.95 6.05 44 10.05 48.05 16.5 48.05 17.75 48.05 19.35 47.8 20.6 47.6 22 47.1
L 28.05 53 32.85 49.15 27.15 43.65
Q 28.95 41.8 29.85 39.2 30.8 36.7 30.8 33.7
L 30.8 27.6
Q 30.8 21.45 26.8 17.3 22.85 13.25 16.45 13.25
M 11.6 21.6
Q 13.25 19.3 16.45 19.3 19.55 19.3 21.25 21.6 22.95 23.9 22.95 27.55
L 22.95 33.7
Q 22.95 37.4 21.25 39.7 19.6 42 16.5 42 13.3 42 11.6 39.7 9.9 37.4 9.9 33.7
L 9.9 27.55
Q 9.9 23.9 11.6 21.6 Z"/>
</g>

<g id="DIY_Free_Support_300x600_psd_Asset_01_01_0_Layer1_10_FILL">
<path fill="#FFFFFF" stroke="none" d="
M 55.05 35.9
Q 55.05 39.1 53.5 40.5 51.95 42 49 42 46.1 42 44.5 40.5 42.9 39 42.9 35.9
L 42.9 13.75 35 13.75 35 35.9
Q 35 41.7 38.9 44.85 42.7 48.05 49 48.05 55.3 48.05 59.1 44.85 62.95 41.7 62.95 35.9
L 62.95 13.75 55.05 13.75 55.05 35.9 Z"/>
</g>

<g id="DIY_Free_Support_300x600_psd_Asset_01_01_0_Layer1_11_FILL">
<path fill="#FFFFFF" stroke="none" d="
M 91.4 19.8
L 91.4 13.75 67.9 13.75 67.9 47.55 91.4 47.55 91.4 41.5 75.75 41.5 75.75 33.1 89 33.1 89 27.05 75.75 27.05 75.75 19.8 91.4 19.8 Z"/>
</g>

<g id="DIY_Free_Support_300x600_psd_Asset_01_01_0_Layer1_12_FILL">
<path fill="#FFFFFF" stroke="none" d="
M 116.85 16.15
Q 113.3 13.25 107.65 13.25 102 13.25 98.3 15.9 94.6 18.55 94.6 22.75 94.6 27.1 97.7 29.45 100.7 31.7 107.2 33.75 110.25 34.85 111.45 35.85 112.65 36.85 112.65 38.6 112.65 40.2 111.45 41.15 110.2 42.15 107.8 42.15 104.6 42.15 103 40.85 101.45 39.65 101.45 36.7
L 93.8 36.7 93.75 36.85
Q 93.6 42.25 97.85 45.15 102 48.05 107.8 48.05 113.5 48.05 117 45.55 120.5 42.95 120.5 38.55 120.5 34.2 117.55 31.65 114.45 29.05 108.9 27.45 105.15 26.1 103.8 25.2 102.45 24.3 102.45 22.8 102.45 21.25 103.8 20.25 105.15 19.2 107.5 19.2 109.9 19.2 111.3 20.45 112.65 21.75 112.65 23.75
L 120.25 23.75 120.3 23.6
Q 120.45 19.1 116.85 16.15 Z"/>
</g>

<g id="DIY_Free_Support_300x600_psd_Asset_01_01_0_Layer1_13_FILL">
<path fill="#FFFFFF" stroke="none" d="
M 148.3 13.75
L 122.65 13.75 122.65 19.8 131.5 19.8 131.5 47.55 139.4 47.55 139.4 19.8 148.3 19.8 148.3 13.75 Z"/>
</g>

<g id="DIY_Free_Support_300x600_psd_Asset_01_01_0_Layer1_14_FILL">
<path fill="#FFFFFF" stroke="none" d="
M 159.35 13.75
L 151.55 13.75 151.55 47.55 159.35 47.55 159.35 13.75 Z"/>
</g>

<g id="DIY_Free_Support_300x600_psd_Asset_01_01_0_Layer1_15_FILL">
<path fill="#FFFFFF" stroke="none" d="
M 178.25 13.25
Q 171.85 13.25 167.85 17.3 163.9 21.4 163.9 27.6
L 163.9 33.7
Q 163.9 40 167.9 44 171.9 48.05 178.3 48.05 184.7 48.05 188.65 44 192.6 40 192.6 33.7
L 192.6 27.6
Q 192.6 21.4 188.6 17.3 184.65 13.25 178.25 13.25
M 173.4 21.6
Q 175.05 19.3 178.25 19.3 181.4 19.3 183.1 21.6 184.8 24 184.8 27.55
L 184.8 33.7
Q 184.8 37.3 183.1 39.7 181.4 42 178.3 42 175.1 42 173.4 39.7 171.7 37.3 171.7 33.7
L 171.7 27.55
Q 171.7 23.9 173.4 21.6 Z"/>
</g>

<g id="DIY_Free_Support_300x600_psd_Asset_01_01_0_Layer1_16_FILL">
<path fill="#FFFFFF" stroke="none" d="
M 217.15 35.25
L 217.05 35.3 204.65 13.75 196.8 13.75 196.8 47.55 204.65 47.55 204.65 26.05 204.8 26 217.15 47.55 225 47.55 225 13.75 217.15 13.75 217.15 35.25 Z"/>
</g>

<g id="DIY_Free_Support_300x600_psd_Asset_01_01_0_Layer1_17_FILL">
<path fill="#FFFFFF" stroke="none" d="
M 246.2 20.45
Q 247.6 21.75 247.6 23.75
L 255.2 23.75 255.25 23.6
Q 255.35 19.05 251.75 16.15 248.25 13.25 242.55 13.25 236.9 13.25 233.2 15.9 229.55 18.5 229.55 22.75 229.55 27.15 232.6 29.45 235.65 31.7 242.1 33.75 245.25 34.9 246.35 35.85 247.55 36.85 247.55 38.6 247.55 40.2 246.35 41.15 245.1 42.15 242.7 42.15 239.55 42.15 237.95 40.85 236.35 39.65 236.35 36.7
L 228.7 36.7 228.65 36.85
Q 228.6 42.3 232.75 45.15 236.9 48.05 242.7 48.05 248.4 48.05 251.95 45.55 255.4 43 255.4 38.55 255.4 34.2 252.5 31.65 249.45 29.05 243.8 27.45 240.05 26.1 238.7 25.2 237.35 24.3 237.35 22.8 237.35 21.25 238.7 20.25 240.05 19.2 242.4 19.2 244.9 19.2 246.2 20.45 Z"/>
</g>

<g id="DIY_Free_Support_300x600_psd_Asset_01_01_0_Layer1_18_FILL">
<path fill="#FFFFFF" stroke="none" d="
M 27.6 70.6
Q 27.6 65.95 24.1 63.65 20.55 61.3 14.25 61.3
L 2.65 61.3 2.65 95.1 15.95 95.1
Q 22.2 95.1 25.45 92.6 28.75 90.05 28.75 85.1 28.75 82.45 27.35 80.45 25.9 78.4 22.95 77.75 25.3 76.8 26.45 74.9 27.6 73.1 27.6 70.6
M 18.4 68.35
Q 19.75 69.35 19.75 71.5 19.75 73.4 18.4 74.35 17.2 75.3 14.4 75.4
L 10.5 75.4 10.5 67.35 14.25 67.35
Q 17 67.35 18.4 68.35
M 16.35 80.6
Q 18.8 80.6 19.85 81.75 20.95 82.85 20.95 85.05 20.95 87.15 19.7 88.1 18.4 89.1 15.95 89.1
L 10.5 89.1 10.5 80.6 16.35 80.6 Z"/>
</g>

<g id="DIY_Free_Support_300x600_psd_Asset_01_01_0_Layer1_19_FILL">
<path fill="#FFFFFF" stroke="none" d="
M 37.25 61.3
L 28.75 61.3 40.05 82.85 40.05 95.1 47.85 95.1 47.85 83.25 59.35 61.3 50.85 61.3 44.1 76.1 43.95 76.1 37.25 61.3 Z"/>
</g>

<g id="DIY_Free_Support_300x600_psd_Asset_01_01_0_Layer1_20_FILL">
<path fill="#FFFFFF" stroke="none" d="
M 96.35 64.05
Q 92.95 60.8 86.55 60.8 80.5 60.8 76.75 64.7 72.95 68.5 72.95 74.7
L 72.95 81.75
Q 72.95 87.95 76.9 91.75 80.85 95.6 87.1 95.6 93.4 95.6 96.6 92.45 99.95 89.35 100.15 83.4
L 100.1 83.25 92.45 83.25
Q 92.3 86.55 91.1 88.05 89.9 89.55 87.1 89.55 84.15 89.55 82.5 87.4 80.8 85.25 80.8 81.75
L 80.8 74.65
Q 80.8 71.15 82.35 69 83.9 66.85 86.55 66.85 89.7 66.85 91 68.45 92.35 70.1 92.5 73.35
L 100.15 73.35 100.2 73.2
Q 99.75 67.3 96.35 64.05 Z"/>
</g>

<g id="DIY_Free_Support_300x600_psd_Asset_01_01_0_Layer1_21_FILL">
<path fill="#FFFFFF" stroke="none" d="
M 111.8 75.5
L 111.8 61.3 103.9 61.3 103.9 95.1 111.8 95.1 111.8 81.5 124.3 81.5 124.3 95.1 132.1 95.1 132.1 61.3 124.3 61.3 124.3 75.5 111.8 75.5 Z"/>
</g>

<g id="DIY_Free_Support_300x600_psd_Asset_01_01_0_Layer1_22_FILL">
<path fill="#FFFFFF" stroke="none" d="
M 154.25 61.3
L 145.85 61.3 134.9 95.1 142.8 95.1 144.7 88.55 155.4 88.55 157.3 95.1 165.2 95.1 154.25 61.3
M 149.95 70.4
L 150.1 70.4 153.65 82.5 146.45 82.5 149.95 70.4 Z"/>
</g>

<g id="DIY_Free_Support_300x600_psd_Asset_01_01_0_Layer1_23_FILL">
<path fill="#FFFFFF" stroke="none" d="
M 187.85 61.3
L 162.2 61.3 162.2 67.35 171.05 67.35 171.05 95.1 178.9 95.1 178.9 67.35 187.85 67.35 187.85 61.3 Z"/>
</g>

<g id="DIY_Free_Support_300x600_psd_Asset_01_01_0_Layer1_24_FILL">
<path fill="#FFFFFF" stroke="none" d="
M 194.1 89.2
L 187.35 89.2 187.35 95.1 185.7 102.7 190.35 102.7 194.1 95.3 194.1 89.2 Z"/>
</g>

<g id="DIY_Free_Support_300x600_psd_Asset_01_01_0_Layer1_25_FILL">
<path fill="#FFFFFF" stroke="none" d="
M 30.6 122.75
Q 30.6 116.45 26.6 112.45 22.65 108.4 16.25 108.4 9.85 108.4 5.85 112.45 1.9 116.5 1.9 122.75
L 1.9 128.8
Q 1.9 135.1 5.9 139.1 9.9 143.15 16.3 143.15 22.7 143.15 26.65 139.1 30.6 135.1 30.6 128.8
L 30.6 122.75
M 21.05 116.75
Q 22.8 119.1 22.8 122.7
L 22.8 128.8
Q 22.8 132.4 21.1 134.8 19.35 137.15 16.3 137.15 13.15 137.15 11.4 134.8 9.7 132.4 9.7 128.8
L 9.7 122.7
Q 9.7 118.95 11.4 116.75 13.05 114.4 16.25 114.4 19.4 114.4 21.05 116.75 Z"/>
</g>

<g id="DIY_Free_Support_300x600_psd_Asset_01_01_0_Layer1_26_FILL">
<path fill="#FFFFFF" stroke="none" d="
M 42.65 121.2
L 42.8 121.15 55.15 142.7 63 142.7 63 108.85 55.15 108.85 55.15 130.35 55.05 130.4 42.65 108.85 34.75 108.85 34.75 142.7 42.65 142.7 42.65 121.2 Z"/>
</g>

<g id="DIY_Free_Support_300x600_psd_Asset_01_01_0_Layer1_27_FILL">
<path fill="#FFFFFF" stroke="none" d="
M 75.95 108.85
L 68.1 108.85 68.1 142.7 90.5 142.7 90.5 136.65 75.95 136.65 75.95 108.85 Z"/>
</g>

<g id="DIY_Free_Support_300x600_psd_Asset_01_01_0_Layer1_28_FILL">
<path fill="#FFFFFF" stroke="none" d="
M 101.65 108.85
L 93.8 108.85 93.8 142.7 101.65 142.7 101.65 108.85 Z"/>
</g>

<g id="DIY_Free_Support_300x600_psd_Asset_01_01_0_Layer1_29_FILL">
<path fill="#FFFFFF" stroke="none" d="
M 135.2 108.85
L 127.35 108.85 127.35 130.35 127.2 130.4 114.85 108.85 106.95 108.85 106.95 142.7 114.85 142.7 114.85 121.2 115 121.15 127.35 142.7 135.2 142.7 135.2 108.85 Z"/>
</g>

<g id="DIY_Free_Support_300x600_psd_Asset_01_01_0_Layer1_30_FILL">
<path fill="#FFFFFF" stroke="none" d="
M 163.8 114.9
L 163.8 108.85 140.25 108.85 140.25 142.7 163.8 142.7 163.8 136.65 148.15 136.65 148.15 128.2 161.4 128.2 161.4 122.2 148.15 122.2 148.15 114.9 163.8 114.9 Z"/>
</g>

<g id="DIY_Free_Support_300x600_psd_Asset_01_01_0_Layer1_31_FILL">
<path fill="#FFFFFF" stroke="none" d="
M 1075.9 470.65
L 1074.75 475.75 1077.9 475.75 1080.4 470.75 1080.4 466.65 1075.9 466.65 1075.9 470.65 Z"/>
</g>
</defs>

<g transform="matrix( 1, 0, 0, 1, -931,-201) ">
<g transform="matrix( 0.66973876953125, 0, 0, 0.672821044921875, 950.4,406.65) ">
<use xlink:href="#DIY_Free_Support_300x600_psd_Asset_01_01_0_Layer1_0_FILL"/>
</g>

<g transform="matrix( 0.66973876953125, 0, 0, 0.672821044921875, 950.4,406.65) ">
<use xlink:href="#DIY_Free_Support_300x600_psd_Asset_01_01_0_Layer1_1_FILL"/>
</g>

<g transform="matrix( 0.66973876953125, 0, 0, 0.672821044921875, 950.4,406.65) ">
<use xlink:href="#DIY_Free_Support_300x600_psd_Asset_01_01_0_Layer1_2_FILL"/>
</g>

<g transform="matrix( 0.66973876953125, 0, 0, 0.672821044921875, 950.4,406.65) ">
<use xlink:href="#DIY_Free_Support_300x600_psd_Asset_01_01_0_Layer1_3_FILL"/>
</g>

<g transform="matrix( 0.66973876953125, 0, 0, 0.672821044921875, 950.4,406.65) ">
<use xlink:href="#DIY_Free_Support_300x600_psd_Asset_01_01_0_Layer1_4_FILL"/>
</g>

<g transform="matrix( 0.66973876953125, 0, 0, 0.672821044921875, 950.4,406.65) ">
<use xlink:href="#DIY_Free_Support_300x600_psd_Asset_01_01_0_Layer1_5_FILL"/>
</g>

<g transform="matrix( 0.66973876953125, 0, 0, 0.672821044921875, 950.4,406.65) ">
<use xlink:href="#DIY_Free_Support_300x600_psd_Asset_01_01_0_Layer1_6_FILL"/>
</g>

<g transform="matrix( 0.66973876953125, 0, 0, 0.672821044921875, 950.4,406.65) ">
<use xlink:href="#DIY_Free_Support_300x600_psd_Asset_01_01_0_Layer1_7_FILL"/>
</g>

<g transform="matrix( 0.66973876953125, 0, 0, 0.672821044921875, 950.4,406.65) ">
<use xlink:href="#DIY_Free_Support_300x600_psd_Asset_01_01_0_Layer1_8_FILL"/>
</g>

<g transform="matrix( 0.66973876953125, 0, 0, 0.672821044921875, 950.4,406.65) ">
<use xlink:href="#DIY_Free_Support_300x600_psd_Asset_01_01_0_Layer1_9_FILL"/>
</g>

<g transform="matrix( 0.66973876953125, 0, 0, 0.672821044921875, 950.4,406.65) ">
<use xlink:href="#DIY_Free_Support_300x600_psd_Asset_01_01_0_Layer1_10_FILL"/>
</g>

<g transform="matrix( 0.66973876953125, 0, 0, 0.672821044921875, 950.4,406.65) ">
<use xlink:href="#DIY_Free_Support_300x600_psd_Asset_01_01_0_Layer1_11_FILL"/>
</g>

<g transform="matrix( 0.66973876953125, 0, 0, 0.672821044921875, 950.4,406.65) ">
<use xlink:href="#DIY_Free_Support_300x600_psd_Asset_01_01_0_Layer1_12_FILL"/>
</g>

<g transform="matrix( 0.66973876953125, 0, 0, 0.672821044921875, 950.4,406.65) ">
<use xlink:href="#DIY_Free_Support_300x600_psd_Asset_01_01_0_Layer1_13_FILL"/>
</g>

<g transform="matrix( 0.66973876953125, 0, 0, 0.672821044921875, 950.4,406.65) ">
<use xlink:href="#DIY_Free_Support_300x600_psd_Asset_01_01_0_Layer1_14_FILL"/>
</g>

<g transform="matrix( 0.66973876953125, 0, 0, 0.672821044921875, 950.4,406.65) ">
<use xlink:href="#DIY_Free_Support_300x600_psd_Asset_01_01_0_Layer1_15_FILL"/>
</g>

<g transform="matrix( 0.66973876953125, 0, 0, 0.672821044921875, 950.4,406.65) ">
<use xlink:href="#DIY_Free_Support_300x600_psd_Asset_01_01_0_Layer1_16_FILL"/>
</g>

<g transform="matrix( 0.66973876953125, 0, 0, 0.672821044921875, 950.4,406.65) ">
<use xlink:href="#DIY_Free_Support_300x600_psd_Asset_01_01_0_Layer1_17_FILL"/>
</g>

<g transform="matrix( 0.66973876953125, 0, 0, 0.672821044921875, 950.4,406.65) ">
<use xlink:href="#DIY_Free_Support_300x600_psd_Asset_01_01_0_Layer1_18_FILL"/>
</g>

<g transform="matrix( 0.66973876953125, 0, 0, 0.672821044921875, 950.4,406.65) ">
<use xlink:href="#DIY_Free_Support_300x600_psd_Asset_01_01_0_Layer1_19_FILL"/>
</g>

<g transform="matrix( 0.66973876953125, 0, 0, 0.672821044921875, 950.4,406.65) ">
<use xlink:href="#DIY_Free_Support_300x600_psd_Asset_01_01_0_Layer1_20_FILL"/>
</g>

<g transform="matrix( 0.66973876953125, 0, 0, 0.672821044921875, 950.4,406.65) ">
<use xlink:href="#DIY_Free_Support_300x600_psd_Asset_01_01_0_Layer1_21_FILL"/>
</g>

<g transform="matrix( 0.66973876953125, 0, 0, 0.672821044921875, 950.4,406.65) ">
<use xlink:href="#DIY_Free_Support_300x600_psd_Asset_01_01_0_Layer1_22_FILL"/>
</g>

<g transform="matrix( 0.66973876953125, 0, 0, 0.672821044921875, 950.4,406.65) ">
<use xlink:href="#DIY_Free_Support_300x600_psd_Asset_01_01_0_Layer1_23_FILL"/>
</g>

<g transform="matrix( 0.66973876953125, 0, 0, 0.672821044921875, 950.4,406.65) ">
<use xlink:href="#DIY_Free_Support_300x600_psd_Asset_01_01_0_Layer1_24_FILL"/>
</g>

<g transform="matrix( 0.66973876953125, 0, 0, 0.672821044921875, 950.4,406.65) ">
<use xlink:href="#DIY_Free_Support_300x600_psd_Asset_01_01_0_Layer1_25_FILL"/>
</g>

<g transform="matrix( 0.66973876953125, 0, 0, 0.672821044921875, 950.4,406.65) ">
<use xlink:href="#DIY_Free_Support_300x600_psd_Asset_01_01_0_Layer1_26_FILL"/>
</g>

<g transform="matrix( 0.66973876953125, 0, 0, 0.672821044921875, 950.4,406.65) ">
<use xlink:href="#DIY_Free_Support_300x600_psd_Asset_01_01_0_Layer1_27_FILL"/>
</g>

<g transform="matrix( 0.66973876953125, 0, 0, 0.672821044921875, 950.4,406.65) ">
<use xlink:href="#DIY_Free_Support_300x600_psd_Asset_01_01_0_Layer1_28_FILL"/>
</g>

<g transform="matrix( 0.66973876953125, 0, 0, 0.672821044921875, 950.4,406.65) ">
<use xlink:href="#DIY_Free_Support_300x600_psd_Asset_01_01_0_Layer1_29_FILL"/>
</g>

<g transform="matrix( 0.66973876953125, 0, 0, 0.672821044921875, 950.4,406.65) ">
<use xlink:href="#DIY_Free_Support_300x600_psd_Asset_01_01_0_Layer1_30_FILL"/>
</g>

<g transform="matrix( 1, 0, 0, 1, -11,30.35) ">
<use xlink:href="#DIY_Free_Support_300x600_psd_Asset_01_01_0_Layer1_31_FILL"/>
</g>
</g>
</svg>
