
<svg xmlns="http://www.w3.org/2000/svg" version="1.1" xmlns:xlink="http://www.w3.org/1999/xlink" preserveAspectRatio="none" x="0px" y="0px" width="300px" height="250px" viewBox="0 0 300 250">
<defs>
<g id="DIY_Simple_to_Complicated_300x250_psd_Asset_1_04_Laptop_Always_free_to_file_0_Layer0_0_MEMBER_0_FILL">
<path fill="#FFFFFF" stroke="none" d="
M 29.05 -50.2
L 16.55 -50.2 0.15 0 12.45 0 15.35 -9.75 30.25 -9.75 33.2 0 45.45 0 29.05 -50.2
M 18.05 -18.7
L 22.7 -34.3 22.9 -34.3 27.6 -18.7 18.05 -18.7 Z"/>
</g>

<g id="DIY_Simple_to_Complicated_300x250_psd_Asset_1_04_Laptop_Always_free_to_file_0_Layer0_0_MEMBER_1_FILL">
<path fill="#FFFFFF" stroke="none" d="
M 62.45 -50.2
L 50.8 -50.2 50.8 0 84 0 84 -8.95 62.45 -8.95 62.45 -50.2 Z"/>
</g>

<g id="DIY_Simple_to_Complicated_300x250_psd_Asset_1_04_Laptop_Always_free_to_file_0_Layer0_0_MEMBER_2_FILL">
<path fill="#FFFFFF" stroke="none" d="
M 147.25 -50.2
L 135.45 -50.2 129.4 -17.65 129.2 -17.65 120.65 -50.2 111.85 -50.2 103.35 -17.6 103.1 -17.6 97.05 -50.2 85.25 -50.2 96.8 0 107.75 0 116.1 -31 116.3 -31 124.75 0 135.75 0 147.25 -50.2 Z"/>
</g>

<g id="DIY_Simple_to_Complicated_300x250_psd_Asset_1_04_Laptop_Always_free_to_file_0_Layer0_0_MEMBER_3_FILL">
<path fill="#FFFFFF" stroke="none" d="
M 170.8 -50.2
L 164.55 -50.2 148.2 0 160.45 0 163.35 -9.75 178.25 -9.75 181.2 0 193.5 0 177.05 -50.2 170.85 -50.2 170.8 -50.15 170.8 -50.2
M 166.05 -18.7
L 170.7 -34.3 170.9 -34.3 175.6 -18.7 166.05 -18.7 Z"/>
</g>

<g id="DIY_Simple_to_Complicated_300x250_psd_Asset_1_04_Laptop_Always_free_to_file_0_Layer0_0_MEMBER_4_FILL">
<path fill="#FFFFFF" stroke="none" d="
M 233.35 -50.2
L 220.75 -50.2 210.75 -28.25 210.55 -28.25 200.6 -50.2 187.95 -50.2 204.7 -18.15 204.7 0 216.35 0 216.35 -17.65 233.35 -50.2 Z"/>
</g>

<g id="DIY_Simple_to_Complicated_300x250_psd_Asset_1_04_Laptop_Always_free_to_file_0_Layer0_0_MEMBER_5_FILL">
<path fill="#FFFFFF" stroke="none" d="
M 237.75 -36.8
Q 237.75 -30.4 242.3 -26.95 246.75 -23.55 256.15 -20.5 260.75 -18.85 262.55 -17.45 264.3 -15.95 264.3 -13.3 264.3 -11 262.5 -9.5 260.65 -8.05 257.05 -8.05 252.7 -8.05 250.45 -9.9 248.3 -11.75 248.3 -16.15
L 236.95 -16.15 236.9 -15.95
Q 236.7 -7.3 242.65 -3.3 248.45 0.7 257.05 0.7 265.7 0.7 270.8 -3 275.95 -6.8 275.95 -13.4 275.95 -19.85 271.45 -23.6 267.05 -27.25 258.25 -29.9 253.35 -31.75 251.25 -33.2 249.35 -34.55 249.35 -36.75 249.35 -39 251.2 -40.55 252.95 -42.1 256.2 -42.1 260.2 -42.1 262 -40.5 263.95 -38.9 263.95 -35.35
L 275.25 -35.35 275.35 -35.55
Q 275.5 -42.85 270.25 -46.9 265.05 -50.9 256.45 -50.9 248.3 -50.9 243.05 -47 237.75 -43.1 237.75 -36.8 Z"/>
</g>

<g id="DIY_Simple_to_Complicated_300x250_psd_Asset_1_04_Laptop_Always_free_to_file_0_Layer0_0_MEMBER_6_FILL">
<path fill="#FFFFFF" stroke="none" d="
M 23.3 15.7
L 23.3 10.15 2.5 10.15 2.5 41.3 9.7 41.3 9.7 28.75 21.15 28.75 21.15 23.2 9.7 23.2 9.7 15.7 23.3 15.7 Z"/>
</g>

<g id="DIY_Simple_to_Complicated_300x250_psd_Asset_1_04_Laptop_Always_free_to_file_0_Layer0_0_MEMBER_7_FILL">
<path fill="#FFFFFF" stroke="none" d="
M 50.65 19.5
Q 50.65 15.15 47.5 12.65 44.4 10.15 38.9 10.15
L 28.05 10.15 28.05 41.3 35.3 41.3 35.3 29.35 39.15 29.35
Q 41.4 29.35 42.6 30.55 43.8 31.7 43.8 33.95
L 43.8 35.8
Q 43.8 37.6 44.05 38.95 44.25 40.55 45.15 41.3
L 52.65 41.3 52.65 40.9
Q 51.7 40.2 51.35 38.65 51 37.2 51 35.85
L 51 33.9
Q 51 31.05 49.75 29.2 48.5 27.25 45.65 26.45 48.1 25.4 49.4 23.65 50.65 21.95 50.65 19.5
M 43.45 19.95
Q 43.45 21.8 42.3 22.8 41.05 23.8 38.95 23.8
L 35.3 23.8 35.3 15.7 38.9 15.7
Q 41 15.7 42.25 16.85 43.45 18.05 43.45 19.95 Z"/>
</g>

<g id="DIY_Simple_to_Complicated_300x250_psd_Asset_1_04_Laptop_Always_free_to_file_0_Layer0_0_MEMBER_8_FILL">
<path fill="#FFFFFF" stroke="none" d="
M 75.3 22.4
L 64.35 22.4 64.35 15.7 77.55 15.7 77.55 10.15 57.1 10.15 57.1 41.3 77.5 41.3 77.5 35.75 64.35 35.75 64.35 27.95 75.3 27.95 75.3 22.4 Z"/>
</g>

<g id="DIY_Simple_to_Complicated_300x250_psd_Asset_1_04_Laptop_Always_free_to_file_0_Layer0_0_MEMBER_9_FILL">
<path fill="#FFFFFF" stroke="none" d="
M 103.1 15.7
L 103.1 10.15 82.65 10.15 82.65 41.3 103.05 41.3 103.05 35.75 89.9 35.75 89.9 27.95 100.9 27.95 100.9 22.4 89.9 22.4 89.9 15.7 103.1 15.7 Z"/>
</g>

<g id="DIY_Simple_to_Complicated_300x250_psd_Asset_1_04_Laptop_Always_free_to_file_0_Layer0_0_MEMBER_10_FILL">
<path fill="#FFFFFF" stroke="none" d="
M 141.95 15.7
L 141.95 10.15 118.35 10.15 118.35 15.7 126.45 15.7 126.45 41.3 133.7 41.3 133.7 15.7 141.95 15.7 Z"/>
</g>

<g id="DIY_Simple_to_Complicated_300x250_psd_Asset_1_04_Laptop_Always_free_to_file_0_Layer0_0_MEMBER_11_FILL">
<path fill="#FFFFFF" stroke="none" d="
M 171.25 28.5
L 171.25 22.9
Q 171.25 17.2 167.6 13.45 163.95 9.7 158.05 9.7 152.15 9.7 148.45 13.45 144.8 17.2 144.8 22.9
L 144.8 28.5
Q 144.8 34.35 148.45 38 152.2 41.75 158.1 41.75 164 41.75 167.6 38 171.25 34.35 171.25 28.5
M 164.05 22.85
L 164.05 28.5
Q 164.05 31.9 162.5 34.05 160.9 36.2 158.1 36.2 155.2 36.2 153.6 34.05 152 31.85 152 28.5
L 152 22.85
Q 152 19.45 153.55 17.4 155.1 15.25 158.05 15.25 160.95 15.25 162.5 17.4 164.05 19.45 164.05 22.85 Z"/>
</g>

<g id="DIY_Simple_to_Complicated_300x250_psd_Asset_1_04_Laptop_Always_free_to_file_0_Layer0_0_MEMBER_12_FILL">
<path fill="#FFFFFF" stroke="none" d="
M 207.45 28.75
L 207.45 23.2 196.05 23.2 196.05 15.7 209.65 15.7 209.65 10.15 188.8 10.15 188.8 41.3 196.05 41.3 196.05 28.75 207.45 28.75 Z"/>
</g>

<g id="DIY_Simple_to_Complicated_300x250_psd_Asset_1_04_Laptop_Always_free_to_file_0_Layer0_0_MEMBER_13_FILL">
<path fill="#FFFFFF" stroke="none" d="
M 222.05 41.3
L 222.05 10.15 214.8 10.15 214.8 41.3 222.05 41.3 Z"/>
</g>

<g id="DIY_Simple_to_Complicated_300x250_psd_Asset_1_04_Laptop_Always_free_to_file_0_Layer0_0_MEMBER_14_FILL">
<path fill="#FFFFFF" stroke="none" d="
M 249.15 41.3
L 249.15 35.75 235.75 35.75 235.75 10.15 228.55 10.15 228.55 41.3 249.15 41.3 Z"/>
</g>

<g id="DIY_Simple_to_Complicated_300x250_psd_Asset_1_04_Laptop_Always_free_to_file_0_Layer0_0_MEMBER_15_FILL">
<path fill="#FFFFFF" stroke="none" d="
M 274.55 15.7
L 274.55 10.15 254.15 10.15 254.15 41.3 274.55 41.3 274.55 35.75 261.35 35.75 261.35 27.95 272.35 27.95 272.35 22.4 261.35 22.4 261.35 15.7 274.55 15.7 Z"/>
</g>
</defs>

<g transform="matrix( 1, 0, 0, 1, -436,-89) ">
<g transform="matrix( 1, 0, 0, 1, 441,107) ">
<g transform="matrix( 1, 0, 0, 1, 62,47) ">
<g transform="matrix( 0.5848541259765625, 0, 0, 0.5875396728515625, 0.05,29.15) ">
<use xlink:href="#DIY_Simple_to_Complicated_300x250_psd_Asset_1_04_Laptop_Always_free_to_file_0_Layer0_0_MEMBER_0_FILL"/>
</g>

<g transform="matrix( 0.5848541259765625, 0, 0, 0.5875396728515625, 0.05,29.15) ">
<use xlink:href="#DIY_Simple_to_Complicated_300x250_psd_Asset_1_04_Laptop_Always_free_to_file_0_Layer0_0_MEMBER_1_FILL"/>
</g>

<g transform="matrix( 0.5848541259765625, 0, 0, 0.5875396728515625, 0.05,29.15) ">
<use xlink:href="#DIY_Simple_to_Complicated_300x250_psd_Asset_1_04_Laptop_Always_free_to_file_0_Layer0_0_MEMBER_2_FILL"/>
</g>

<g transform="matrix( 0.5848541259765625, 0, 0, 0.5875396728515625, 0.05,29.15) ">
<use xlink:href="#DIY_Simple_to_Complicated_300x250_psd_Asset_1_04_Laptop_Always_free_to_file_0_Layer0_0_MEMBER_3_FILL"/>
</g>

<g transform="matrix( 0.5848541259765625, 0, 0, 0.5875396728515625, 0.05,29.15) ">
<use xlink:href="#DIY_Simple_to_Complicated_300x250_psd_Asset_1_04_Laptop_Always_free_to_file_0_Layer0_0_MEMBER_4_FILL"/>
</g>

<g transform="matrix( 0.5848541259765625, 0, 0, 0.5875396728515625, 0.05,29.15) ">
<use xlink:href="#DIY_Simple_to_Complicated_300x250_psd_Asset_1_04_Laptop_Always_free_to_file_0_Layer0_0_MEMBER_5_FILL"/>
</g>

<g transform="matrix( 0.5848541259765625, 0, 0, 0.5875396728515625, 0.05,29.15) ">
<use xlink:href="#DIY_Simple_to_Complicated_300x250_psd_Asset_1_04_Laptop_Always_free_to_file_0_Layer0_0_MEMBER_6_FILL"/>
</g>

<g transform="matrix( 0.5848541259765625, 0, 0, 0.5875396728515625, 0.05,29.15) ">
<use xlink:href="#DIY_Simple_to_Complicated_300x250_psd_Asset_1_04_Laptop_Always_free_to_file_0_Layer0_0_MEMBER_7_FILL"/>
</g>

<g transform="matrix( 0.5848541259765625, 0, 0, 0.5875396728515625, 0.05,29.15) ">
<use xlink:href="#DIY_Simple_to_Complicated_300x250_psd_Asset_1_04_Laptop_Always_free_to_file_0_Layer0_0_MEMBER_8_FILL"/>
</g>

<g transform="matrix( 0.5848541259765625, 0, 0, 0.5875396728515625, 0.05,29.15) ">
<use xlink:href="#DIY_Simple_to_Complicated_300x250_psd_Asset_1_04_Laptop_Always_free_to_file_0_Layer0_0_MEMBER_9_FILL"/>
</g>

<g transform="matrix( 0.5848541259765625, 0, 0, 0.5875396728515625, 0.05,29.15) ">
<use xlink:href="#DIY_Simple_to_Complicated_300x250_psd_Asset_1_04_Laptop_Always_free_to_file_0_Layer0_0_MEMBER_10_FILL"/>
</g>

<g transform="matrix( 0.5848541259765625, 0, 0, 0.5875396728515625, 0.05,29.15) ">
<use xlink:href="#DIY_Simple_to_Complicated_300x250_psd_Asset_1_04_Laptop_Always_free_to_file_0_Layer0_0_MEMBER_11_FILL"/>
</g>

<g transform="matrix( 0.5848541259765625, 0, 0, 0.5875396728515625, 0.05,29.15) ">
<use xlink:href="#DIY_Simple_to_Complicated_300x250_psd_Asset_1_04_Laptop_Always_free_to_file_0_Layer0_0_MEMBER_12_FILL"/>
</g>

<g transform="matrix( 0.5848541259765625, 0, 0, 0.5875396728515625, 0.05,29.15) ">
<use xlink:href="#DIY_Simple_to_Complicated_300x250_psd_Asset_1_04_Laptop_Always_free_to_file_0_Layer0_0_MEMBER_13_FILL"/>
</g>

<g transform="matrix( 0.5848541259765625, 0, 0, 0.5875396728515625, 0.05,29.15) ">
<use xlink:href="#DIY_Simple_to_Complicated_300x250_psd_Asset_1_04_Laptop_Always_free_to_file_0_Layer0_0_MEMBER_14_FILL"/>
</g>

<g transform="matrix( 0.5848541259765625, 0, 0, 0.5875396728515625, 0.05,29.15) ">
<use xlink:href="#DIY_Simple_to_Complicated_300x250_psd_Asset_1_04_Laptop_Always_free_to_file_0_Layer0_0_MEMBER_15_FILL"/>
</g>
</g>
</g>
</g>
</svg>
