<?xml version="1.0" encoding="utf-8"?>
<!-- Generator: Adobe Illustrator 19.2.1, SVG Export Plug-In . SVG Version: 6.00 Build 0)  -->
<svg version="1.1" id="Layer_1" xmlns="http://www.w3.org/2000/svg" xmlns:xlink="http://www.w3.org/1999/xlink" x="0px" y="0px"
	 viewBox="0 0 300 250" style="enable-background:new 0 0 300 250;" xml:space="preserve">
<style type="text/css">
	.st0{display:none;}
	.st1{display:inline;}
	.st2{fill:#68CE00;}
	.st3{fill:#7DC142;}
	.st4{fill:#FFFFFF;}
	.st5{fill:#231F20;}
</style>
<g transform="matrix( 1.131378173828125, 0, 0, 1.131378173828125, 96.5,214.35) " class="st0">
	<g class="st1">
		<g id="Layer0_0_FILL">
			<path d="M47.5,17.8h-3.8v0.4h1.7v5.1h0.4v-5.1h1.7V17.8z"/>
		</g>
	</g>
</g>
<g transform="matrix( 1.131378173828125, 0, 0, 1.131378173828125, 96.5,214.35) " class="st0">
	<g class="st1">
		<g id="Layer0_1_FILL">
			<path d="M49.7,17.8h-0.4l-2,5.4h0.4l0.5-1.5h2.6l0.5,1.5h0.4L49.7,17.8 M48.3,21.4l1.2-3.3l1.2,3.3H48.3z"/>
		</g>
	</g>
</g>
<g transform="matrix( 1.131378173828125, 0, 0, 1.131378173828125, 96.5,214.35) " class="st0">
	<g class="st1">
		<g id="Layer0_2_FILL">
			<path d="M56.4,17.8H56l-1.6,2.4l-1.7-2.4h-0.4l1.9,2.7l-1.9,2.8h0.4l1.7-2.5l1.6,2.5h0.4l-1.9-2.8L56.4,17.8z"/>
		</g>
	</g>
</g>
<g transform="matrix( 1.131378173828125, 0, 0, 1.131378173828125, 96.5,214.35) " class="st0">
	<g class="st1">
		<g id="Layer0_3_FILL">
			<path d="M69.4,20.4v-2.2h3v-0.4H69v5.4h0.4v-2.5h2.8v-0.4H69.4z"/>
		</g>
	</g>
</g>
<g transform="matrix( 1.131378173828125, 0, 0, 1.131378173828125, 96.5,214.35) " class="st0">
	<g class="st1">
		<g id="Layer0_4_FILL">
			<path d="M76.6,17.8h-3.8v0.4h1.7v5.1h0.4v-5.1h1.7V17.8z"/>
		</g>
	</g>
</g>
<g transform="matrix( 1.131378173828125, 0, 0, 1.131378173828125, 96.5,214.35) " class="st0">
	<g class="st1">
		<g id="Layer0_5_FILL">
			<path d="M83.4,17.8H83l-1.1,4.9l-1.5-4.9H80l-1.5,4.9l-1.1-4.9H77l1.3,5.4h0.4l1.5-5l1.5,5h0.4L83.4,17.8z"/>
		</g>
	</g>
</g>
<g transform="matrix( 1.131378173828125, 0, 0, 1.131378173828125, 96.5,214.35) " class="st0">
	<g class="st1">
		<g id="Layer0_6_FILL">
			<path d="M85.8,17.8h-0.4l-2,5.4h0.4l0.5-1.5H87l0.5,1.5h0.4L85.8,17.8 M84.5,21.4l1.2-3.3l1.2,3.3H84.5z"/>
		</g>
	</g>
</g>
<g transform="matrix( 1.131378173828125, 0, 0, 1.131378173828125, 96.5,214.35) " class="st0">
	<g class="st1">
		<g id="Layer0_7_FILL">
			<path class="st2" d="M0,0v17.4h17.5V0H0z"/>
		</g>
	</g>
</g>
<g transform="matrix( 1.131378173828125, 0, 0, 1.131378173828125, 96.5,214.35) " class="st0">
	<g class="st1">
		<g id="Layer0_8_FILL">
			<path d="M37.5,4.5c-0.5-0.4-1.2-0.6-2-0.6c-0.9,0-1.6,0.2-2.1,0.7c-0.5,0.4-0.8,1-0.8,1.7c0,0.6,0.2,1.1,0.7,1.6
				c-1.1,0.5-1.6,1.3-1.6,2.5c0,0.9,0.3,1.6,1,2.1c0.7,0.5,1.6,0.8,2.8,0.8c0.9,0,1.6-0.2,2.2-0.6l0.3,0.4h2.5l-1.7-1.9
				c0.2-0.4,0.4-1,0.4-1.7V8h-2v1.3L35.2,7c-0.2-0.3-0.4-0.5-0.4-0.8c0-0.4,0.2-0.5,0.7-0.5c0.4,0,0.6,0.2,0.6,0.6v0.4h2.2V6.2
				C38.3,5.5,38,4.9,37.5,4.5 M34.5,11c-0.3-0.2-0.5-0.5-0.5-0.9c0-0.4,0.2-0.7,0.6-1l1.8,1.9c-0.2,0.2-0.5,0.3-0.9,0.3
				C35.1,11.3,34.8,11.2,34.5,11z"/>
		</g>
	</g>
</g>
<g transform="matrix( 1.131378173828125, 0, 0, 1.131378173828125, 96.5,214.35) " class="st0">
	<g class="st1">
		<g id="Layer0_9_FILL">
			<path d="M48.3,5c-0.6-0.6-1.5-0.9-2.6-0.9h-4.5V13H44v-2.3h0.8l1.4,2.3h3.3l-1.8-2.8c1-0.6,1.5-1.5,1.5-2.8
				C49.2,6.4,48.9,5.6,48.3,5 M44,6.3h1.3c0.7,0,1.1,0.4,1.1,1.1c0,0.7-0.4,1-1.1,1H44V6.3z"/>
		</g>
	</g>
</g>
<g transform="matrix( 1.131378173828125, 0, 0, 1.131378173828125, 96.5,214.35) " class="st0">
	<g class="st1">
		<g id="Layer0_10_FILL">
			<path d="M25.3,9.8h2.3V13h2.8V4.1h-2.8v3.2h-2.3V4.1h-2.8V13h2.8V9.8z"/>
		</g>
	</g>
</g>
<g transform="matrix( 1.131378173828125, 0, 0, 1.131378173828125, 96.5,214.35) " class="st0">
	<g class="st1">
		<g id="Layer0_11_FILL">
			<path d="M60.8,12.3c0.5-0.5,0.8-1.1,0.8-1.9c0-1.1-0.6-1.8-1.8-2.1c0.8-0.4,1.2-1,1.2-2c0-0.7-0.2-1.3-0.7-1.7
				c-0.5-0.4-1.1-0.7-1.9-0.7h-4.6V13h4.7C59.5,13,60.2,12.7,60.8,12.3 M56.5,6.1h1.3c0.5,0,0.7,0.2,0.7,0.7c0,0.5-0.2,0.8-0.7,0.8
				h-1.3V6.1 M59,10.2c0,0.5-0.2,0.7-0.7,0.8h-1.8V9.4h1.8C58.7,9.4,59,9.7,59,10.2z"/>
		</g>
	</g>
</g>
<g transform="matrix( 1.131378173828125, 0, 0, 1.131378173828125, 96.5,214.35) " class="st0">
	<g class="st1">
		<g id="Layer0_12_FILL">
			<path d="M62.8,4.1V13h6.4v-2.3h-3.7V4.1H62.8z"/>
		</g>
	</g>
</g>
<g transform="matrix( 1.131378173828125, 0, 0, 1.131378173828125, 96.5,214.35) " class="st0">
	<g class="st1">
		<g id="Layer0_13_FILL">
			<path d="M74.1,3.9c-1.4,0-2.4,0.4-3.2,1.2c-0.7,0.7-1.1,1.7-1.1,3v1.1c0,1.2,0.4,2.2,1.1,2.9c0.7,0.7,1.8,1.1,3.2,1.1
				c1.4,0,2.4-0.4,3.2-1.1c0.7-0.7,1-1.7,1-2.9V8c0-1.3-0.3-2.3-1-3C76.5,4.2,75.5,3.9,74.1,3.9 M75.6,7.8v1.5
				c0,1.1-0.5,1.6-1.5,1.6c-1,0-1.4-0.5-1.4-1.6V7.8c0-1,0.5-1.6,1.4-1.6C75.1,6.2,75.6,6.7,75.6,7.8z"/>
		</g>
	</g>
</g>
<g transform="matrix( 1.131378173828125, 0, 0, 1.131378173828125, 96.5,214.35) " class="st0">
	<g class="st1">
		<g id="Layer0_14_FILL">
			<path d="M83.5,10.8c-0.9,0-1.4-0.5-1.4-1.6V7.8c0-1.1,0.5-1.6,1.4-1.6c0.9,0,1.3,0.4,1.4,1.3h2.7c-0.1-1-0.4-1.9-1.1-2.6
				c-0.7-0.7-1.7-1.1-2.9-1.1c-1.4,0-2.5,0.4-3.2,1.2c-0.7,0.7-1,1.7-1,2.9v1.2c0,1.2,0.3,2.2,1,2.9c0.7,0.7,1.8,1.1,3.2,1.1
				c1.2,0,2.2-0.4,2.9-1.1c0.7-0.7,1-1.5,1.1-2.6h-2.7C84.8,10.4,84.4,10.8,83.5,10.8z"/>
		</g>
	</g>
</g>
<g transform="matrix( 1.131378173828125, 0, 0, 1.131378173828125, 96.5,214.35) " class="st0">
	<g class="st1">
		<g id="Layer0_15_FILL">
			<path d="M91.9,9.3h0.2l1.8,3.7h3.3l-2.6-4.9l2.3-4h-3.1L92,7.2h-0.2V4.1h-2.8V13h2.8V9.3z"/>
		</g>
	</g>
</g>
<g transform="matrix( 1.131378173828125, 0, 0, 1.131378173828125, 96.5,214.35) " class="st0">
	<g class="st1">
		<g id="Layer0_16_FILL">
			<path d="M98.2,3.9c-0.5,0-0.7,0.3-0.7,0.8c0,0.5,0.2,0.7,0.7,0.7c0.5,0,0.7-0.2,0.8-0.7C99,4.1,98.7,3.9,98.2,3.9 M97.7,4.6
				c0-0.4,0.2-0.6,0.5-0.6c0.4,0,0.6,0.2,0.6,0.6c0,0.4-0.2,0.6-0.6,0.6C97.8,5.2,97.7,5,97.7,4.6 M98.5,4.5c0-0.1-0.1-0.2-0.3-0.2
				H98v0.6h0.2V4.7h0l0.1,0.2h0.3l-0.2-0.2L98.5,4.5 M98.3,4.6L98.3,4.6l-0.1-0.2h0.1l0.1,0L98.3,4.6z"/>
		</g>
	</g>
</g>
<g transform="matrix( 1.131378173828125, 0, 0, 1.131378173828125, 96.5,214.35) " class="st0">
	<g class="st1">
		<g id="Layer0_17_FILL">
			<path d="M62,22.9c0.4-0.3,0.6-0.6,0.6-1.1c0-0.7-0.4-1.1-1.1-1.3l-1.6-0.5c-0.5-0.1-0.8-0.4-0.8-0.9c0-0.7,0.5-1.1,1.4-1.1
				c1,0,1.5,0.4,1.5,1.3v0.1h0.4v-0.1c0-0.4-0.2-0.8-0.5-1.1c-0.4-0.3-0.8-0.5-1.3-0.5c-1.2,0-1.8,0.5-1.8,1.5c0,0.6,0.3,1,1,1.3
				l1.6,0.4c0.6,0.2,0.9,0.5,0.9,1c0,0.8-0.5,1.2-1.6,1.2c-0.5,0-0.8-0.1-1.1-0.4c-0.3-0.2-0.5-0.5-0.5-0.9v-0.1h-0.3v0.1
				c0,0.5,0.2,0.9,0.5,1.1c0.4,0.3,0.8,0.4,1.4,0.4C61.2,23.3,61.6,23.2,62,22.9z"/>
		</g>
	</g>
</g>
<g transform="matrix( 1.131378173828125, 0, 0, 1.131378173828125, 96.5,214.35) " class="st0">
	<g class="st1">
		<g id="Layer0_18_FILL">
			<path d="M65.7,17.7c-0.7,0-1.2,0.2-1.6,0.7c-0.4,0.4-0.5,1-0.5,1.6V21c0,0.7,0.2,1.2,0.5,1.6c0.4,0.5,0.9,0.7,1.6,0.7
				c0.7,0,1.2-0.2,1.6-0.7c0.4-0.4,0.5-1,0.5-1.6v-0.9c0-0.7-0.2-1.2-0.5-1.6C66.9,17.9,66.4,17.7,65.7,17.7 M65.7,23
				c-0.6,0-1.1-0.2-1.4-0.6C64,22,63.9,21.6,63.9,21v-1c0-1.4,0.6-2.1,1.8-2.1c1.2,0,1.8,0.7,1.8,2.1v1c0,0.6-0.2,1-0.4,1.4
				C66.8,22.8,66.3,23,65.7,23z"/>
		</g>
	</g>
</g>
<g transform="matrix( 1.131378173828125, 0, 0, 1.131378173828125, 96.5,214.35) " class="st0">
	<g class="st1">
		<g id="Layer0_19_FILL">
			<path d="M90.9,17.8h-2.1v5.4h0.3v-2.1H91l1.2,2.1h0.4l-1.2-2.2c0.8-0.2,1.2-0.7,1.2-1.6c0-0.4-0.1-0.8-0.4-1.2
				C91.8,18,91.4,17.8,90.9,17.8 M89.1,18.1h1.7c0.5,0,0.8,0.1,1.1,0.4c0.2,0.3,0.3,0.6,0.3,1c0,0.9-0.5,1.3-1.4,1.3h-1.7V18.1z"/>
		</g>
	</g>
</g>
<g transform="matrix( 1.131378173828125, 0, 0, 1.131378173828125, 96.5,214.35) " class="st0">
	<g class="st1">
		<g id="Layer0_20_FILL">
			<path d="M97.1,18.2v-0.4h-3.4v5.4h3.4v-0.3h-3v-2.3h2.8v-0.4h-2.8v-2.1H97.1z"/>
		</g>
	</g>
</g>
<rect x="96.7" y="206.6" class="st3" width="36.7" height="36.7"/>
<g id="KO_H_x26_R_BLOCK">
	<polygon class="st4" points="99.5,226 101.5,226 101.5,228.3 103.1,228.3 103.1,226 105.1,226 105.1,232.4 103.1,232.4 
		103.1,230.1 101.5,230.1 101.5,232.4 99.5,232.4 	"/>
	<path class="st4" d="M115.8,229.2c0.5,0,0.7-0.3,0.7-0.8c0-0.5-0.3-0.8-0.7-0.8h-1v1.5H115.8z M115.4,230.7h-0.6v1.7h-2V226h3.2
		c1.6,0,2.5,1,2.5,2.4c0,0.9-0.4,1.6-1.1,2l1.3,2h-2.3L115.4,230.7z"/>
	<path class="st4" d="M102.7,239.1c0.3,0,0.5-0.2,0.5-0.5c0-0.3-0.2-0.5-0.5-0.5h-1.3v1.1H102.7z M102.3,236.7
		c0.3,0,0.5-0.2,0.5-0.5c0-0.3-0.2-0.5-0.5-0.5h-0.9v1H102.3z M99.5,234.2h3.3c1.2,0,1.9,0.7,1.9,1.6c0,0.6-0.3,1.2-0.8,1.4
		c0.8,0.2,1.2,0.7,1.2,1.5c0,1.1-0.8,1.8-2.2,1.8h-3.3V234.2z"/>
	<polygon class="st4" points="105.9,234.2 107.9,234.2 107.9,238.9 110.5,238.9 110.5,240.6 105.9,240.6 	"/>
	<path class="st4" d="M115.1,237.9v-1c0-0.7-0.4-1.1-1-1.1c-0.7,0-1,0.4-1,1.1v1c0,0.7,0.4,1.1,1,1.1
		C114.7,239,115.1,238.6,115.1,237.9 M111,237.8V237c0-1.7,1-2.9,3-2.9c2,0,3,1.2,3,2.9v0.8c0,1.7-1,2.9-3,2.9
		C112,240.7,111,239.5,111,237.8"/>
	<path class="st4" d="M120.8,239c0.7,0,1-0.5,1-0.9h1.9c0,1.4-1,2.6-2.8,2.6c-2.1,0-3-1.2-3-2.9V237c0-1.7,1-2.9,3-2.9
		c1.8,0,2.8,1.2,2.8,2.6h-1.9c0-0.5-0.3-0.9-1-0.9c-0.7,0-1,0.4-1,1.1v1C119.8,238.6,120.1,239,120.8,239"/>
	<path class="st4" d="M131.3,234.6C131.3,234.6,131.3,234.5,131.3,234.6C131.3,234.5,131.3,234.5,131.3,234.6L131.3,234.6
		L131.3,234.6L131.3,234.6z M131.3,234.7L131.3,234.7l0,0.1h-0.1v-0.4h0.2c0.1,0,0.2,0.1,0.2,0.2c0,0.1,0,0.1-0.1,0.1l0.1,0.1h-0.2
		L131.3,234.7z M131.7,234.6c0-0.2-0.2-0.4-0.4-0.4c-0.3,0-0.4,0.2-0.4,0.4c0,0.2,0.2,0.4,0.4,0.4
		C131.5,235,131.7,234.8,131.7,234.6 M130.8,234.6c0-0.3,0.2-0.5,0.5-0.5c0.3,0,0.5,0.2,0.5,0.5c0,0.3-0.2,0.5-0.5,0.5
		C131,235.1,130.8,234.9,130.8,234.6"/>
	<polygon class="st4" points="124.7,234.2 126.7,234.2 126.7,236.4 126.8,236.4 128.1,234.2 130.4,234.2 128.7,237.1 130.6,240.6 
		128.2,240.6 126.9,237.9 126.7,237.9 126.7,240.6 124.7,240.6 	"/>
	<path class="st4" d="M108.7,231.2c-0.4,0-1-0.3-1-0.8c0-0.3,0.2-0.6,0.4-0.7c0,0,1,1.2,1.3,1.4C109.3,231.1,109,231.2,108.7,231.2
		 M111.2,231.1c0.2-0.4,0.3-0.9,0.3-1.2v-1H110v0.9l-1.5-1.7c-0.1-0.2-0.2-0.3-0.2-0.5c0-0.2,0.2-0.4,0.5-0.4c0.3,0,0.4,0.2,0.4,0.4
		v0.3h1.5v-0.4c0-1-0.8-1.6-2-1.6c-1.3,0-2.1,0.7-2.1,1.7c0,0.3,0.1,0.7,0.5,1.1c-0.6,0.3-1.2,0.8-1.2,1.7c0,1.3,1,2.1,2.7,2.1
		c0.6,0,1.2-0.2,1.6-0.4l0.3,0.3h1.8L111.2,231.1z"/>
</g>
<g id="TAX_SOFTWARE_1_">
	<path class="st5" d="M142.7,215.5h-2.8V215h6.2v0.5h-2.8v8.3h-0.6V215.5z"/>
	<path class="st5" d="M153.1,223.8h-0.6l-0.9-2.4h-4.3l-0.9,2.4h-0.6l3.3-8.8h0.6L153.1,223.8z M147.5,220.8h3.9l-1.9-5.3
		L147.5,220.8z"/>
	<path class="st5" d="M160.8,223.8h-0.7l-2.7-4l-2.7,4H154l3.1-4.5l-3-4.3h0.6l2.6,3.8l2.6-3.8h0.6l-3,4.3L160.8,223.8z"/>
	<path class="st5" d="M140.5,234.5v-0.2h0.6v0.2c0,1.3,1.1,2.1,2.6,2.1c1.5,0,2.6-0.7,2.6-2c0-0.8-0.5-1.4-1.4-1.6l-2.6-0.7
		c-1.1-0.3-1.7-1-1.7-2c0-1.5,1.2-2.3,2.9-2.3c1.8,0,3,1,3,2.5v0.2H146v-0.2c0-1.2-0.9-2-2.4-2c-1.4,0-2.3,0.7-2.3,1.8
		c0,0.9,0.4,1.3,1.2,1.5l2.6,0.7c1.1,0.3,1.8,1,1.8,2.1c0,1.6-1.4,2.5-3.2,2.5C141.8,237.1,140.5,236.1,140.5,234.5z"/>
	<path class="st5" d="M155.5,233.3c0,2.1-1.2,3.8-3.6,3.8c-2.4,0-3.6-1.7-3.6-3.8v-1.5c0-2.1,1.2-3.8,3.6-3.8c2.4,0,3.6,1.7,3.6,3.8
		V233.3z M154.9,231.7c0-1.8-0.9-3.3-3-3.3c-2.1,0-3,1.5-3,3.3v1.6c0,1.8,0.9,3.3,3,3.3c2.1,0,3-1.5,3-3.3V231.7z"/>
	<path class="st5" d="M157.4,228.1h5.5v0.5H158v3.7h4.5v0.5H158v4.1h-0.6V228.1z"/>
	<path class="st5" d="M166.3,228.6h-2.8v-0.5h6.2v0.5h-2.8v8.3h-0.6V228.6z"/>
	<path class="st5" d="M178.7,236.9h-0.6l-2.5-8.1l-2.5,8.1h-0.6l-2.1-8.8h0.6l1.8,8l2.4-8h0.7l2.4,8l1.8-8h0.6L178.7,236.9z"/>
	<path class="st5" d="M188.2,236.9h-0.6l-0.9-2.4h-4.3l-0.9,2.4h-0.6l3.3-8.8h0.6L188.2,236.9z M182.6,234h3.9l-1.9-5.3L182.6,234z"
		/>
	<path class="st5" d="M193.3,233.5H193h-2.9v3.4h-0.6v-8.8h3.5c1.8,0,2.8,1.3,2.8,2.7c0,1.2-0.7,2.3-2,2.6l2,3.5h-0.7L193.3,233.5z
		 M193,233c1.6,0,2.3-1,2.3-2.2c0-1.2-0.8-2.2-2.3-2.2h-2.8v4.4H193z"/>
	<path class="st5" d="M197.6,228.1h5.6v0.5h-5v3.6h4.7v0.5h-4.7v3.7h5v0.5h-5.7V228.1z"/>
</g>
</svg>
