
<svg xmlns="http://www.w3.org/2000/svg" version="1.1" xmlns:xlink="http://www.w3.org/1999/xlink" preserveAspectRatio="none" x="0px" y="0px" width="160px" height="600px" viewBox="0 0 160 600">
<defs>
<g id="DIY_Simple_to_Complicated_160x600_psd_Asset_04_Laptop_Always_free__to_file_0_Layer0_0_MEMBER_0_FILL">
<path fill="#FFFFFF" stroke="none" d="
M 28.95 -50.2
L 16.45 -50.2 0.25 0 11.95 0 14.8 -9.75 30.6 -9.75 33.45 0 45.2 0 28.95 -50.2
M 17.35 -18.7
L 22.6 -36.7 22.8 -36.7 28.05 -18.7 17.35 -18.7 Z"/>
</g>

<g id="DIY_Simple_to_Complicated_160x600_psd_Asset_04_Laptop_Always_free__to_file_0_Layer0_0_MEMBER_1_FILL">
<path fill="#FFFFFF" stroke="none" d="
M 60.35 -50.2
L 48.65 -50.2 48.65 0 81.95 0 81.95 -8.95 60.35 -8.95 60.35 -50.2 Z"/>
</g>

<g id="DIY_Simple_to_Complicated_160x600_psd_Asset_04_Laptop_Always_free__to_file_0_Layer0_0_MEMBER_2_FILL">
<path fill="#FFFFFF" stroke="none" d="
M 141.35 -50.2
L 130.05 -50.2 123.45 -17.25 123.25 -17.25 114.35 -50.2 106.25 -50.2 97.4 -17.25 97.2 -17.25 90.6 -50.2 79.3 -50.2 90.85 0 101.8 0 110.2 -30.95 110.4 -30.95 118.85 0 129.8 0 141.35 -50.2 Z"/>
</g>

<g id="DIY_Simple_to_Complicated_160x600_psd_Asset_04_Laptop_Always_free__to_file_0_Layer0_0_MEMBER_3_FILL">
<path fill="#FFFFFF" stroke="none" d="
M 152.55 -9.75
L 168.35 -9.75 171.2 0 182.95 0 166.7 -50.2 154.2 -50.2 138 0 149.7 0 152.55 -9.75
M 155.1 -18.7
L 160.35 -36.7 160.55 -36.7 165.75 -18.7 155.1 -18.7 Z"/>
</g>

<g id="DIY_Simple_to_Complicated_160x600_psd_Asset_04_Laptop_Always_free__to_file_0_Layer0_0_MEMBER_4_FILL">
<path fill="#FFFFFF" stroke="none" d="
M 221.25 -50.2
L 208.6 -50.2 198.6 -28.25 198.4 -28.25 188.45 -50.2 175.85 -50.2 192.6 -18.25 192.6 0 204.2 0 204.2 -17.65 221.25 -50.2 Z"/>
</g>

<g id="DIY_Simple_to_Complicated_160x600_psd_Asset_04_Laptop_Always_free__to_file_0_Layer0_0_MEMBER_5_FILL">
<path fill="#FFFFFF" stroke="none" d="
M 235.85 -33.2
Q 233.85 -34.6 233.85 -36.75 233.85 -39.05 235.85 -40.55 237.85 -42.1 241.35 -42.1 245 -42.1 247 -40.25 249.05 -38.35 249.05 -35.35
L 260.35 -35.35 260.4 -35.55
Q 260.55 -42.35 255.25 -46.6 250 -50.9 241.6 -50.9 233.2 -50.9 227.7 -47 222.25 -43.1 222.25 -36.8 222.25 -30.3 226.85 -26.9 231.3 -23.55 240.9 -20.5 245.35 -18.9 247.25 -17.4 249 -15.95 249 -13.3 249 -11 247.2 -9.5 245.45 -8.05 241.8 -8.05 237.15 -8.05 234.7 -9.95 232.4 -11.75 232.4 -16.15
L 221.05 -16.15 220.95 -15.95
Q 220.8 -7.85 227.05 -3.55 233.25 0.7 241.8 0.7 250.4 0.7 255.5 -3 260.65 -6.8 260.65 -13.4 260.65 -19.9 256.3 -23.6 252.05 -27.35 243.45 -29.9 238.1 -31.75 235.85 -33.2 Z"/>
</g>

<g id="DIY_Simple_to_Complicated_160x600_psd_Asset_04_Laptop_Always_free__to_file_0_Layer0_0_MEMBER_6_FILL">
<path fill="#FFFFFF" stroke="none" d="
M 62.3 39.25
L 62.3 25.05 6.25 25.05 6.25 104.7 24.8 104.7 24.8 72.65 56.7 72.65 56.7 58.45 24.8 58.45 24.8 39.25 62.3 39.25 Z"/>
</g>

<g id="DIY_Simple_to_Complicated_160x600_psd_Asset_04_Laptop_Always_free__to_file_0_Layer0_0_MEMBER_7_FILL">
<path fill="#FFFFFF" stroke="none" d="
M 129.6 48.95
Q 129.6 37.85 121.5 31.45 113.35 25.05 99.55 25.05
L 68.9 25.05 68.9 104.7 87.45 104.7 87.45 74.2 100.25 74.2
Q 106.05 74.2 109.05 77.2 112.05 80.2 112.05 85.9
L 112.05 90.7
Q 112.05 94.65 112.75 98.7 113.45 103.05 115.6 104.7
L 134.65 104.7 134.65 103.65
Q 132.4 101.95 131.4 97.95 130.5 94 130.5 90.8
L 130.5 85.8
Q 130.5 78.65 127.3 73.7 124.05 68.9 116.75 66.8 123.15 64.05 126.35 59.6 129.6 55.15 129.6 48.95
M 99.55 39.25
Q 105.1 39.25 108.15 42.25 111.15 45.25 111.15 50.1 111.15 54.9 108.2 57.4 105.3 59.95 99.7 59.95
L 87.45 59.95 87.45 39.25 99.55 39.25 Z"/>
</g>

<g id="DIY_Simple_to_Complicated_160x600_psd_Asset_04_Laptop_Always_free__to_file_0_Layer0_0_MEMBER_8_FILL">
<path fill="#FFFFFF" stroke="none" d="
M 196.8 39.25
L 196.8 25.05 141.3 25.05 141.3 104.7 196.65 104.7 196.65 90.5 159.85 90.5 159.85 70.65 191.1 70.65 191.1 56.4 159.85 56.4 159.85 39.25 196.8 39.25 Z"/>
</g>

<g id="DIY_Simple_to_Complicated_160x600_psd_Asset_04_Laptop_Always_free__to_file_0_Layer0_0_MEMBER_9_FILL">
<path fill="#FFFFFF" stroke="none" d="
M 260.2 39.25
L 260.2 25.05 204.7 25.05 204.7 104.7 260.1 104.7 260.1 90.5 223.25 90.5 223.25 70.65 254.5 70.65 254.5 56.4 223.25 56.4 223.25 39.25 260.2 39.25 Z"/>
</g>

<g id="DIY_Simple_to_Complicated_160x600_psd_Asset_04_Laptop_Always_free__to_file_0_Layer0_0_MEMBER_10_FILL">
<path fill="#FFFFFF" stroke="none" d="
M 43.4 140
L 43.4 130 1 130 1 140 15.65 140 15.65 185.95 28.65 185.95 28.65 140 43.4 140 Z"/>
</g>

<g id="DIY_Simple_to_Complicated_160x600_psd_Asset_04_Laptop_Always_free__to_file_0_Layer0_0_MEMBER_11_FILL">
<path fill="#FFFFFF" stroke="none" d="
M 68.7 129.2
Q 58.1 129.2 51.5 135.95 44.9 142.65 44.9 152.95
L 44.9 163
Q 44.9 173.4 51.5 180.05 58.15 186.75 68.75 186.75 79.3 186.75 85.85 180.05 92.4 173.45 92.4 163
L 92.4 152.95
Q 92.4 142.65 85.8 135.95 79.2 129.2 68.7 129.2
M 68.7 139.2
Q 73.8 139.2 76.65 143.05 79.45 146.8 79.45 152.85
L 79.45 163
Q 79.45 169.15 76.65 172.9 73.9 176.75 68.75 176.75 63.45 176.75 60.7 172.9 57.85 169.1 57.85 163
L 57.85 152.85
Q 57.85 146.85 60.65 143 63.45 139.2 68.7 139.2 Z"/>
</g>

<g id="DIY_Simple_to_Complicated_160x600_psd_Asset_04_Laptop_Always_free__to_file_0_Layer0_0_MEMBER_12_FILL">
<path fill="#FFFFFF" stroke="none" d="
M 156.5 140
L 156.5 130 117.15 130 117.15 185.95 130.2 185.95 130.2 163.45 152.6 163.45 152.6 153.45 130.2 153.45 130.2 140 156.5 140 Z"/>
</g>

<g id="DIY_Simple_to_Complicated_160x600_psd_Asset_04_Laptop_Always_free__to_file_0_Layer0_0_MEMBER_13_FILL">
<path fill="#FFFFFF" stroke="none" d="
M 174.5 185.95
L 174.5 130 161.55 130 161.55 185.95 174.5 185.95 Z"/>
</g>

<g id="DIY_Simple_to_Complicated_160x600_psd_Asset_04_Laptop_Always_free__to_file_0_Layer0_0_MEMBER_14_FILL">
<path fill="#FFFFFF" stroke="none" d="
M 195.8 130
L 182.8 130 182.8 185.95 219.85 185.95 219.85 175.95 195.8 175.95 195.8 130 Z"/>
</g>

<g id="DIY_Simple_to_Complicated_160x600_psd_Asset_04_Laptop_Always_free__to_file_0_Layer0_0_MEMBER_15_FILL">
<path fill="#FFFFFF" stroke="none" d="
M 237.4 175.95
L 237.4 162 259.35 162 259.35 152.05 237.4 152.05 237.4 140 263.3 140 263.3 130 224.4 130 224.4 185.95 263.25 185.95 263.25 175.95 237.4 175.95 Z"/>
</g>
</defs>

<g transform="matrix( 1, 0, 0, 1, -1224,-127) ">
<g transform="matrix( 1, 0, 0, 1, 1036,310) ">
<g transform="matrix( 1, 0, 0, 1, 202,78) ">
<g transform="matrix( 0.49835205078125, 0, 0, 0.500640869140625, -0.05,24.65) ">
<use xlink:href="#DIY_Simple_to_Complicated_160x600_psd_Asset_04_Laptop_Always_free__to_file_0_Layer0_0_MEMBER_0_FILL"/>
</g>

<g transform="matrix( 0.49835205078125, 0, 0, 0.500640869140625, -0.05,24.65) ">
<use xlink:href="#DIY_Simple_to_Complicated_160x600_psd_Asset_04_Laptop_Always_free__to_file_0_Layer0_0_MEMBER_1_FILL"/>
</g>

<g transform="matrix( 0.49835205078125, 0, 0, 0.500640869140625, -0.05,24.65) ">
<use xlink:href="#DIY_Simple_to_Complicated_160x600_psd_Asset_04_Laptop_Always_free__to_file_0_Layer0_0_MEMBER_2_FILL"/>
</g>

<g transform="matrix( 0.49835205078125, 0, 0, 0.500640869140625, -0.05,24.65) ">
<use xlink:href="#DIY_Simple_to_Complicated_160x600_psd_Asset_04_Laptop_Always_free__to_file_0_Layer0_0_MEMBER_3_FILL"/>
</g>

<g transform="matrix( 0.49835205078125, 0, 0, 0.500640869140625, -0.05,24.65) ">
<use xlink:href="#DIY_Simple_to_Complicated_160x600_psd_Asset_04_Laptop_Always_free__to_file_0_Layer0_0_MEMBER_4_FILL"/>
</g>

<g transform="matrix( 0.49835205078125, 0, 0, 0.500640869140625, -0.05,24.65) ">
<use xlink:href="#DIY_Simple_to_Complicated_160x600_psd_Asset_04_Laptop_Always_free__to_file_0_Layer0_0_MEMBER_5_FILL"/>
</g>

<g transform="matrix( 0.49835205078125, 0, 0, 0.500640869140625, -0.05,24.65) ">
<use xlink:href="#DIY_Simple_to_Complicated_160x600_psd_Asset_04_Laptop_Always_free__to_file_0_Layer0_0_MEMBER_6_FILL"/>
</g>

<g transform="matrix( 0.49835205078125, 0, 0, 0.500640869140625, -0.05,24.65) ">
<use xlink:href="#DIY_Simple_to_Complicated_160x600_psd_Asset_04_Laptop_Always_free__to_file_0_Layer0_0_MEMBER_7_FILL"/>
</g>

<g transform="matrix( 0.49835205078125, 0, 0, 0.500640869140625, -0.05,24.65) ">
<use xlink:href="#DIY_Simple_to_Complicated_160x600_psd_Asset_04_Laptop_Always_free__to_file_0_Layer0_0_MEMBER_8_FILL"/>
</g>

<g transform="matrix( 0.49835205078125, 0, 0, 0.500640869140625, -0.05,24.65) ">
<use xlink:href="#DIY_Simple_to_Complicated_160x600_psd_Asset_04_Laptop_Always_free__to_file_0_Layer0_0_MEMBER_9_FILL"/>
</g>

<g transform="matrix( 0.49835205078125, 0, 0, 0.500640869140625, -0.05,24.65) ">
<use xlink:href="#DIY_Simple_to_Complicated_160x600_psd_Asset_04_Laptop_Always_free__to_file_0_Layer0_0_MEMBER_10_FILL"/>
</g>

<g transform="matrix( 0.49835205078125, 0, 0, 0.500640869140625, -0.05,24.65) ">
<use xlink:href="#DIY_Simple_to_Complicated_160x600_psd_Asset_04_Laptop_Always_free__to_file_0_Layer0_0_MEMBER_11_FILL"/>
</g>

<g transform="matrix( 0.49835205078125, 0, 0, 0.500640869140625, -0.05,24.65) ">
<use xlink:href="#DIY_Simple_to_Complicated_160x600_psd_Asset_04_Laptop_Always_free__to_file_0_Layer0_0_MEMBER_12_FILL"/>
</g>

<g transform="matrix( 0.49835205078125, 0, 0, 0.500640869140625, -0.05,24.65) ">
<use xlink:href="#DIY_Simple_to_Complicated_160x600_psd_Asset_04_Laptop_Always_free__to_file_0_Layer0_0_MEMBER_13_FILL"/>
</g>

<g transform="matrix( 0.49835205078125, 0, 0, 0.500640869140625, -0.05,24.65) ">
<use xlink:href="#DIY_Simple_to_Complicated_160x600_psd_Asset_04_Laptop_Always_free__to_file_0_Layer0_0_MEMBER_14_FILL"/>
</g>

<g transform="matrix( 0.49835205078125, 0, 0, 0.500640869140625, -0.05,24.65) ">
<use xlink:href="#DIY_Simple_to_Complicated_160x600_psd_Asset_04_Laptop_Always_free__to_file_0_Layer0_0_MEMBER_15_FILL"/>
</g>
</g>
</g>
</g>
</svg>
