
<svg xmlns="http://www.w3.org/2000/svg" version="1.1" xmlns:xlink="http://www.w3.org/1999/xlink" preserveAspectRatio="none" x="0px" y="0px" width="728px" height="90px" viewBox="0 0 728 90">
<defs>
<g id="DIY_Simple_to_Complicated_728x90_psd_Asset_03_to_complicated_returns_0_Layer0_0_MEMBER_0_FILL">
<path fill="#FFFFFF" stroke="none" d="
M 3.65 -3.85
L 3.65 -4.7 0.1 -4.7 0.1 -3.85 1.3 -3.85 1.3 0 2.4 0 2.4 -3.85 3.65 -3.85 Z"/>
</g>

<g id="DIY_Simple_to_Complicated_728x90_psd_Asset_03_to_complicated_returns_0_Layer0_0_MEMBER_1_FILL">
<path fill="#FFFFFF" stroke="none" d="
M 4.25 -4.2
Q 3.7 -3.55 3.7 -2.75
L 3.7 -1.9
Q 3.7 -1.05 4.25 -0.5 4.8 0.05 5.7 0.05 6.65 0.05 7.15 -0.5 7.7 -1.05 7.7 -1.9
L 7.7 -2.75
Q 7.7 -3.55 7.15 -4.2 6.6 -4.75 5.7 -4.75 4.9 -4.75 4.25 -4.2
M 4.8 -2.75
Q 4.8 -3.25 5.05 -3.6 5.3 -3.9 5.7 -3.9 6.1 -3.9 6.4 -3.6 6.6 -3.35 6.6 -2.75
L 6.6 -1.9
Q 6.6 -1.35 6.4 -1.1 6.15 -0.75 5.7 -0.75 5.3 -0.75 5.05 -1.1 4.8 -1.45 4.8 -1.9
L 4.8 -2.75 Z"/>
</g>

<g id="DIY_Simple_to_Complicated_728x90_psd_Asset_03_to_complicated_returns_0_Layer0_0_MEMBER_2_FILL">
<path fill="#FFFFFF" stroke="none" d="
M 9.55 -1.85
Q 9.55 -0.95 10.1 -0.45 10.6 0.05 11.5 0.05 12.3 0.05 12.8 -0.35 13.3 -0.85 13.3 -1.65
L 12.25 -1.65
Q 12.15 -1.1 12.05 -1 11.9 -0.75 11.5 -0.75 11.1 -0.75 10.85 -1.05 10.65 -1.3 10.65 -1.85
L 10.65 -2.85
Q 10.65 -3.35 10.85 -3.6 11.1 -3.9 11.4 -3.9 11.85 -3.9 12.05 -3.7 12.25 -3.4 12.25 -3
L 13.3 -3 13.3 -3.05
Q 13.25 -3.85 12.8 -4.3 12.3 -4.75 11.4 -4.75 10.55 -4.75 10.05 -4.2 9.55 -3.7 9.55 -2.85
L 9.55 -1.85 Z"/>
</g>

<g id="DIY_Simple_to_Complicated_728x90_psd_Asset_03_to_complicated_returns_0_Layer0_0_MEMBER_3_FILL">
<path fill="#FFFFFF" stroke="none" d="
M 14.15 -4.2
Q 13.6 -3.55 13.6 -2.75
L 13.6 -1.9
Q 13.6 -1.05 14.15 -0.5 14.7 0.05 15.6 0.05 16.55 0.05 17.05 -0.5 17.6 -1.05 17.6 -1.9
L 17.6 -2.75
Q 17.6 -3.55 17.05 -4.2 16.4 -4.75 15.6 -4.75 14.8 -4.75 14.15 -4.2
M 14.7 -2.75
Q 14.7 -3.25 14.95 -3.6 15.2 -3.9 15.6 -3.9 16 -3.9 16.3 -3.6 16.5 -3.35 16.5 -2.75
L 16.5 -1.9
Q 16.5 -1.35 16.3 -1.1 15.95 -0.75 15.6 -0.75 15.2 -0.75 14.95 -1.1 14.7 -1.45 14.7 -1.9
L 14.7 -2.75 Z"/>
</g>

<g id="DIY_Simple_to_Complicated_728x90_psd_Asset_03_to_complicated_returns_0_Layer0_0_MEMBER_4_FILL">
<path fill="#FFFFFF" stroke="none" d="
M 19.5 -4.7
L 18.05 -4.7 18.05 0 19.15 0 19.05 -3.3 20.2 0 20.9 0 22.05 -3.3 21.95 0 23.05 0 23.05 -4.7 21.65 -4.7 20.55 -1.4 19.5 -4.7 Z"/>
</g>

<g id="DIY_Simple_to_Complicated_728x90_psd_Asset_03_to_complicated_returns_0_Layer0_0_MEMBER_5_FILL">
<path fill="#FFFFFF" stroke="none" d="
M 25.55 -1.6
Q 26.4 -1.6 26.85 -2.05 27.35 -2.4 27.35 -3.15 27.35 -3.9 26.85 -4.25 26.4 -4.7 25.55 -4.7
L 23.65 -4.7 23.65 0 24.7 0 24.7 -1.6 25.55 -1.6
M 24.7 -2.45
L 24.7 -3.85 25.55 -3.85
Q 25.9 -3.85 26.05 -3.65 26.25 -3.45 26.25 -3.15 26.25 -2.8 26.05 -2.65 25.9 -2.45 25.55 -2.45
L 24.7 -2.45 Z"/>
</g>

<g id="DIY_Simple_to_Complicated_728x90_psd_Asset_03_to_complicated_returns_0_Layer0_0_MEMBER_6_FILL">
<path fill="#FFFFFF" stroke="none" d="
M 28.9 -0.85
L 28.9 -4.7 27.8 -4.7 27.8 0 30.9 0 30.9 -0.85 28.9 -0.85 Z"/>
</g>

<g id="DIY_Simple_to_Complicated_728x90_psd_Asset_03_to_complicated_returns_0_Layer0_0_MEMBER_7_FILL">
<path fill="#FFFFFF" stroke="none" d="
M 32.35 -4.7
L 31.25 -4.7 31.25 0 32.35 0 32.35 -4.7 Z"/>
</g>

<g id="DIY_Simple_to_Complicated_728x90_psd_Asset_03_to_complicated_returns_0_Layer0_0_MEMBER_8_FILL">
<path fill="#FFFFFF" stroke="none" d="
M 34.8 -3.9
Q 35.25 -3.9 35.4 -3.7 35.6 -3.4 35.6 -3
L 36.65 -3 36.65 -3.05
Q 36.65 -3.8 36.15 -4.3 35.65 -4.75 34.8 -4.75 33.9 -4.75 33.4 -4.2 32.9 -3.7 32.9 -2.85
L 32.9 -1.85
Q 32.9 -1 33.45 -0.45 33.95 0.05 34.85 0.05 35.65 0.05 36.15 -0.35 36.65 -0.8 36.65 -1.65
L 35.6 -1.65
Q 35.6 -1.2 35.4 -1 35.25 -0.75 34.85 -0.75 34.45 -0.75 34.2 -1.05 34 -1.3 34 -1.85
L 34 -2.85
Q 34 -3.35 34.2 -3.6 34.45 -3.9 34.8 -3.9 Z"/>
</g>

<g id="DIY_Simple_to_Complicated_728x90_psd_Asset_03_to_complicated_returns_0_Layer0_0_MEMBER_9_FILL">
<path fill="#FFFFFF" stroke="none" d="
M 38.1 -0.9
L 39.55 -0.9 39.85 0 40.95 0 39.4 -4.7 38.25 -4.7 36.75 0 37.85 0 38.1 -0.9
M 38.35 -1.75
L 38.8 -3.45 38.85 -3.45 39.35 -1.75 38.35 -1.75 Z"/>
</g>

<g id="DIY_Simple_to_Complicated_728x90_psd_Asset_03_to_complicated_returns_0_Layer0_0_MEMBER_10_FILL">
<path fill="#FFFFFF" stroke="none" d="
M 44.1 -3.85
L 44.1 -4.7 40.55 -4.7 40.55 -3.85 41.75 -3.85 41.75 0 42.85 0 42.85 -3.85 44.1 -3.85 Z"/>
</g>

<g id="DIY_Simple_to_Complicated_728x90_psd_Asset_03_to_complicated_returns_0_Layer0_0_MEMBER_11_FILL">
<path fill="#FFFFFF" stroke="none" d="
M 45.45 -2.85
L 45.45 -3.85 47.65 -3.85 47.65 -4.7 44.35 -4.7 44.35 0 47.6 0 47.6 -0.85 45.45 -0.85 45.45 -2 47.3 -2 47.3 -2.85 45.45 -2.85 Z"/>
</g>

<g id="DIY_Simple_to_Complicated_728x90_psd_Asset_03_to_complicated_returns_0_Layer0_0_MEMBER_12_FILL">
<path fill="#FFFFFF" stroke="none" d="
M 49.65 -4.7
L 47.95 -4.7 47.95 0 49.65 0
Q 50.4 0 51.05 -0.55 51.6 -1.1 51.6 -1.9
L 51.6 -2.75
Q 51.6 -3.6 51.05 -4.15 50.4 -4.7 49.65 -4.7
M 49.05 -3.85
L 49.55 -3.85
Q 50.05 -3.85 50.25 -3.55 50.5 -3.2 50.5 -2.75
L 50.5 -1.9
Q 50.5 -1.5 50.25 -1.15 50.05 -0.85 49.55 -0.85
L 49.05 -0.85 49.05 -3.85 Z"/>
</g>

<g id="DIY_Simple_to_Complicated_728x90_psd_Asset_03_to_complicated_returns_0_Layer0_0_MEMBER_13_FILL">
<path fill="#FFFFFF" stroke="none" d="
M 54.65 -1.8
L 55.4 -1.8
Q 55.75 -1.8 55.95 -1.6 56.1 -1.45 56.1 -1.1
L 56.1 -0.8 56.15 -0.35
Q 56.15 -0.15 56.3 0
L 57.45 0 57.45 -0.05 57.25 -0.4 57.2 -0.8 57.2 -1.1
Q 57.2 -1.6 57 -1.8 56.85 -2.05 56.4 -2.25 56.65 -2.35 56.95 -2.65 57.15 -2.9 57.15 -3.3 57.15 -3.95 56.65 -4.3 56.15 -4.7 55.35 -4.7
L 53.55 -4.7 53.55 0 54.65 0 54.65 -1.8
M 54.65 -2.65
L 54.65 -3.85 55.35 -3.85
Q 55.7 -3.85 55.9 -3.7 56.05 -3.45 56.05 -3.2 56.05 -2.95 55.9 -2.8 55.7 -2.65 55.4 -2.65
L 54.65 -2.65 Z"/>
</g>

<g id="DIY_Simple_to_Complicated_728x90_psd_Asset_03_to_complicated_returns_0_Layer0_0_MEMBER_14_FILL">
<path fill="#FFFFFF" stroke="none" d="
M 60.7 -2.85
L 58.85 -2.85 58.85 -3.85 61 -3.85 61 -4.7 57.75 -4.7 57.75 0 61 0 61 -0.85 58.85 -0.85 58.85 -2 60.7 -2 60.7 -2.85 Z"/>
</g>

<g id="DIY_Simple_to_Complicated_728x90_psd_Asset_03_to_complicated_returns_0_Layer0_0_MEMBER_15_FILL">
<path fill="#FFFFFF" stroke="none" d="
M 64.7 -3.85
L 64.7 -4.7 61.15 -4.7 61.15 -3.85 62.35 -3.85 62.35 0 63.45 0 63.45 -3.85 64.7 -3.85 Z"/>
</g>

<g id="DIY_Simple_to_Complicated_728x90_psd_Asset_03_to_complicated_returns_0_Layer0_0_MEMBER_16_FILL">
<path fill="#FFFFFF" stroke="none" d="
M 64.95 -4.7
L 64.95 -1.6
Q 64.95 -0.8 65.45 -0.35 66.1 0.05 66.9 0.05 67.7 0.05 68.25 -0.35 68.8 -0.75 68.8 -1.6
L 68.8 -4.7 67.7 -4.7 67.7 -1.6
Q 67.7 -1.15 67.5 -1 67.25 -0.75 66.9 -0.75 66.5 -0.75 66.25 -1 66.05 -1.15 66.05 -1.6
L 66.05 -4.7 64.95 -4.7 Z"/>
</g>

<g id="DIY_Simple_to_Complicated_728x90_psd_Asset_03_to_complicated_returns_0_Layer0_0_MEMBER_17_FILL">
<path fill="#FFFFFF" stroke="none" d="
M 72.45 -4.3
Q 71.95 -4.7 71.15 -4.7
L 69.35 -4.7 69.35 0 70.45 0 70.45 -1.8 71.2 -1.8
Q 71.55 -1.8 71.7 -1.6 71.9 -1.45 71.9 -1.1
L 71.9 -0.8 71.95 -0.35
Q 71.95 -0.05 72.1 0
L 73.2 0 73.2 -0.05
Q 73.05 -0.35 73.05 -0.4
L 73 -0.8 73 -1.1
Q 73 -1.5 72.8 -1.8 72.55 -2.1 72.15 -2.25 72.5 -2.4 72.75 -2.65 72.95 -3.05 72.95 -3.3 72.95 -3.9 72.45 -4.3
M 70.45 -2.65
L 70.45 -3.85 71.15 -3.85
Q 71.5 -3.85 71.65 -3.7 71.85 -3.5 71.85 -3.2 71.85 -2.95 71.65 -2.8 71.5 -2.65 71.15 -2.65
L 70.45 -2.65 Z"/>
</g>

<g id="DIY_Simple_to_Complicated_728x90_psd_Asset_03_to_complicated_returns_0_Layer0_0_MEMBER_18_FILL">
<path fill="#FFFFFF" stroke="none" d="
M 74.65 -4.7
L 73.55 -4.7 73.55 0 74.65 0 74.65 -3 76.35 0 77.45 0 77.45 -4.7 76.35 -4.7 76.35 -1.7 74.65 -4.7 Z"/>
</g>

<g id="DIY_Simple_to_Complicated_728x90_psd_Asset_03_to_complicated_returns_0_Layer0_0_MEMBER_19_FILL">
<path fill="#FFFFFF" stroke="none" d="
M 79.85 -4.75
Q 78.95 -4.75 78.55 -4.4 78 -4 78 -3.45 78 -2.85 78.45 -2.5 78.95 -2.15 79.75 -1.9
L 80.35 -1.65
Q 80.5 -1.5 80.5 -1.25 80.5 -1.05 80.35 -0.9 80.2 -0.75 79.85 -0.75 79.4 -0.75 79.2 -0.95 78.95 -1.1 78.95 -1.5
L 77.9 -1.5
Q 77.9 -0.75 78.45 -0.35 79 0.05 79.85 0.05 80.65 0.05 81.15 -0.3 81.6 -0.6 81.6 -1.25 81.6 -1.8 81.2 -2.2 80.85 -2.55 80 -2.8
L 79.3 -3.1
Q 79.1 -3.25 79.1 -3.45 79.1 -3.65 79.3 -3.8 79.45 -3.95 79.8 -3.95 80.15 -3.95 80.35 -3.75 80.5 -3.6 80.5 -3.3
L 81.6 -3.3
Q 81.6 -4 81.1 -4.35 80.55 -4.75 79.85 -4.75 Z"/>
</g>
</defs>

<g transform="matrix( 1, 0, 0, 1, -583,-248) ">
<g transform="matrix( 1, 0, 0, 1, 828,265) ">
<g transform="matrix( 3.3361053466796875, 0, 0, 3.33563232421875, 0.5,16.35) ">
<use xlink:href="#DIY_Simple_to_Complicated_728x90_psd_Asset_03_to_complicated_returns_0_Layer0_0_MEMBER_0_FILL"/>
</g>

<g transform="matrix( 3.3361053466796875, 0, 0, 3.33563232421875, 0.5,16.35) ">
<use xlink:href="#DIY_Simple_to_Complicated_728x90_psd_Asset_03_to_complicated_returns_0_Layer0_0_MEMBER_1_FILL"/>
</g>

<g transform="matrix( 3.3361053466796875, 0, 0, 3.33563232421875, 0.5,16.35) ">
<use xlink:href="#DIY_Simple_to_Complicated_728x90_psd_Asset_03_to_complicated_returns_0_Layer0_0_MEMBER_2_FILL"/>
</g>

<g transform="matrix( 3.3361053466796875, 0, 0, 3.33563232421875, 0.5,16.35) ">
<use xlink:href="#DIY_Simple_to_Complicated_728x90_psd_Asset_03_to_complicated_returns_0_Layer0_0_MEMBER_3_FILL"/>
</g>

<g transform="matrix( 3.3361053466796875, 0, 0, 3.33563232421875, 0.5,16.35) ">
<use xlink:href="#DIY_Simple_to_Complicated_728x90_psd_Asset_03_to_complicated_returns_0_Layer0_0_MEMBER_4_FILL"/>
</g>

<g transform="matrix( 3.3361053466796875, 0, 0, 3.33563232421875, 0.5,16.35) ">
<use xlink:href="#DIY_Simple_to_Complicated_728x90_psd_Asset_03_to_complicated_returns_0_Layer0_0_MEMBER_5_FILL"/>
</g>

<g transform="matrix( 3.3361053466796875, 0, 0, 3.33563232421875, 0.5,16.35) ">
<use xlink:href="#DIY_Simple_to_Complicated_728x90_psd_Asset_03_to_complicated_returns_0_Layer0_0_MEMBER_6_FILL"/>
</g>

<g transform="matrix( 3.3361053466796875, 0, 0, 3.33563232421875, 0.5,16.35) ">
<use xlink:href="#DIY_Simple_to_Complicated_728x90_psd_Asset_03_to_complicated_returns_0_Layer0_0_MEMBER_7_FILL"/>
</g>

<g transform="matrix( 3.3361053466796875, 0, 0, 3.33563232421875, 0.5,16.35) ">
<use xlink:href="#DIY_Simple_to_Complicated_728x90_psd_Asset_03_to_complicated_returns_0_Layer0_0_MEMBER_8_FILL"/>
</g>

<g transform="matrix( 3.3361053466796875, 0, 0, 3.33563232421875, 0.5,16.35) ">
<use xlink:href="#DIY_Simple_to_Complicated_728x90_psd_Asset_03_to_complicated_returns_0_Layer0_0_MEMBER_9_FILL"/>
</g>

<g transform="matrix( 3.3361053466796875, 0, 0, 3.33563232421875, 0.5,16.35) ">
<use xlink:href="#DIY_Simple_to_Complicated_728x90_psd_Asset_03_to_complicated_returns_0_Layer0_0_MEMBER_10_FILL"/>
</g>

<g transform="matrix( 3.3361053466796875, 0, 0, 3.33563232421875, 0.5,16.35) ">
<use xlink:href="#DIY_Simple_to_Complicated_728x90_psd_Asset_03_to_complicated_returns_0_Layer0_0_MEMBER_11_FILL"/>
</g>

<g transform="matrix( 3.3361053466796875, 0, 0, 3.33563232421875, 0.5,16.35) ">
<use xlink:href="#DIY_Simple_to_Complicated_728x90_psd_Asset_03_to_complicated_returns_0_Layer0_0_MEMBER_12_FILL"/>
</g>

<g transform="matrix( 3.3361053466796875, 0, 0, 3.33563232421875, 0.5,16.35) ">
<use xlink:href="#DIY_Simple_to_Complicated_728x90_psd_Asset_03_to_complicated_returns_0_Layer0_0_MEMBER_13_FILL"/>
</g>

<g transform="matrix( 3.3361053466796875, 0, 0, 3.33563232421875, 0.5,16.35) ">
<use xlink:href="#DIY_Simple_to_Complicated_728x90_psd_Asset_03_to_complicated_returns_0_Layer0_0_MEMBER_14_FILL"/>
</g>

<g transform="matrix( 3.3361053466796875, 0, 0, 3.33563232421875, 0.5,16.35) ">
<use xlink:href="#DIY_Simple_to_Complicated_728x90_psd_Asset_03_to_complicated_returns_0_Layer0_0_MEMBER_15_FILL"/>
</g>

<g transform="matrix( 3.3361053466796875, 0, 0, 3.33563232421875, 0.5,16.35) ">
<use xlink:href="#DIY_Simple_to_Complicated_728x90_psd_Asset_03_to_complicated_returns_0_Layer0_0_MEMBER_16_FILL"/>
</g>

<g transform="matrix( 3.3361053466796875, 0, 0, 3.33563232421875, 0.5,16.35) ">
<use xlink:href="#DIY_Simple_to_Complicated_728x90_psd_Asset_03_to_complicated_returns_0_Layer0_0_MEMBER_17_FILL"/>
</g>

<g transform="matrix( 3.3361053466796875, 0, 0, 3.33563232421875, 0.5,16.35) ">
<use xlink:href="#DIY_Simple_to_Complicated_728x90_psd_Asset_03_to_complicated_returns_0_Layer0_0_MEMBER_18_FILL"/>
</g>

<g transform="matrix( 3.3361053466796875, 0, 0, 3.33563232421875, 0.5,16.35) ">
<use xlink:href="#DIY_Simple_to_Complicated_728x90_psd_Asset_03_to_complicated_returns_0_Layer0_0_MEMBER_19_FILL"/>
</g>
</g>
</g>
</svg>
