
<svg xmlns="http://www.w3.org/2000/svg" version="1.1" xmlns:xlink="http://www.w3.org/1999/xlink" preserveAspectRatio="none" x="0px" y="0px" width="300px" height="600px" viewBox="0 0 300 600">
<defs>
<g id="DIY_Free_Support_300x600_psd_Asset_03_And_on_the_phone_0_Layer0_0_MEMBER_0_FILL">
<path fill="#FFFFFF" stroke="none" d="
M -153.2 -33.8
L -161.6 -33.8 -172.5 0 -164.65 0 -162.7 -6.55 -152.05 -6.55 -150.15 0 -142.25 0 -153.2 -33.8
M -161 -12.6
L -157.5 -24.7 -157.35 -24.7 -153.8 -12.6 -161 -12.6 Z"/>
</g>

<g id="DIY_Free_Support_300x600_psd_Asset_03_And_on_the_phone_0_Layer0_0_MEMBER_1_FILL">
<path fill="#FFFFFF" stroke="none" d="
M -132 -21.5
L -131.85 -21.55 -119.45 0 -111.65 0 -111.65 -33.8 -119.45 -33.8 -119.45 -12.3 -119.6 -12.25 -132 -33.8 -139.85 -33.8 -139.85 0 -132 0 -132 -21.5 Z"/>
</g>

<g id="DIY_Free_Support_300x600_psd_Asset_03_And_on_the_phone_0_Layer0_0_MEMBER_2_FILL">
<path fill="#FFFFFF" stroke="none" d="
M -84.1 -29.9
Q -88.15 -33.8 -94.1 -33.8
L -106.3 -33.8 -106.3 0 -94.1 0
Q -88.15 0 -84.1 -3.9 -80.1 -7.75 -80.1 -13.85
L -80.1 -19.95
Q -80.1 -26.05 -84.1 -29.9
M -98.45 -27.75
L -94.65 -27.75
Q -91.45 -27.75 -89.75 -25.65 -87.95 -23.45 -87.95 -20
L -87.95 -13.85
Q -87.95 -10.3 -89.75 -8.2 -91.45 -6.05 -94.65 -6.05
L -98.45 -6.05 -98.45 -27.75 Z"/>
</g>

<g id="DIY_Free_Support_300x600_psd_Asset_03_And_on_the_phone_0_Layer0_0_MEMBER_3_FILL">
<path fill="#FFFFFF" stroke="none" d="
M -49.8 -34.3
Q -56.2 -34.3 -60.2 -30.25 -64.15 -26.2 -64.15 -19.95
L -64.15 -13.85
Q -64.15 -7.55 -60.15 -3.55 -56.15 0.5 -49.75 0.5 -43.35 0.5 -39.4 -3.55 -35.45 -7.55 -35.45 -13.85
L -35.45 -19.95
Q -35.45 -26.25 -39.45 -30.25 -43.4 -34.3 -49.8 -34.3
M -49.8 -28.25
Q -46.65 -28.25 -44.95 -25.95 -43.25 -23.55 -43.25 -20
L -43.25 -13.85
Q -43.25 -10.25 -44.95 -7.85 -46.65 -5.55 -49.75 -5.55 -52.95 -5.55 -54.65 -7.85 -56.35 -10.25 -56.35 -13.85
L -56.35 -20
Q -56.35 -23.65 -54.65 -25.95 -53 -28.25 -49.8 -28.25 Z"/>
</g>

<g id="DIY_Free_Support_300x600_psd_Asset_03_And_on_the_phone_0_Layer0_0_MEMBER_4_FILL">
<path fill="#FFFFFF" stroke="none" d="
M -23 -21.5
L -22.85 -21.55 -10.5 0 -2.65 0 -2.65 -33.8 -10.5 -33.8 -10.5 -12.3 -10.65 -12.25 -23 -33.8 -30.9 -33.8 -30.9 0 -23 0 -23 -21.5 Z"/>
</g>

<g id="DIY_Free_Support_300x600_psd_Asset_03_And_on_the_phone_0_Layer0_0_MEMBER_5_FILL">
<path fill="#FFFFFF" stroke="none" d="
M -230.8 19.8
L -230.8 13.75 -256.45 13.75 -256.45 19.8 -247.6 19.8 -247.6 47.55 -239.75 47.55 -239.75 19.8 -230.8 19.8 Z"/>
</g>

<g id="DIY_Free_Support_300x600_psd_Asset_03_And_on_the_phone_0_Layer0_0_MEMBER_6_FILL">
<path fill="#FFFFFF" stroke="none" d="
M -199.4 47.55
L -199.4 13.75 -207.25 13.75 -207.25 27.9 -219.75 27.9 -219.75 13.75 -227.65 13.75 -227.65 47.55 -219.75 47.55 -219.75 33.95 -207.25 33.95 -207.25 47.55 -199.4 47.55 Z"/>
</g>

<g id="DIY_Free_Support_300x600_psd_Asset_03_And_on_the_phone_0_Layer0_0_MEMBER_7_FILL">
<path fill="#FFFFFF" stroke="none" d="
M -170.55 19.8
L -170.55 13.75 -194.1 13.75 -194.1 47.55 -170.6 47.55 -170.6 41.5 -186.25 41.5 -186.25 33.1 -172.95 33.1 -172.95 27.05 -186.25 27.05 -186.25 19.8 -170.55 19.8 Z"/>
</g>

<g id="DIY_Free_Support_300x600_psd_Asset_03_And_on_the_phone_0_Layer0_0_MEMBER_8_FILL">
<path fill="#FFFFFF" stroke="none" d="
M -131.95 16.85
Q -135.4 13.75 -141.45 13.75
L -155.2 13.75 -155.2 47.55 -147.35 47.55 -147.35 35.95 -141.45 35.95
Q -135.45 35.95 -131.95 32.9 -128.4 29.9 -128.4 24.85 -128.4 19.95 -131.95 16.85
M -141.45 19.8
Q -138.9 19.8 -137.6 21.25 -136.25 22.7 -136.25 24.9 -136.25 27.15 -137.6 28.55 -139 29.95 -141.45 29.95
L -147.35 29.95 -147.35 19.8 -141.45 19.8 Z"/>
</g>

<g id="DIY_Free_Support_300x600_psd_Asset_03_And_on_the_phone_0_Layer0_0_MEMBER_9_FILL">
<path fill="#FFFFFF" stroke="none" d="
M -103.6 27.9
L -116.1 27.9 -116.1 13.75 -124 13.75 -124 47.55 -116.1 47.55 -116.1 33.95 -103.6 33.95 -103.6 47.55 -95.75 47.55 -95.75 13.75 -103.6 13.75 -103.6 27.9 Z"/>
</g>

<g id="DIY_Free_Support_300x600_psd_Asset_03_And_on_the_phone_0_Layer0_0_MEMBER_10_FILL">
<path fill="#FFFFFF" stroke="none" d="
M -66.5 17.3
Q -70.45 13.25 -76.85 13.25 -83.25 13.25 -87.25 17.3 -91.2 21.4 -91.2 27.6
L -91.2 33.7
Q -91.2 40 -87.25 44 -83.2 48.05 -76.8 48.05 -70.4 48.05 -66.45 44 -62.5 40 -62.5 33.7
L -62.5 27.6
Q -62.5 21.4 -66.5 17.3
M -76.85 19.3
Q -73.7 19.3 -72.05 21.6 -70.3 23.95 -70.3 27.55
L -70.3 33.7
Q -70.3 37.3 -72 39.7 -73.7 42 -76.8 42 -80 42 -81.7 39.7 -83.4 37.4 -83.4 33.7
L -83.4 27.55
Q -83.4 23.9 -81.7 21.6 -80.05 19.3 -76.85 19.3 Z"/>
</g>

<g id="DIY_Free_Support_300x600_psd_Asset_03_And_on_the_phone_0_Layer0_0_MEMBER_11_FILL">
<path fill="#FFFFFF" stroke="none" d="
M -29.75 47.55
L -29.75 13.75 -37.55 13.75 -37.55 35.25 -37.7 35.3 -50.05 13.75 -57.95 13.75 -57.95 47.55 -50.05 47.55 -50.05 26.05 -49.95 26 -37.55 47.55 -29.75 47.55 Z"/>
</g>

<g id="DIY_Free_Support_300x600_psd_Asset_03_And_on_the_phone_0_Layer0_0_MEMBER_12_FILL">
<path fill="#FFFFFF" stroke="none" d="
M -16.55 19.8
L -0.85 19.8 -0.85 13.75 -24.4 13.75 -24.4 47.55 -0.9 47.55 -0.9 41.5 -16.55 41.5 -16.55 33.1 -3.25 33.1 -3.25 27.05 -16.55 27.05 -16.55 19.8 Z"/>
</g>
</defs>

<g transform="matrix( 1, 0, 0, 1, -977,-536) ">
<g transform="matrix( 1, 0, 0, 1, 1086,720) ">
<g transform="matrix( 0.66973876953125, 0, 0, 0.672821044921875, 172.4,22.65) ">
<use xlink:href="#DIY_Free_Support_300x600_psd_Asset_03_And_on_the_phone_0_Layer0_0_MEMBER_0_FILL"/>
</g>

<g transform="matrix( 0.66973876953125, 0, 0, 0.672821044921875, 172.4,22.65) ">
<use xlink:href="#DIY_Free_Support_300x600_psd_Asset_03_And_on_the_phone_0_Layer0_0_MEMBER_1_FILL"/>
</g>

<g transform="matrix( 0.66973876953125, 0, 0, 0.672821044921875, 172.4,22.65) ">
<use xlink:href="#DIY_Free_Support_300x600_psd_Asset_03_And_on_the_phone_0_Layer0_0_MEMBER_2_FILL"/>
</g>

<g transform="matrix( 0.66973876953125, 0, 0, 0.672821044921875, 172.4,22.65) ">
<use xlink:href="#DIY_Free_Support_300x600_psd_Asset_03_And_on_the_phone_0_Layer0_0_MEMBER_3_FILL"/>
</g>

<g transform="matrix( 0.66973876953125, 0, 0, 0.672821044921875, 172.4,22.65) ">
<use xlink:href="#DIY_Free_Support_300x600_psd_Asset_03_And_on_the_phone_0_Layer0_0_MEMBER_4_FILL"/>
</g>

<g transform="matrix( 0.66973876953125, 0, 0, 0.672821044921875, 172.4,22.65) ">
<use xlink:href="#DIY_Free_Support_300x600_psd_Asset_03_And_on_the_phone_0_Layer0_0_MEMBER_5_FILL"/>
</g>

<g transform="matrix( 0.66973876953125, 0, 0, 0.672821044921875, 172.4,22.65) ">
<use xlink:href="#DIY_Free_Support_300x600_psd_Asset_03_And_on_the_phone_0_Layer0_0_MEMBER_6_FILL"/>
</g>

<g transform="matrix( 0.66973876953125, 0, 0, 0.672821044921875, 172.4,22.65) ">
<use xlink:href="#DIY_Free_Support_300x600_psd_Asset_03_And_on_the_phone_0_Layer0_0_MEMBER_7_FILL"/>
</g>

<g transform="matrix( 0.66973876953125, 0, 0, 0.672821044921875, 172.4,22.65) ">
<use xlink:href="#DIY_Free_Support_300x600_psd_Asset_03_And_on_the_phone_0_Layer0_0_MEMBER_8_FILL"/>
</g>

<g transform="matrix( 0.66973876953125, 0, 0, 0.672821044921875, 172.4,22.65) ">
<use xlink:href="#DIY_Free_Support_300x600_psd_Asset_03_And_on_the_phone_0_Layer0_0_MEMBER_9_FILL"/>
</g>

<g transform="matrix( 0.66973876953125, 0, 0, 0.672821044921875, 172.4,22.65) ">
<use xlink:href="#DIY_Free_Support_300x600_psd_Asset_03_And_on_the_phone_0_Layer0_0_MEMBER_10_FILL"/>
</g>

<g transform="matrix( 0.66973876953125, 0, 0, 0.672821044921875, 172.4,22.65) ">
<use xlink:href="#DIY_Free_Support_300x600_psd_Asset_03_And_on_the_phone_0_Layer0_0_MEMBER_11_FILL"/>
</g>

<g transform="matrix( 0.66973876953125, 0, 0, 0.672821044921875, 172.4,22.65) ">
<use xlink:href="#DIY_Free_Support_300x600_psd_Asset_03_And_on_the_phone_0_Layer0_0_MEMBER_12_FILL"/>
</g>
</g>
</g>
</svg>
