
<svg xmlns="http://www.w3.org/2000/svg" version="1.1" xmlns:xlink="http://www.w3.org/1999/xlink" preserveAspectRatio="none" x="0px" y="0px" width="300px" height="250px" viewBox="0 0 300 250">
<defs>
<image id="DIY_Online_and_Download_300x250_psd_Asset_01_Laptop_CTA_Assets_Arrow" x="0" y="0" width="9" height="13" xlink:href="data:image/png;base64,iVBORw0KGgoAAAANSUhEUgAAAAkAAAANCAYAAAB7AEQGAAAAuklEQVQYlX3QPQrCQBAF4MFW
rPxptbPxAuJFrPUSYmul9/AGglgLdhbpFrSSmKSRJQmsJDuPtVHZrBtfOx+PxxARUZIkPa31
iuqS5/kIgDDGGGY+eJHWemGsMPOeiBo+uHHgsQ6uHXgKgqDpg0sAzw8EIKSU/R/IzFu7EcC5
AoqimAJ4WCBVSo2/oCzLmdNwl1IObDB3wC2O4+6/hksYhu3KDqXUBED6BlchRMv79SzLhsy8
i6Ko47u/ABqJ7LVh9aKkAAAAAElFTkSuQmCC"/>

<g id="DIY_Online_and_Download_300x250_psd_Asset_01_Laptop_CTA_For_Free_0_Layer0_0_MEMBER_0_FILL">
<path fill="#FFFFFF" stroke="none" d="
M 23.5 -13.95
L 23.5 -20.15 10.8 -20.15 10.8 -28.45 25.9 -28.45 25.9 -34.65 2.75 -34.65 2.75 0 10.8 0 10.8 -13.95 23.5 -13.95 Z"/>
</g>

<g id="DIY_Online_and_Download_300x250_psd_Asset_01_Laptop_CTA_For_Free_0_Layer0_0_MEMBER_1_FILL">
<path fill="#FFFFFF" stroke="none" d="
M 29.3 -14.2
Q 29.3 -7.8 33.4 -3.65 37.55 0.5 44.1 0.5 50.65 0.5 54.7 -3.65 58.75 -7.75 58.75 -14.2
L 58.75 -20.45
Q 58.75 -26.8 54.65 -31 50.6 -35.15 44.05 -35.15 37.5 -35.15 33.4 -31 29.3 -26.75 29.3 -20.45
L 29.3 -14.2
M 37.35 -20.5
Q 37.35 -24.25 39.05 -26.6 40.75 -28.95 44.05 -28.95 47.25 -28.95 49 -26.6 50.75 -24.15 50.75 -20.5
L 50.75 -14.2
Q 50.75 -10.5 49 -8.05 47.25 -5.7 44.1 -5.7 40.85 -5.7 39.1 -8.05 37.35 -10.5 37.35 -14.2
L 37.35 -20.5 Z"/>
</g>

<g id="DIY_Online_and_Download_300x250_psd_Asset_01_Laptop_CTA_For_Free_0_Layer0_0_MEMBER_2_FILL">
<path fill="#FFFFFF" stroke="none" d="
M 75.75 -34.65
L 63.65 -34.65 63.65 0 71.7 0 71.7 -13.3 76 -13.3
Q 78.6 -13.3 79.85 -11.95 81.15 -10.65 81.15 -8.2
L 81.15 -6.1
Q 81.15 -4.45 81.45 -2.6 81.75 -0.75 82.7 0
L 91 0 91 -0.5
Q 90 -1.15 89.6 -2.95 89.2 -4.5 89.2 -6.05
L 89.2 -8.25
Q 89.2 -11.3 87.8 -13.5 86.35 -15.6 83.2 -16.5 86 -17.7 87.4 -19.65 88.8 -21.5 88.8 -24.25 88.8 -29.05 85.3 -31.85 81.85 -34.65 75.75 -34.65
M 71.7 -28.45
L 75.75 -28.45
Q 78.2 -28.45 79.45 -27.15 80.8 -25.85 80.8 -23.75 80.8 -21.65 79.5 -20.6 78.2 -19.45 75.8 -19.45
L 71.7 -19.45 71.7 -28.45 Z"/>
</g>

<g id="DIY_Online_and_Download_300x250_psd_Asset_01_Laptop_CTA_For_Free_0_Layer0_0_MEMBER_3_FILL">
<path fill="#FFFFFF" stroke="none" d="
M 114.95 -20.15
L 114.95 -28.45 130.05 -28.45 130.05 -34.65 106.9 -34.65 106.9 0 114.95 0 114.95 -13.95 127.6 -13.95 127.6 -20.15 114.95 -20.15 Z"/>
</g>

<g id="DIY_Online_and_Download_300x250_psd_Asset_01_Laptop_CTA_For_Free_0_Layer0_0_MEMBER_4_FILL">
<path fill="#FFFFFF" stroke="none" d="
M 155.7 -31.85
Q 152.25 -34.65 146.15 -34.65
L 134.1 -34.65 134.1 0 142.15 0 142.15 -13.3 146.45 -13.3
Q 148.95 -13.3 150.3 -11.95 151.6 -10.65 151.6 -8.2
L 151.6 -6.1
Q 151.6 -4.7 151.85 -2.6 152.15 -0.75 153.1 0
L 161.4 0 161.4 -0.5
Q 160.45 -1.15 160 -2.95 159.6 -4.8 159.6 -6.05
L 159.6 -8.25
Q 159.6 -11.45 158.2 -13.5 156.85 -15.6 153.65 -16.5 156.4 -17.7 157.8 -19.65 159.2 -21.5 159.2 -24.25 159.2 -29.1 155.7 -31.85
M 146.15 -28.45
Q 148.6 -28.45 149.9 -27.15 151.2 -25.85 151.2 -23.75 151.2 -21.6 149.9 -20.6 148.6 -19.45 146.2 -19.45
L 142.15 -19.45 142.15 -28.45 146.15 -28.45 Z"/>
</g>

<g id="DIY_Online_and_Download_300x250_psd_Asset_01_Laptop_CTA_For_Free_0_Layer0_0_MEMBER_5_FILL">
<path fill="#FFFFFF" stroke="none" d="
M 187.9 -28.45
L 187.9 -34.65 165.15 -34.65 165.15 0 187.85 0 187.85 -6.2 173.2 -6.2 173.2 -14.85 185.45 -14.85 185.45 -21 173.2 -21 173.2 -28.45 187.9 -28.45 Z"/>
</g>

<g id="DIY_Online_and_Download_300x250_psd_Asset_01_Laptop_CTA_For_Free_0_Layer0_0_MEMBER_6_FILL">
<path fill="#FFFFFF" stroke="none" d="
M 200.4 -6.2
L 200.4 -14.85 212.65 -14.85 212.65 -21 200.4 -21 200.4 -28.45 215.1 -28.45 215.1 -34.65 192.4 -34.65 192.4 0 215.05 0 215.05 -6.2 200.4 -6.2 Z"/>
</g>
</defs>

<g transform="matrix( 1, 0, 0, 1, 4,18) ">
<g transform="matrix( 1, 0, 0, 1, 59,72) ">
<g transform="matrix( 1, 0, 0, 1, 14,10) ">
<g transform="matrix( 0.2859039306640625, 0, 0, 0.2872161865234375, -0.6,10.95) ">
<use xlink:href="#DIY_Online_and_Download_300x250_psd_Asset_01_Laptop_CTA_For_Free_0_Layer0_0_MEMBER_0_FILL"/>
</g>

<g transform="matrix( 0.2859039306640625, 0, 0, 0.2872161865234375, -0.6,10.95) ">
<use xlink:href="#DIY_Online_and_Download_300x250_psd_Asset_01_Laptop_CTA_For_Free_0_Layer0_0_MEMBER_1_FILL"/>
</g>

<g transform="matrix( 0.2859039306640625, 0, 0, 0.2872161865234375, -0.6,10.95) ">
<use xlink:href="#DIY_Online_and_Download_300x250_psd_Asset_01_Laptop_CTA_For_Free_0_Layer0_0_MEMBER_2_FILL"/>
</g>

<g transform="matrix( 0.2859039306640625, 0, 0, 0.2872161865234375, -0.6,10.95) ">
<use xlink:href="#DIY_Online_and_Download_300x250_psd_Asset_01_Laptop_CTA_For_Free_0_Layer0_0_MEMBER_3_FILL"/>
</g>

<g transform="matrix( 0.2859039306640625, 0, 0, 0.2872161865234375, -0.6,10.95) ">
<use xlink:href="#DIY_Online_and_Download_300x250_psd_Asset_01_Laptop_CTA_For_Free_0_Layer0_0_MEMBER_4_FILL"/>
</g>

<g transform="matrix( 0.2859039306640625, 0, 0, 0.2872161865234375, -0.6,10.95) ">
<use xlink:href="#DIY_Online_and_Download_300x250_psd_Asset_01_Laptop_CTA_For_Free_0_Layer0_0_MEMBER_5_FILL"/>
</g>

<g transform="matrix( 0.2859039306640625, 0, 0, 0.2872161865234375, -0.6,10.95) ">
<use xlink:href="#DIY_Online_and_Download_300x250_psd_Asset_01_Laptop_CTA_For_Free_0_Layer0_0_MEMBER_6_FILL"/>
</g>
</g>

<g transform="matrix( 1, 0, 0, 1, 152,9) ">
<g transform="matrix( 1, 0, 0, 1, 0,0) ">
<use xlink:href="#DIY_Online_and_Download_300x250_psd_Asset_01_Laptop_CTA_Assets_Arrow"/>
</g>
</g>
</g>
</g>
</svg>
