
<svg xmlns="http://www.w3.org/2000/svg" version="1.1" xmlns:xlink="http://www.w3.org/1999/xlink" preserveAspectRatio="none" x="0px" y="0px" width="728px" height="90px" viewBox="0 0 728 90">
<defs>
<g id="DIY_Online_and_Download_728x90_psd_Asset_02_File_Online_0_Layer0_0_MEMBER_0_FILL">
<path fill="#FFFFFF" stroke="none" d="
M 38.8 -49.65
L 3.9 -49.65 3.9 0 15.45 0 15.45 -20 35.35 -20 35.35 -28.85 15.45 -28.85 15.45 -40.8 38.8 -40.8 38.8 -49.65 Z"/>
</g>

<g id="DIY_Online_and_Download_728x90_psd_Asset_02_File_Online_0_Layer0_0_MEMBER_1_FILL">
<path fill="#FFFFFF" stroke="none" d="
M 58.4 -49.65
L 46.9 -49.65 46.9 0 58.4 0 58.4 -49.65 Z"/>
</g>

<g id="DIY_Online_and_Download_728x90_psd_Asset_02_File_Online_0_Layer0_0_MEMBER_2_FILL">
<path fill="#FFFFFF" stroke="none" d="
M 80.65 -49.65
L 69.05 -49.65 69.05 0 102 0 102 -8.85 80.65 -8.85 80.65 -49.65 Z"/>
</g>

<g id="DIY_Online_and_Download_728x90_psd_Asset_02_File_Online_0_Layer0_0_MEMBER_3_FILL">
<path fill="#FFFFFF" stroke="none" d="
M 120.55 -8.85
L 120.55 -21.25 140.05 -21.25 140.05 -30.1 120.55 -30.1 120.55 -40.8 143.6 -40.8 143.6 -49.65 109 -49.65 109 0 143.5 0 143.5 -8.85 120.55 -8.85 Z"/>
</g>

<g id="DIY_Online_and_Download_728x90_psd_Asset_02_File_Online_0_Layer0_0_MEMBER_4_FILL">
<path fill="#FFFFFF" stroke="none" d="
M 175.05 -44.4
Q 169.2 -38.45 169.2 -29.3
L 169.2 -20.35
Q 169.2 -11.15 175.05 -5.25 180.85 0.7 190.35 0.7 199.8 0.7 205.55 -5.25 211.4 -11.15 211.4 -20.35
L 211.4 -29.3
Q 211.4 -38.4 205.5 -44.4 199.65 -50.4 190.3 -50.4 180.9 -50.4 175.05 -44.4
M 197.4 -38.1
Q 199.9 -34.7 199.9 -29.35
L 199.9 -20.35
Q 199.9 -15.05 197.4 -11.55 194.9 -8.15 190.35 -8.15 185.7 -8.15 183.2 -11.55 180.7 -14.95 180.7 -20.35
L 180.7 -29.35
Q 180.7 -34.75 183.15 -38.1 185.6 -41.5 190.3 -41.5 194.85 -41.5 197.4 -38.1 Z"/>
</g>

<g id="DIY_Online_and_Download_728x90_psd_Asset_02_File_Online_0_Layer0_0_MEMBER_5_FILL">
<path fill="#FFFFFF" stroke="none" d="
M 231.7 -49.65
L 220.15 -49.65 220.15 0 231.7 0 231.7 -31.6 231.95 -31.65 250.1 0 261.6 0 261.6 -49.65 250.1 -49.65 250.1 -18.1 249.9 -18 231.7 -49.65 Z"/>
</g>

<g id="DIY_Online_and_Download_728x90_psd_Asset_02_File_Online_0_Layer0_0_MEMBER_6_FILL">
<path fill="#FFFFFF" stroke="none" d="
M 283.05 -49.65
L 271.5 -49.65 271.5 0 304.45 0 304.45 -8.85 283.05 -8.85 283.05 -49.65 Z"/>
</g>

<g id="DIY_Online_and_Download_728x90_psd_Asset_02_File_Online_0_Layer0_0_MEMBER_7_FILL">
<path fill="#FFFFFF" stroke="none" d="
M 323.7 -49.65
L 312.2 -49.65 312.2 0 323.7 0 323.7 -49.65 Z"/>
</g>

<g id="DIY_Online_and_Download_728x90_psd_Asset_02_File_Online_0_Layer0_0_MEMBER_8_FILL">
<path fill="#FFFFFF" stroke="none" d="
M 345.95 -49.65
L 334.35 -49.65 334.35 0 345.95 0 345.95 -31.6 346.15 -31.65 364.3 0 375.8 0 375.8 -49.65 364.3 -49.65 364.3 -18.1 364.1 -18 345.95 -49.65 Z"/>
</g>

<g id="DIY_Online_and_Download_728x90_psd_Asset_02_File_Online_0_Layer0_0_MEMBER_9_FILL">
<path fill="#FFFFFF" stroke="none" d="
M 397.3 -8.85
L 397.3 -21.25 416.75 -21.25 416.75 -30.1 397.3 -30.1 397.3 -40.8 420.3 -40.8 420.3 -49.65 385.7 -49.65 385.7 0 420.25 0 420.25 -8.85 397.3 -8.85 Z"/>
</g>
</defs>

<g transform="matrix( 1, 0, 0, 1, -4,-156) ">
<g transform="matrix( 1, 0, 0, 1, 176,185) ">
<g transform="matrix( 0.66973876953125, 0, 0, 0.672821044921875, -1.6,33.65) ">
<use xlink:href="#DIY_Online_and_Download_728x90_psd_Asset_02_File_Online_0_Layer0_0_MEMBER_0_FILL"/>
</g>

<g transform="matrix( 0.66973876953125, 0, 0, 0.672821044921875, -1.6,33.65) ">
<use xlink:href="#DIY_Online_and_Download_728x90_psd_Asset_02_File_Online_0_Layer0_0_MEMBER_1_FILL"/>
</g>

<g transform="matrix( 0.66973876953125, 0, 0, 0.672821044921875, -1.6,33.65) ">
<use xlink:href="#DIY_Online_and_Download_728x90_psd_Asset_02_File_Online_0_Layer0_0_MEMBER_2_FILL"/>
</g>

<g transform="matrix( 0.66973876953125, 0, 0, 0.672821044921875, -1.6,33.65) ">
<use xlink:href="#DIY_Online_and_Download_728x90_psd_Asset_02_File_Online_0_Layer0_0_MEMBER_3_FILL"/>
</g>

<g transform="matrix( 0.66973876953125, 0, 0, 0.672821044921875, -1.6,33.65) ">
<use xlink:href="#DIY_Online_and_Download_728x90_psd_Asset_02_File_Online_0_Layer0_0_MEMBER_4_FILL"/>
</g>

<g transform="matrix( 0.66973876953125, 0, 0, 0.672821044921875, -1.6,33.65) ">
<use xlink:href="#DIY_Online_and_Download_728x90_psd_Asset_02_File_Online_0_Layer0_0_MEMBER_5_FILL"/>
</g>

<g transform="matrix( 0.66973876953125, 0, 0, 0.672821044921875, -1.6,33.65) ">
<use xlink:href="#DIY_Online_and_Download_728x90_psd_Asset_02_File_Online_0_Layer0_0_MEMBER_6_FILL"/>
</g>

<g transform="matrix( 0.66973876953125, 0, 0, 0.672821044921875, -1.6,33.65) ">
<use xlink:href="#DIY_Online_and_Download_728x90_psd_Asset_02_File_Online_0_Layer0_0_MEMBER_7_FILL"/>
</g>

<g transform="matrix( 0.66973876953125, 0, 0, 0.672821044921875, -1.6,33.65) ">
<use xlink:href="#DIY_Online_and_Download_728x90_psd_Asset_02_File_Online_0_Layer0_0_MEMBER_8_FILL"/>
</g>

<g transform="matrix( 0.66973876953125, 0, 0, 0.672821044921875, -1.6,33.65) ">
<use xlink:href="#DIY_Online_and_Download_728x90_psd_Asset_02_File_Online_0_Layer0_0_MEMBER_9_FILL"/>
</g>
</g>
</g>
</svg>
