
<svg xmlns="http://www.w3.org/2000/svg" version="1.1" xmlns:xlink="http://www.w3.org/1999/xlink" preserveAspectRatio="none" x="0px" y="0px" width="300px" height="250px" viewBox="0 0 300 250">
<defs>
<g id="DIY_Online_and_Download_300x250_psd_Asset_01_Laptop_Download___file__0_Layer0_0_MEMBER_0_FILL">
<path fill="#7FBA00" stroke="none" d="
M 18.15 -12.45
Q 18.15 -16.35 15.65 -18.7 13.1 -21.15 9.4 -21.15
L 1.7 -21.15 1.7 0 9.4 0
Q 13.2 0 15.65 -2.4 18.15 -4.8 18.15 -8.65
L 18.15 -12.45
M 12.15 -16
Q 13.25 -14.7 13.25 -12.5
L 13.25 -8.65
Q 13.25 -6.45 12.15 -5.15 11.05 -3.75 9.4 -3.75
L 6.6 -3.75 6.6 -17.35 9.4 -17.35
Q 11.1 -17.35 12.15 -16 Z"/>
</g>

<g id="DIY_Online_and_Download_300x250_psd_Asset_01_Laptop_Download___file__0_Layer0_0_MEMBER_1_FILL">
<path fill="#7FBA00" stroke="none" d="
M 39.1 -12.45
Q 39.1 -16.4 36.6 -18.9 34.15 -21.45 30.15 -21.45 26.15 -21.45 23.65 -18.9 21.15 -16.3 21.15 -12.45
L 21.15 -8.65
Q 21.15 -4.75 23.65 -2.25 26.15 0.3 30.15 0.3 34.2 0.3 36.65 -2.25 39.1 -4.7 39.1 -8.65
L 39.1 -12.45
M 33.15 -16.2
Q 34.2 -14.75 34.2 -12.5
L 34.2 -8.65
Q 34.2 -6.4 33.15 -4.9 32.1 -3.45 30.15 -3.45 28.25 -3.45 27.1 -4.9 26.05 -6.4 26.05 -8.65
L 26.05 -12.5
Q 26.05 -14.75 27.1 -16.2 28.1 -17.65 30.15 -17.65 32.15 -17.65 33.15 -16.2 Z"/>
</g>

<g id="DIY_Online_and_Download_300x250_psd_Asset_01_Laptop_Download___file__0_Layer0_0_MEMBER_2_FILL">
<path fill="#7FBA00" stroke="none" d="
M 59.55 -7.45
L 55.95 -21.15 52.25 -21.15 48.65 -7.4 48.55 -7.4 46 -21.15 41.05 -21.15 45.9 0 50.5 0 54.05 -13.05 54.15 -13.05 57.7 0 62.3 0 67.15 -21.15 62.2 -21.15 59.65 -7.45 59.55 -7.45 Z"/>
</g>

<g id="DIY_Online_and_Download_300x250_psd_Asset_01_Laptop_Download___file__0_Layer0_0_MEMBER_3_FILL">
<path fill="#7FBA00" stroke="none" d="
M 74.4 -13.25
L 74.5 -13.3 82.2 0 87.1 0 87.1 -21.15 82.2 -21.15 82.2 -7.9 82.1 -7.85 74.4 -21.15 69.5 -21.15 69.5 0 74.4 0 74.4 -13.25 Z"/>
</g>

<g id="DIY_Online_and_Download_300x250_psd_Asset_01_Laptop_Download___file__0_Layer0_0_MEMBER_4_FILL">
<path fill="#7FBA00" stroke="none" d="
M 95.8 -3.75
L 95.8 -21.15 90.9 -21.15 90.9 0 104.9 0 104.9 -3.75 95.8 -3.75 Z"/>
</g>

<g id="DIY_Online_and_Download_300x250_psd_Asset_01_Laptop_Download___file__0_Layer0_0_MEMBER_5_FILL">
<path fill="#7FBA00" stroke="none" d="
M 109.7 -18.9
Q 107.2 -16.3 107.2 -12.45
L 107.2 -8.65
Q 107.2 -4.75 109.7 -2.25 112.2 0.3 116.25 0.3 120.25 0.3 122.7 -2.25 125.15 -4.7 125.15 -8.65
L 125.15 -12.45
Q 125.15 -16.4 122.65 -18.9 120.2 -21.45 116.2 -21.45 112.2 -21.45 109.7 -18.9
M 119.2 -16.2
Q 120.3 -14.7 120.3 -12.5
L 120.3 -8.65
Q 120.3 -6.45 119.2 -4.9 118.15 -3.45 116.25 -3.45 114.3 -3.45 113.15 -4.9 112.1 -6.4 112.1 -8.65
L 112.1 -12.5
Q 112.1 -14.75 113.15 -16.2 114.15 -17.65 116.2 -17.65 118.2 -17.65 119.2 -16.2 Z"/>
</g>

<g id="DIY_Online_and_Download_300x250_psd_Asset_01_Laptop_Download___file__0_Layer0_0_MEMBER_6_FILL">
<path fill="#7FBA00" stroke="none" d="
M 138.85 -21.15
L 133.6 -21.15 126.7 0 131.85 0 133.05 -4.1 139.35 -4.1 140.6 0 145.75 0 138.85 -21.15
M 134.2 -7.9
L 136.15 -14.45 136.25 -14.45 138.25 -7.9 134.2 -7.9 Z"/>
</g>

<g id="DIY_Online_and_Download_300x250_psd_Asset_01_Laptop_Download___file__0_Layer0_0_MEMBER_7_FILL">
<path fill="#7FBA00" stroke="none" d="
M 161.7 -18.7
Q 159.1 -21.15 155.45 -21.15
L 147.7 -21.15 147.7 0 155.45 0
Q 159.15 0 161.7 -2.4 164.2 -4.9 164.2 -8.65
L 164.2 -12.45
Q 164.2 -16.25 161.7 -18.7
M 152.6 -17.35
L 155.45 -17.35
Q 157.15 -17.35 158.2 -16 159.3 -14.6 159.3 -12.5
L 159.3 -8.65
Q 159.3 -6.55 158.2 -5.15 157.1 -3.75 155.45 -3.75
L 152.6 -3.75 152.6 -17.35 Z"/>
</g>

<g id="DIY_Online_and_Download_300x250_psd_Asset_01_Laptop_Download___file__0_Layer0_0_MEMBER_8_FILL">
<path fill="#7FBA00" stroke="none" d="
M 178.05 -19.95
Q 176.45 -18.4 176.45 -15.75 176.45 -14.65 176.9 -13.6 177.45 -12.3 178.2 -11.3
L 177.95 -11.1
Q 176.35 -9.85 175.45 -8.55 174.6 -7.3 174.6 -5.7 174.6 -3 176.5 -1.35 178.4 0.3 181.5 0.3 183.1 0.3 184.3 -0.05 185.4 -0.35 186.8 -1.2
L 187.9 0 193.25 0 193.25 -0.05 190.25 -3.55
Q 191.35 -5 191.8 -6.65 192.3 -8.35 192.3 -10.55
L 188.55 -10.55
Q 188.55 -9.5 188.25 -8.55 187.95 -7.55 187.5 -6.75
L 184.05 -10.65 185.5 -11.7
Q 186.5 -12.45 187.1 -13.7 187.65 -14.9 187.65 -16.35 187.65 -18.4 186.2 -19.95 184.8 -21.45 182.45 -21.45 179.7 -21.45 178.05 -19.95
M 180.7 -15.8
Q 180.7 -16.55 181.15 -17.1 181.55 -17.65 182.3 -17.65 183 -17.65 183.35 -17.15 183.75 -16.65 183.75 -16 183.75 -15.4 183.45 -14.9 183.1 -14.4 182.35 -13.9
L 181.7 -13.5
Q 181.2 -14.1 180.95 -14.7 180.7 -15.3 180.7 -15.8
M 181.85 -3.45
Q 180.9 -3.45 180.2 -4.2 179.55 -4.85 179.55 -6 179.55 -6.75 179.8 -7.2 180 -7.65 180.6 -8.25
L 184.35 -4
Q 183.9 -3.8 183.1 -3.6 182.5 -3.45 181.85 -3.45 Z"/>
</g>

<g id="DIY_Online_and_Download_300x250_psd_Asset_01_Laptop_Download___file__0_Layer0_0_MEMBER_9_FILL">
<path fill="#7FBA00" stroke="none" d="
M 216.4 -8.5
L 216.4 -12.3 208.65 -12.3 208.65 -17.35 217.85 -17.35 217.85 -21.15 203.75 -21.15 203.75 0 208.65 0 208.65 -8.5 216.4 -8.5 Z"/>
</g>

<g id="DIY_Online_and_Download_300x250_psd_Asset_01_Laptop_Download___file__0_Layer0_0_MEMBER_10_FILL">
<path fill="#7FBA00" stroke="none" d="
M 226 -21.15
L 221.1 -21.15 221.1 0 226 0 226 -21.15 Z"/>
</g>

<g id="DIY_Online_and_Download_300x250_psd_Asset_01_Laptop_Download___file__0_Layer0_0_MEMBER_11_FILL">
<path fill="#7FBA00" stroke="none" d="
M 235 -3.75
L 235 -21.15 230.1 -21.15 230.1 0 244.1 0 244.1 -3.75 235 -3.75 Z"/>
</g>

<g id="DIY_Online_and_Download_300x250_psd_Asset_01_Laptop_Download___file__0_Layer0_0_MEMBER_12_FILL">
<path fill="#7FBA00" stroke="none" d="
M 261 -17.35
L 261 -21.15 247.15 -21.15 247.15 0 261 0 261 -3.75 252.05 -3.75 252.05 -9.05 259.5 -9.05 259.5 -12.8 252.05 -12.8 252.05 -17.35 261 -17.35 Z"/>
</g>
</defs>

<g transform="matrix( 1, 0, 0, 1, 4,18) ">
<g transform="matrix( 1, 0, 0, 1, 58,48) ">
<g transform="matrix( 0.66973876953125, 0, 0, 0.672821044921875, -0.6,14.65) ">
<use xlink:href="#DIY_Online_and_Download_300x250_psd_Asset_01_Laptop_Download___file__0_Layer0_0_MEMBER_0_FILL"/>
</g>

<g transform="matrix( 0.66973876953125, 0, 0, 0.672821044921875, -0.6,14.65) ">
<use xlink:href="#DIY_Online_and_Download_300x250_psd_Asset_01_Laptop_Download___file__0_Layer0_0_MEMBER_1_FILL"/>
</g>

<g transform="matrix( 0.66973876953125, 0, 0, 0.672821044921875, -0.6,14.65) ">
<use xlink:href="#DIY_Online_and_Download_300x250_psd_Asset_01_Laptop_Download___file__0_Layer0_0_MEMBER_2_FILL"/>
</g>

<g transform="matrix( 0.66973876953125, 0, 0, 0.672821044921875, -0.6,14.65) ">
<use xlink:href="#DIY_Online_and_Download_300x250_psd_Asset_01_Laptop_Download___file__0_Layer0_0_MEMBER_3_FILL"/>
</g>

<g transform="matrix( 0.66973876953125, 0, 0, 0.672821044921875, -0.6,14.65) ">
<use xlink:href="#DIY_Online_and_Download_300x250_psd_Asset_01_Laptop_Download___file__0_Layer0_0_MEMBER_4_FILL"/>
</g>

<g transform="matrix( 0.66973876953125, 0, 0, 0.672821044921875, -0.6,14.65) ">
<use xlink:href="#DIY_Online_and_Download_300x250_psd_Asset_01_Laptop_Download___file__0_Layer0_0_MEMBER_5_FILL"/>
</g>

<g transform="matrix( 0.66973876953125, 0, 0, 0.672821044921875, -0.6,14.65) ">
<use xlink:href="#DIY_Online_and_Download_300x250_psd_Asset_01_Laptop_Download___file__0_Layer0_0_MEMBER_6_FILL"/>
</g>

<g transform="matrix( 0.66973876953125, 0, 0, 0.672821044921875, -0.6,14.65) ">
<use xlink:href="#DIY_Online_and_Download_300x250_psd_Asset_01_Laptop_Download___file__0_Layer0_0_MEMBER_7_FILL"/>
</g>

<g transform="matrix( 0.66973876953125, 0, 0, 0.672821044921875, -0.6,14.65) ">
<use xlink:href="#DIY_Online_and_Download_300x250_psd_Asset_01_Laptop_Download___file__0_Layer0_0_MEMBER_8_FILL"/>
</g>

<g transform="matrix( 0.66973876953125, 0, 0, 0.672821044921875, -0.6,14.65) ">
<use xlink:href="#DIY_Online_and_Download_300x250_psd_Asset_01_Laptop_Download___file__0_Layer0_0_MEMBER_9_FILL"/>
</g>

<g transform="matrix( 0.66973876953125, 0, 0, 0.672821044921875, -0.6,14.65) ">
<use xlink:href="#DIY_Online_and_Download_300x250_psd_Asset_01_Laptop_Download___file__0_Layer0_0_MEMBER_10_FILL"/>
</g>

<g transform="matrix( 0.66973876953125, 0, 0, 0.672821044921875, -0.6,14.65) ">
<use xlink:href="#DIY_Online_and_Download_300x250_psd_Asset_01_Laptop_Download___file__0_Layer0_0_MEMBER_11_FILL"/>
</g>

<g transform="matrix( 0.66973876953125, 0, 0, 0.672821044921875, -0.6,14.65) ">
<use xlink:href="#DIY_Online_and_Download_300x250_psd_Asset_01_Laptop_Download___file__0_Layer0_0_MEMBER_12_FILL"/>
</g>
</g>
</g>
</svg>
