
<svg xmlns="http://www.w3.org/2000/svg" version="1.1" xmlns:xlink="http://www.w3.org/1999/xlink" preserveAspectRatio="none" x="0px" y="0px" width="300px" height="250px" viewBox="0 0 300 250">
<defs>
<g id="DIY_Online_and_Download_300x250_psd_Asset_01_Laptop_File_Online_0_Layer0_0_MEMBER_0_FILL">
<path fill="#7FBA00" stroke="none" d="
M 24.65 -30.7
L 3.05 -30.7 3.05 0 10.6 0 10.6 -11.55 23.3 -11.55 23.3 -17.8 10.6 -17.8 10.6 -24.4 24.65 -24.4 24.65 -30.7 Z"/>
</g>

<g id="DIY_Online_and_Download_300x250_psd_Asset_01_Laptop_File_Online_0_Layer0_0_MEMBER_1_FILL">
<path fill="#7FBA00" stroke="none" d="
M 37 -30.7
L 29.45 -30.7 29.45 0 37 0 37 -30.7 Z"/>
</g>

<g id="DIY_Online_and_Download_300x250_psd_Asset_01_Laptop_File_Online_0_Layer0_0_MEMBER_2_FILL">
<path fill="#7FBA00" stroke="none" d="
M 50.9 -30.7
L 43.35 -30.7 43.35 0 64.45 0 64.45 -6.25 50.9 -6.25 50.9 -30.7 Z"/>
</g>

<g id="DIY_Online_and_Download_300x250_psd_Asset_01_Laptop_File_Online_0_Layer0_0_MEMBER_3_FILL">
<path fill="#7FBA00" stroke="none" d="
M 76.6 -18.7
L 76.6 -24.4 91.3 -24.4 91.3 -30.7 69.05 -30.7 69.05 0 91.3 0 91.3 -6.25 76.6 -6.25 76.6 -12.4 89.95 -12.4 89.95 -18.7 76.6 -18.7 Z"/>
</g>

<g id="DIY_Online_and_Download_300x250_psd_Asset_01_Laptop_File_Online_0_Layer0_0_MEMBER_4_FILL">
<path fill="#7FBA00" stroke="none" d="
M 119.25 -31.3
Q 112.5 -31.3 108.75 -27.3 105.2 -23.55 105.2 -17.3
L 105.2 -13.35
Q 105.2 -7.1 108.75 -3.35 112.5 0.6 119.25 0.6 126 0.6 129.8 -3.35 133.35 -7.1 133.35 -13.35
L 133.35 -17.3
Q 133.35 -23.55 129.8 -27.3 126 -31.3 119.25 -31.3
M 119.25 -5.65
Q 116.05 -5.65 114.35 -7.65 112.7 -9.6 112.7 -13
L 112.7 -17.7
Q 112.7 -21.1 114.35 -23 116.05 -25.05 119.25 -25.05 122.45 -25.05 124.2 -23 125.8 -21.1 125.8 -17.7
L 125.8 -13
Q 125.8 -9.6 124.2 -7.65 122.45 -5.65 119.25 -5.65 Z"/>
</g>

<g id="DIY_Online_and_Download_300x250_psd_Asset_01_Laptop_File_Online_0_Layer0_0_MEMBER_5_FILL">
<path fill="#7FBA00" stroke="none" d="
M 145.65 -30.7
L 138.5 -30.7 138.5 0 145.85 0 145.85 -17.95 157.35 0 164.55 0 164.55 -30.7 157.2 -30.7 157.2 -12.75 145.65 -30.7 Z"/>
</g>

<g id="DIY_Online_and_Download_300x250_psd_Asset_01_Laptop_File_Online_0_Layer0_0_MEMBER_6_FILL">
<path fill="#7FBA00" stroke="none" d="
M 178.25 -30.7
L 170.7 -30.7 170.7 0 191.75 0 191.75 -6.25 178.25 -6.25 178.25 -30.7 Z"/>
</g>

<g id="DIY_Online_and_Download_300x250_psd_Asset_01_Laptop_File_Online_0_Layer0_0_MEMBER_7_FILL">
<path fill="#7FBA00" stroke="none" d="
M 204.15 -30.7
L 196.6 -30.7 196.6 0 204.15 0 204.15 -30.7 Z"/>
</g>

<g id="DIY_Online_and_Download_300x250_psd_Asset_01_Laptop_File_Online_0_Layer0_0_MEMBER_8_FILL">
<path fill="#7FBA00" stroke="none" d="
M 217.65 -30.7
L 210.5 -30.7 210.5 0 217.85 0 217.85 -17.95 229.35 0 236.55 0 236.55 -30.7 229.15 -30.7 229.15 -12.75 217.65 -30.7 Z"/>
</g>

<g id="DIY_Online_and_Download_300x250_psd_Asset_01_Laptop_File_Online_0_Layer0_0_MEMBER_9_FILL">
<path fill="#7FBA00" stroke="none" d="
M 264.9 -24.4
L 264.9 -30.7 242.7 -30.7 242.7 0 264.95 0 264.95 -6.25 250.2 -6.25 250.2 -12.4 263.6 -12.4 263.6 -18.7 250.2 -18.7 250.2 -24.4 264.9 -24.4 Z"/>
</g>
</defs>

<g transform="matrix( 1, 0, 0, 1, 4,18) ">
<g transform="matrix( 1, 0, 0, 1, 59,42) ">
<g transform="matrix( 0.66973876953125, 0, 0, 0.672821044921875, -2.6,20.65) ">
<use xlink:href="#DIY_Online_and_Download_300x250_psd_Asset_01_Laptop_File_Online_0_Layer0_0_MEMBER_0_FILL"/>
</g>

<g transform="matrix( 0.66973876953125, 0, 0, 0.672821044921875, -2.6,20.65) ">
<use xlink:href="#DIY_Online_and_Download_300x250_psd_Asset_01_Laptop_File_Online_0_Layer0_0_MEMBER_1_FILL"/>
</g>

<g transform="matrix( 0.66973876953125, 0, 0, 0.672821044921875, -2.6,20.65) ">
<use xlink:href="#DIY_Online_and_Download_300x250_psd_Asset_01_Laptop_File_Online_0_Layer0_0_MEMBER_2_FILL"/>
</g>

<g transform="matrix( 0.66973876953125, 0, 0, 0.672821044921875, -2.6,20.65) ">
<use xlink:href="#DIY_Online_and_Download_300x250_psd_Asset_01_Laptop_File_Online_0_Layer0_0_MEMBER_3_FILL"/>
</g>

<g transform="matrix( 0.66973876953125, 0, 0, 0.672821044921875, -2.6,20.65) ">
<use xlink:href="#DIY_Online_and_Download_300x250_psd_Asset_01_Laptop_File_Online_0_Layer0_0_MEMBER_4_FILL"/>
</g>

<g transform="matrix( 0.66973876953125, 0, 0, 0.672821044921875, -2.6,20.65) ">
<use xlink:href="#DIY_Online_and_Download_300x250_psd_Asset_01_Laptop_File_Online_0_Layer0_0_MEMBER_5_FILL"/>
</g>

<g transform="matrix( 0.66973876953125, 0, 0, 0.672821044921875, -2.6,20.65) ">
<use xlink:href="#DIY_Online_and_Download_300x250_psd_Asset_01_Laptop_File_Online_0_Layer0_0_MEMBER_6_FILL"/>
</g>

<g transform="matrix( 0.66973876953125, 0, 0, 0.672821044921875, -2.6,20.65) ">
<use xlink:href="#DIY_Online_and_Download_300x250_psd_Asset_01_Laptop_File_Online_0_Layer0_0_MEMBER_7_FILL"/>
</g>

<g transform="matrix( 0.66973876953125, 0, 0, 0.672821044921875, -2.6,20.65) ">
<use xlink:href="#DIY_Online_and_Download_300x250_psd_Asset_01_Laptop_File_Online_0_Layer0_0_MEMBER_8_FILL"/>
</g>

<g transform="matrix( 0.66973876953125, 0, 0, 0.672821044921875, -2.6,20.65) ">
<use xlink:href="#DIY_Online_and_Download_300x250_psd_Asset_01_Laptop_File_Online_0_Layer0_0_MEMBER_9_FILL"/>
</g>
</g>
</g>
</svg>
