
<svg xmlns="http://www.w3.org/2000/svg" version="1.1" xmlns:xlink="http://www.w3.org/1999/xlink" preserveAspectRatio="none" x="0px" y="0px" width="728px" height="90px" viewBox="0 0 728 90">
<defs>
<g id="DIY_Online_and_Download_728x90_psd_Asset_03_No_matter_how_you_file__it_s__0_Layer0_0_MEMBER_0_FILL">
<path fill="#FFFFFF" stroke="none" d="
M 8.3 -17
L 8.4 -17.05 18.2 0 24.4 0 24.4 -26.7 18.2 -26.7 18.2 -9.75 18.1 -9.7 8.3 -26.7 2.1 -26.7 2.1 0 8.3 0 8.3 -17 Z"/>
</g>

<g id="DIY_Online_and_Download_728x90_psd_Asset_03_No_matter_how_you_file__it_s__0_Layer0_0_MEMBER_1_FILL">
<path fill="#FFFFFF" stroke="none" d="
M 30.2 -23.9
Q 27.05 -20.65 27.05 -15.75
L 27.05 -10.95
Q 27.05 -6 30.2 -2.8 33.4 0.4 38.45 0.4 43.5 0.4 46.6 -2.8 49.75 -6 49.75 -10.95
L 49.75 -15.75
Q 49.75 -20.65 46.6 -23.9 43.5 -27.1 38.4 -27.1 33.35 -27.1 30.2 -23.9
M 38.45 -4.4
Q 35.95 -4.4 34.6 -6.2 33.25 -8.05 33.25 -10.95
L 33.25 -15.8
Q 33.25 -18.75 34.55 -20.5 35.9 -22.35 38.4 -22.35 40.8 -22.35 42.2 -20.5 43.55 -18.7 43.55 -15.8
L 43.55 -10.95
Q 43.55 -8.05 42.2 -6.2 40.95 -4.4 38.45 -4.4 Z"/>
</g>

<g id="DIY_Online_and_Download_728x90_psd_Asset_03_No_matter_how_you_file__it_s__0_Layer0_0_MEMBER_2_FILL">
<path fill="#FFFFFF" stroke="none" d="
M 68.95 -26.7
L 60.8 -26.7 60.8 0 67.05 0 66.45 -18.65 66.55 -18.7 72.95 0 77.1 0 83.55 -18.85 83.65 -18.85 83.1 0 89.3 0 89.3 -26.7 81.1 -26.7 75.05 -8 74.95 -8 68.95 -26.7 Z"/>
</g>

<g id="DIY_Online_and_Download_728x90_psd_Asset_03_No_matter_how_you_file__it_s__0_Layer0_0_MEMBER_3_FILL">
<path fill="#FFFFFF" stroke="none" d="
M 98.65 -5.2
L 107.1 -5.2 108.6 0 114.85 0 106.2 -26.7 99.55 -26.7 90.9 0 97.15 0 98.65 -5.2
M 100.05 -9.95
L 102.8 -19.55 102.9 -19.55 105.7 -9.95 100.05 -9.95 Z"/>
</g>

<g id="DIY_Online_and_Download_728x90_psd_Asset_03_No_matter_how_you_file__it_s__0_Layer0_0_MEMBER_4_FILL">
<path fill="#FFFFFF" stroke="none" d="
M 112.55 -21.95
L 119.55 -21.95 119.55 0 125.75 0 125.75 -21.95 132.8 -21.95 132.8 -26.7 112.55 -26.7 112.55 -21.95 Z"/>
</g>

<g id="DIY_Online_and_Download_728x90_psd_Asset_03_No_matter_how_you_file__it_s__0_Layer0_0_MEMBER_5_FILL">
<path fill="#FFFFFF" stroke="none" d="
M 153.3 -21.95
L 153.3 -26.7 133.05 -26.7 133.05 -21.95 140.05 -21.95 140.05 0 146.3 0 146.3 -21.95 153.3 -21.95 Z"/>
</g>

<g id="DIY_Online_and_Download_728x90_psd_Asset_03_No_matter_how_you_file__it_s__0_Layer0_0_MEMBER_6_FILL">
<path fill="#FFFFFF" stroke="none" d="
M 161.1 -4.75
L 161.1 -11.45 171.6 -11.45 171.6 -16.2 161.1 -16.2 161.1 -21.95 173.5 -21.95 173.5 -26.7 154.9 -26.7 154.9 0 173.45 0 173.45 -4.75 161.1 -4.75 Z"/>
</g>

<g id="DIY_Online_and_Download_728x90_psd_Asset_03_No_matter_how_you_file__it_s__0_Layer0_0_MEMBER_7_FILL">
<path fill="#FFFFFF" stroke="none" d="
M 195.7 -18.7
Q 195.7 -22.45 192.95 -24.55 190.3 -26.7 185.6 -26.7
L 175.35 -26.7 175.35 0 181.55 0 181.55 -10.25 185.85 -10.25
Q 187.7 -10.25 188.8 -9.25 189.8 -8.15 189.8 -6.3
L 189.8 -4.7
Q 189.8 -3.65 190.05 -2 190.3 -0.6 191 0
L 197.4 0 197.4 -0.35
Q 196.6 -0.95 196.3 -2.3 196 -3.55 196 -4.65
L 196 -6.35
Q 196 -8.8 194.9 -10.4 193.9 -12 191.4 -12.7 193.5 -13.65 194.6 -15.15 195.7 -16.6 195.7 -18.7
M 181.55 -15
L 181.55 -21.95 185.6 -21.95
Q 187.4 -21.95 188.5 -20.95 189.5 -19.95 189.5 -18.3 189.5 -16.7 188.5 -15.85 187.5 -15 185.65 -15
L 181.55 -15 Z"/>
</g>

<g id="DIY_Online_and_Download_728x90_psd_Asset_03_No_matter_how_you_file__it_s__0_Layer0_0_MEMBER_8_FILL">
<path fill="#FFFFFF" stroke="none" d="
M 213.85 -10.75
L 223.75 -10.75 223.75 0 229.95 0 229.95 -26.7 223.75 -26.7 223.75 -15.55 213.85 -15.55 213.85 -26.7 207.65 -26.7 207.65 0 213.85 0 213.85 -10.75 Z"/>
</g>

<g id="DIY_Online_and_Download_728x90_psd_Asset_03_No_matter_how_you_file__it_s__0_Layer0_0_MEMBER_9_FILL">
<path fill="#FFFFFF" stroke="none" d="
M 232.6 -10.95
Q 232.6 -6 235.75 -2.8 238.95 0.4 244 0.4 248.95 0.4 252.15 -2.8 255.3 -6 255.3 -10.95
L 255.3 -15.75
Q 255.3 -20.65 252.15 -23.9 248.95 -27.1 243.95 -27.1 238.9 -27.1 235.75 -23.9 232.6 -20.65 232.6 -15.75
L 232.6 -10.95
M 238.75 -15.8
Q 238.75 -18.7 240.1 -20.5 241.45 -22.35 243.95 -22.35 246.35 -22.35 247.75 -20.5 249.1 -18.7 249.1 -15.8
L 249.1 -10.95
Q 249.1 -8.05 247.75 -6.2 246.4 -4.4 244 -4.4 241.45 -4.4 240.1 -6.2 238.75 -8.05 238.75 -10.95
L 238.75 -15.8 Z"/>
</g>

<g id="DIY_Online_and_Download_728x90_psd_Asset_03_No_matter_how_you_file__it_s__0_Layer0_0_MEMBER_10_FILL">
<path fill="#FFFFFF" stroke="none" d="
M 274.7 -26.7
L 270.4 -26.7 265.65 -9.2 265.55 -9.2 262.05 -26.7 256.05 -26.7 262.2 0 268 0 272.5 -16.5 272.6 -16.5 277.1 0 282.9 0 289.05 -26.7 283.05 -26.7 279.55 -9.2 279.45 -9.2 274.7 -26.7 Z"/>
</g>

<g id="DIY_Online_and_Download_728x90_psd_Asset_03_No_matter_how_you_file__it_s__0_Layer0_0_MEMBER_11_FILL">
<path fill="#FFFFFF" stroke="none" d="
M 308.65 -15.05
L 303.35 -26.7 296.65 -26.7 305.55 -9.7 305.55 0 311.75 0 311.75 -9.4 320.85 -26.7 314.1 -26.7 308.75 -15.05 308.65 -15.05 Z"/>
</g>

<g id="DIY_Online_and_Download_728x90_psd_Asset_03_No_matter_how_you_file__it_s__0_Layer0_0_MEMBER_12_FILL">
<path fill="#FFFFFF" stroke="none" d="
M 320.75 -10.95
Q 320.75 -6 323.9 -2.8 327.2 0.4 332.15 0.4 337.15 0.4 340.35 -2.8 343.45 -6.05 343.45 -10.95
L 343.45 -15.75
Q 343.45 -20.65 340.3 -23.9 337.2 -27.1 332.15 -27.1 327.05 -27.1 323.9 -23.9 320.75 -20.65 320.75 -15.75
L 320.75 -10.95
M 335.95 -20.5
Q 337.3 -18.7 337.3 -15.8
L 337.3 -10.95
Q 337.3 -8.05 335.95 -6.2 334.6 -4.4 332.15 -4.4 329.65 -4.4 328.3 -6.2 326.95 -8.05 326.95 -10.95
L 326.95 -15.8
Q 326.95 -18.7 328.3 -20.5 329.55 -22.35 332.15 -22.35 334.55 -22.35 335.95 -20.5 Z"/>
</g>

<g id="DIY_Online_and_Download_728x90_psd_Asset_03_No_matter_how_you_file__it_s__0_Layer0_0_MEMBER_13_FILL">
<path fill="#FFFFFF" stroke="none" d="
M 352.2 -26.7
L 346 -26.7 346 -9.2
Q 346 -4.6 349.05 -2.15 352.05 0.4 357.05 0.4 362 0.4 365 -2.15 368.05 -4.6 368.05 -9.2
L 368.05 -26.7 361.85 -26.7 361.85 -9.2
Q 361.85 -6.8 360.6 -5.55 359.3 -4.4 357.05 -4.4 354.8 -4.4 353.5 -5.55 352.2 -6.75 352.2 -9.2
L 352.2 -26.7 Z"/>
</g>

<g id="DIY_Online_and_Download_728x90_psd_Asset_03_No_matter_how_you_file__it_s__0_Layer0_0_MEMBER_14_FILL">
<path fill="#FFFFFF" stroke="none" d="
M 396.55 -10.75
L 396.55 -15.55 385.85 -15.55 385.85 -21.95 398.4 -21.95 398.4 -26.7 379.6 -26.7 379.6 0 385.85 0 385.85 -10.75 396.55 -10.75 Z"/>
</g>

<g id="DIY_Online_and_Download_728x90_psd_Asset_03_No_matter_how_you_file__it_s__0_Layer0_0_MEMBER_15_FILL">
<path fill="#FFFFFF" stroke="none" d="
M 406.9 -26.7
L 400.7 -26.7 400.7 0 406.9 0 406.9 -26.7 Z"/>
</g>

<g id="DIY_Online_and_Download_728x90_psd_Asset_03_No_matter_how_you_file__it_s__0_Layer0_0_MEMBER_16_FILL">
<path fill="#FFFFFF" stroke="none" d="
M 416.75 -4.75
L 416.75 -26.7 410.55 -26.7 410.55 0 428.25 0 428.25 -4.75 416.75 -4.75 Z"/>
</g>

<g id="DIY_Online_and_Download_728x90_psd_Asset_03_No_matter_how_you_file__it_s__0_Layer0_0_MEMBER_17_FILL">
<path fill="#FFFFFF" stroke="none" d="
M 436.2 -4.75
L 436.2 -11.45 446.65 -11.45 446.65 -16.2 436.2 -16.2 436.2 -21.95 448.55 -21.95 448.55 -26.7 429.95 -26.7 429.95 0 448.55 0 448.55 -4.75 436.2 -4.75 Z"/>
</g>

<g id="DIY_Online_and_Download_728x90_psd_Asset_03_No_matter_how_you_file__it_s__0_Layer0_0_MEMBER_18_FILL">
<path fill="#FFFFFF" stroke="none" d="
M 455.95 -4.65
L 450.6 -4.65 450.6 0 449.35 6 453 6 455.95 0.15 455.95 -4.65 Z"/>
</g>

<g id="DIY_Online_and_Download_728x90_psd_Asset_03_No_matter_how_you_file__it_s__0_Layer0_0_MEMBER_19_FILL">
<path fill="#FFFFFF" stroke="none" d="
M 474.4 -26.7
L 468.25 -26.7 468.25 0 474.4 0 474.4 -26.7 Z"/>
</g>

<g id="DIY_Online_and_Download_728x90_psd_Asset_03_No_matter_how_you_file__it_s__0_Layer0_0_MEMBER_20_FILL">
<path fill="#FFFFFF" stroke="none" d="
M 475.95 -21.95
L 482.9 -21.95 482.9 0 489.15 0 489.15 -21.95 496.2 -21.95 496.2 -26.7 475.95 -26.7 475.95 -21.95 Z"/>
</g>

<g id="DIY_Online_and_Download_728x90_psd_Asset_03_No_matter_how_you_file__it_s__0_Layer0_0_MEMBER_21_FILL">
<path fill="#FFFFFF" stroke="none" d="
M 502.55 -25.05
L 502.55 -28.65 497.6 -28.65 497.6 -25.1 496.5 -18.65 499.55 -18.65 502.55 -25.05 Z"/>
</g>

<g id="DIY_Online_and_Download_728x90_psd_Asset_03_No_matter_how_you_file__it_s__0_Layer0_0_MEMBER_22_FILL">
<path fill="#FFFFFF" stroke="none" d="
M 514.35 -27.1
Q 509.9 -27.1 507 -25.05 504.05 -22.95 504.05 -19.6 504.05 -16.2 506.5 -14.3 509.05 -12.45 514 -10.9 516.4 -10.1 517.4 -9.25 518.3 -8.5 518.3 -7.1 518.3 -5.85 517.35 -5.05 516.45 -4.3 514.5 -4.3 511.9 -4.3 510.7 -5.3 509.45 -6.3 509.45 -8.6
L 503.45 -8.6 503.4 -8.5
Q 503.35 -4.15 506.6 -1.9 510.05 0.4 514.5 0.4 519 0.4 521.75 -1.6 524.5 -3.6 524.5 -7.1 524.5 -10.6 522.2 -12.55 520 -14.55 515.35 -15.9 512.4 -16.95 511.35 -17.7 510.25 -18.35 510.25 -19.55 510.25 -20.75 511.3 -21.6 512.45 -22.45 514.25 -22.45 516.15 -22.45 517.25 -21.45 518.35 -20.35 518.35 -18.85
L 524.35 -18.85 524.4 -18.95
Q 524.5 -22.55 521.65 -24.8 518.85 -27.1 514.35 -27.1 Z"/>
</g>
</defs>

<g transform="matrix( 1, 0, 0, 1, -4,-156) ">
<g transform="matrix( 1, 0, 0, 1, 161,193) ">
<g transform="matrix( 0.582672119140625, 0, 0, 0.5853424072265625, -1.05,17.3) ">
<use xlink:href="#DIY_Online_and_Download_728x90_psd_Asset_03_No_matter_how_you_file__it_s__0_Layer0_0_MEMBER_0_FILL"/>
</g>

<g transform="matrix( 0.582672119140625, 0, 0, 0.5853424072265625, -1.05,17.3) ">
<use xlink:href="#DIY_Online_and_Download_728x90_psd_Asset_03_No_matter_how_you_file__it_s__0_Layer0_0_MEMBER_1_FILL"/>
</g>

<g transform="matrix( 0.582672119140625, 0, 0, 0.5853424072265625, -1.05,17.3) ">
<use xlink:href="#DIY_Online_and_Download_728x90_psd_Asset_03_No_matter_how_you_file__it_s__0_Layer0_0_MEMBER_2_FILL"/>
</g>

<g transform="matrix( 0.582672119140625, 0, 0, 0.5853424072265625, -1.05,17.3) ">
<use xlink:href="#DIY_Online_and_Download_728x90_psd_Asset_03_No_matter_how_you_file__it_s__0_Layer0_0_MEMBER_3_FILL"/>
</g>

<g transform="matrix( 0.582672119140625, 0, 0, 0.5853424072265625, -1.05,17.3) ">
<use xlink:href="#DIY_Online_and_Download_728x90_psd_Asset_03_No_matter_how_you_file__it_s__0_Layer0_0_MEMBER_4_FILL"/>
</g>

<g transform="matrix( 0.582672119140625, 0, 0, 0.5853424072265625, -1.05,17.3) ">
<use xlink:href="#DIY_Online_and_Download_728x90_psd_Asset_03_No_matter_how_you_file__it_s__0_Layer0_0_MEMBER_5_FILL"/>
</g>

<g transform="matrix( 0.582672119140625, 0, 0, 0.5853424072265625, -1.05,17.3) ">
<use xlink:href="#DIY_Online_and_Download_728x90_psd_Asset_03_No_matter_how_you_file__it_s__0_Layer0_0_MEMBER_6_FILL"/>
</g>

<g transform="matrix( 0.582672119140625, 0, 0, 0.5853424072265625, -1.05,17.3) ">
<use xlink:href="#DIY_Online_and_Download_728x90_psd_Asset_03_No_matter_how_you_file__it_s__0_Layer0_0_MEMBER_7_FILL"/>
</g>

<g transform="matrix( 0.582672119140625, 0, 0, 0.5853424072265625, -1.05,17.3) ">
<use xlink:href="#DIY_Online_and_Download_728x90_psd_Asset_03_No_matter_how_you_file__it_s__0_Layer0_0_MEMBER_8_FILL"/>
</g>

<g transform="matrix( 0.582672119140625, 0, 0, 0.5853424072265625, -1.05,17.3) ">
<use xlink:href="#DIY_Online_and_Download_728x90_psd_Asset_03_No_matter_how_you_file__it_s__0_Layer0_0_MEMBER_9_FILL"/>
</g>

<g transform="matrix( 0.582672119140625, 0, 0, 0.5853424072265625, -1.05,17.3) ">
<use xlink:href="#DIY_Online_and_Download_728x90_psd_Asset_03_No_matter_how_you_file__it_s__0_Layer0_0_MEMBER_10_FILL"/>
</g>

<g transform="matrix( 0.582672119140625, 0, 0, 0.5853424072265625, -1.05,17.3) ">
<use xlink:href="#DIY_Online_and_Download_728x90_psd_Asset_03_No_matter_how_you_file__it_s__0_Layer0_0_MEMBER_11_FILL"/>
</g>

<g transform="matrix( 0.582672119140625, 0, 0, 0.5853424072265625, -1.05,17.3) ">
<use xlink:href="#DIY_Online_and_Download_728x90_psd_Asset_03_No_matter_how_you_file__it_s__0_Layer0_0_MEMBER_12_FILL"/>
</g>

<g transform="matrix( 0.582672119140625, 0, 0, 0.5853424072265625, -1.05,17.3) ">
<use xlink:href="#DIY_Online_and_Download_728x90_psd_Asset_03_No_matter_how_you_file__it_s__0_Layer0_0_MEMBER_13_FILL"/>
</g>

<g transform="matrix( 0.582672119140625, 0, 0, 0.5853424072265625, -1.05,17.3) ">
<use xlink:href="#DIY_Online_and_Download_728x90_psd_Asset_03_No_matter_how_you_file__it_s__0_Layer0_0_MEMBER_14_FILL"/>
</g>

<g transform="matrix( 0.582672119140625, 0, 0, 0.5853424072265625, -1.05,17.3) ">
<use xlink:href="#DIY_Online_and_Download_728x90_psd_Asset_03_No_matter_how_you_file__it_s__0_Layer0_0_MEMBER_15_FILL"/>
</g>

<g transform="matrix( 0.582672119140625, 0, 0, 0.5853424072265625, -1.05,17.3) ">
<use xlink:href="#DIY_Online_and_Download_728x90_psd_Asset_03_No_matter_how_you_file__it_s__0_Layer0_0_MEMBER_16_FILL"/>
</g>

<g transform="matrix( 0.582672119140625, 0, 0, 0.5853424072265625, -1.05,17.3) ">
<use xlink:href="#DIY_Online_and_Download_728x90_psd_Asset_03_No_matter_how_you_file__it_s__0_Layer0_0_MEMBER_17_FILL"/>
</g>

<g transform="matrix( 0.582672119140625, 0, 0, 0.5853424072265625, -1.05,17.3) ">
<use xlink:href="#DIY_Online_and_Download_728x90_psd_Asset_03_No_matter_how_you_file__it_s__0_Layer0_0_MEMBER_18_FILL"/>
</g>

<g transform="matrix( 0.582672119140625, 0, 0, 0.5853424072265625, -1.05,17.3) ">
<use xlink:href="#DIY_Online_and_Download_728x90_psd_Asset_03_No_matter_how_you_file__it_s__0_Layer0_0_MEMBER_19_FILL"/>
</g>

<g transform="matrix( 0.582672119140625, 0, 0, 0.5853424072265625, -1.05,17.3) ">
<use xlink:href="#DIY_Online_and_Download_728x90_psd_Asset_03_No_matter_how_you_file__it_s__0_Layer0_0_MEMBER_20_FILL"/>
</g>

<g transform="matrix( 0.582672119140625, 0, 0, 0.5853424072265625, -1.05,17.3) ">
<use xlink:href="#DIY_Online_and_Download_728x90_psd_Asset_03_No_matter_how_you_file__it_s__0_Layer0_0_MEMBER_21_FILL"/>
</g>

<g transform="matrix( 0.582672119140625, 0, 0, 0.5853424072265625, -1.05,17.3) ">
<use xlink:href="#DIY_Online_and_Download_728x90_psd_Asset_03_No_matter_how_you_file__it_s__0_Layer0_0_MEMBER_22_FILL"/>
</g>
</g>
</g>
</svg>
