<?xml version="1.0" encoding="utf-8"?>
<!-- Generator: Adobe Illustrator 19.2.1, SVG Export Plug-In . SVG Version: 6.00 Build 0)  -->
<svg version="1.1" id="Layer_1" xmlns="http://www.w3.org/2000/svg" xmlns:xlink="http://www.w3.org/1999/xlink" x="0px" y="0px"
	 viewBox="0 0 300 250" style="enable-background:new 0 0 300 250;" xml:space="preserve">
<style type="text/css">
	.st0{fill:#FFFFFF;}
</style>
<g transform="matrix( 1, 0, 0, 1, -45,-192) ">
	<g transform="matrix( 1, 0, 0, 1, 51,210) ">
		<g transform="matrix( 1, 0, 0, 1, 57,51) ">
			<g transform="matrix( 0.66973876953125, 0, 0, 0.672821044921875, -0.6,21.65) ">
				<g>
					<g id="DIY_Free_Support_300x250_psd_Asset_04_Laptop_Free_filing___Free_support__0_Layer0_0_MEMBER_0_FILL">
						<path class="st0" d="M22.2-12.6v-5.6H9.7v-7.5h14.6v-5.5H2.4V0h7.2v-12.6H22.2z"/>
					</g>
				</g>
			</g>
			<g transform="matrix( 0.66973876953125, 0, 0, 0.672821044921875, -0.6,21.65) ">
				<g>
					<g id="DIY_Free_Support_300x250_psd_Asset_04_Laptop_Free_filing___Free_support__0_Layer0_0_MEMBER_1_FILL">
						<path class="st0" d="M40.4-31.2h-12V0h7.3V-12h5c1.5,0,2.6,0.4,3.4,1.2c0.8,0.8,1.2,1.9,1.2,3.4v1.8c0,1.1,0.1,2.2,0.3,3.2
							C45.7-1.3,46-0.5,46.6,0h7.4v-0.5c-0.6-0.4-1-1.1-1.3-2.2c-0.2-1-0.3-1.9-0.3-2.8v-2c0-1.8-0.4-3.4-1.3-4.7
							c-0.9-1.3-2.2-2.2-4.1-2.7c1.7-0.7,2.9-1.7,3.7-2.8c0.9-1.2,1.3-2.5,1.3-4.1c0-2.9-1-5.2-3.1-6.9C46.9-30.3,44-31.2,40.4-31.2
							 M35.6-17.5v-8.1h4.7c1.4,0,2.5,0.4,3.3,1.1c0.8,0.8,1.2,1.8,1.2,3.1c0,1.2-0.4,2.2-1.2,2.9c-0.8,0.7-1.9,1-3.3,1H35.6z"/>
					</g>
				</g>
			</g>
			<g transform="matrix( 0.66973876953125, 0, 0, 0.672821044921875, -0.6,21.65) ">
				<g>
					<g id="DIY_Free_Support_300x250_psd_Asset_04_Laptop_Free_filing___Free_support__0_Layer0_0_MEMBER_2_FILL">
						<path class="st0" d="M65.4-25.6h14.4v-5.5H58.1V0h21.6v-5.6H65.4v-7.8h12.2v-5.5H65.4V-25.6z"/>
					</g>
				</g>
			</g>
			<g transform="matrix( 0.66973876953125, 0, 0, 0.672821044921875, -0.6,21.65) ">
				<g>
					<g id="DIY_Free_Support_300x250_psd_Asset_04_Laptop_Free_filing___Free_support__0_Layer0_0_MEMBER_3_FILL">
						<path class="st0" d="M106.1-25.6v-5.5H84.4V0H106v-5.6H91.6v-7.8h12.2v-5.5H91.6v-6.7H106.1z"/>
					</g>
				</g>
			</g>
			<g transform="matrix( 0.66973876953125, 0, 0, 0.672821044921875, -0.6,21.65) ">
				<g>
					<g id="DIY_Free_Support_300x250_psd_Asset_04_Laptop_Free_filing___Free_support__0_Layer0_0_MEMBER_4_FILL">
						<path class="st0" d="M142.2-12.6v-5.6h-12.5v-7.5h14.7v-5.5h-21.9V0h7.3v-12.6H142.2z"/>
					</g>
				</g>
			</g>
			<g transform="matrix( 0.66973876953125, 0, 0, 0.672821044921875, -0.6,21.65) ">
				<g>
					<g id="DIY_Free_Support_300x250_psd_Asset_04_Laptop_Free_filing___Free_support__0_Layer0_0_MEMBER_5_FILL">
						<path class="st0" d="M155.8-31.2h-7.2V0h7.2V-31.2z"/>
					</g>
				</g>
			</g>
			<g transform="matrix( 0.66973876953125, 0, 0, 0.672821044921875, -0.6,21.65) ">
				<g>
					<g id="DIY_Free_Support_300x250_psd_Asset_04_Laptop_Free_filing___Free_support__0_Layer0_0_MEMBER_6_FILL">
						<path class="st0" d="M169.1-5.6v-25.6h-7.3V0h20.7v-5.6H169.1z"/>
					</g>
				</g>
			</g>
			<g transform="matrix( 0.66973876953125, 0, 0, 0.672821044921875, -0.6,21.65) ">
				<g>
					<g id="DIY_Free_Support_300x250_psd_Asset_04_Laptop_Free_filing___Free_support__0_Layer0_0_MEMBER_7_FILL">
						<path class="st0" d="M194-31.2h-7.2V0h7.2V-31.2z"/>
					</g>
				</g>
			</g>
			<g transform="matrix( 0.66973876953125, 0, 0, 0.672821044921875, -0.6,21.65) ">
				<g>
					<g id="DIY_Free_Support_300x250_psd_Asset_04_Laptop_Free_filing___Free_support__0_Layer0_0_MEMBER_8_FILL">
						<path class="st0" d="M207.3-19.8l0.1-0.1L218.8,0h7.2v-31.2h-7.2v19.8l-0.2,0.1l-11.4-19.9H200V0h7.3V-19.8z"/>
					</g>
				</g>
			</g>
			<g transform="matrix( 0.66973876953125, 0, 0, 0.672821044921875, -0.6,21.65) ">
				<g>
					<g id="DIY_Free_Support_300x250_psd_Asset_04_Laptop_Free_filing___Free_support__0_Layer0_0_MEMBER_9_FILL">
						<path class="st0" d="M231.2-12.4c0,3.8,1.2,6.9,3.6,9.3c2.4,2.4,5.6,3.5,9.4,3.6c3,0,5.5-0.5,7.6-1.5s3.6-2.1,4.6-3.3V-16
							h-12.2v4.8h4.9v4.9c-0.5,0.4-1.1,0.7-1.8,0.9c-0.7,0.2-1.7,0.3-3.1,0.3c-1.8,0-3.2-0.7-4.3-2c-1-1.3-1.5-3.1-1.5-5.3v-6.6
							c0-2.1,0.5-3.8,1.6-5.1c1-1.3,2.4-2,4-2c1.7,0,3,0.4,3.8,1.3c0.8,0.8,1.3,2,1.6,3.7h6.8l0.1-0.1c-0.3-3.3-1.4-5.8-3.4-7.6
							c-2-1.8-5-2.8-9-2.8c-3.7,0-6.7,1.2-9.1,3.6c-2.3,2.4-3.5,5.5-3.5,9.2V-12.4z"/>
					</g>
				</g>
			</g>
			<g transform="matrix( 0.66973876953125, 0, 0, 0.672821044921875, -0.6,21.65) ">
				<g>
					<g id="DIY_Free_Support_300x250_psd_Asset_04_Laptop_Free_filing___Free_support__0_Layer0_0_MEMBER_10_FILL">
						<path class="st0" d="M4.3,12.9c-1.1,1.1-1.6,2.4-1.6,4.1c0,0.8,0.1,1.5,0.4,2.2c0.3,0.8,0.7,1.6,1.3,2.4v0.1
							c-1.3,0.9-2.2,1.8-2.8,2.6C1.1,25,0.8,25.9,0.8,27c0,1.8,0.6,3.3,1.9,4.4C4,32.5,5.7,33,7.8,33c1,0,1.9-0.1,2.7-0.3
							c0.7-0.2,1.6-0.6,2.5-1.1l1.1,1.2h5.3v0L16.3,29c0.7-0.9,1.2-2,1.4-3.1c0.3-1.1,0.5-2.4,0.5-3.8h-3.4c0,0.7-0.1,1.4-0.3,2.1
							c-0.1,0.4-0.3,1-0.8,1.8l-3.5-4.1l1.3-0.9c0.8-0.6,1.4-1.2,1.8-2c0.4-0.8,0.6-1.7,0.6-2.6c0-1.4-0.5-2.6-1.4-3.6
							c-0.9-1-2.2-1.5-3.7-1.5C6.9,11.3,5.5,11.8,4.3,12.9 M6.9,16.9c0-0.5,0.2-0.9,0.5-1.3c0.3-0.3,0.7-0.5,1.3-0.5
							c0.5,0,0.9,0.2,1.1,0.5c0.3,0.4,0.4,0.8,0.4,1.2c0,0.3-0.1,0.7-0.3,1.1c-0.2,0.3-0.6,0.7-1.1,1L8,19.4C7.8,19,7.5,18.5,7.2,18
							C7,17.6,6.9,17.3,6.9,16.9 M6.6,24.4l0.2-0.1l3.8,4.4c-0.3,0.1-0.7,0.3-1.2,0.4c-0.4,0.1-0.8,0.1-1.3,0.1
							c-0.6,0-1.2-0.3-1.7-0.8c-0.4-0.4-0.6-1-0.6-1.8c0-0.4,0-0.8,0.1-1.2C6.1,25,6.4,24.7,6.6,24.4z"/>
					</g>
				</g>
			</g>
			<g transform="matrix( 0.66973876953125, 0, 0, 0.672821044921875, -0.6,21.65) ">
				<g>
					<g id="DIY_Free_Support_300x250_psd_Asset_04_Laptop_Free_filing___Free_support__0_Layer0_0_MEMBER_11_FILL">
						<path class="st0" d="M43.9,24.2v-3.8h-8.4v-5h9.9v-3.8H30.5v21.2h5v-8.5H43.9z"/>
					</g>
				</g>
			</g>
			<g transform="matrix( 0.66973876953125, 0, 0, 0.672821044921875, -0.6,21.65) ">
				<g>
					<g id="DIY_Free_Support_300x250_psd_Asset_04_Laptop_Free_filing___Free_support__0_Layer0_0_MEMBER_12_FILL">
						<path class="st0" d="M64.4,17.9c0-2-0.7-3.5-2.2-4.6c-1.5-1.1-3.4-1.7-5.8-1.7h-8.1v21.2h4.9v-8.1h3.3c1,0,1.8,0.3,2.4,0.8
							c0.5,0.5,0.8,1.3,0.8,2.3l0.2,3.4c0.2,0.8,0.4,1.3,0.8,1.6h5v-0.3c-0.4-0.3-0.7-0.8-0.8-1.5c-0.2-0.6-0.3-1.2-0.3-1.9v-1.3
							c0-1.3-0.3-2.3-0.9-3.2c-0.6-0.9-1.5-1.5-2.8-1.9c1.1-0.5,2-1.1,2.5-1.9C64.1,19.9,64.4,19,64.4,17.9 M53.2,15.4h3.2
							c1,0,1.7,0.3,2.3,0.8c0.5,0.5,0.8,1.2,0.8,2.1s-0.3,1.5-0.8,1.9c-0.6,0.5-1.3,0.7-2.3,0.7h-3.2V15.4z"/>
					</g>
				</g>
			</g>
			<g transform="matrix( 0.66973876953125, 0, 0, 0.672821044921875, -0.6,21.65) ">
				<g>
					<g id="DIY_Free_Support_300x250_psd_Asset_04_Laptop_Free_filing___Free_support__0_Layer0_0_MEMBER_13_FILL">
						<path class="st0" d="M81.8,23.7v-3.8h-8.3v-4.5h9.8v-3.8H68.6v21.2h14.7v-3.8h-9.8v-5.3H81.8z"/>
					</g>
				</g>
			</g>
			<g transform="matrix( 0.66973876953125, 0, 0, 0.672821044921875, -0.6,21.65) ">
				<g>
					<g id="DIY_Free_Support_300x250_psd_Asset_04_Laptop_Free_filing___Free_support__0_Layer0_0_MEMBER_14_FILL">
						<path class="st0" d="M99.7,23.7v-3.8h-8.3v-4.5h9.8v-3.8H86.5v21.2h14.7v-3.8h-9.8v-5.3H99.7z"/>
					</g>
				</g>
			</g>
			<g transform="matrix( 0.66973876953125, 0, 0, 0.672821044921875, -0.6,21.65) ">
				<g>
					<g id="DIY_Free_Support_300x250_psd_Asset_04_Laptop_Free_filing___Free_support__0_Layer0_0_MEMBER_15_FILL">
						<path class="st0" d="M123.5,27.1c0,0.7-0.3,1.2-0.8,1.6s-1.2,0.6-2.2,0.6c-1.4,0-2.4-0.3-3-0.8c-0.7-0.5-1-1.4-1-2.6h-4.8
							l-0.1,0.1c0,2.3,0.8,4,2.6,5.2c1.8,1.2,3.8,1.8,6.3,1.8c2.4,0,4.3-0.5,5.7-1.5c1.4-1,2.1-2.5,2.1-4.4c0-1.8-0.6-3.2-1.8-4.3
							c-1.1-1-2.9-1.9-5.4-2.6c-1.6-0.6-2.7-1-3.2-1.4c-0.6-0.4-0.8-0.9-0.8-1.5c0-0.6,0.3-1.2,0.8-1.6c0.6-0.4,1.4-0.7,2.3-0.7
							c1,0,1.7,0.3,2.3,0.8c0.6,0.6,0.9,1.2,0.9,2h4.8v-0.1c0.1-1.9-0.7-3.5-2.2-4.7c-1.5-1.2-3.4-1.8-5.7-1.8s-4.3,0.6-5.8,1.6
							c-1.5,1.1-2.3,2.5-2.3,4.3c0,1.8,0.7,3.2,1.9,4.1c1.2,1,3.2,1.9,5.9,2.8c1.3,0.5,2.2,0.9,2.7,1.3
							C123.3,25.8,123.5,26.3,123.5,27.1z"/>
					</g>
				</g>
			</g>
			<g transform="matrix( 0.66973876953125, 0, 0, 0.672821044921875, -0.6,21.65) ">
				<g>
					<g id="DIY_Free_Support_300x250_psd_Asset_04_Laptop_Free_filing___Free_support__0_Layer0_0_MEMBER_16_FILL">
						<path class="st0" d="M148.9,11.6H144v13.9c0,1.3-0.3,2.3-1,2.9c-0.7,0.6-1.6,1-2.8,1s-2.1-0.3-2.8-1c-0.7-0.6-1-1.6-1-2.9
							V11.6h-4.9v13.9c0,2.4,0.8,4.3,2.4,5.6c1.6,1.3,3.8,2,6.4,2c2.6,0,4.7-0.7,6.3-2c1.6-1.3,2.4-3.2,2.4-5.6V11.6z"/>
					</g>
				</g>
			</g>
			<g transform="matrix( 0.66973876953125, 0, 0, 0.672821044921875, -0.6,21.65) ">
				<g>
					<g id="DIY_Free_Support_300x250_psd_Asset_04_Laptop_Free_filing___Free_support__0_Layer0_0_MEMBER_17_FILL">
						<path class="st0" d="M169.7,18.5c0-2.1-0.7-3.7-2.2-5c-1.5-1.3-3.5-1.9-6-1.9h-8.5v21.2h4.9v-7.2h3.6c2.5,0,4.5-0.6,6-1.9
							C169,22.3,169.7,20.6,169.7,18.5 M164.8,18.5c0,0.9-0.3,1.6-0.9,2.3c-0.5,0.6-1.4,0.9-2.4,0.9h-3.6v-6.4h3.6
							c1.1,0,1.9,0.3,2.4,0.9C164.5,16.9,164.8,17.6,164.8,18.5z"/>
					</g>
				</g>
			</g>
			<g transform="matrix( 0.66973876953125, 0, 0, 0.672821044921875, -0.6,21.65) ">
				<g>
					<g id="DIY_Free_Support_300x250_psd_Asset_04_Laptop_Free_filing___Free_support__0_Layer0_0_MEMBER_18_FILL">
						<path class="st0" d="M187.3,23.6c1.5-1.3,2.2-3,2.2-5.1s-0.7-3.8-2.2-5c-1.4-1.3-3.4-1.9-6-1.9h-8.6v21.2h4.9v-7.2h3.6
							C183.9,25.5,185.9,24.8,187.3,23.6 M184.6,18.5c0,0.9-0.3,1.7-0.8,2.3c-0.5,0.6-1.4,0.9-2.5,0.9h-3.6v-6.4h3.6
							c1.1,0,1.9,0.3,2.5,0.9C184.4,16.8,184.6,17.6,184.6,18.5z"/>
					</g>
				</g>
			</g>
			<g transform="matrix( 0.66973876953125, 0, 0, 0.672821044921875, -0.6,21.65) ">
				<g>
					<g id="DIY_Free_Support_300x250_psd_Asset_04_Laptop_Free_filing___Free_support__0_Layer0_0_MEMBER_19_FILL">
						<path class="st0" d="M210.4,24.1v-3.8c0-2.6-0.8-4.8-2.5-6.4c-1.6-1.7-3.8-2.6-6.4-2.6s-4.8,0.8-6.5,2.6
							c-1.7,1.7-2.5,3.9-2.5,6.4v3.8c0,2.6,0.8,4.7,2.5,6.4c1.7,1.7,3.9,2.5,6.5,2.5c2.7,0,4.8-0.9,6.4-2.5
							C209.6,28.8,210.4,26.7,210.4,24.1 M205.5,20.2v3.9c0,1.5-0.3,2.7-1.1,3.8c-0.7,1-1.7,1.5-2.9,1.5c-1.3,0-2.3-0.5-3.1-1.5
							c-0.7-1-1-2.3-1-3.8v-3.9c0-1.5,0.3-2.7,1-3.7c0.7-1,1.7-1.4,3-1.4c1.3,0,2.3,0.5,3,1.4C205.1,17.5,205.5,18.7,205.5,20.2z"/>
					</g>
				</g>
			</g>
			<g transform="matrix( 0.66973876953125, 0, 0, 0.672821044921875, -0.6,21.65) ">
				<g>
					<g id="DIY_Free_Support_300x250_psd_Asset_04_Laptop_Free_filing___Free_support__0_Layer0_0_MEMBER_20_FILL">
						<path class="st0" d="M230,17.9c0-2-0.7-3.5-2.1-4.6c-1.4-1.1-3.4-1.7-5.8-1.7h-8.2v21.2h5v-8.1h3.3c1.1,0,1.9,0.3,2.4,0.8
							c0.5,0.5,0.8,1.3,0.8,2.3V29c0,0.7,0.1,1.4,0.2,2.1c0.1,0.8,0.4,1.3,0.8,1.6h5.1v-0.3c-0.4-0.3-0.7-0.8-0.9-1.5
							c-0.2-0.8-0.3-1.4-0.3-1.9v-1.3c0-1.3-0.3-2.3-0.9-3.2c-0.5-0.9-1.5-1.5-2.8-1.9c1.2-0.5,2-1.1,2.5-1.9
							C229.7,20,230,19.1,230,17.9 M225.1,18.2c0,0.8-0.3,1.5-0.8,1.9c-0.6,0.5-1.3,0.7-2.3,0.7h-3.3v-5.5h3.2c1,0,1.8,0.3,2.3,0.8
							C224.9,16.6,225.1,17.3,225.1,18.2z"/>
					</g>
				</g>
			</g>
			<g transform="matrix( 0.66973876953125, 0, 0, 0.672821044921875, -0.6,21.65) ">
				<g>
					<g id="DIY_Free_Support_300x250_psd_Asset_04_Laptop_Free_filing___Free_support__0_Layer0_0_MEMBER_21_FILL">
						<path class="st0" d="M248.7,15.4v-3.8h-16v3.8h5.6v17.4h4.9V15.4H248.7z"/>
					</g>
				</g>
			</g>
			<g transform="matrix( 0.66973876953125, 0, 0, 0.672821044921875, -0.6,21.65) ">
				<g>
					<g id="DIY_Free_Support_300x250_psd_Asset_04_Laptop_Free_filing___Free_support__0_Layer0_0_MEMBER_22_FILL">
						<path class="st0" d="M265.1,7.1h-4.3l0.4,7.5l-6.3-2.8l-1.3,4l6.6,1.9l-4.6,5.8l3.5,2.4l3.6-6l3.7,6.3l3.5-2.5l-4.3-5.7
							l6.6-1.9l-1.3-4l-6.3,2.7L265.1,7.1z"/>
					</g>
				</g>
			</g>
		</g>
	</g>
</g>
</svg>
