
<svg xmlns="http://www.w3.org/2000/svg" version="1.1" xmlns:xlink="http://www.w3.org/1999/xlink" preserveAspectRatio="none" x="0px" y="0px" width="300px" height="250px" viewBox="0 0 300 250">
<defs>
<g id="DIY_Free_Support_300x250_psd_Asset_2_03_And_on_the_phone_0_Layer0_0_MEMBER_0_FILL">
<path fill="#FFFFFF" stroke="none" d="
M -105.7 -23.25
L -111.5 -23.25 -119.05 0 -113.4 0 -112.05 -4.5 -105.15 -4.5 -103.8 0 -98.1 0 -105.7 -23.25
M -110.8 -8.65
L -108.65 -15.9 -108.55 -15.9 -106.4 -8.65 -110.8 -8.65 Z"/>
</g>

<g id="DIY_Free_Support_300x250_psd_Asset_2_03_And_on_the_phone_0_Layer0_0_MEMBER_1_FILL">
<path fill="#FFFFFF" stroke="none" d="
M -91.05 -14.6
L -90.95 -14.6 -82.45 0 -77.05 0 -77.05 -23.25 -82.45 -23.25 -82.45 -8.65 -82.55 -8.65 -91.05 -23.25 -96.45 -23.25 -96.45 0 -91.05 0 -91.05 -14.6 Z"/>
</g>

<g id="DIY_Free_Support_300x250_psd_Asset_2_03_And_on_the_phone_0_Layer0_0_MEMBER_2_FILL">
<path fill="#FFFFFF" stroke="none" d="
M -64.85 -23.25
L -73.35 -23.25 -73.35 0 -64.85 0
Q -60.75 0 -57.95 -2.65 -55.2 -5.4 -55.2 -9.55
L -55.2 -13.7
Q -55.2 -17.85 -57.95 -20.55 -60.7 -23.25 -64.85 -23.25
M -67.95 -19.1
L -64.85 -19.1
Q -63 -19.1 -61.8 -17.6 -60.6 -16.1 -60.6 -13.75
L -60.6 -9.55
Q -60.6 -7.15 -61.8 -5.65 -63 -4.15 -64.85 -4.15
L -67.95 -4.15 -67.95 -19.1 Z"/>
</g>

<g id="DIY_Free_Support_300x250_psd_Asset_2_03_And_on_the_phone_0_Layer0_0_MEMBER_3_FILL">
<path fill="#FFFFFF" stroke="none" d="
M -44.25 -9.55
Q -44.25 -5.2 -41.55 -2.45 -38.75 0.35 -34.35 0.35 -29.95 0.35 -27.25 -2.45 -24.5 -5.3 -24.5 -9.55
L -24.5 -13.7
Q -24.5 -17.9 -27.25 -20.8 -30.05 -23.6 -34.4 -23.6 -38.75 -23.6 -41.55 -20.8 -44.25 -17.95 -44.25 -13.7
L -44.25 -9.55
M -34.4 -19.45
Q -32.25 -19.45 -31.1 -17.85 -29.9 -16.2 -29.9 -13.75
L -29.9 -9.55
Q -29.9 -7.1 -31.05 -5.4 -32.25 -3.8 -34.35 -3.8 -36.55 -3.8 -37.7 -5.4 -38.9 -7.05 -38.9 -9.55
L -38.9 -13.75
Q -38.9 -16.25 -37.75 -17.85 -36.55 -19.45 -34.4 -19.45 Z"/>
</g>

<g id="DIY_Free_Support_300x250_psd_Asset_2_03_And_on_the_phone_0_Layer0_0_MEMBER_4_FILL">
<path fill="#FFFFFF" stroke="none" d="
M -15.85 -14.6
L -15.75 -14.6 -7.25 0 -1.85 0 -1.85 -23.25 -7.25 -23.25 -7.25 -8.65 -7.35 -8.65 -15.85 -23.25 -21.25 -23.25 -21.25 0 -15.85 0 -15.85 -14.6 Z"/>
</g>

<g id="DIY_Free_Support_300x250_psd_Asset_2_03_And_on_the_phone_0_Layer0_0_MEMBER_5_FILL">
<path fill="#FFFFFF" stroke="none" d="
M -157.7 16.6
L -157.7 12.4 -175.25 12.4 -175.25 16.6 -169.25 16.6 -169.25 35.65 -163.85 35.65 -163.85 16.6 -157.7 16.6 Z"/>
</g>

<g id="DIY_Free_Support_300x250_psd_Asset_2_03_And_on_the_phone_0_Layer0_0_MEMBER_6_FILL">
<path fill="#FFFFFF" stroke="none" d="
M -136.1 12.4
L -141.5 12.4 -141.5 22.15 -150.1 22.15 -150.1 12.4 -155.5 12.4 -155.5 35.65 -150.1 35.65 -150.1 26.3 -141.5 26.3 -141.5 35.65 -136.1 35.65 -136.1 12.4 Z"/>
</g>

<g id="DIY_Free_Support_300x250_psd_Asset_2_03_And_on_the_phone_0_Layer0_0_MEMBER_7_FILL">
<path fill="#FFFFFF" stroke="none" d="
M -118.85 25.7
L -118.85 21.55 -127 21.55 -127 16.6 -117.2 16.6 -117.2 12.4 -132.4 12.4 -132.4 35.65 -117.2 35.65 -117.2 31.5 -127 31.5 -127 25.7 -118.85 25.7 Z"/>
</g>

<g id="DIY_Free_Support_300x250_psd_Asset_2_03_And_on_the_phone_0_Layer0_0_MEMBER_8_FILL">
<path fill="#FFFFFF" stroke="none" d="
M -88.15 20.05
Q -88.15 16.65 -90.6 14.55 -93.05 12.4 -97.15 12.4
L -106.05 12.4 -106.05 35.65 -100.65 35.65 -100.65 27.7 -97.15 27.7
Q -93 27.7 -90.6 25.6 -88.15 23.5 -88.15 20.05
M -100.65 16.6
L -97.15 16.6
Q -95.35 16.6 -94.45 17.55 -93.55 18.6 -93.55 20.1 -93.55 21.65 -94.45 22.6 -95.4 23.55 -97.15 23.55
L -100.65 23.55 -100.65 16.6 Z"/>
</g>

<g id="DIY_Free_Support_300x250_psd_Asset_2_03_And_on_the_phone_0_Layer0_0_MEMBER_9_FILL">
<path fill="#FFFFFF" stroke="none" d="
M -65.8 12.4
L -71.2 12.4 -71.2 22.15 -79.8 22.15 -79.8 12.4 -85.2 12.4 -85.2 35.65 -79.8 35.65 -79.8 26.3 -71.2 26.3 -71.2 35.65 -65.8 35.65 -65.8 12.4 Z"/>
</g>

<g id="DIY_Free_Support_300x250_psd_Asset_2_03_And_on_the_phone_0_Layer0_0_MEMBER_10_FILL">
<path fill="#FFFFFF" stroke="none" d="
M -42.75 21.95
Q -42.75 17.75 -45.5 14.9 -48.2 12.1 -52.65 12.1 -57.05 12.1 -59.8 14.9 -62.5 17.7 -62.5 21.95
L -62.5 26.15
Q -62.5 30.45 -59.8 33.2 -57.05 36 -52.6 36 -48.15 36 -45.5 33.2 -42.75 30.4 -42.75 26.15
L -42.75 21.95
M -49.35 17.85
Q -48.15 19.45 -48.15 21.9
L -48.15 26.15
Q -48.15 28.65 -49.3 30.25 -50.5 31.85 -52.6 31.85 -54.8 31.85 -55.95 30.25 -57.15 28.7 -57.15 26.15
L -57.15 21.9
Q -57.15 19.45 -56 17.85 -54.85 16.25 -52.65 16.25 -50.45 16.25 -49.35 17.85 Z"/>
</g>

<g id="DIY_Free_Support_300x250_psd_Asset_2_03_And_on_the_phone_0_Layer0_0_MEMBER_11_FILL">
<path fill="#FFFFFF" stroke="none" d="
M -34.1 12.4
L -39.5 12.4 -39.5 35.65 -34.1 35.65 -34.1 21.1 -34 21.05 -25.5 35.65 -20.1 35.65 -20.1 12.4 -25.5 12.4 -25.5 27 -25.6 27.05 -34.1 12.4 Z"/>
</g>

<g id="DIY_Free_Support_300x250_psd_Asset_2_03_And_on_the_phone_0_Layer0_0_MEMBER_12_FILL">
<path fill="#FFFFFF" stroke="none" d="
M -2.8 21.55
L -11 21.55 -11 16.6 -1.15 16.6 -1.15 12.4 -16.4 12.4 -16.4 35.65 -1.2 35.65 -1.2 31.5 -11 31.5 -11 25.7 -2.8 25.7 -2.8 21.55 Z"/>
</g>
</defs>

<g transform="matrix( 1, 0, 0, 1, -188,-192) ">
<g transform="matrix( 1, 0, 0, 1, 352,267) ">
<g transform="matrix( 0.66973876953125, 0, 0, 0.672821044921875, 117.4,15.65) ">
<use xlink:href="#DIY_Free_Support_300x250_psd_Asset_2_03_And_on_the_phone_0_Layer0_0_MEMBER_0_FILL"/>
</g>

<g transform="matrix( 0.66973876953125, 0, 0, 0.672821044921875, 117.4,15.65) ">
<use xlink:href="#DIY_Free_Support_300x250_psd_Asset_2_03_And_on_the_phone_0_Layer0_0_MEMBER_1_FILL"/>
</g>

<g transform="matrix( 0.66973876953125, 0, 0, 0.672821044921875, 117.4,15.65) ">
<use xlink:href="#DIY_Free_Support_300x250_psd_Asset_2_03_And_on_the_phone_0_Layer0_0_MEMBER_2_FILL"/>
</g>

<g transform="matrix( 0.66973876953125, 0, 0, 0.672821044921875, 117.4,15.65) ">
<use xlink:href="#DIY_Free_Support_300x250_psd_Asset_2_03_And_on_the_phone_0_Layer0_0_MEMBER_3_FILL"/>
</g>

<g transform="matrix( 0.66973876953125, 0, 0, 0.672821044921875, 117.4,15.65) ">
<use xlink:href="#DIY_Free_Support_300x250_psd_Asset_2_03_And_on_the_phone_0_Layer0_0_MEMBER_4_FILL"/>
</g>

<g transform="matrix( 0.66973876953125, 0, 0, 0.672821044921875, 117.4,15.65) ">
<use xlink:href="#DIY_Free_Support_300x250_psd_Asset_2_03_And_on_the_phone_0_Layer0_0_MEMBER_5_FILL"/>
</g>

<g transform="matrix( 0.66973876953125, 0, 0, 0.672821044921875, 117.4,15.65) ">
<use xlink:href="#DIY_Free_Support_300x250_psd_Asset_2_03_And_on_the_phone_0_Layer0_0_MEMBER_6_FILL"/>
</g>

<g transform="matrix( 0.66973876953125, 0, 0, 0.672821044921875, 117.4,15.65) ">
<use xlink:href="#DIY_Free_Support_300x250_psd_Asset_2_03_And_on_the_phone_0_Layer0_0_MEMBER_7_FILL"/>
</g>

<g transform="matrix( 0.66973876953125, 0, 0, 0.672821044921875, 117.4,15.65) ">
<use xlink:href="#DIY_Free_Support_300x250_psd_Asset_2_03_And_on_the_phone_0_Layer0_0_MEMBER_8_FILL"/>
</g>

<g transform="matrix( 0.66973876953125, 0, 0, 0.672821044921875, 117.4,15.65) ">
<use xlink:href="#DIY_Free_Support_300x250_psd_Asset_2_03_And_on_the_phone_0_Layer0_0_MEMBER_9_FILL"/>
</g>

<g transform="matrix( 0.66973876953125, 0, 0, 0.672821044921875, 117.4,15.65) ">
<use xlink:href="#DIY_Free_Support_300x250_psd_Asset_2_03_And_on_the_phone_0_Layer0_0_MEMBER_10_FILL"/>
</g>

<g transform="matrix( 0.66973876953125, 0, 0, 0.672821044921875, 117.4,15.65) ">
<use xlink:href="#DIY_Free_Support_300x250_psd_Asset_2_03_And_on_the_phone_0_Layer0_0_MEMBER_11_FILL"/>
</g>

<g transform="matrix( 0.66973876953125, 0, 0, 0.672821044921875, 117.4,15.65) ">
<use xlink:href="#DIY_Free_Support_300x250_psd_Asset_2_03_And_on_the_phone_0_Layer0_0_MEMBER_12_FILL"/>
</g>
</g>
</g>
</svg>
