
<svg xmlns="http://www.w3.org/2000/svg" version="1.1" xmlns:xlink="http://www.w3.org/1999/xlink" preserveAspectRatio="none" x="0px" y="0px" width="300px" height="250px" viewBox="0 0 300 250">
<defs>
<g id="DIY_Online_and_Download_300x250_psd_Asset_2_03_Laptop_free_0_Layer0_0_MEMBER_0_FILL">
<path fill="#FFFFFF" stroke="none" d="
M 55.8 -61.25
L 55.8 -74.6 5.95 -74.6 5.95 0 23.25 0 23.25 -30 50.55 -30 50.55 -43.35 23.25 -43.35 23.25 -61.25 55.8 -61.25 Z"/>
</g>

<g id="DIY_Online_and_Download_300x250_psd_Asset_2_03_Laptop_free_0_Layer0_0_MEMBER_1_FILL">
<path fill="#FFFFFF" stroke="none" d="
M 113.65 -68.6
Q 106.1 -74.6 93.1 -74.6
L 67.1 -74.6 67.1 0 84.45 0 84.45 -28.6 93.7 -28.6
Q 99.2 -28.6 101.95 -25.75 104.8 -22.95 104.8 -17.6
L 104.8 -13.1
Q 104.8 -9.55 105.4 -5.6 106 -1.6 108.05 0
L 125.95 0 125.95 -1
Q 123.8 -2.65 122.9 -6.35 122.05 -10.2 122.05 -13
L 122.05 -17.75
Q 122.05 -24.5 119.05 -29 116.1 -33.55 109.2 -35.5 115.15 -38.1 118.2 -42.25 121.25 -46.5 121.25 -52.2 121.25 -62.6 113.65 -68.6
M 101.1 -58.5
Q 103.95 -55.65 103.95 -51.15 103.95 -46.7 101.2 -44.3 98.45 -41.9 93.2 -41.9
L 84.45 -41.9 84.45 -61.25 93.1 -61.25
Q 98.3 -61.25 101.1 -58.5 Z"/>
</g>

<g id="DIY_Online_and_Download_300x250_psd_Asset_2_03_Laptop_free_0_Layer0_0_MEMBER_2_FILL">
<path fill="#FFFFFF" stroke="none" d="
M 153.95 -13.3
L 153.95 -31.9 180.25 -31.9 180.25 -45.25 153.95 -45.25 153.95 -61.25 185.55 -61.25 185.55 -74.6 136.65 -74.6 136.65 0 185.5 0 185.5 -13.3 153.95 -13.3 Z"/>
</g>

<g id="DIY_Online_and_Download_300x250_psd_Asset_2_03_Laptop_free_0_Layer0_0_MEMBER_3_FILL">
<path fill="#FFFFFF" stroke="none" d="
M 241.45 -31.9
L 241.45 -45.25 215.15 -45.25 215.15 -61.25 246.7 -61.25 246.7 -74.6 197.85 -74.6 197.85 0 246.65 0 246.65 -13.3 215.15 -13.3 215.15 -31.9 241.45 -31.9 Z"/>
</g>

<g id="DIY_Online_and_Download_300x250_psd_Asset_2_03_Laptop_No_matter_how_you_file__it_s__0_Layer0_0_MEMBER_0_FILL">
<path fill="#FFFFFF" stroke="none" d="
M 3.8 -7.65
L 3.85 -7.65 8.3 0 11.1 0 11.1 -12.15 8.3 -12.15 8.3 -4.55 8.25 -4.5 3.8 -12.15 0.95 -12.15 0.95 0 3.8 0 3.8 -7.65 Z"/>
</g>

<g id="DIY_Online_and_Download_300x250_psd_Asset_2_03_Laptop_No_matter_how_you_file__it_s__0_Layer0_0_MEMBER_1_FILL">
<path fill="#FFFFFF" stroke="none" d="
M 14.65 -10.85
Q 13.25 -9.45 13.25 -7.15
L 13.25 -5
Q 13.25 -2.7 14.65 -1.3 16.15 0.2 18.4 0.2 20.75 0.2 22.15 -1.3 23.55 -2.7 23.55 -5
L 23.55 -7.15
Q 23.55 -9.45 22.15 -10.85 20.65 -12.35 18.4 -12.35 16.1 -12.35 14.65 -10.85
M 18.4 -10.15
Q 19.6 -10.15 20.15 -9.3 20.75 -8.45 20.75 -7.2
L 20.75 -5
Q 20.75 -3.65 20.15 -2.85 19.6 -2 18.4 -2 17.2 -2 16.65 -2.85 16.05 -3.65 16.05 -5
L 16.05 -7.2
Q 16.05 -8.45 16.65 -9.35 17.25 -10.15 18.4 -10.15 Z"/>
</g>

<g id="DIY_Online_and_Download_300x250_psd_Asset_2_03_Laptop_No_matter_how_you_file__it_s__0_Layer0_0_MEMBER_2_FILL">
<path fill="#FFFFFF" stroke="none" d="
M 36.8 -3.65
L 34.1 -12.15 30.4 -12.15 30.4 0 33.2 0 33.2 -7.7 33.25 -7.7 35.9 0 37.8 0 40.45 -7.85 40.5 -7.85 40.5 0 43.35 0 43.35 -12.15 39.6 -12.15 36.85 -3.65 36.8 -3.65 Z"/>
</g>

<g id="DIY_Online_and_Download_300x250_psd_Asset_2_03_Laptop_No_matter_how_you_file__it_s__0_Layer0_0_MEMBER_3_FILL">
<path fill="#FFFFFF" stroke="none" d="
M 51.9 -12.15
L 48.9 -12.15 44.9 0 47.9 0 48.6 -2.35 52.2 -2.35 52.9 0 55.9 0 51.9 -12.15
M 49.25 -4.55
L 50.35 -8.3 50.4 -8.3 51.55 -4.55 49.25 -4.55 Z"/>
</g>

<g id="DIY_Online_and_Download_300x250_psd_Asset_2_03_Laptop_No_matter_how_you_file__it_s__0_Layer0_0_MEMBER_4_FILL">
<path fill="#FFFFFF" stroke="none" d="
M 64.9 -10
L 64.9 -12.15 55.7 -12.15 55.7 -10 58.85 -10 58.85 0 61.7 0 61.7 -10 64.9 -10 Z"/>
</g>

<g id="DIY_Online_and_Download_300x250_psd_Asset_2_03_Laptop_No_matter_how_you_file__it_s__0_Layer0_0_MEMBER_5_FILL">
<path fill="#FFFFFF" stroke="none" d="
M 75.05 -10
L 75.05 -12.15 65.85 -12.15 65.85 -10 69 -10 69 0 71.85 0 71.85 -10 75.05 -10 Z"/>
</g>

<g id="DIY_Online_and_Download_300x250_psd_Asset_2_03_Laptop_No_matter_how_you_file__it_s__0_Layer0_0_MEMBER_6_FILL">
<path fill="#FFFFFF" stroke="none" d="
M 79.45 -2.15
L 79.45 -5.2 83.75 -5.2 83.75 -7.35 79.45 -7.35 79.45 -10 84.6 -10 84.6 -12.15 76.65 -12.15 76.65 0 84.6 0 84.6 -2.15 79.45 -2.15 Z"/>
</g>

<g id="DIY_Online_and_Download_300x250_psd_Asset_2_03_Laptop_No_matter_how_you_file__it_s__0_Layer0_0_MEMBER_7_FILL">
<path fill="#FFFFFF" stroke="none" d="
M 89.4 -4.65
L 90.9 -4.65
Q 91.8 -4.65 92.25 -4.2 92.75 -3.7 92.75 -2.85
L 92.75 -2.15
Q 92.75 -1.35 92.85 -0.9 92.95 -0.25 93.25 0
L 96.15 0 96.15 -0.15
Q 95.85 -0.45 95.7 -1.05
L 95.55 -2.1 95.55 -2.9
Q 95.55 -4.05 95.05 -4.75 94.6 -5.4 93.45 -5.8 94.4 -6.15 94.9 -6.9 95.4 -7.55 95.4 -8.5 95.4 -10.15 94.15 -11.2 93 -12.15 90.8 -12.15
L 86.6 -12.15 86.6 0 89.4 0 89.4 -4.65
M 89.4 -6.85
L 89.4 -10 90.8 -10
Q 91.65 -10 92.15 -9.55 92.6 -9 92.6 -8.35 92.6 -7.55 92.15 -7.2 91.75 -6.85 90.85 -6.85
L 89.4 -6.85 Z"/>
</g>

<g id="DIY_Online_and_Download_300x250_psd_Asset_2_03_Laptop_No_matter_how_you_file__it_s__0_Layer0_0_MEMBER_8_FILL">
<path fill="#FFFFFF" stroke="none" d="
M 105.4 -4.9
L 109.9 -4.9 109.9 0 112.75 0 112.75 -12.15 109.9 -12.15 109.9 -7.05 105.4 -7.05 105.4 -12.15 102.6 -12.15 102.6 0 105.4 0 105.4 -4.9 Z"/>
</g>

<g id="DIY_Online_and_Download_300x250_psd_Asset_2_03_Laptop_No_matter_how_you_file__it_s__0_Layer0_0_MEMBER_9_FILL">
<path fill="#FFFFFF" stroke="none" d="
M 116.3 -10.85
Q 114.85 -9.4 114.85 -7.15
L 114.85 -5
Q 114.85 -2.75 116.3 -1.3 117.75 0.2 120.05 0.2 122.4 0.2 123.75 -1.3 125.2 -2.75 125.2 -5
L 125.2 -7.15
Q 125.2 -9.4 123.75 -10.85 122.35 -12.35 120.05 -12.35 117.75 -12.35 116.3 -10.85
M 117.7 -7.2
Q 117.7 -8.45 118.3 -9.35 118.9 -10.15 120.05 -10.15 121.2 -10.15 121.75 -9.3 122.4 -8.5 122.4 -7.2
L 122.4 -5
Q 122.4 -3.65 121.8 -2.85 121.15 -2 120.05 -2 118.85 -2 118.3 -2.85 117.7 -3.65 117.7 -5
L 117.7 -7.2 Z"/>
</g>

<g id="DIY_Online_and_Download_300x250_psd_Asset_2_03_Laptop_No_matter_how_you_file__it_s__0_Layer0_0_MEMBER_10_FILL">
<path fill="#FFFFFF" stroke="none" d="
M 129.35 -12.15
L 126.5 -12.15 129.25 0 131.95 0 133.95 -7.5 134 -7.5 136.05 0 138.7 0 141.5 -12.15 138.65 -12.15 137.15 -4.25 137.1 -4.25 135.05 -12.15 132.9 -12.15 130.85 -4.25 130.8 -4.25 129.35 -12.15 Z"/>
</g>

<g id="DIY_Online_and_Download_300x250_psd_Asset_2_03_Laptop_No_matter_how_you_file__it_s__0_Layer0_0_MEMBER_11_FILL">
<path fill="#FFFFFF" stroke="none" d="
M 152.15 -6.85
L 149.75 -12.15 146.7 -12.15 150.75 -4.4 150.75 0 153.55 0 153.55 -4.25 157.65 -12.15 154.6 -12.15 152.2 -6.85 152.15 -6.85 Z"/>
</g>

<g id="DIY_Online_and_Download_300x250_psd_Asset_2_03_Laptop_No_matter_how_you_file__it_s__0_Layer0_0_MEMBER_12_FILL">
<path fill="#FFFFFF" stroke="none" d="
M 158.55 -5
Q 158.55 -2.75 160 -1.3 161.45 0.2 163.75 0.2 166.05 0.2 167.45 -1.3 168.9 -2.75 168.9 -5
L 168.9 -7.15
Q 168.9 -9.4 167.45 -10.85 166.05 -12.35 163.7 -12.35 161.45 -12.35 160 -10.85 158.55 -9.4 158.55 -7.15
L 158.55 -5
M 161.35 -7.2
Q 161.35 -8.45 161.95 -9.35 162.55 -10.15 163.7 -10.15 164.9 -10.15 165.45 -9.3 166.05 -8.45 166.05 -7.2
L 166.05 -5
Q 166.05 -3.65 165.45 -2.85 164.9 -2 163.75 -2 162.55 -2 162 -2.85 161.35 -3.65 161.35 -5
L 161.35 -7.2 Z"/>
</g>

<g id="DIY_Online_and_Download_300x250_psd_Asset_2_03_Laptop_No_matter_how_you_file__it_s__0_Layer0_0_MEMBER_13_FILL">
<path fill="#FFFFFF" stroke="none" d="
M 170.95 -12.15
L 170.95 -4.25
Q 170.95 -2.2 172.35 -1 173.7 0.2 176 0.2 178.2 0.2 179.6 -1 181 -2.25 181 -4.25
L 181 -12.15 178.15 -12.15 178.15 -4.25
Q 178.15 -3.2 177.6 -2.55 176.95 -2 176 -2 175 -2 174.35 -2.55 173.8 -3.1 173.8 -4.25
L 173.8 -12.15 170.95 -12.15 Z"/>
</g>

<g id="DIY_Online_and_Download_300x250_psd_Asset_2_03_Laptop_No_matter_how_you_file__it_s__0_Layer0_0_MEMBER_14_FILL">
<path fill="#FFFFFF" stroke="none" d="
M 195.25 -4.9
L 195.25 -7.05 190.8 -7.05 190.8 -10 196.1 -10 196.1 -12.15 187.95 -12.15 187.95 0 190.8 0 190.8 -4.9 195.25 -4.9 Z"/>
</g>

<g id="DIY_Online_and_Download_300x250_psd_Asset_2_03_Laptop_No_matter_how_you_file__it_s__0_Layer0_0_MEMBER_15_FILL">
<path fill="#FFFFFF" stroke="none" d="
M 200.9 -12.15
L 198.1 -12.15 198.1 0 200.9 0 200.9 -12.15 Z"/>
</g>

<g id="DIY_Online_and_Download_300x250_psd_Asset_2_03_Laptop_No_matter_how_you_file__it_s__0_Layer0_0_MEMBER_16_FILL">
<path fill="#FFFFFF" stroke="none" d="
M 206.25 -2.15
L 206.25 -12.15 203.45 -12.15 203.45 0 211.5 0 211.5 -2.15 206.25 -2.15 Z"/>
</g>

<g id="DIY_Online_and_Download_300x250_psd_Asset_2_03_Laptop_No_matter_how_you_file__it_s__0_Layer0_0_MEMBER_17_FILL">
<path fill="#FFFFFF" stroke="none" d="
M 221.4 -10
L 221.4 -12.15 213.45 -12.15 213.45 0 221.4 0 221.4 -2.15 216.25 -2.15 216.25 -5.2 220.55 -5.2 220.55 -7.35 216.25 -7.35 216.25 -10 221.4 -10 Z"/>
</g>

<g id="DIY_Online_and_Download_300x250_psd_Asset_2_03_Laptop_No_matter_how_you_file__it_s__0_Layer0_0_MEMBER_18_FILL">
<path fill="#FFFFFF" stroke="none" d="
M 226.3 -2.2
L 223.6 -2.2 223.6 0 223 2.7 224.95 2.7 226.3 0.05 226.3 -2.2 Z"/>
</g>

<g id="DIY_Online_and_Download_300x250_psd_Asset_2_03_Laptop_No_matter_how_you_file__it_s__0_Layer0_0_MEMBER_19_FILL">
<path fill="#FFFFFF" stroke="none" d="
M 236.4 -12.15
L 233.6 -12.15 233.6 0 236.4 0 236.4 -12.15 Z"/>
</g>

<g id="DIY_Online_and_Download_300x250_psd_Asset_2_03_Laptop_No_matter_how_you_file__it_s__0_Layer0_0_MEMBER_20_FILL">
<path fill="#FFFFFF" stroke="none" d="
M 238 -10
L 241.15 -10 241.15 0 243.95 0 243.95 -10 247.15 -10 247.15 -12.15 238 -12.15 238 -10 Z"/>
</g>

<g id="DIY_Online_and_Download_300x250_psd_Asset_2_03_Laptop_No_matter_how_you_file__it_s__0_Layer0_0_MEMBER_21_FILL">
<path fill="#FFFFFF" stroke="none" d="
M 251.35 -9.7
L 251.35 -12.15 249.1 -12.15 249.1 -7.6 250.5 -7.6 251.35 -9.7 Z"/>
</g>

<g id="DIY_Online_and_Download_300x250_psd_Asset_2_03_Laptop_No_matter_how_you_file__it_s__0_Layer0_0_MEMBER_22_FILL">
<path fill="#FFFFFF" stroke="none" d="
M 261.7 -11.35
Q 260.4 -12.35 258.35 -12.35 256.45 -12.35 255.1 -11.4 253.8 -10.4 253.8 -8.9 253.8 -7.45 254.9 -6.5 256 -5.7 258.3 -4.95 259.45 -4.55 259.8 -4.2 260.25 -3.9 260.25 -3.2 260.25 -2.65 259.8 -2.3 259.45 -1.95 258.5 -1.95 257.45 -1.95 256.9 -2.4 256.4 -2.85 256.4 -3.9
L 253.65 -3.9 253.6 -3.85
Q 253.6 -1.75 255 -0.8 256.45 0.2 258.5 0.2 260.55 0.2 261.8 -0.75 263.05 -1.65 263.05 -3.25 263.05 -4.8 262 -5.7 260.9 -6.55 258.8 -7.25 257.75 -7.6 257.1 -8.05 256.65 -8.35 256.65 -8.9 256.65 -9.4 257.1 -9.8 257.5 -10.2 258.3 -10.2 259.2 -10.2 259.7 -9.8 260.15 -9.4 260.15 -8.55
L 262.9 -8.55 262.9 -8.6
Q 263 -10.35 261.7 -11.35 Z"/>
</g>
</defs>

<g transform="matrix( 1, 0, 0, 1, -200,-71) ">
<g transform="matrix( 1, 0, 0, 1, 204,89) ">
<g transform="matrix( 1, 0, 0, 1, 57,56) ">
<g transform="matrix( 0.7052764892578125, 0, 0, 0.7052764892578125, -4,53.45) ">
<use xlink:href="#DIY_Online_and_Download_300x250_psd_Asset_2_03_Laptop_free_0_Layer0_0_MEMBER_0_FILL"/>
</g>

<g transform="matrix( 0.7052764892578125, 0, 0, 0.7052764892578125, -4,53.45) ">
<use xlink:href="#DIY_Online_and_Download_300x250_psd_Asset_2_03_Laptop_free_0_Layer0_0_MEMBER_1_FILL"/>
</g>

<g transform="matrix( 0.7052764892578125, 0, 0, 0.7052764892578125, -4,53.45) ">
<use xlink:href="#DIY_Online_and_Download_300x250_psd_Asset_2_03_Laptop_free_0_Layer0_0_MEMBER_2_FILL"/>
</g>

<g transform="matrix( 0.7052764892578125, 0, 0, 0.7052764892578125, -4,53.45) ">
<use xlink:href="#DIY_Online_and_Download_300x250_psd_Asset_2_03_Laptop_free_0_Layer0_0_MEMBER_3_FILL"/>
</g>
</g>

<g transform="matrix( 1, 0, 0, 1, 58,40) ">
<g transform="matrix( 0.66973876953125, 0, 0, 0.672821044921875, -0.6,8.65) ">
<use xlink:href="#DIY_Online_and_Download_300x250_psd_Asset_2_03_Laptop_No_matter_how_you_file__it_s__0_Layer0_0_MEMBER_0_FILL"/>
</g>

<g transform="matrix( 0.66973876953125, 0, 0, 0.672821044921875, -0.6,8.65) ">
<use xlink:href="#DIY_Online_and_Download_300x250_psd_Asset_2_03_Laptop_No_matter_how_you_file__it_s__0_Layer0_0_MEMBER_1_FILL"/>
</g>

<g transform="matrix( 0.66973876953125, 0, 0, 0.672821044921875, -0.6,8.65) ">
<use xlink:href="#DIY_Online_and_Download_300x250_psd_Asset_2_03_Laptop_No_matter_how_you_file__it_s__0_Layer0_0_MEMBER_2_FILL"/>
</g>

<g transform="matrix( 0.66973876953125, 0, 0, 0.672821044921875, -0.6,8.65) ">
<use xlink:href="#DIY_Online_and_Download_300x250_psd_Asset_2_03_Laptop_No_matter_how_you_file__it_s__0_Layer0_0_MEMBER_3_FILL"/>
</g>

<g transform="matrix( 0.66973876953125, 0, 0, 0.672821044921875, -0.6,8.65) ">
<use xlink:href="#DIY_Online_and_Download_300x250_psd_Asset_2_03_Laptop_No_matter_how_you_file__it_s__0_Layer0_0_MEMBER_4_FILL"/>
</g>

<g transform="matrix( 0.66973876953125, 0, 0, 0.672821044921875, -0.6,8.65) ">
<use xlink:href="#DIY_Online_and_Download_300x250_psd_Asset_2_03_Laptop_No_matter_how_you_file__it_s__0_Layer0_0_MEMBER_5_FILL"/>
</g>

<g transform="matrix( 0.66973876953125, 0, 0, 0.672821044921875, -0.6,8.65) ">
<use xlink:href="#DIY_Online_and_Download_300x250_psd_Asset_2_03_Laptop_No_matter_how_you_file__it_s__0_Layer0_0_MEMBER_6_FILL"/>
</g>

<g transform="matrix( 0.66973876953125, 0, 0, 0.672821044921875, -0.6,8.65) ">
<use xlink:href="#DIY_Online_and_Download_300x250_psd_Asset_2_03_Laptop_No_matter_how_you_file__it_s__0_Layer0_0_MEMBER_7_FILL"/>
</g>

<g transform="matrix( 0.66973876953125, 0, 0, 0.672821044921875, -0.6,8.65) ">
<use xlink:href="#DIY_Online_and_Download_300x250_psd_Asset_2_03_Laptop_No_matter_how_you_file__it_s__0_Layer0_0_MEMBER_8_FILL"/>
</g>

<g transform="matrix( 0.66973876953125, 0, 0, 0.672821044921875, -0.6,8.65) ">
<use xlink:href="#DIY_Online_and_Download_300x250_psd_Asset_2_03_Laptop_No_matter_how_you_file__it_s__0_Layer0_0_MEMBER_9_FILL"/>
</g>

<g transform="matrix( 0.66973876953125, 0, 0, 0.672821044921875, -0.6,8.65) ">
<use xlink:href="#DIY_Online_and_Download_300x250_psd_Asset_2_03_Laptop_No_matter_how_you_file__it_s__0_Layer0_0_MEMBER_10_FILL"/>
</g>

<g transform="matrix( 0.66973876953125, 0, 0, 0.672821044921875, -0.6,8.65) ">
<use xlink:href="#DIY_Online_and_Download_300x250_psd_Asset_2_03_Laptop_No_matter_how_you_file__it_s__0_Layer0_0_MEMBER_11_FILL"/>
</g>

<g transform="matrix( 0.66973876953125, 0, 0, 0.672821044921875, -0.6,8.65) ">
<use xlink:href="#DIY_Online_and_Download_300x250_psd_Asset_2_03_Laptop_No_matter_how_you_file__it_s__0_Layer0_0_MEMBER_12_FILL"/>
</g>

<g transform="matrix( 0.66973876953125, 0, 0, 0.672821044921875, -0.6,8.65) ">
<use xlink:href="#DIY_Online_and_Download_300x250_psd_Asset_2_03_Laptop_No_matter_how_you_file__it_s__0_Layer0_0_MEMBER_13_FILL"/>
</g>

<g transform="matrix( 0.66973876953125, 0, 0, 0.672821044921875, -0.6,8.65) ">
<use xlink:href="#DIY_Online_and_Download_300x250_psd_Asset_2_03_Laptop_No_matter_how_you_file__it_s__0_Layer0_0_MEMBER_14_FILL"/>
</g>

<g transform="matrix( 0.66973876953125, 0, 0, 0.672821044921875, -0.6,8.65) ">
<use xlink:href="#DIY_Online_and_Download_300x250_psd_Asset_2_03_Laptop_No_matter_how_you_file__it_s__0_Layer0_0_MEMBER_15_FILL"/>
</g>

<g transform="matrix( 0.66973876953125, 0, 0, 0.672821044921875, -0.6,8.65) ">
<use xlink:href="#DIY_Online_and_Download_300x250_psd_Asset_2_03_Laptop_No_matter_how_you_file__it_s__0_Layer0_0_MEMBER_16_FILL"/>
</g>

<g transform="matrix( 0.66973876953125, 0, 0, 0.672821044921875, -0.6,8.65) ">
<use xlink:href="#DIY_Online_and_Download_300x250_psd_Asset_2_03_Laptop_No_matter_how_you_file__it_s__0_Layer0_0_MEMBER_17_FILL"/>
</g>

<g transform="matrix( 0.66973876953125, 0, 0, 0.672821044921875, -0.6,8.65) ">
<use xlink:href="#DIY_Online_and_Download_300x250_psd_Asset_2_03_Laptop_No_matter_how_you_file__it_s__0_Layer0_0_MEMBER_18_FILL"/>
</g>

<g transform="matrix( 0.66973876953125, 0, 0, 0.672821044921875, -0.6,8.65) ">
<use xlink:href="#DIY_Online_and_Download_300x250_psd_Asset_2_03_Laptop_No_matter_how_you_file__it_s__0_Layer0_0_MEMBER_19_FILL"/>
</g>

<g transform="matrix( 0.66973876953125, 0, 0, 0.672821044921875, -0.6,8.65) ">
<use xlink:href="#DIY_Online_and_Download_300x250_psd_Asset_2_03_Laptop_No_matter_how_you_file__it_s__0_Layer0_0_MEMBER_20_FILL"/>
</g>

<g transform="matrix( 0.66973876953125, 0, 0, 0.672821044921875, -0.6,8.65) ">
<use xlink:href="#DIY_Online_and_Download_300x250_psd_Asset_2_03_Laptop_No_matter_how_you_file__it_s__0_Layer0_0_MEMBER_21_FILL"/>
</g>

<g transform="matrix( 0.66973876953125, 0, 0, 0.672821044921875, -0.6,8.65) ">
<use xlink:href="#DIY_Online_and_Download_300x250_psd_Asset_2_03_Laptop_No_matter_how_you_file__it_s__0_Layer0_0_MEMBER_22_FILL"/>
</g>
</g>
</g>
</g>
</svg>
