
<svg xmlns="http://www.w3.org/2000/svg" version="1.1" xmlns:xlink="http://www.w3.org/1999/xlink" preserveAspectRatio="none" x="0px" y="0px" width="728px" height="90px" viewBox="0 0 728 90">
<defs>
<image id="DIY_Simple_to_Complicated_728x90_psd_Asset_08_alt_BTN_copy_Assets_Arrow" x="0" y="0" width="9" height="13" xlink:href="data:image/png;base64,iVBORw0KGgoAAAANSUhEUgAAAAkAAAANCAYAAAB7AEQGAAABB0lEQVQYlXXRsUrDUBQG4BO9
FB18BKfGrSC4NDh1cJYOgoKb4ls4XCT2HTpoIDj5DI4iHQQJXWuVkEVBS3NvTpObc3MdbIyt
8Z8/zs85B2AeRGwjogP/BREdypXUpGQt5JwzSpPIzKPzGsg7wEbX3ZDw0yzB3QUYXDZbz1f7
E0o+KqipUEqd1EI9m5pC59+QlPkD3x76XZX8qs2keR94HiuBEKK1vtbwVlkDAACKTEJ4ewYy
err/AZrUpJxAaWzG/kEx7Nmn1QmyWVhVCDP2D+XQbVbb8Q6w15vjSKfCUBqbF/9IBq69cCcL
ACBwbWdjc+fOslYgDh/3ts9Hg9rXBBdb7eUJZb4AXxTXXwtK7dQAAAAASUVORK5CYII="/>

<g id="DIY_Simple_to_Complicated_728x90_psd_Asset_08_alt_BTN_copy_file_free_now_0_Layer0_0_MEMBER_0_FILL">
<path fill="#FFFFFF" stroke="none" d="
M 4.65 -5.8
L 0.6 -5.8 0.6 0 2 0 2 -2.2 4.4 -2.2 4.4 -3.35 2 -3.35 2 -4.6 4.65 -4.6 4.65 -5.8 Z"/>
</g>

<g id="DIY_Simple_to_Complicated_728x90_psd_Asset_08_alt_BTN_copy_file_free_now_0_Layer0_0_MEMBER_1_FILL">
<path fill="#FFFFFF" stroke="none" d="
M 7.2 -5.8
L 5.8 -5.8 5.8 0 7.2 0 7.2 -5.8 Z"/>
</g>

<g id="DIY_Simple_to_Complicated_728x90_psd_Asset_08_alt_BTN_copy_file_free_now_0_Layer0_0_MEMBER_2_FILL">
<path fill="#FFFFFF" stroke="none" d="
M 10.05 -5.8
L 8.65 -5.8 8.65 0 12.6 0 12.6 -1.2 10.05 -1.2 10.05 -5.8 Z"/>
</g>

<g id="DIY_Simple_to_Complicated_728x90_psd_Asset_08_alt_BTN_copy_file_free_now_0_Layer0_0_MEMBER_3_FILL">
<path fill="#FFFFFF" stroke="none" d="
M 15.15 -1.2
L 15.15 -2.35 17.65 -2.35 17.65 -3.55 15.15 -3.55 15.15 -4.6 17.9 -4.6 17.9 -5.8 13.7 -5.8 13.7 0 17.9 0 17.9 -1.2 15.15 -1.2 Z"/>
</g>

<g id="DIY_Simple_to_Complicated_728x90_psd_Asset_08_alt_BTN_copy_file_free_now_0_Layer0_0_MEMBER_4_FILL">
<path fill="#FFFFFF" stroke="none" d="
M 25.25 -5.8
L 21.15 -5.8 21.15 0 22.55 0 22.55 -2.2 25 -2.2 25 -3.35 22.55 -3.35 22.55 -4.6 25.25 -4.6 25.25 -5.8 Z"/>
</g>

<g id="DIY_Simple_to_Complicated_728x90_psd_Asset_08_alt_BTN_copy_file_free_now_0_Layer0_0_MEMBER_5_FILL">
<path fill="#FFFFFF" stroke="none" d="
M 27.75 -1.75
L 28.65 -1.75 29.65 0 31.3 0 30.15 -1.95
Q 31.2 -2.5 31.2 -3.75 31.2 -4.65 30.65 -5.2 30.1 -5.8 29.05 -5.8
L 26.3 -5.8 26.3 0 27.75 0 27.75 -1.75
M 28.85 -4.65
Q 29.8 -4.65 29.8 -3.75 29.8 -2.85 28.85 -2.85
L 27.75 -2.85 27.75 -4.65 28.85 -4.65 Z"/>
</g>

<g id="DIY_Simple_to_Complicated_728x90_psd_Asset_08_alt_BTN_copy_file_free_now_0_Layer0_0_MEMBER_6_FILL">
<path fill="#FFFFFF" stroke="none" d="
M 33.85 -1.2
L 33.85 -2.35 36.35 -2.35 36.35 -3.55 33.85 -3.55 33.85 -4.6 36.6 -4.6 36.6 -5.8 32.4 -5.8 32.4 0 36.6 0 36.6 -1.2 33.85 -1.2 Z"/>
</g>

<g id="DIY_Simple_to_Complicated_728x90_psd_Asset_08_alt_BTN_copy_file_free_now_0_Layer0_0_MEMBER_7_FILL">
<path fill="#FFFFFF" stroke="none" d="
M 39.25 -3.55
L 39.25 -4.6 42 -4.6 42 -5.8 37.8 -5.8 37.8 0 42.05 0 42.05 -1.2 39.25 -1.2 39.25 -2.35 41.75 -2.35 41.75 -3.55 39.25 -3.55 Z"/>
</g>

<g id="DIY_Simple_to_Complicated_728x90_psd_Asset_08_alt_BTN_copy_file_free_now_0_Layer0_0_MEMBER_8_FILL">
<path fill="#FFFFFF" stroke="none" d="
M 49.2 -5.8
L 44.65 -5.8 44.65 -4.6 46.2 -4.6 46.2 0 47.65 0 47.65 -4.6 49.2 -4.6 49.2 -5.8 Z"/>
</g>

<g id="DIY_Simple_to_Complicated_728x90_psd_Asset_08_alt_BTN_copy_file_free_now_0_Layer0_0_MEMBER_9_FILL">
<path fill="#FFFFFF" stroke="none" d="
M 49.9 -2.55
Q 49.9 -1.35 50.55 -0.65 51.25 0.1 52.55 0.1 53.85 0.1 54.6 -0.65 55.25 -1.35 55.25 -2.55
L 55.25 -3.3
Q 55.25 -4.45 54.6 -5.2 53.85 -5.95 52.55 -5.95 51.3 -5.95 50.55 -5.2 49.9 -4.45 49.9 -3.3
L 49.9 -2.55
M 51.35 -3.35
Q 51.35 -4.75 52.55 -4.75 53.8 -4.75 53.8 -3.35
L 53.8 -2.45
Q 53.8 -1.05 52.55 -1.05 51.35 -1.05 51.35 -2.45
L 51.35 -3.35 Z"/>
</g>

<g id="DIY_Simple_to_Complicated_728x90_psd_Asset_08_alt_BTN_copy_file_free_now_0_Layer0_0_MEMBER_10_FILL">
<path fill="#FFFFFF" stroke="none" d="
M 58.95 -5.8
L 56.4 -5.8 56.4 0 58.95 0
Q 60.1 0 60.8 -0.65 61.4 -1.25 61.4 -2.3
L 61.4 -3.5
Q 61.4 -4.55 60.8 -5.15 60.1 -5.8 58.95 -5.8
M 59.95 -3.5
L 59.95 -2.3
Q 59.95 -1.15 58.7 -1.15
L 57.85 -1.15 57.85 -4.65 58.7 -4.65
Q 59.95 -4.65 59.95 -3.5 Z"/>
</g>

<g id="DIY_Simple_to_Complicated_728x90_psd_Asset_08_alt_BTN_copy_file_free_now_0_Layer0_0_MEMBER_11_FILL">
<path fill="#FFFFFF" stroke="none" d="
M 63.65 -1.1
L 65.75 -1.1 66.05 0 67.5 0 65.4 -5.8 63.95 -5.8 61.9 0 63.3 0 63.65 -1.1
M 64 -2.2
L 64.7 -4.5 65.4 -2.2 64 -2.2 Z"/>
</g>

<g id="DIY_Simple_to_Complicated_728x90_psd_Asset_08_alt_BTN_copy_file_free_now_0_Layer0_0_MEMBER_12_FILL">
<path fill="#FFFFFF" stroke="none" d="
M 70.55 -2.05
L 72.5 -5.8 70.95 -5.8 69.85 -3.4 68.75 -5.8 67.2 -5.8 69.15 -2.05 69.15 0 70.55 0 70.55 -2.05 Z"/>
</g>

<g id="DIY_Simple_to_Complicated_728x90_psd_Asset_08_alt_Why_pay_for_tax_software__copy_0_Layer0_0_MEMBER_0_FILL">
<path fill="#FFFFFF" stroke="none" d="
M 4.15 -5.8
L 3.15 -5.8 2.15 -2.05 2.1 -2.05 1.4 -5.8 0.05 -5.8 1.4 0 2.65 0 3.6 -3.6 3.65 -3.6 4.65 0 5.9 0 7.25 -5.8 5.85 -5.8 5.15 -2.05 4.15 -5.8 Z"/>
</g>

<g id="DIY_Simple_to_Complicated_728x90_psd_Asset_08_alt_Why_pay_for_tax_software__copy_0_Layer0_0_MEMBER_1_FILL">
<path fill="#FFFFFF" stroke="none" d="
M 8.9 -2.35
L 11.05 -2.35 11.05 0 12.4 0 12.4 -5.8 11.05 -5.8 11.05 -3.4 8.9 -3.4 8.9 -5.8 7.55 -5.8 7.55 0 8.9 0 8.9 -2.35 Z"/>
</g>

<g id="DIY_Simple_to_Complicated_728x90_psd_Asset_08_alt_Why_pay_for_tax_software__copy_0_Layer0_0_MEMBER_2_FILL">
<path fill="#FFFFFF" stroke="none" d="
M 15.15 -3.25
L 13.95 -5.8 12.5 -5.8 14.45 -2.1 14.45 0 15.8 0 15.8 -2.05 17.75 -5.8 16.3 -5.8 15.15 -3.25 Z"/>
</g>

<g id="DIY_Simple_to_Complicated_728x90_psd_Asset_08_alt_Why_pay_for_tax_software__copy_0_Layer0_0_MEMBER_3_FILL">
<path fill="#FFFFFF" stroke="none" d="
M 24.3 -3.9
Q 24.3 -4.75 23.7 -5.3 23.15 -5.8 22.05 -5.8
L 19.85 -5.8 19.85 0 21.2 0 21.2 -2 22.05 -2
Q 23.15 -2 23.7 -2.5 24.3 -3 24.3 -3.9
M 22.05 -4.75
Q 22.55 -4.75 22.75 -4.55 22.95 -4.3 22.95 -3.9 22.95 -3.5 22.75 -3.25 22.5 -3.05 22.05 -3.05
L 21.2 -3.05 21.2 -4.75 22.05 -4.75 Z"/>
</g>

<g id="DIY_Simple_to_Complicated_728x90_psd_Asset_08_alt_Why_pay_for_tax_software__copy_0_Layer0_0_MEMBER_4_FILL">
<path fill="#FFFFFF" stroke="none" d="
M 27.05 -5.8
L 25.6 -5.8 23.7 0 25.1 0 25.45 -1.15 27.2 -1.15 27.5 0 28.95 0 27.05 -5.8
M 25.75 -2.15
L 26.3 -3.95 26.85 -2.15 25.75 -2.15 Z"/>
</g>

<g id="DIY_Simple_to_Complicated_728x90_psd_Asset_08_alt_Why_pay_for_tax_software__copy_0_Layer0_0_MEMBER_5_FILL">
<path fill="#FFFFFF" stroke="none" d="
M 30.5 -3.25
L 29.35 -5.8 27.9 -5.8 29.85 -2.1 29.85 0 31.15 0 31.15 -2.05 33.15 -5.8 31.7 -5.8 30.55 -3.25 30.5 -3.25 Z"/>
</g>

<g id="DIY_Simple_to_Complicated_728x90_psd_Asset_08_alt_Why_pay_for_tax_software__copy_0_Layer0_0_MEMBER_6_FILL">
<path fill="#FFFFFF" stroke="none" d="
M 38.7 -2.35
L 38.7 -3.4 36.55 -3.4 36.55 -4.75 39.1 -4.75 39.1 -5.8 35.2 -5.8 35.2 0 36.55 0 36.55 -2.35 38.7 -2.35 Z"/>
</g>

<g id="DIY_Simple_to_Complicated_728x90_psd_Asset_08_alt_Why_pay_for_tax_software__copy_0_Layer0_0_MEMBER_7_FILL">
<path fill="#FFFFFF" stroke="none" d="
M 39.45 -2.4
Q 39.45 -1.4 40.15 -0.6 40.85 0.1 41.95 0.1 43 0.1 43.7 -0.6 44.4 -1.4 44.4 -2.4
L 44.4 -3.45
Q 44.4 -4.5 43.7 -5.2 43 -5.9 41.95 -5.9 40.85 -5.9 40.15 -5.2 39.45 -4.5 39.45 -3.45
L 39.45 -2.4
M 41.95 -4.85
Q 42.45 -4.85 42.75 -4.45 43.05 -4.05 43.05 -3.45
L 43.05 -2.4
Q 43.05 -1.7 42.75 -1.35 42.45 -0.95 41.95 -0.95 41.4 -0.95 41.1 -1.35 40.8 -1.7 40.8 -2.4
L 40.8 -3.45
Q 40.8 -4.05 41.1 -4.45 41.4 -4.85 41.95 -4.85 Z"/>
</g>

<g id="DIY_Simple_to_Complicated_728x90_psd_Asset_08_alt_Why_pay_for_tax_software__copy_0_Layer0_0_MEMBER_8_FILL">
<path fill="#FFFFFF" stroke="none" d="
M 49.25 -4.05
Q 49.25 -4.9 48.65 -5.35 48.05 -5.8 47.05 -5.8
L 45 -5.8 45 0 46.35 0 46.35 -2.25 47.1 -2.25
Q 47.5 -2.25 47.75 -2 47.95 -1.8 47.95 -1.35
L 48 -0.45
Q 48.1 -0.1 48.2 0
L 49.6 0 49.6 -0.1
Q 49.45 -0.2 49.35 -0.5
L 49.3 -1.4
Q 49.3 -1.9 49.05 -2.25 48.85 -2.6 48.3 -2.75 48.75 -3 49 -3.3 49.25 -3.65 49.25 -4.05
M 46.35 -3.25
L 46.35 -4.75 47.05 -4.75
Q 47.45 -4.75 47.65 -4.55 47.9 -4.3 47.9 -4 47.9 -3.6 47.65 -3.45 47.45 -3.25 47.05 -3.25
L 46.35 -3.25 Z"/>
</g>

<g id="DIY_Simple_to_Complicated_728x90_psd_Asset_08_alt_Why_pay_for_tax_software__copy_0_Layer0_0_MEMBER_9_FILL">
<path fill="#FFFFFF" stroke="none" d="
M 4.5 3.4
L 4.5 2.35 0.1 2.35 0.1 3.4 1.6 3.4 1.6 8.15 2.95 8.15 2.95 3.4 4.5 3.4 Z"/>
</g>

<g id="DIY_Simple_to_Complicated_728x90_psd_Asset_08_alt_Why_pay_for_tax_software__copy_0_Layer0_0_MEMBER_10_FILL">
<path fill="#FFFFFF" stroke="none" d="
M 7.3 2.35
L 5.85 2.35 3.95 8.15 5.4 8.15 5.75 7.05 7.45 7.05 7.8 8.15 9.2 8.15 7.3 2.35
M 6.05 6
L 6.6 4.2 7.15 6 6.05 6 Z"/>
</g>

<g id="DIY_Simple_to_Complicated_728x90_psd_Asset_08_alt_Why_pay_for_tax_software__copy_0_Layer0_0_MEMBER_11_FILL">
<path fill="#FFFFFF" stroke="none" d="
M 11.55 4.3
L 10.6 2.35 9.05 2.35 10.7 5.25 9 8.15 10.55 8.15 11.55 6.15 12.55 8.15 14.2 8.15 12.4 5.25 14.05 2.35 12.5 2.35 11.55 4.3 Z"/>
</g>

<g id="DIY_Simple_to_Complicated_728x90_psd_Asset_08_alt_Why_pay_for_tax_software__copy_0_Layer0_0_MEMBER_12_FILL">
<path fill="#FFFFFF" stroke="none" d="
M 20.55 4.1
L 20.55 4.05
Q 20.55 3.2 19.95 2.75 19.35 2.3 18.35 2.3 17.4 2.3 16.8 2.75 16.2 3.2 16.2 3.9 16.2 4.7 16.7 5.05 17.2 5.4 18.3 5.8
L 19.05 6.15
Q 19.25 6.3 19.25 6.65 19.25 6.9 19.05 7.05 18.85 7.25 18.45 7.25 18.05 7.25 17.65 7.05 17.4 6.8 17.4 6.3
L 16.1 6.3 16.1 6.35
Q 16.1 7.35 16.75 7.8 17.45 8.25 18.45 8.25 19.4 8.25 20 7.8 20.6 7.45 20.6 6.6 20.6 5.9 20.1 5.45 19.55 5 18.55 4.7
L 17.75 4.35
Q 17.55 4.2 17.55 3.9 17.55 3.65 17.75 3.5 17.95 3.3 18.35 3.3 18.8 3.3 19 3.5 19.2 3.65 19.2 4.1
L 20.55 4.1 Z"/>
</g>

<g id="DIY_Simple_to_Complicated_728x90_psd_Asset_08_alt_Why_pay_for_tax_software__copy_0_Layer0_0_MEMBER_13_FILL">
<path fill="#FFFFFF" stroke="none" d="
M 25.95 5.8
L 25.95 4.75
Q 25.95 3.65 25.3 3 24.65 2.3 23.5 2.3 22.35 2.3 21.7 3 21.05 3.65 21.05 4.75
L 21.05 5.8
Q 21.05 6.9 21.7 7.55 22.5 8.25 23.5 8.25 24.6 8.25 25.3 7.55 25.95 6.9 25.95 5.8
M 22.4 5.8
L 22.4 4.75
Q 22.4 4.2 22.65 3.7 22.95 3.3 23.5 3.3 24.05 3.3 24.35 3.7 24.65 4.15 24.65 4.75
L 24.65 5.8
Q 24.65 6.45 24.35 6.8 24.1 7.2 23.5 7.2 22.9 7.2 22.65 6.8 22.4 6.4 22.4 5.8 Z"/>
</g>

<g id="DIY_Simple_to_Complicated_728x90_psd_Asset_08_alt_Why_pay_for_tax_software__copy_0_Layer0_0_MEMBER_14_FILL">
<path fill="#FFFFFF" stroke="none" d="
M 30.45 3.4
L 30.45 2.35 26.6 2.35 26.6 8.15 27.95 8.15 27.95 5.85 30.05 5.85 30.05 4.8 27.95 4.8 27.95 3.4 30.45 3.4 Z"/>
</g>

<g id="DIY_Simple_to_Complicated_728x90_psd_Asset_08_alt_Why_pay_for_tax_software__copy_0_Layer0_0_MEMBER_15_FILL">
<path fill="#FFFFFF" stroke="none" d="
M 35 3.4
L 35 2.35 30.6 2.35 30.6 3.4 32.1 3.4 32.1 8.15 33.45 8.15 33.45 3.4 35 3.4 Z"/>
</g>

<g id="DIY_Simple_to_Complicated_728x90_psd_Asset_08_alt_Why_pay_for_tax_software__copy_0_Layer0_0_MEMBER_16_FILL">
<path fill="#FFFFFF" stroke="none" d="
M 42.15 2.35
L 40.8 2.35 40.1 6.15 40.05 6.15 39.05 2.35 38.05 2.35 37.05 6.15 36.35 2.35 34.95 2.35 36.3 8.15 37.6 8.15 38.55 4.6 39.55 8.15 40.8 8.15 42.15 2.35 Z"/>
</g>

<g id="DIY_Simple_to_Complicated_728x90_psd_Asset_08_alt_Why_pay_for_tax_software__copy_0_Layer0_0_MEMBER_17_FILL">
<path fill="#FFFFFF" stroke="none" d="
M 45.2 2.35
L 43.75 2.35 41.85 8.15 43.25 8.15 43.6 7.05 45.35 7.05 45.7 8.15 47.1 8.15 45.2 2.35
M 43.9 6
L 44.45 4.2 44.5 4.2 45.05 6 43.9 6 Z"/>
</g>

<g id="DIY_Simple_to_Complicated_728x90_psd_Asset_08_alt_Why_pay_for_tax_software__copy_0_Layer0_0_MEMBER_18_FILL">
<path fill="#FFFFFF" stroke="none" d="
M 51.65 7.7
L 51.6 6.8
Q 51.6 6.3 51.35 5.9 51.1 5.55 50.6 5.4 51.1 5.15 51.3 4.9 51.5 4.55 51.5 4.1 51.5 3.25 50.95 2.85 50.4 2.35 49.35 2.35
L 47.3 2.35 47.3 8.15 48.65 8.15 48.65 5.95 49.4 5.95
Q 49.85 5.95 50 6.15 50.25 6.4 50.25 6.8
L 50.3 7.75
Q 50.3 8.05 50.5 8.15
L 51.9 8.15 51.9 8.1 51.65 7.7
M 49.95 3.6
Q 50.2 3.85 50.2 4.2 50.2 4.55 49.95 4.7 49.75 4.9 49.35 4.9
L 48.65 4.9 48.65 3.4 49.35 3.4
Q 49.75 3.4 49.95 3.6 Z"/>
</g>

<g id="DIY_Simple_to_Complicated_728x90_psd_Asset_08_alt_Why_pay_for_tax_software__copy_0_Layer0_0_MEMBER_19_FILL">
<path fill="#FFFFFF" stroke="none" d="
M 55.7 5.7
L 55.7 4.65 53.65 4.65 53.65 3.4 56.1 3.4 56.1 2.35 52.3 2.35 52.3 8.15 56.1 8.15 56.1 7.15 53.65 7.15 53.65 5.7 55.7 5.7 Z"/>
</g>

<g id="DIY_Simple_to_Complicated_728x90_psd_Asset_08_alt_Why_pay_for_tax_software__copy_0_Layer0_0_MEMBER_20_FILL">
<path fill="#FFFFFF" stroke="none" d="
M 58.8 8.15
L 58.8 7.1 57.45 7.1 57.45 8.15 58.8 8.15
M 59.75 2.75
Q 59.15 2.3 58.25 2.3 57.25 2.3 56.8 2.7 56.25 3.1 56.3 3.95
L 57.6 3.95
Q 57.6 3.65 57.8 3.5 57.95 3.3 58.25 3.3 58.55 3.3 58.75 3.5 58.95 3.8 58.95 4.05 58.95 4.4 58.75 4.6 58.65 4.85 58.35 5.05 57.75 5.45 57.65 5.7 57.45 5.9 57.45 6.5
L 58.8 6.5
Q 58.8 6.1 58.9 6 58.95 5.8 59.2 5.65 59.75 5.35 60 4.95 60.3 4.6 60.3 4.05 60.3 3.3 59.75 2.75 Z"/>
</g>

<g id="DIY_Simple_to_Complicated_728x90_psd_Asset_08_alt__copy_2_0_Layer0_0_MEMBER_0_FILL">
<path fill="#FFFFFF" stroke="none" d="
M 2.1 -2.75
Q 1.85 -3 1.3 -3 0.8 -3 0.6 -2.8 0.3 -2.55 0.3 -2.2 0.3 -1.9 0.55 -1.65 0.8 -1.45 1.3 -1.3 1.75 -1.2 1.85 -1.1 2 -0.95 2 -0.75 2 -0.55 1.8 -0.4 1.65 -0.25 1.35 -0.25 1.05 -0.25 0.8 -0.4 0.6 -0.55 0.6 -0.85
L 0.2 -0.85
Q 0.2 -0.4 0.55 -0.2 0.9 0.05 1.35 0.05 1.75 0.05 2.1 -0.2 2.4 -0.35 2.4 -0.75 2.4 -1.05 2.15 -1.3 1.85 -1.6 1.45 -1.65 1.15 -1.7 0.85 -1.9 0.7 -1.95 0.7 -2.2 0.7 -2.4 0.85 -2.55 1 -2.7 1.3 -2.7 1.65 -2.7 1.8 -2.55 2 -2.35 2 -2.1
L 2.35 -2.1 2.35 -2.15
Q 2.4 -2.45 2.1 -2.75 Z"/>
</g>

<g id="DIY_Simple_to_Complicated_728x90_psd_Asset_08_alt__copy_2_0_Layer0_0_MEMBER_1_FILL">
<path fill="#FFFFFF" stroke="none" d="
M 3.3 -3
L 2.9 -3 2.9 0 3.3 0 3.3 -3 Z"/>
</g>

<g id="DIY_Simple_to_Complicated_728x90_psd_Asset_08_alt__copy_2_0_Layer0_0_MEMBER_2_FILL">
<path fill="#FFFFFF" stroke="none" d="
M 4.45 -3
L 3.95 -3 3.95 0 4.35 0 4.3 -2.4 5.3 0 5.55 0 6.5 -2.4 6.55 -2.4 6.5 0 6.9 0 6.9 -3 6.35 -3 5.45 -0.55 5.4 -0.55 4.45 -3 Z"/>
</g>

<g id="DIY_Simple_to_Complicated_728x90_psd_Asset_08_alt__copy_2_0_Layer0_0_MEMBER_3_FILL">
<path fill="#FFFFFF" stroke="none" d="
M 9.65 -2.1
Q 9.65 -2.5 9.4 -2.75 9.05 -3 8.65 -3
L 7.5 -3 7.5 0 7.9 0 7.9 -1.2 8.65 -1.2
Q 9.15 -1.2 9.4 -1.45 9.65 -1.65 9.65 -2.1
M 9.1 -2.5
Q 9.25 -2.35 9.25 -2.1 9.25 -1.85 9.1 -1.65 8.95 -1.5 8.65 -1.5
L 7.9 -1.5 7.9 -2.65 8.65 -2.65
Q 8.95 -2.65 9.1 -2.5 Z"/>
</g>

<g id="DIY_Simple_to_Complicated_728x90_psd_Asset_08_alt__copy_2_0_Layer0_0_MEMBER_4_FILL">
<path fill="#FFFFFF" stroke="none" d="
M 10.5 -0.3
L 10.5 -3 10.1 -3 10.1 0 11.9 0 11.9 -0.3 10.5 -0.3 Z"/>
</g>

<g id="DIY_Simple_to_Complicated_728x90_psd_Asset_08_alt__copy_2_0_Layer0_0_MEMBER_5_FILL">
<path fill="#FFFFFF" stroke="none" d="
M 12.65 -0.3
L 12.65 -1.4 14 -1.4 14 -1.7 12.65 -1.7 12.65 -2.65 14.2 -2.65 14.2 -3 12.25 -3 12.25 0 14.25 0 14.25 -0.3 12.65 -0.3 Z"/>
</g>

<g id="DIY_Simple_to_Complicated_728x90_psd_Asset_08_alt__copy_2_0_Layer0_0_MEMBER_6_FILL">
<path fill="#FFFFFF" stroke="none" d="
M 17.55 -2.65
L 17.55 -3 15.25 -3 15.25 -2.65 16.2 -2.65 16.2 0 16.6 0 16.6 -2.65 17.55 -2.65 Z"/>
</g>

<g id="DIY_Simple_to_Complicated_728x90_psd_Asset_08_alt__copy_2_0_Layer0_0_MEMBER_7_FILL">
<path fill="#FFFFFF" stroke="none" d="
M 17.7 -1.75
L 17.7 -1.2
Q 17.7 -0.65 18 -0.3 18.45 0.05 18.85 0.05 19.3 0.05 19.75 -0.3 20.05 -0.65 20.05 -1.2
L 20.05 -1.75
Q 20.05 -2.25 19.75 -2.65 19.4 -3 18.85 -3 18.35 -3 18 -2.65 17.7 -2.25 17.7 -1.75
M 19.45 -2.45
Q 19.65 -2.2 19.65 -1.75
L 19.65 -1.2
Q 19.65 -0.75 19.45 -0.55 19.25 -0.3 18.85 -0.3 18.5 -0.3 18.3 -0.55 18.1 -0.75 18.1 -1.2
L 18.1 -1.75
Q 18.1 -2.2 18.3 -2.45 18.55 -2.7 18.85 -2.7 19.2 -2.7 19.45 -2.45 Z"/>
</g>

<g id="DIY_Simple_to_Complicated_728x90_psd_Asset_08_alt__copy_2_0_Layer0_0_MEMBER_8_FILL">
<path fill="#FFFFFF" stroke="none" d="
M 21.8 -1.75
Q 21.8 -2.2 22 -2.45 22.15 -2.7 22.5 -2.7 22.85 -2.7 23.05 -2.5 23.2 -2.35 23.2 -2
L 23.6 -2 23.6 -2.05
Q 23.6 -2.45 23.3 -2.75 23.05 -3 22.5 -3 22 -3 21.7 -2.65 21.4 -2.25 21.4 -1.75
L 21.4 -1.2
Q 21.4 -0.65 21.7 -0.3 22.05 0.05 22.5 0.05 23 0.05 23.3 -0.25 23.6 -0.55 23.6 -0.95
L 23.2 -0.95
Q 23.2 -0.65 23.05 -0.45 22.75 -0.25 22.5 -0.25 22.15 -0.25 22 -0.55 21.8 -0.8 21.8 -1.2
L 21.8 -1.75 Z"/>
</g>

<g id="DIY_Simple_to_Complicated_728x90_psd_Asset_08_alt__copy_2_0_Layer0_0_MEMBER_9_FILL">
<path fill="#FFFFFF" stroke="none" d="
M 25.1 -3
Q 24.55 -3 24.25 -2.65 23.9 -2.3 23.9 -1.75
L 23.9 -1.2
Q 23.9 -0.65 24.25 -0.3 24.6 0.05 25.1 0.05 25.6 0.05 25.95 -0.3 26.3 -0.65 26.3 -1.2
L 26.3 -1.75
Q 26.3 -2.3 25.95 -2.65 25.65 -3 25.1 -3
M 24.5 -2.45
Q 24.75 -2.7 25.1 -2.7 25.45 -2.7 25.7 -2.45 25.9 -2.05 25.9 -1.75
L 25.9 -1.2
Q 25.9 -0.75 25.7 -0.55 25.5 -0.3 25.1 -0.3 24.7 -0.3 24.5 -0.55 24.3 -0.85 24.3 -1.2
L 24.3 -1.75
Q 24.3 -2.05 24.5 -2.45 Z"/>
</g>

<g id="DIY_Simple_to_Complicated_728x90_psd_Asset_08_alt__copy_2_0_Layer0_0_MEMBER_10_FILL">
<path fill="#FFFFFF" stroke="none" d="
M 27.3 -3
L 26.8 -3 26.8 0 27.2 0 27.15 -2.4 28.15 0 28.4 0 29.35 -2.4 29.35 0 29.75 0 29.75 -3 29.2 -3 28.25 -0.55 27.3 -3 Z"/>
</g>

<g id="DIY_Simple_to_Complicated_728x90_psd_Asset_08_alt__copy_2_0_Layer0_0_MEMBER_11_FILL">
<path fill="#FFFFFF" stroke="none" d="
M 32.5 -2.1
Q 32.5 -2.4 32.25 -2.75 31.9 -3 31.5 -3
L 30.35 -3 30.35 0 30.75 0 30.75 -1.2 31.5 -1.2
Q 32 -1.2 32.25 -1.45 32.5 -1.7 32.5 -2.1
M 31.95 -2.5
Q 32.1 -2.35 32.1 -2.1 32.1 -1.85 31.95 -1.65 31.8 -1.5 31.5 -1.5
L 30.75 -1.5 30.75 -2.65 31.5 -2.65
Q 31.8 -2.65 31.95 -2.5 Z"/>
</g>

<g id="DIY_Simple_to_Complicated_728x90_psd_Asset_08_alt__copy_2_0_Layer0_0_MEMBER_12_FILL">
<path fill="#FFFFFF" stroke="none" d="
M 33.35 -0.3
L 33.35 -3 32.95 -3 32.95 0 34.75 0 34.75 -0.3 33.35 -0.3 Z"/>
</g>

<g id="DIY_Simple_to_Complicated_728x90_psd_Asset_08_alt__copy_2_0_Layer0_0_MEMBER_13_FILL">
<path fill="#FFFFFF" stroke="none" d="
M 35.5 -3
L 35.1 -3 35.1 0 35.5 0 35.5 -3 Z"/>
</g>

<g id="DIY_Simple_to_Complicated_728x90_psd_Asset_08_alt__copy_2_0_Layer0_0_MEMBER_14_FILL">
<path fill="#FFFFFF" stroke="none" d="
M 37.2 -2.7
Q 37.55 -2.7 37.7 -2.5 37.9 -2.35 37.9 -2
L 38.3 -2 38.3 -2.05
Q 38.3 -2.45 38 -2.75 37.75 -3 37.2 -3 36.7 -3 36.35 -2.65 36.05 -2.25 36.05 -1.75
L 36.05 -1.2
Q 36.05 -0.65 36.35 -0.3 36.8 0.05 37.2 0.05 37.7 0.05 38 -0.25 38.3 -0.55 38.3 -0.95
L 37.9 -0.95
Q 37.9 -0.65 37.7 -0.45 37.5 -0.25 37.2 -0.25 36.9 -0.25 36.65 -0.55 36.45 -0.8 36.45 -1.2
L 36.45 -1.75
Q 36.45 -2.2 36.65 -2.45 36.9 -2.7 37.2 -2.7 Z"/>
</g>

<g id="DIY_Simple_to_Complicated_728x90_psd_Asset_08_alt__copy_2_0_Layer0_0_MEMBER_15_FILL">
<path fill="#FFFFFF" stroke="none" d="
M 39.1 -0.75
L 40.35 -0.75 40.6 0 41 0 39.9 -3 39.55 -3 38.4 0 38.8 0 39.1 -0.75
M 39.2 -1.1
L 39.7 -2.45 40.2 -1.1 39.2 -1.1 Z"/>
</g>

<g id="DIY_Simple_to_Complicated_728x90_psd_Asset_08_alt__copy_2_0_Layer0_0_MEMBER_16_FILL">
<path fill="#FFFFFF" stroke="none" d="
M 43.35 -2.65
L 43.35 -3 41.05 -3 41.05 -2.65 42 -2.65 42 0 42.4 0 42.4 -2.65 43.35 -2.65 Z"/>
</g>

<g id="DIY_Simple_to_Complicated_728x90_psd_Asset_08_alt__copy_2_0_Layer0_0_MEMBER_17_FILL">
<path fill="#FFFFFF" stroke="none" d="
M 45.45 -1.7
L 44.1 -1.7 44.1 -2.65 45.65 -2.65 45.65 -3 43.7 -3 43.7 0 45.65 0 45.65 -0.3 44.1 -0.3 44.1 -1.4 45.45 -1.4 45.45 -1.7 Z"/>
</g>

<g id="DIY_Simple_to_Complicated_728x90_psd_Asset_08_alt__copy_2_0_Layer0_0_MEMBER_18_FILL">
<path fill="#FFFFFF" stroke="none" d="
M 47.85 -2.6
Q 47.55 -3 46.95 -3
L 46 -3 46 0 46.95 0
Q 47.55 0 47.85 -0.35 48.2 -0.7 48.2 -1.3
L 48.2 -1.7
Q 48.2 -2.3 47.85 -2.6
M 46.95 -2.65
Q 47.25 -2.65 47.6 -2.4 47.8 -2.15 47.8 -1.7
L 47.8 -1.3
Q 47.8 -0.8 47.6 -0.6 47.3 -0.3 46.95 -0.3
L 46.4 -0.3 46.4 -2.65 46.95 -2.65 Z"/>
</g>

<g id="DIY_Simple_to_Complicated_728x90_psd_Asset_08_alt__copy_2_0_Layer0_0_MEMBER_19_FILL">
<path fill="#FFFFFF" stroke="none" d="
M 51.45 -2.75
Q 51.2 -2.95 50.7 -2.95
L 49.6 -2.95 49.6 0 50 0 50 -1.3 50.75 -1.3
Q 51 -1.3 51.15 -1.15 51.25 -1.05 51.25 -0.75
L 51.25 -0.5 51.3 -0.2 51.4 0 51.8 0 51.8 -0.05 51.7 -0.25 51.7 -0.75
Q 51.7 -1.05 51.55 -1.2 51.45 -1.4 51.2 -1.45 51.5 -1.65 51.55 -1.75 51.7 -1.9 51.7 -2.15 51.7 -2.5 51.45 -2.75
M 50 -1.6
L 50 -2.65 50.7 -2.65
Q 51 -2.65 51.15 -2.5 51.3 -2.4 51.3 -2.15 51.3 -1.8 51.15 -1.75 51 -1.6 50.65 -1.6
L 50 -1.6 Z"/>
</g>

<g id="DIY_Simple_to_Complicated_728x90_psd_Asset_08_alt__copy_2_0_Layer0_0_MEMBER_20_FILL">
<path fill="#FFFFFF" stroke="none" d="
M 52.65 -0.3
L 52.65 -1.4 54.05 -1.4 54.05 -1.7 52.65 -1.7 52.65 -2.65 54.2 -2.65 54.2 -3 52.25 -3 52.25 0 54.25 0 54.25 -0.3 52.65 -0.3 Z"/>
</g>

<g id="DIY_Simple_to_Complicated_728x90_psd_Asset_08_alt__copy_2_0_Layer0_0_MEMBER_21_FILL">
<path fill="#FFFFFF" stroke="none" d="
M 56.65 -2.65
L 56.65 -3 54.35 -3 54.35 -2.65 55.3 -2.65 55.3 0 55.7 0 55.7 -2.65 56.65 -2.65 Z"/>
</g>

<g id="DIY_Simple_to_Complicated_728x90_psd_Asset_08_alt__copy_2_0_Layer0_0_MEMBER_22_FILL">
<path fill="#FFFFFF" stroke="none" d="
M 56.95 -0.95
Q 56.95 -0.5 57.25 -0.2 57.6 0.05 58.05 0.05 58.5 0.05 58.85 -0.2 59.2 -0.55 59.2 -0.95
L 59.2 -3 58.75 -3 58.75 -0.95
Q 58.75 -0.6 58.55 -0.45 58.35 -0.25 58.05 -0.25 57.75 -0.25 57.55 -0.45 57.35 -0.6 57.35 -0.95
L 57.35 -3 56.95 -3 56.95 -0.95 Z"/>
</g>

<g id="DIY_Simple_to_Complicated_728x90_psd_Asset_08_alt__copy_2_0_Layer0_0_MEMBER_23_FILL">
<path fill="#FFFFFF" stroke="none" d="
M 61.55 -2.75
Q 61.35 -2.95 60.8 -2.95
L 59.75 -2.95 59.75 0 60.15 0 60.15 -1.3 60.9 -1.3
Q 61.1 -1.3 61.25 -1.15 61.4 -1 61.4 -0.75
L 61.4 -0.2 61.5 0 61.95 0 61.95 -0.05 61.85 -0.25 61.8 -0.5 61.8 -0.75 61.7 -1.2 61.35 -1.45 61.7 -1.75
Q 61.8 -1.95 61.8 -2.15 61.8 -2.5 61.55 -2.75
M 60.15 -1.6
L 60.15 -2.65 60.8 -2.65
Q 61.1 -2.65 61.25 -2.5 61.4 -2.4 61.4 -2.15 61.4 -1.8 61.25 -1.75 61.1 -1.6 60.75 -1.6
L 60.15 -1.6 Z"/>
</g>

<g id="DIY_Simple_to_Complicated_728x90_psd_Asset_08_alt__copy_2_0_Layer0_0_MEMBER_24_FILL">
<path fill="#FFFFFF" stroke="none" d="
M 62.8 -3
L 62.4 -3 62.4 0 62.8 0 62.8 -2.3 64.25 0 64.65 0 64.65 -3 64.25 -3 64.25 -0.7 62.8 -3 Z"/>
</g>

<g id="DIY_Simple_to_Complicated_728x90_psd_Asset_08_alt__copy_2_0_Layer0_0_MEMBER_25_FILL">
<path fill="#FFFFFF" stroke="none" d="
M 65.2 -2.2
Q 65.2 -1.9 65.45 -1.65 65.7 -1.45 66.2 -1.3 66.65 -1.2 66.75 -1.1 66.9 -0.95 66.9 -0.75 66.9 -0.55 66.7 -0.4 66.55 -0.25 66.25 -0.25 65.95 -0.25 65.7 -0.4 65.5 -0.6 65.5 -0.85
L 65.1 -0.85
Q 65.1 -0.4 65.45 -0.2 65.85 0.05 66.25 0.05 66.65 0.05 67 -0.2 67.3 -0.35 67.3 -0.75 67.3 -1.05 67.05 -1.3 66.75 -1.6 66.35 -1.65 66 -1.7 65.8 -1.9 65.6 -1.95 65.6 -2.2 65.6 -2.4 65.75 -2.55 65.9 -2.7 66.2 -2.7 66.55 -2.7 66.7 -2.55 66.9 -2.4 66.9 -2.1
L 67.3 -2.1 67.3 -2.15
Q 67.3 -2.45 67 -2.75 66.75 -3 66.2 -3 65.75 -3 65.5 -2.8 65.2 -2.55 65.2 -2.2 Z"/>
</g>
</defs>

<g transform="matrix( 1, 0, 0, 1, -583,-148) ">
<g transform="matrix( 1, 0, 0, 1, 956,177) ">
<g transform="matrix( 1, 0, 0, 1, 14,9) ">
<g transform="matrix( 1.6842041015625, 0, 0, 1.6857757568359375, -0.2,10.8) ">
<use xlink:href="#DIY_Simple_to_Complicated_728x90_psd_Asset_08_alt_BTN_copy_file_free_now_0_Layer0_0_MEMBER_0_FILL"/>
</g>

<g transform="matrix( 1.6842041015625, 0, 0, 1.6857757568359375, -0.2,10.8) ">
<use xlink:href="#DIY_Simple_to_Complicated_728x90_psd_Asset_08_alt_BTN_copy_file_free_now_0_Layer0_0_MEMBER_1_FILL"/>
</g>

<g transform="matrix( 1.6842041015625, 0, 0, 1.6857757568359375, -0.2,10.8) ">
<use xlink:href="#DIY_Simple_to_Complicated_728x90_psd_Asset_08_alt_BTN_copy_file_free_now_0_Layer0_0_MEMBER_2_FILL"/>
</g>

<g transform="matrix( 1.6842041015625, 0, 0, 1.6857757568359375, -0.2,10.8) ">
<use xlink:href="#DIY_Simple_to_Complicated_728x90_psd_Asset_08_alt_BTN_copy_file_free_now_0_Layer0_0_MEMBER_3_FILL"/>
</g>

<g transform="matrix( 1.6842041015625, 0, 0, 1.6857757568359375, -0.2,10.8) ">
<use xlink:href="#DIY_Simple_to_Complicated_728x90_psd_Asset_08_alt_BTN_copy_file_free_now_0_Layer0_0_MEMBER_4_FILL"/>
</g>

<g transform="matrix( 1.6842041015625, 0, 0, 1.6857757568359375, -0.2,10.8) ">
<use xlink:href="#DIY_Simple_to_Complicated_728x90_psd_Asset_08_alt_BTN_copy_file_free_now_0_Layer0_0_MEMBER_5_FILL"/>
</g>

<g transform="matrix( 1.6842041015625, 0, 0, 1.6857757568359375, -0.2,10.8) ">
<use xlink:href="#DIY_Simple_to_Complicated_728x90_psd_Asset_08_alt_BTN_copy_file_free_now_0_Layer0_0_MEMBER_6_FILL"/>
</g>

<g transform="matrix( 1.6842041015625, 0, 0, 1.6857757568359375, -0.2,10.8) ">
<use xlink:href="#DIY_Simple_to_Complicated_728x90_psd_Asset_08_alt_BTN_copy_file_free_now_0_Layer0_0_MEMBER_7_FILL"/>
</g>

<g transform="matrix( 1.6842041015625, 0, 0, 1.6857757568359375, -0.2,10.8) ">
<use xlink:href="#DIY_Simple_to_Complicated_728x90_psd_Asset_08_alt_BTN_copy_file_free_now_0_Layer0_0_MEMBER_8_FILL"/>
</g>

<g transform="matrix( 1.6842041015625, 0, 0, 1.6857757568359375, -0.2,10.8) ">
<use xlink:href="#DIY_Simple_to_Complicated_728x90_psd_Asset_08_alt_BTN_copy_file_free_now_0_Layer0_0_MEMBER_9_FILL"/>
</g>

<g transform="matrix( 1.6842041015625, 0, 0, 1.6857757568359375, -0.2,10.8) ">
<use xlink:href="#DIY_Simple_to_Complicated_728x90_psd_Asset_08_alt_BTN_copy_file_free_now_0_Layer0_0_MEMBER_10_FILL"/>
</g>

<g transform="matrix( 1.6842041015625, 0, 0, 1.6857757568359375, -0.2,10.8) ">
<use xlink:href="#DIY_Simple_to_Complicated_728x90_psd_Asset_08_alt_BTN_copy_file_free_now_0_Layer0_0_MEMBER_11_FILL"/>
</g>

<g transform="matrix( 1.6842041015625, 0, 0, 1.6857757568359375, -0.2,10.8) ">
<use xlink:href="#DIY_Simple_to_Complicated_728x90_psd_Asset_08_alt_BTN_copy_file_free_now_0_Layer0_0_MEMBER_12_FILL"/>
</g>
</g>

<g transform="matrix( 1, 0, 0, 1, 145,9) ">
<g transform="matrix( 1, 0, 0, 1, 0,0) ">
<use xlink:href="#DIY_Simple_to_Complicated_728x90_psd_Asset_08_alt_BTN_copy_Assets_Arrow"/>
</g>
</g>
</g>

<g transform="matrix( 1, 0, 0, 1, 743,162) ">
<g transform="matrix( 2.868011474609375, 0, 0, 2.8675994873046875, 0.05,17.6) ">
<use xlink:href="#DIY_Simple_to_Complicated_728x90_psd_Asset_08_alt_Why_pay_for_tax_software__copy_0_Layer0_0_MEMBER_0_FILL"/>
</g>

<g transform="matrix( 2.868011474609375, 0, 0, 2.8675994873046875, 0.05,17.6) ">
<use xlink:href="#DIY_Simple_to_Complicated_728x90_psd_Asset_08_alt_Why_pay_for_tax_software__copy_0_Layer0_0_MEMBER_1_FILL"/>
</g>

<g transform="matrix( 2.868011474609375, 0, 0, 2.8675994873046875, 0.05,17.6) ">
<use xlink:href="#DIY_Simple_to_Complicated_728x90_psd_Asset_08_alt_Why_pay_for_tax_software__copy_0_Layer0_0_MEMBER_2_FILL"/>
</g>

<g transform="matrix( 2.868011474609375, 0, 0, 2.8675994873046875, 0.05,17.6) ">
<use xlink:href="#DIY_Simple_to_Complicated_728x90_psd_Asset_08_alt_Why_pay_for_tax_software__copy_0_Layer0_0_MEMBER_3_FILL"/>
</g>

<g transform="matrix( 2.868011474609375, 0, 0, 2.8675994873046875, 0.05,17.6) ">
<use xlink:href="#DIY_Simple_to_Complicated_728x90_psd_Asset_08_alt_Why_pay_for_tax_software__copy_0_Layer0_0_MEMBER_4_FILL"/>
</g>

<g transform="matrix( 2.868011474609375, 0, 0, 2.8675994873046875, 0.05,17.6) ">
<use xlink:href="#DIY_Simple_to_Complicated_728x90_psd_Asset_08_alt_Why_pay_for_tax_software__copy_0_Layer0_0_MEMBER_5_FILL"/>
</g>

<g transform="matrix( 2.868011474609375, 0, 0, 2.8675994873046875, 0.05,17.6) ">
<use xlink:href="#DIY_Simple_to_Complicated_728x90_psd_Asset_08_alt_Why_pay_for_tax_software__copy_0_Layer0_0_MEMBER_6_FILL"/>
</g>

<g transform="matrix( 2.868011474609375, 0, 0, 2.8675994873046875, 0.05,17.6) ">
<use xlink:href="#DIY_Simple_to_Complicated_728x90_psd_Asset_08_alt_Why_pay_for_tax_software__copy_0_Layer0_0_MEMBER_7_FILL"/>
</g>

<g transform="matrix( 2.868011474609375, 0, 0, 2.8675994873046875, 0.05,17.6) ">
<use xlink:href="#DIY_Simple_to_Complicated_728x90_psd_Asset_08_alt_Why_pay_for_tax_software__copy_0_Layer0_0_MEMBER_8_FILL"/>
</g>

<g transform="matrix( 2.868011474609375, 0, 0, 2.8675994873046875, 0.05,17.6) ">
<use xlink:href="#DIY_Simple_to_Complicated_728x90_psd_Asset_08_alt_Why_pay_for_tax_software__copy_0_Layer0_0_MEMBER_9_FILL"/>
</g>

<g transform="matrix( 2.868011474609375, 0, 0, 2.8675994873046875, 0.05,17.6) ">
<use xlink:href="#DIY_Simple_to_Complicated_728x90_psd_Asset_08_alt_Why_pay_for_tax_software__copy_0_Layer0_0_MEMBER_10_FILL"/>
</g>

<g transform="matrix( 2.868011474609375, 0, 0, 2.8675994873046875, 0.05,17.6) ">
<use xlink:href="#DIY_Simple_to_Complicated_728x90_psd_Asset_08_alt_Why_pay_for_tax_software__copy_0_Layer0_0_MEMBER_11_FILL"/>
</g>

<g transform="matrix( 2.868011474609375, 0, 0, 2.8675994873046875, 0.05,17.6) ">
<use xlink:href="#DIY_Simple_to_Complicated_728x90_psd_Asset_08_alt_Why_pay_for_tax_software__copy_0_Layer0_0_MEMBER_12_FILL"/>
</g>

<g transform="matrix( 2.868011474609375, 0, 0, 2.8675994873046875, 0.05,17.6) ">
<use xlink:href="#DIY_Simple_to_Complicated_728x90_psd_Asset_08_alt_Why_pay_for_tax_software__copy_0_Layer0_0_MEMBER_13_FILL"/>
</g>

<g transform="matrix( 2.868011474609375, 0, 0, 2.8675994873046875, 0.05,17.6) ">
<use xlink:href="#DIY_Simple_to_Complicated_728x90_psd_Asset_08_alt_Why_pay_for_tax_software__copy_0_Layer0_0_MEMBER_14_FILL"/>
</g>

<g transform="matrix( 2.868011474609375, 0, 0, 2.8675994873046875, 0.05,17.6) ">
<use xlink:href="#DIY_Simple_to_Complicated_728x90_psd_Asset_08_alt_Why_pay_for_tax_software__copy_0_Layer0_0_MEMBER_15_FILL"/>
</g>

<g transform="matrix( 2.868011474609375, 0, 0, 2.8675994873046875, 0.05,17.6) ">
<use xlink:href="#DIY_Simple_to_Complicated_728x90_psd_Asset_08_alt_Why_pay_for_tax_software__copy_0_Layer0_0_MEMBER_16_FILL"/>
</g>

<g transform="matrix( 2.868011474609375, 0, 0, 2.8675994873046875, 0.05,17.6) ">
<use xlink:href="#DIY_Simple_to_Complicated_728x90_psd_Asset_08_alt_Why_pay_for_tax_software__copy_0_Layer0_0_MEMBER_17_FILL"/>
</g>

<g transform="matrix( 2.868011474609375, 0, 0, 2.8675994873046875, 0.05,17.6) ">
<use xlink:href="#DIY_Simple_to_Complicated_728x90_psd_Asset_08_alt_Why_pay_for_tax_software__copy_0_Layer0_0_MEMBER_18_FILL"/>
</g>

<g transform="matrix( 2.868011474609375, 0, 0, 2.8675994873046875, 0.05,17.6) ">
<use xlink:href="#DIY_Simple_to_Complicated_728x90_psd_Asset_08_alt_Why_pay_for_tax_software__copy_0_Layer0_0_MEMBER_19_FILL"/>
</g>

<g transform="matrix( 2.868011474609375, 0, 0, 2.8675994873046875, 0.05,17.6) ">
<use xlink:href="#DIY_Simple_to_Complicated_728x90_psd_Asset_08_alt_Why_pay_for_tax_software__copy_0_Layer0_0_MEMBER_20_FILL"/>
</g>
</g>

<g transform="matrix( 1, 0, 0, 1, 743,214) ">
<g transform="matrix( 2.868011474609375, 0, 0, 2.8675994873046875, -0.15,8.75) ">
<use xlink:href="#DIY_Simple_to_Complicated_728x90_psd_Asset_08_alt__copy_2_0_Layer0_0_MEMBER_0_FILL"/>
</g>

<g transform="matrix( 2.868011474609375, 0, 0, 2.8675994873046875, -0.15,8.75) ">
<use xlink:href="#DIY_Simple_to_Complicated_728x90_psd_Asset_08_alt__copy_2_0_Layer0_0_MEMBER_1_FILL"/>
</g>

<g transform="matrix( 2.868011474609375, 0, 0, 2.8675994873046875, -0.15,8.75) ">
<use xlink:href="#DIY_Simple_to_Complicated_728x90_psd_Asset_08_alt__copy_2_0_Layer0_0_MEMBER_2_FILL"/>
</g>

<g transform="matrix( 2.868011474609375, 0, 0, 2.8675994873046875, -0.15,8.75) ">
<use xlink:href="#DIY_Simple_to_Complicated_728x90_psd_Asset_08_alt__copy_2_0_Layer0_0_MEMBER_3_FILL"/>
</g>

<g transform="matrix( 2.868011474609375, 0, 0, 2.8675994873046875, -0.15,8.75) ">
<use xlink:href="#DIY_Simple_to_Complicated_728x90_psd_Asset_08_alt__copy_2_0_Layer0_0_MEMBER_4_FILL"/>
</g>

<g transform="matrix( 2.868011474609375, 0, 0, 2.8675994873046875, -0.15,8.75) ">
<use xlink:href="#DIY_Simple_to_Complicated_728x90_psd_Asset_08_alt__copy_2_0_Layer0_0_MEMBER_5_FILL"/>
</g>

<g transform="matrix( 2.868011474609375, 0, 0, 2.8675994873046875, -0.15,8.75) ">
<use xlink:href="#DIY_Simple_to_Complicated_728x90_psd_Asset_08_alt__copy_2_0_Layer0_0_MEMBER_6_FILL"/>
</g>

<g transform="matrix( 2.868011474609375, 0, 0, 2.8675994873046875, -0.15,8.75) ">
<use xlink:href="#DIY_Simple_to_Complicated_728x90_psd_Asset_08_alt__copy_2_0_Layer0_0_MEMBER_7_FILL"/>
</g>

<g transform="matrix( 2.868011474609375, 0, 0, 2.8675994873046875, -0.15,8.75) ">
<use xlink:href="#DIY_Simple_to_Complicated_728x90_psd_Asset_08_alt__copy_2_0_Layer0_0_MEMBER_8_FILL"/>
</g>

<g transform="matrix( 2.868011474609375, 0, 0, 2.8675994873046875, -0.15,8.75) ">
<use xlink:href="#DIY_Simple_to_Complicated_728x90_psd_Asset_08_alt__copy_2_0_Layer0_0_MEMBER_9_FILL"/>
</g>

<g transform="matrix( 2.868011474609375, 0, 0, 2.8675994873046875, -0.15,8.75) ">
<use xlink:href="#DIY_Simple_to_Complicated_728x90_psd_Asset_08_alt__copy_2_0_Layer0_0_MEMBER_10_FILL"/>
</g>

<g transform="matrix( 2.868011474609375, 0, 0, 2.8675994873046875, -0.15,8.75) ">
<use xlink:href="#DIY_Simple_to_Complicated_728x90_psd_Asset_08_alt__copy_2_0_Layer0_0_MEMBER_11_FILL"/>
</g>

<g transform="matrix( 2.868011474609375, 0, 0, 2.8675994873046875, -0.15,8.75) ">
<use xlink:href="#DIY_Simple_to_Complicated_728x90_psd_Asset_08_alt__copy_2_0_Layer0_0_MEMBER_12_FILL"/>
</g>

<g transform="matrix( 2.868011474609375, 0, 0, 2.8675994873046875, -0.15,8.75) ">
<use xlink:href="#DIY_Simple_to_Complicated_728x90_psd_Asset_08_alt__copy_2_0_Layer0_0_MEMBER_13_FILL"/>
</g>

<g transform="matrix( 2.868011474609375, 0, 0, 2.8675994873046875, -0.15,8.75) ">
<use xlink:href="#DIY_Simple_to_Complicated_728x90_psd_Asset_08_alt__copy_2_0_Layer0_0_MEMBER_14_FILL"/>
</g>

<g transform="matrix( 2.868011474609375, 0, 0, 2.8675994873046875, -0.15,8.75) ">
<use xlink:href="#DIY_Simple_to_Complicated_728x90_psd_Asset_08_alt__copy_2_0_Layer0_0_MEMBER_15_FILL"/>
</g>

<g transform="matrix( 2.868011474609375, 0, 0, 2.8675994873046875, -0.15,8.75) ">
<use xlink:href="#DIY_Simple_to_Complicated_728x90_psd_Asset_08_alt__copy_2_0_Layer0_0_MEMBER_16_FILL"/>
</g>

<g transform="matrix( 2.868011474609375, 0, 0, 2.8675994873046875, -0.15,8.75) ">
<use xlink:href="#DIY_Simple_to_Complicated_728x90_psd_Asset_08_alt__copy_2_0_Layer0_0_MEMBER_17_FILL"/>
</g>

<g transform="matrix( 2.868011474609375, 0, 0, 2.8675994873046875, -0.15,8.75) ">
<use xlink:href="#DIY_Simple_to_Complicated_728x90_psd_Asset_08_alt__copy_2_0_Layer0_0_MEMBER_18_FILL"/>
</g>

<g transform="matrix( 2.868011474609375, 0, 0, 2.8675994873046875, -0.15,8.75) ">
<use xlink:href="#DIY_Simple_to_Complicated_728x90_psd_Asset_08_alt__copy_2_0_Layer0_0_MEMBER_19_FILL"/>
</g>

<g transform="matrix( 2.868011474609375, 0, 0, 2.8675994873046875, -0.15,8.75) ">
<use xlink:href="#DIY_Simple_to_Complicated_728x90_psd_Asset_08_alt__copy_2_0_Layer0_0_MEMBER_20_FILL"/>
</g>

<g transform="matrix( 2.868011474609375, 0, 0, 2.8675994873046875, -0.15,8.75) ">
<use xlink:href="#DIY_Simple_to_Complicated_728x90_psd_Asset_08_alt__copy_2_0_Layer0_0_MEMBER_21_FILL"/>
</g>

<g transform="matrix( 2.868011474609375, 0, 0, 2.8675994873046875, -0.15,8.75) ">
<use xlink:href="#DIY_Simple_to_Complicated_728x90_psd_Asset_08_alt__copy_2_0_Layer0_0_MEMBER_22_FILL"/>
</g>

<g transform="matrix( 2.868011474609375, 0, 0, 2.8675994873046875, -0.15,8.75) ">
<use xlink:href="#DIY_Simple_to_Complicated_728x90_psd_Asset_08_alt__copy_2_0_Layer0_0_MEMBER_23_FILL"/>
</g>

<g transform="matrix( 2.868011474609375, 0, 0, 2.8675994873046875, -0.15,8.75) ">
<use xlink:href="#DIY_Simple_to_Complicated_728x90_psd_Asset_08_alt__copy_2_0_Layer0_0_MEMBER_24_FILL"/>
</g>

<g transform="matrix( 2.868011474609375, 0, 0, 2.8675994873046875, -0.15,8.75) ">
<use xlink:href="#DIY_Simple_to_Complicated_728x90_psd_Asset_08_alt__copy_2_0_Layer0_0_MEMBER_25_FILL"/>
</g>
</g>
</g>
</svg>
