
<svg xmlns="http://www.w3.org/2000/svg" version="1.1" xmlns:xlink="http://www.w3.org/1999/xlink" preserveAspectRatio="none" x="0px" y="0px" width="160px" height="600px" viewBox="0 0 160 600">
<defs>
<g id="DIY_Online_and_Download_160x600_psd_Asset_03_No_matter_how_you__file__it_s__0_Layer0_0_MEMBER_0_FILL">
<path fill="#FFFFFF" stroke="none" d="
M 7.55 -15.45
L 7.65 -15.5 16.55 0 22.2 0 22.2 -24.3 16.55 -24.3 16.55 -8.85 16.45 -8.8 7.55 -24.3 1.9 -24.3 1.9 0 7.55 0 7.55 -15.45 Z"/>
</g>

<g id="DIY_Online_and_Download_160x600_psd_Asset_03_No_matter_how_you__file__it_s__0_Layer0_0_MEMBER_1_FILL">
<path fill="#FFFFFF" stroke="none" d="
M 29.15 -21.75
Q 26.3 -18.8 26.3 -14.35
L 26.3 -9.95
Q 26.3 -5.45 29.2 -2.55 32.05 0.35 36.65 0.35 41.3 0.35 44.1 -2.55 46.95 -5.45 46.95 -9.95
L 46.95 -14.35
Q 46.95 -18.8 44.1 -21.75 41.2 -24.65 36.65 -24.65 32.05 -24.65 29.15 -21.75
M 36.65 -20.3
Q 38.9 -20.3 40.1 -18.65 41.35 -16.95 41.35 -14.35
L 41.35 -9.95
Q 41.35 -7.25 40.1 -5.65 38.9 -4 36.65 -4 34.45 -4 33.15 -5.65 31.95 -7.3 31.95 -9.95
L 31.95 -14.35
Q 31.95 -17 33.15 -18.65 34.35 -20.3 36.65 -20.3 Z"/>
</g>

<g id="DIY_Online_and_Download_160x600_psd_Asset_03_No_matter_how_you__file__it_s__0_Layer0_0_MEMBER_2_FILL">
<path fill="#FFFFFF" stroke="none" d="
M 67.85 -24.3
L 60.45 -24.3 60.45 0 66.1 0 65.55 -17 65.65 -17 71.45 0 75.25 0 81.15 -17.15 81.25 -17.15 80.7 0 86.35 0 86.35 -24.3 78.9 -24.3 73.4 -7.3 73.3 -7.3 67.85 -24.3 Z"/>
</g>

<g id="DIY_Online_and_Download_160x600_psd_Asset_03_No_matter_how_you__file__it_s__0_Layer0_0_MEMBER_3_FILL">
<path fill="#FFFFFF" stroke="none" d="
M 96.55 -4.7
L 104.25 -4.7 105.6 0 111.3 0 103.45 -24.3 97.4 -24.3 89.55 0 95.2 0 96.55 -4.7
M 97.85 -9.05
L 100.35 -17.75 100.45 -17.75 103 -9.05 97.85 -9.05 Z"/>
</g>

<g id="DIY_Online_and_Download_160x600_psd_Asset_03_No_matter_how_you__file__it_s__0_Layer0_0_MEMBER_4_FILL">
<path fill="#FFFFFF" stroke="none" d="
M 110.9 -19.95
L 117.3 -19.95 117.3 0 122.95 0 122.95 -19.95 129.35 -19.95 129.35 -24.3 110.9 -24.3 110.9 -19.95 Z"/>
</g>

<g id="DIY_Online_and_Download_160x600_psd_Asset_03_No_matter_how_you__file__it_s__0_Layer0_0_MEMBER_5_FILL">
<path fill="#FFFFFF" stroke="none" d="
M 149.7 -19.95
L 149.7 -24.3 131.3 -24.3 131.3 -19.95 137.65 -19.95 137.65 0 143.3 0 143.3 -19.95 149.7 -19.95 Z"/>
</g>

<g id="DIY_Online_and_Download_160x600_psd_Asset_03_No_matter_how_you__file__it_s__0_Layer0_0_MEMBER_6_FILL">
<path fill="#FFFFFF" stroke="none" d="
M 158.5 -4.35
L 158.5 -10.4 168.05 -10.4 168.05 -14.75 158.5 -14.75 158.5 -19.95 169.8 -19.95 169.8 -24.3 152.85 -24.3 152.85 0 169.75 0 169.75 -4.35 158.5 -4.35 Z"/>
</g>

<g id="DIY_Online_and_Download_160x600_psd_Asset_03_No_matter_how_you__file__it_s__0_Layer0_0_MEMBER_7_FILL">
<path fill="#FFFFFF" stroke="none" d="
M 189.2 -22.35
Q 186.75 -24.3 182.5 -24.3
L 173.15 -24.3 173.15 0 178.8 0 178.8 -9.3 182.7 -9.3
Q 184.45 -9.3 185.4 -8.4 186.3 -7.5 186.3 -5.75
L 186.3 -4.25
Q 186.3 -3 186.5 -1.85 186.7 -0.55 187.4 0
L 193.2 0 193.2 -0.35
Q 192.5 -0.9 192.2 -2.05 191.95 -3.1 191.95 -4.25
L 191.95 -5.8
Q 191.95 -7.9 190.95 -9.45 189.95 -10.95 187.75 -11.55 189.7 -12.45 190.65 -13.75 191.65 -15.05 191.65 -17 191.65 -20.4 189.2 -22.35
M 178.8 -13.65
L 178.8 -19.95 182.5 -19.95
Q 184.2 -19.95 185.1 -19.05 186.05 -18.15 186.05 -16.65 186.05 -15.2 185.15 -14.45 184.3 -13.65 182.55 -13.65
L 178.8 -13.65 Z"/>
</g>

<g id="DIY_Online_and_Download_160x600_psd_Asset_03_No_matter_how_you__file__it_s__0_Layer0_0_MEMBER_8_FILL">
<path fill="#FFFFFF" stroke="none" d="
M 16.55 9.9
L 16.55 20.05 7.55 20.05 7.55 9.9 1.9 9.9 1.9 34.2 7.55 34.2 7.55 24.4 16.55 24.4 16.55 34.2 22.2 34.2 22.2 9.9 16.55 9.9 Z"/>
</g>

<g id="DIY_Online_and_Download_160x600_psd_Asset_03_No_matter_how_you__file__it_s__0_Layer0_0_MEMBER_9_FILL">
<path fill="#FFFFFF" stroke="none" d="
M 46.95 24.2
L 46.95 19.85
Q 46.95 15.4 44.1 12.45 41.2 9.55 36.65 9.55 32.05 9.55 29.15 12.45 26.3 15.4 26.3 19.85
L 26.3 24.2
Q 26.3 28.8 29.2 31.6 32.1 34.55 36.65 34.55 41.25 34.55 44.1 31.6 46.95 28.75 46.95 24.2
M 41.35 19.8
L 41.35 24.2
Q 41.35 26.85 40.1 28.55 38.9 30.2 36.65 30.2 34.45 30.2 33.15 28.55 31.95 26.85 31.95 24.2
L 31.95 19.8
Q 31.95 17.2 33.15 15.55 34.35 13.85 36.65 13.85 38.85 13.85 40.1 15.55 41.35 17.25 41.35 19.8 Z"/>
</g>

<g id="DIY_Online_and_Download_160x600_psd_Asset_03_No_matter_how_you__file__it_s__0_Layer0_0_MEMBER_10_FILL">
<path fill="#FFFFFF" stroke="none" d="
M 79.4 9.9
L 73.9 9.9 70.75 25.8 70.65 25.8 66.3 9.9 62.4 9.9 58.1 25.8 58 25.8 54.8 9.9 49.35 9.9 54.95 34.2 60.25 34.2 64.3 19.2 64.4 19.2 68.5 34.2 73.8 34.2 79.4 9.9 Z"/>
</g>

<g id="DIY_Online_and_Download_160x600_psd_Asset_03_No_matter_how_you__file__it_s__0_Layer0_0_MEMBER_11_FILL">
<path fill="#FFFFFF" stroke="none" d="
M 111.7 9.9
L 105.55 9.9 100.75 20.5 100.65 20.5 95.8 9.9 89.7 9.9 97.8 25.35 97.8 34.2 103.45 34.2 103.45 25.65 111.7 9.9 Z"/>
</g>

<g id="DIY_Online_and_Download_160x600_psd_Asset_03_No_matter_how_you__file__it_s__0_Layer0_0_MEMBER_12_FILL">
<path fill="#FFFFFF" stroke="none" d="
M 134 19.85
Q 134 15.4 131.15 12.45 128.25 9.55 123.7 9.55 119.05 9.55 116.2 12.45 113.35 15.4 113.35 19.85
L 113.35 24.2
Q 113.35 28.75 116.2 31.6 119.15 34.55 123.7 34.55 128.3 34.55 131.15 31.6 134 28.75 134 24.2
L 134 19.85
M 128.4 19.8
L 128.4 24.2
Q 128.4 26.75 127.15 28.55 125.95 30.2 123.7 30.2 121.4 30.2 120.2 28.55 119 26.85 119 24.2
L 119 19.8
Q 119 17.2 120.2 15.55 121.4 13.85 123.7 13.85 125.9 13.85 127.15 15.55 128.4 17.25 128.4 19.8 Z"/>
</g>

<g id="DIY_Online_and_Download_160x600_psd_Asset_03_No_matter_how_you__file__it_s__0_Layer0_0_MEMBER_13_FILL">
<path fill="#FFFFFF" stroke="none" d="
M 158.05 9.9
L 152.4 9.9 152.4 25.8
Q 152.4 28.05 151.3 29.15 150.2 30.2 148.05 30.2 145.95 30.2 144.8 29.1 143.65 28.05 143.65 25.8
L 143.65 9.9 138 9.9 138 25.8
Q 138 29.9 140.8 32.25 143.65 34.55 148.05 34.55 152.45 34.55 155.3 32.25 158.05 29.95 158.05 25.8
L 158.05 9.9 Z"/>
</g>

<g id="DIY_Online_and_Download_160x600_psd_Asset_03_No_matter_how_you__file__it_s__0_Layer0_0_MEMBER_14_FILL">
<path fill="#FFFFFF" stroke="none" d="
M 19 44.05
L 1.9 44.05 1.9 68.35 7.55 68.35 7.55 58.6 17.3 58.6 17.3 54.25 7.55 54.25 7.55 48.4 19 48.4 19 44.05 Z"/>
</g>

<g id="DIY_Online_and_Download_160x600_psd_Asset_03_No_matter_how_you__file__it_s__0_Layer0_0_MEMBER_15_FILL">
<path fill="#FFFFFF" stroke="none" d="
M 28.4 44.05
L 22.8 44.05 22.8 68.35 28.4 68.35 28.4 44.05 Z"/>
</g>

<g id="DIY_Online_and_Download_160x600_psd_Asset_03_No_matter_how_you__file__it_s__0_Layer0_0_MEMBER_16_FILL">
<path fill="#FFFFFF" stroke="none" d="
M 39.1 44.05
L 33.45 44.05 33.45 68.35 49.6 68.35 49.6 64.05 39.1 64.05 39.1 44.05 Z"/>
</g>

<g id="DIY_Online_and_Download_160x600_psd_Asset_03_No_matter_how_you__file__it_s__0_Layer0_0_MEMBER_17_FILL">
<path fill="#FFFFFF" stroke="none" d="
M 69.75 44.05
L 52.8 44.05 52.8 68.35 69.7 68.35 69.7 64.05 58.5 64.05 58.5 57.95 68 57.95 68 53.65 58.5 53.65 58.5 48.4 69.75 48.4 69.75 44.05 Z"/>
</g>

<g id="DIY_Online_and_Download_160x600_psd_Asset_03_No_matter_how_you__file__it_s__0_Layer0_0_MEMBER_18_FILL">
<path fill="#FFFFFF" stroke="none" d="
M 78.2 68.5
L 78.2 64.15 73.3 64.15 73.3 68.35 72.15 73.8 75.5 73.8 78.2 68.5 Z"/>
</g>

<g id="DIY_Online_and_Download_160x600_psd_Asset_03_No_matter_how_you__file__it_s__0_Layer0_0_MEMBER_19_FILL">
<path fill="#FFFFFF" stroke="none" d="
M 98.4 44.05
L 92.75 44.05 92.75 68.35 98.4 68.35 98.4 44.05 Z"/>
</g>

<g id="DIY_Online_and_Download_160x600_psd_Asset_03_No_matter_how_you__file__it_s__0_Layer0_0_MEMBER_20_FILL">
<path fill="#FFFFFF" stroke="none" d="
M 119.9 48.4
L 119.9 44.05 101.45 44.05 101.45 48.4 107.85 48.4 107.85 68.35 113.5 68.35 113.5 48.4 119.9 48.4 Z"/>
</g>

<g id="DIY_Online_and_Download_160x600_psd_Asset_03_No_matter_how_you__file__it_s__0_Layer0_0_MEMBER_21_FILL">
<path fill="#FFFFFF" stroke="none" d="
M 127.4 45.55
L 127.4 42.35 122.9 42.35 122.9 45.55 121.9 51.4 124.7 51.4 127.4 45.55 Z"/>
</g>

<g id="DIY_Online_and_Download_160x600_psd_Asset_03_No_matter_how_you__file__it_s__0_Layer0_0_MEMBER_22_FILL">
<path fill="#FFFFFF" stroke="none" d="
M 139.85 43.7
Q 135.8 43.7 133.15 45.6 130.5 47.45 130.5 50.55 130.5 53.7 132.7 55.35 135.05 57.05 139.55 58.45 141.95 59.35 142.6 59.95 143.45 60.65 143.45 61.95 143.45 63.05 142.6 63.75 141.75 64.45 139.95 64.45 137.7 64.45 136.55 63.55 135.4 62.65 135.4 60.55
L 129.9 60.55 129.85 60.65
Q 129.8 64.55 132.8 66.65 135.8 68.7 139.95 68.7 144.15 68.7 146.6 66.9 149.1 65.1 149.1 61.9 149.1 58.75 147 56.95 144.85 55.1 140.75 53.9 138.2 53 137.1 52.3 136.1 51.6 136.1 50.6 136.1 49.45 137.1 48.7 138.1 47.95 139.75 47.95 141.5 47.95 142.5 48.9 143.45 49.8 143.45 51.25
L 148.95 51.25 148.95 51.15
Q 149.05 47.85 146.45 45.8 143.9 43.7 139.85 43.7 Z"/>
</g>
</defs>

<g transform="matrix( 1, 0, 0, 1, -440,0) ">
<g transform="matrix( 1, 0, 0, 1, 455,182) ">
<g transform="matrix( 0.66973876953125, 0, 0, 0.672821044921875, -0.6,16.65) ">
<use xlink:href="#DIY_Online_and_Download_160x600_psd_Asset_03_No_matter_how_you__file__it_s__0_Layer0_0_MEMBER_0_FILL"/>
</g>

<g transform="matrix( 0.66973876953125, 0, 0, 0.672821044921875, -0.6,16.65) ">
<use xlink:href="#DIY_Online_and_Download_160x600_psd_Asset_03_No_matter_how_you__file__it_s__0_Layer0_0_MEMBER_1_FILL"/>
</g>

<g transform="matrix( 0.66973876953125, 0, 0, 0.672821044921875, -0.6,16.65) ">
<use xlink:href="#DIY_Online_and_Download_160x600_psd_Asset_03_No_matter_how_you__file__it_s__0_Layer0_0_MEMBER_2_FILL"/>
</g>

<g transform="matrix( 0.66973876953125, 0, 0, 0.672821044921875, -0.6,16.65) ">
<use xlink:href="#DIY_Online_and_Download_160x600_psd_Asset_03_No_matter_how_you__file__it_s__0_Layer0_0_MEMBER_3_FILL"/>
</g>

<g transform="matrix( 0.66973876953125, 0, 0, 0.672821044921875, -0.6,16.65) ">
<use xlink:href="#DIY_Online_and_Download_160x600_psd_Asset_03_No_matter_how_you__file__it_s__0_Layer0_0_MEMBER_4_FILL"/>
</g>

<g transform="matrix( 0.66973876953125, 0, 0, 0.672821044921875, -0.6,16.65) ">
<use xlink:href="#DIY_Online_and_Download_160x600_psd_Asset_03_No_matter_how_you__file__it_s__0_Layer0_0_MEMBER_5_FILL"/>
</g>

<g transform="matrix( 0.66973876953125, 0, 0, 0.672821044921875, -0.6,16.65) ">
<use xlink:href="#DIY_Online_and_Download_160x600_psd_Asset_03_No_matter_how_you__file__it_s__0_Layer0_0_MEMBER_6_FILL"/>
</g>

<g transform="matrix( 0.66973876953125, 0, 0, 0.672821044921875, -0.6,16.65) ">
<use xlink:href="#DIY_Online_and_Download_160x600_psd_Asset_03_No_matter_how_you__file__it_s__0_Layer0_0_MEMBER_7_FILL"/>
</g>

<g transform="matrix( 0.66973876953125, 0, 0, 0.672821044921875, -0.6,16.65) ">
<use xlink:href="#DIY_Online_and_Download_160x600_psd_Asset_03_No_matter_how_you__file__it_s__0_Layer0_0_MEMBER_8_FILL"/>
</g>

<g transform="matrix( 0.66973876953125, 0, 0, 0.672821044921875, -0.6,16.65) ">
<use xlink:href="#DIY_Online_and_Download_160x600_psd_Asset_03_No_matter_how_you__file__it_s__0_Layer0_0_MEMBER_9_FILL"/>
</g>

<g transform="matrix( 0.66973876953125, 0, 0, 0.672821044921875, -0.6,16.65) ">
<use xlink:href="#DIY_Online_and_Download_160x600_psd_Asset_03_No_matter_how_you__file__it_s__0_Layer0_0_MEMBER_10_FILL"/>
</g>

<g transform="matrix( 0.66973876953125, 0, 0, 0.672821044921875, -0.6,16.65) ">
<use xlink:href="#DIY_Online_and_Download_160x600_psd_Asset_03_No_matter_how_you__file__it_s__0_Layer0_0_MEMBER_11_FILL"/>
</g>

<g transform="matrix( 0.66973876953125, 0, 0, 0.672821044921875, -0.6,16.65) ">
<use xlink:href="#DIY_Online_and_Download_160x600_psd_Asset_03_No_matter_how_you__file__it_s__0_Layer0_0_MEMBER_12_FILL"/>
</g>

<g transform="matrix( 0.66973876953125, 0, 0, 0.672821044921875, -0.6,16.65) ">
<use xlink:href="#DIY_Online_and_Download_160x600_psd_Asset_03_No_matter_how_you__file__it_s__0_Layer0_0_MEMBER_13_FILL"/>
</g>

<g transform="matrix( 0.66973876953125, 0, 0, 0.672821044921875, -0.6,16.65) ">
<use xlink:href="#DIY_Online_and_Download_160x600_psd_Asset_03_No_matter_how_you__file__it_s__0_Layer0_0_MEMBER_14_FILL"/>
</g>

<g transform="matrix( 0.66973876953125, 0, 0, 0.672821044921875, -0.6,16.65) ">
<use xlink:href="#DIY_Online_and_Download_160x600_psd_Asset_03_No_matter_how_you__file__it_s__0_Layer0_0_MEMBER_15_FILL"/>
</g>

<g transform="matrix( 0.66973876953125, 0, 0, 0.672821044921875, -0.6,16.65) ">
<use xlink:href="#DIY_Online_and_Download_160x600_psd_Asset_03_No_matter_how_you__file__it_s__0_Layer0_0_MEMBER_16_FILL"/>
</g>

<g transform="matrix( 0.66973876953125, 0, 0, 0.672821044921875, -0.6,16.65) ">
<use xlink:href="#DIY_Online_and_Download_160x600_psd_Asset_03_No_matter_how_you__file__it_s__0_Layer0_0_MEMBER_17_FILL"/>
</g>

<g transform="matrix( 0.66973876953125, 0, 0, 0.672821044921875, -0.6,16.65) ">
<use xlink:href="#DIY_Online_and_Download_160x600_psd_Asset_03_No_matter_how_you__file__it_s__0_Layer0_0_MEMBER_18_FILL"/>
</g>

<g transform="matrix( 0.66973876953125, 0, 0, 0.672821044921875, -0.6,16.65) ">
<use xlink:href="#DIY_Online_and_Download_160x600_psd_Asset_03_No_matter_how_you__file__it_s__0_Layer0_0_MEMBER_19_FILL"/>
</g>

<g transform="matrix( 0.66973876953125, 0, 0, 0.672821044921875, -0.6,16.65) ">
<use xlink:href="#DIY_Online_and_Download_160x600_psd_Asset_03_No_matter_how_you__file__it_s__0_Layer0_0_MEMBER_20_FILL"/>
</g>

<g transform="matrix( 0.66973876953125, 0, 0, 0.672821044921875, -0.6,16.65) ">
<use xlink:href="#DIY_Online_and_Download_160x600_psd_Asset_03_No_matter_how_you__file__it_s__0_Layer0_0_MEMBER_21_FILL"/>
</g>

<g transform="matrix( 0.66973876953125, 0, 0, 0.672821044921875, -0.6,16.65) ">
<use xlink:href="#DIY_Online_and_Download_160x600_psd_Asset_03_No_matter_how_you__file__it_s__0_Layer0_0_MEMBER_22_FILL"/>
</g>
</g>
</g>
</svg>
