
<svg xmlns="http://www.w3.org/2000/svg" version="1.1" xmlns:xlink="http://www.w3.org/1999/xlink" preserveAspectRatio="none" x="0px" y="0px" width="300px" height="250px" viewBox="0 0 300 250">
<defs>
<image id="DIY_Free_Support_300x250_psd_Asset_1_08_alt_BTN_Assets_Arrow_1" x="0" y="0" width="9" height="13" xlink:href="data:image/png;base64,iVBORw0KGgoAAAANSUhEUgAAAAkAAAANCAYAAAB7AEQGAAABBklEQVQYlXXRsUrDUBQG4FO8
FF36CC6tuBQcHBqcOrgqXUTBTX0Mh4ukvoMgBoKTz+Ao0sHB0LVaCVkUNCW5OV7PvTfXpWkb
G//544fzH4BpELGDiA78F0R0jCJhtBKVkHPOtMwiO41WtAx5F9jopheq7LNw1mgSiLhTgkG/
2X653otL0OiciE4q4H6svyfW5rpotEvw/fGqR9nXvE2m9mPgeawAaZq211br3gqrAwBA/iMg
vDsDET0/zIBRFC82vPoH+fBy83Q2AUkMF8HYPxRDtzm/jneBvd0eR1omVsvEjv0jEbit0k41
AIDAbTmN9e17gBok4dPu1vloUPma4GKj87ehyC9YeddYil8n8AAAAABJRU5ErkJggg=="/>

<g id="DIY_Free_Support_300x250_psd_Asset_1_08_alt__Conditions_apply_0_Layer0_0_MEMBER_0_FILL">
<path fill="#FFFFFF" stroke="none" d="
M -13.7 -1.55
L -13.2 -1.65 -13.3 -1.9 -13.75 -1.75 -13.75 -2.3 -14 -2.3 -13.95 -1.75 -14.45 -1.9 -14.5 -1.7 -14.05 -1.55 -14.35 -1.1 -14.15 -0.95 -13.85 -1.4 -13.6 -0.95 -13.4 -1.1 -13.7 -1.55 Z"/>
</g>

<g id="DIY_Free_Support_300x250_psd_Asset_1_08_alt__Conditions_apply_0_Layer0_0_MEMBER_1_FILL">
<path fill="#FFFFFF" stroke="none" d="
M -13.05 -0.95
Q -13.05 -0.45 -12.8 -0.25 -12.55 0.05 -12.2 0.05 -11.85 0.05 -11.6 -0.2 -11.35 -0.4 -11.35 -0.7
L -11.35 -0.75 -11.65 -0.75
Q -11.65 -0.5 -11.8 -0.35 -11.95 -0.2 -12.2 -0.2 -12.4 -0.2 -12.6 -0.4 -12.75 -0.6 -12.75 -0.95
L -12.75 -1.35
Q -12.75 -1.7 -12.6 -1.85 -12.45 -2.05 -12.2 -2.05 -11.9 -2.05 -11.8 -1.95 -11.65 -1.8 -11.65 -1.55
L -11.35 -1.55
Q -11.35 -1.9 -11.55 -2.1 -11.8 -2.3 -12.2 -2.3 -12.55 -2.3 -12.8 -2.05 -13.05 -1.8 -13.05 -1.35
L -13.05 -0.95 Z"/>
</g>

<g id="DIY_Free_Support_300x250_psd_Asset_1_08_alt__Conditions_apply_0_Layer0_0_MEMBER_2_FILL">
<path fill="#FFFFFF" stroke="none" d="
M -10.2 -2.3
Q -10.6 -2.3 -10.85 -2.05 -11.1 -1.8 -11.1 -1.35
L -11.1 -0.95
Q -11.1 -0.5 -10.85 -0.25 -10.6 0.05 -10.2 0.05 -9.75 0.05 -9.55 -0.25 -9.3 -0.5 -9.3 -0.95
L -9.3 -1.35
Q -9.3 -1.8 -9.55 -2.05 -9.8 -2.3 -10.2 -2.3
M -10.65 -1.85
Q -10.5 -2.05 -10.2 -2.05 -9.95 -2.05 -9.75 -1.85 -9.6 -1.7 -9.6 -1.35
L -9.6 -0.95
Q -9.6 -0.6 -9.75 -0.4 -10.05 -0.2 -10.2 -0.2 -10.45 -0.2 -10.65 -0.4 -10.8 -0.6 -10.8 -0.95
L -10.8 -1.35
Q -10.8 -1.7 -10.65 -1.85 Z"/>
</g>

<g id="DIY_Free_Support_300x250_psd_Asset_1_08_alt__Conditions_apply_0_Layer0_0_MEMBER_3_FILL">
<path fill="#FFFFFF" stroke="none" d="
M -8.6 -2.3
L -8.9 -2.3 -8.9 0 -8.6 0 -8.6 -1.75 -7.5 0 -7.2 0 -7.2 -2.3 -7.5 -2.3 -7.5 -0.5 -8.6 -2.3 Z"/>
</g>

<g id="DIY_Free_Support_300x250_psd_Asset_1_08_alt__Conditions_apply_0_Layer0_0_MEMBER_4_FILL">
<path fill="#FFFFFF" stroke="none" d="
M -5.25 -2
Q -5.55 -2.3 -6 -2.3
L -6.7 -2.3 -6.7 0 -6 0
Q -5.6 0 -5.25 -0.25 -5 -0.6 -5 -1
L -5 -1.3
Q -5 -1.65 -5.25 -2
M -6 -2.05
Q -5.7 -2.05 -5.5 -1.85 -5.3 -1.65 -5.3 -1.3
L -5.3 -1
Q -5.3 -0.65 -5.5 -0.45 -5.65 -0.25 -6 -0.25
L -6.4 -0.25 -6.4 -2.05 -6 -2.05 Z"/>
</g>

<g id="DIY_Free_Support_300x250_psd_Asset_1_08_alt__Conditions_apply_0_Layer0_0_MEMBER_5_FILL">
<path fill="#FFFFFF" stroke="none" d="
M -4.35 -2.3
L -4.65 -2.3 -4.65 0 -4.35 0 -4.35 -2.3 Z"/>
</g>

<g id="DIY_Free_Support_300x250_psd_Asset_1_08_alt__Conditions_apply_0_Layer0_0_MEMBER_6_FILL">
<path fill="#FFFFFF" stroke="none" d="
M -2.35 -2.05
L -2.35 -2.3 -4.1 -2.3 -4.1 -2.05 -3.4 -2.05 -3.4 0 -3.05 0 -3.05 -2.05 -2.35 -2.05 Z"/>
</g>

<g id="DIY_Free_Support_300x250_psd_Asset_1_08_alt__Conditions_apply_0_Layer0_0_MEMBER_7_FILL">
<path fill="#FFFFFF" stroke="none" d="
M -1.75 -2.3
L -2.05 -2.3 -2.05 0 -1.75 0 -1.75 -2.3 Z"/>
</g>

<g id="DIY_Free_Support_300x250_psd_Asset_1_08_alt__Conditions_apply_0_Layer0_0_MEMBER_8_FILL">
<path fill="#FFFFFF" stroke="none" d="
M 0.5 -0.95
L 0.5 -1.35
Q 0.5 -1.75 0.2 -2.05 -0.05 -2.3 -0.45 -2.3 -0.85 -2.3 -1.1 -2.05 -1.35 -1.7 -1.35 -1.35
L -1.35 -0.95
Q -1.35 -0.6 -1.1 -0.25 -0.85 0.05 -0.45 0.05 0 0.05 0.2 -0.25 0.5 -0.55 0.5 -0.95
M 0.15 -1.35
L 0.15 -0.95
Q 0.15 -0.6 0 -0.4 -0.2 -0.2 -0.45 -0.2 -0.7 -0.2 -0.9 -0.4 -1.05 -0.6 -1.05 -0.95
L -1.05 -1.35
Q -1.05 -1.7 -0.9 -1.85 -0.75 -2.05 -0.45 -2.05 -0.15 -2.05 0 -1.85 0.15 -1.7 0.15 -1.35 Z"/>
</g>

<g id="DIY_Free_Support_300x250_psd_Asset_1_08_alt__Conditions_apply_0_Layer0_0_MEMBER_9_FILL">
<path fill="#FFFFFF" stroke="none" d="
M 1.15 -1.75
L 1.2 -1.75 2.3 0 2.6 0 2.6 -2.3 2.3 -2.3 2.3 -0.5 2.25 -0.5 1.15 -2.3 0.85 -2.3 0.85 0 1.15 0 1.15 -1.75 Z"/>
</g>

<g id="DIY_Free_Support_300x250_psd_Asset_1_08_alt__Conditions_apply_0_Layer0_0_MEMBER_10_FILL">
<path fill="#FFFFFF" stroke="none" d="
M 4.4 -2.1
Q 4.2 -2.3 3.8 -2.3 3.4 -2.3 3.25 -2.15 3 -1.9 3 -1.7 3 -1.55 3.2 -1.25 3.5 -1.05 3.8 -1
L 4.2 -0.85 4.3 -0.55 4.2 -0.3 3.8 -0.2 3.4 -0.3
Q 3.25 -0.45 3.25 -0.65
L 2.95 -0.65
Q 2.95 -0.4 3.2 -0.15 3.6 0.05 3.8 0.05 4.2 0.05 4.4 -0.15 4.6 -0.3 4.6 -0.6 4.6 -0.85 4.45 -1 4.3 -1.15 3.9 -1.25
L 3.45 -1.45
Q 3.3 -1.5 3.3 -1.7 3.3 -1.85 3.45 -1.95 3.5 -2.05 3.8 -2.05 4.1 -2.05 4.15 -1.95 4.3 -1.8 4.3 -1.6
L 4.6 -1.6 4.6 -1.65
Q 4.6 -1.9 4.4 -2.1 Z"/>
</g>

<g id="DIY_Free_Support_300x250_psd_Asset_1_08_alt__Conditions_apply_0_Layer0_0_MEMBER_11_FILL">
<path fill="#FFFFFF" stroke="none" d="
M 6 -0.6
L 6.95 -0.6 7.15 0 7.45 0 6.6 -2.3 6.35 -2.3 5.45 0 5.75 0 6 -0.6
M 6.1 -0.85
L 6.45 -1.9 6.5 -1.9 6.85 -0.85 6.1 -0.85 Z"/>
</g>

<g id="DIY_Free_Support_300x250_psd_Asset_1_08_alt__Conditions_apply_0_Layer0_0_MEMBER_12_FILL">
<path fill="#FFFFFF" stroke="none" d="
M 9.35 -1.6
Q 9.35 -1.9 9.15 -2.1 8.85 -2.3 8.6 -2.3
L 7.7 -2.3 7.7 0 8 0 8 -0.9 8.6 -0.9
Q 8.85 -0.9 9.15 -1.1 9.35 -1.3 9.35 -1.6
M 8.95 -1.9
L 9.05 -1.6 8.95 -1.3
Q 8.8 -1.15 8.6 -1.15
L 8 -1.15 8 -2.05 8.6 -2.05
Q 8.8 -2.05 8.95 -1.9 Z"/>
</g>

<g id="DIY_Free_Support_300x250_psd_Asset_1_08_alt__Conditions_apply_0_Layer0_0_MEMBER_13_FILL">
<path fill="#FFFFFF" stroke="none" d="
M 11.1 -2.1
Q 10.9 -2.3 10.55 -2.3
L 9.7 -2.3 9.7 0 10 0 10 -0.9 10.55 -0.9
Q 10.9 -0.9 11.1 -1.1 11.35 -1.35 11.35 -1.6 11.35 -1.85 11.1 -2.1
M 10 -1.15
L 10 -2.05 10.55 -2.05
Q 10.75 -2.05 10.9 -1.9 11 -1.85 11 -1.6 11 -1.35 10.9 -1.3 10.85 -1.15 10.55 -1.15
L 10 -1.15 Z"/>
</g>

<g id="DIY_Free_Support_300x250_psd_Asset_1_08_alt__Conditions_apply_0_Layer0_0_MEMBER_14_FILL">
<path fill="#FFFFFF" stroke="none" d="
M 11.95 -0.25
L 11.95 -2.3 11.65 -2.3 11.65 0 13.05 0 13.05 -0.25 11.95 -0.25 Z"/>
</g>

<g id="DIY_Free_Support_300x250_psd_Asset_1_08_alt__Conditions_apply_0_Layer0_0_MEMBER_15_FILL">
<path fill="#FFFFFF" stroke="none" d="
M 13.55 -1.1
L 13 -2.3 12.65 -2.3 13.4 -0.8 13.4 0 13.7 0 13.7 -0.8 14.5 -2.3 14.15 -2.3 13.55 -1.1 Z"/>
</g>

<g id="DIY_Free_Support_300x250_psd_Asset_1_08_alt_BTN_file_free_now_0_Layer0_0_MEMBER_0_FILL">
<path fill="#FFFFFF" stroke="none" d="
M 4.65 -5.8
L 0.6 -5.8 0.6 0 2 0 2 -2.2 4.4 -2.2 4.4 -3.35 2 -3.35 2 -4.6 4.65 -4.6 4.65 -5.8 Z"/>
</g>

<g id="DIY_Free_Support_300x250_psd_Asset_1_08_alt_BTN_file_free_now_0_Layer0_0_MEMBER_1_FILL">
<path fill="#FFFFFF" stroke="none" d="
M 7.2 -5.8
L 5.8 -5.8 5.8 0 7.2 0 7.2 -5.8 Z"/>
</g>

<g id="DIY_Free_Support_300x250_psd_Asset_1_08_alt_BTN_file_free_now_0_Layer0_0_MEMBER_2_FILL">
<path fill="#FFFFFF" stroke="none" d="
M 10.05 -5.8
L 8.65 -5.8 8.65 0 12.6 0 12.6 -1.2 10.05 -1.2 10.05 -5.8 Z"/>
</g>

<g id="DIY_Free_Support_300x250_psd_Asset_1_08_alt_BTN_file_free_now_0_Layer0_0_MEMBER_3_FILL">
<path fill="#FFFFFF" stroke="none" d="
M 15.15 -1.2
L 15.15 -2.35 17.65 -2.35 17.65 -3.55 15.15 -3.55 15.15 -4.6 17.9 -4.6 17.9 -5.8 13.7 -5.8 13.7 0 17.9 0 17.9 -1.2 15.15 -1.2 Z"/>
</g>

<g id="DIY_Free_Support_300x250_psd_Asset_1_08_alt_BTN_file_free_now_0_Layer0_0_MEMBER_4_FILL">
<path fill="#FFFFFF" stroke="none" d="
M 25.25 -5.8
L 21.15 -5.8 21.15 0 22.55 0 22.55 -2.2 25 -2.2 25 -3.35 22.55 -3.35 22.55 -4.6 25.25 -4.6 25.25 -5.8 Z"/>
</g>

<g id="DIY_Free_Support_300x250_psd_Asset_1_08_alt_BTN_file_free_now_0_Layer0_0_MEMBER_5_FILL">
<path fill="#FFFFFF" stroke="none" d="
M 27.75 -1.75
L 28.65 -1.75 29.65 0 31.3 0 30.15 -1.95
Q 31.2 -2.5 31.2 -3.75 31.2 -4.65 30.65 -5.2 30.1 -5.8 29.05 -5.8
L 26.3 -5.8 26.3 0 27.75 0 27.75 -1.75
M 28.85 -4.65
Q 29.8 -4.65 29.8 -3.75 29.8 -2.85 28.85 -2.85
L 27.75 -2.85 27.75 -4.65 28.85 -4.65 Z"/>
</g>

<g id="DIY_Free_Support_300x250_psd_Asset_1_08_alt_BTN_file_free_now_0_Layer0_0_MEMBER_6_FILL">
<path fill="#FFFFFF" stroke="none" d="
M 33.85 -1.2
L 33.85 -2.35 36.35 -2.35 36.35 -3.55 33.85 -3.55 33.85 -4.6 36.6 -4.6 36.6 -5.8 32.4 -5.8 32.4 0 36.6 0 36.6 -1.2 33.85 -1.2 Z"/>
</g>

<g id="DIY_Free_Support_300x250_psd_Asset_1_08_alt_BTN_file_free_now_0_Layer0_0_MEMBER_7_FILL">
<path fill="#FFFFFF" stroke="none" d="
M 39.25 -3.55
L 39.25 -4.6 42 -4.6 42 -5.8 37.8 -5.8 37.8 0 42.05 0 42.05 -1.2 39.25 -1.2 39.25 -2.35 41.75 -2.35 41.75 -3.55 39.25 -3.55 Z"/>
</g>

<g id="DIY_Free_Support_300x250_psd_Asset_1_08_alt_BTN_file_free_now_0_Layer0_0_MEMBER_8_FILL">
<path fill="#FFFFFF" stroke="none" d="
M 49.2 -5.8
L 44.65 -5.8 44.65 -4.6 46.2 -4.6 46.2 0 47.65 0 47.65 -4.6 49.2 -4.6 49.2 -5.8 Z"/>
</g>

<g id="DIY_Free_Support_300x250_psd_Asset_1_08_alt_BTN_file_free_now_0_Layer0_0_MEMBER_9_FILL">
<path fill="#FFFFFF" stroke="none" d="
M 49.9 -2.55
Q 49.9 -1.35 50.55 -0.65 51.25 0.1 52.55 0.1 53.85 0.1 54.6 -0.65 55.25 -1.35 55.25 -2.55
L 55.25 -3.3
Q 55.25 -4.45 54.6 -5.2 53.85 -5.95 52.55 -5.95 51.3 -5.95 50.55 -5.2 49.9 -4.45 49.9 -3.3
L 49.9 -2.55
M 51.35 -3.35
Q 51.35 -4.75 52.55 -4.75 53.8 -4.75 53.8 -3.35
L 53.8 -2.45
Q 53.8 -1.05 52.55 -1.05 51.35 -1.05 51.35 -2.45
L 51.35 -3.35 Z"/>
</g>

<g id="DIY_Free_Support_300x250_psd_Asset_1_08_alt_BTN_file_free_now_0_Layer0_0_MEMBER_10_FILL">
<path fill="#FFFFFF" stroke="none" d="
M 58.95 -5.8
L 56.4 -5.8 56.4 0 58.95 0
Q 60.1 0 60.8 -0.65 61.4 -1.25 61.4 -2.3
L 61.4 -3.5
Q 61.4 -4.55 60.8 -5.15 60.1 -5.8 58.95 -5.8
M 59.95 -3.5
L 59.95 -2.3
Q 59.95 -1.15 58.7 -1.15
L 57.85 -1.15 57.85 -4.65 58.7 -4.65
Q 59.95 -4.65 59.95 -3.5 Z"/>
</g>

<g id="DIY_Free_Support_300x250_psd_Asset_1_08_alt_BTN_file_free_now_0_Layer0_0_MEMBER_11_FILL">
<path fill="#FFFFFF" stroke="none" d="
M 63.65 -1.1
L 65.75 -1.1 66.05 0 67.5 0 65.4 -5.8 63.95 -5.8 61.9 0 63.3 0 63.65 -1.1
M 64 -2.2
L 64.7 -4.5 65.4 -2.2 64 -2.2 Z"/>
</g>

<g id="DIY_Free_Support_300x250_psd_Asset_1_08_alt_BTN_file_free_now_0_Layer0_0_MEMBER_12_FILL">
<path fill="#FFFFFF" stroke="none" d="
M 70.55 -2.05
L 72.5 -5.8 70.95 -5.8 69.85 -3.4 68.75 -5.8 67.2 -5.8 69.15 -2.05 69.15 0 70.55 0 70.55 -2.05 Z"/>
</g>

<g id="DIY_Free_Support_300x250_psd_Asset_1_08_alt__copy_0_Layer0_0_MEMBER_0_FILL">
<path fill="#FFFFFF" stroke="none" d="
M -28.55 -1.6
Q -28.55 -1.9 -28.35 -2.2 -28.2 -2.45 -27.85 -2.45 -27.55 -2.45 -27.4 -2.3 -27.2 -2 -27.2 -1.85
L -26.85 -1.85
Q -26.85 -2.25 -27.15 -2.5 -27.4 -2.75 -27.85 -2.75 -28.3 -2.75 -28.6 -2.4 -28.9 -2.1 -28.9 -1.6
L -28.9 -1.1
Q -28.9 -0.6 -28.6 -0.3 -28.3 0.05 -27.85 0.05 -27.4 0.05 -27.15 -0.2 -26.85 -0.5 -26.85 -0.85
L -27.2 -0.85
Q -27.2 -0.6 -27.4 -0.4 -27.55 -0.25 -27.85 -0.25 -28.2 -0.25 -28.35 -0.5 -28.55 -0.8 -28.55 -1.1
L -28.55 -1.6 Z"/>
</g>

<g id="DIY_Free_Support_300x250_psd_Asset_1_08_alt__copy_0_Layer0_0_MEMBER_1_FILL">
<path fill="#FFFFFF" stroke="none" d="
M -26.1 -1.2
L -24.8 -1.2 -24.8 0 -24.45 0 -24.45 -2.7 -24.8 -2.7 -24.8 -1.5 -26.1 -1.5 -26.1 -2.7 -26.45 -2.7 -26.45 0 -26.1 0 -26.1 -1.2 Z"/>
</g>

<g id="DIY_Free_Support_300x250_psd_Asset_1_08_alt__copy_0_Layer0_0_MEMBER_2_FILL">
<path fill="#FFFFFF" stroke="none" d="
M -23.5 -0.7
L -22.35 -0.7 -22.1 0 -21.75 0 -22.75 -2.7 -23.1 -2.7 -24.1 0 -23.75 0 -23.5 -0.7
M -23.4 -1
L -22.95 -2.25 -22.9 -2.25 -22.45 -1 -23.4 -1 Z"/>
</g>

<g id="DIY_Free_Support_300x250_psd_Asset_1_08_alt__copy_0_Layer0_0_MEMBER_3_FILL">
<path fill="#FFFFFF" stroke="none" d="
M -19.65 -2.4
L -19.65 -2.7 -21.75 -2.7 -21.75 -2.4 -20.85 -2.4 -20.85 0 -20.5 0 -20.5 -2.4 -19.65 -2.4 Z"/>
</g>

<g id="DIY_Free_Support_300x250_psd_Asset_1_08_alt__copy_0_Layer0_0_MEMBER_4_FILL">
<path fill="#FFFFFF" stroke="none" d="
M -19.55 -0.1
L -19.55 -0.4 -19.95 -0.4 -19.95 -0.1 -20.05 0.5 -19.85 0.5 -19.55 -0.1 Z"/>
</g>

<g id="DIY_Free_Support_300x250_psd_Asset_1_08_alt__copy_0_Layer0_0_MEMBER_5_FILL">
<path fill="#FFFFFF" stroke="none" d="
M -18.45 -1.1
Q -18.45 -0.6 -18.15 -0.3 -17.85 0.05 -17.35 0.05 -16.9 0.05 -16.6 -0.3 -16.25 -0.6 -16.25 -1.1
L -16.25 -1.6
Q -16.25 -2.1 -16.6 -2.4 -16.9 -2.75 -17.35 -2.75 -17.85 -2.75 -18.15 -2.4 -18.45 -2.1 -18.45 -1.6
L -18.45 -1.1
M -18.05 -1.6
Q -18.05 -1.95 -17.9 -2.2 -17.65 -2.45 -17.35 -2.45 -17 -2.45 -16.85 -2.2 -16.65 -2 -16.65 -1.6
L -16.65 -1.1
Q -16.65 -0.7 -16.85 -0.5 -17 -0.25 -17.35 -0.25 -17.65 -0.25 -17.9 -0.5 -18.05 -0.7 -18.05 -1.1
L -18.05 -1.6 Z"/>
</g>

<g id="DIY_Free_Support_300x250_psd_Asset_1_08_alt__copy_0_Layer0_0_MEMBER_6_FILL">
<path fill="#FFFFFF" stroke="none" d="
M -15.45 -2.7
L -15.8 -2.7 -15.8 0 -15.45 0 -15.45 -2.1 -14.15 0 -13.8 0 -13.8 -2.7 -14.15 -2.7 -14.15 -0.6 -15.45 -2.7 Z"/>
</g>

<g id="DIY_Free_Support_300x250_psd_Asset_1_08_alt__copy_0_Layer0_0_MEMBER_7_FILL">
<path fill="#FFFFFF" stroke="none" d="
M -12.85 -0.3
L -12.85 -2.7 -13.2 -2.7 -13.2 0 -11.55 0 -11.55 -0.3 -12.85 -0.3 Z"/>
</g>

<g id="DIY_Free_Support_300x250_psd_Asset_1_08_alt__copy_0_Layer0_0_MEMBER_8_FILL">
<path fill="#FFFFFF" stroke="none" d="
M -10.85 -2.7
L -11.25 -2.7 -11.25 0 -10.85 0 -10.85 -2.7 Z"/>
</g>

<g id="DIY_Free_Support_300x250_psd_Asset_1_08_alt__copy_0_Layer0_0_MEMBER_9_FILL">
<path fill="#FFFFFF" stroke="none" d="
M -9.9 -2.7
L -10.3 -2.7 -10.3 0 -9.9 0 -9.9 -2.1 -8.6 0 -8.25 0 -8.25 -2.7 -8.6 -2.7 -8.6 -0.6 -9.9 -2.7 Z"/>
</g>

<g id="DIY_Free_Support_300x250_psd_Asset_1_08_alt__copy_0_Layer0_0_MEMBER_10_FILL">
<path fill="#FFFFFF" stroke="none" d="
M -6.05 -1.25
L -6.05 -1.55 -7.3 -1.55 -7.3 -2.4 -5.9 -2.4 -5.9 -2.7 -7.65 -2.7 -7.65 0 -5.85 0 -5.85 -0.3 -7.3 -0.3 -7.3 -1.25 -6.05 -1.25 Z"/>
</g>

<g id="DIY_Free_Support_300x250_psd_Asset_1_08_alt__copy_0_Layer0_0_MEMBER_11_FILL">
<path fill="#FFFFFF" stroke="none" d="
M -3.35 -2.15
Q -3.35 -2.4 -3.5 -2.55 -3.7 -2.75 -4 -2.75 -4.3 -2.75 -4.5 -2.55 -4.65 -2.4 -4.65 -2.1
L -4.6 -1.8 -4.4 -1.45
Q -4.7 -1.25 -4.8 -1.1
L -4.9 -0.75
Q -4.9 -0.35 -4.65 -0.15 -4.35 0.05 -4.05 0.05
L -3.65 0 -3.35 -0.2 -3.15 0 -2.75 0 -3.1 -0.4 -2.9 -0.8 -2.8 -1.25 -3.15 -1.25 -3.15 -0.95 -3.3 -0.65 -3.9 -1.45 -3.7 -1.6 -3.45 -1.85
Q -3.35 -1.95 -3.35 -2.15
M -3.65 -2.15
L -3.7 -2 -3.85 -1.85 -4.1 -1.65 -4.25 -1.9 -4.3 -2.1 -4.25 -2.35 -4 -2.45 -3.75 -2.35 -3.65 -2.15
M -4.05 -0.25
Q -4.25 -0.25 -4.4 -0.4 -4.55 -0.45 -4.55 -0.75
L -4.5 -0.95
Q -4.3 -1.1 -4.25 -1.15
L -4.2 -1.25 -3.5 -0.4 -3.75 -0.3 -4.05 -0.25 Z"/>
</g>

<g id="DIY_Free_Support_300x250_psd_Asset_1_08_alt__copy_0_Layer0_0_MEMBER_12_FILL">
<path fill="#FFFFFF" stroke="none" d="
M 0.35 -1.9
Q 0.35 -2.3 0.15 -2.5 -0.25 -2.7 -0.55 -2.7
L -1.6 -2.7 -1.6 0 -1.2 0 -1.2 -1.1 -0.55 -1.1
Q -0.1 -1.1 0.15 -1.3 0.35 -1.5 0.35 -1.9
M -1.2 -1.35
L -1.2 -2.4 -0.55 -2.4
Q -0.3 -2.4 -0.15 -2.25 0 -2.1 0 -1.9 0 -1.65 -0.15 -1.5 -0.2 -1.35 -0.55 -1.35
L -1.2 -1.35 Z"/>
</g>

<g id="DIY_Free_Support_300x250_psd_Asset_1_08_alt__copy_0_Layer0_0_MEMBER_13_FILL">
<path fill="#FFFFFF" stroke="none" d="
M 1.15 -1.2
L 2.45 -1.2 2.45 0 2.8 0 2.8 -2.7 2.45 -2.7 2.45 -1.5 1.15 -1.5 1.15 -2.7 0.75 -2.7 0.75 0 1.15 0 1.15 -1.2 Z"/>
</g>

<g id="DIY_Free_Support_300x250_psd_Asset_1_08_alt__copy_0_Layer0_0_MEMBER_14_FILL">
<path fill="#FFFFFF" stroke="none" d="
M 3.55 -2.4
Q 3.25 -2.1 3.25 -1.6
L 3.25 -1.1
Q 3.25 -0.6 3.55 -0.3 3.85 0.05 4.3 0.05 4.8 0.05 5.1 -0.3 5.4 -0.6 5.4 -1.1
L 5.4 -1.6
Q 5.4 -2.1 5.1 -2.4 4.8 -2.75 4.3 -2.75 3.85 -2.75 3.55 -2.4
M 4.85 -2.2
Q 5.05 -2 5.05 -1.6
L 5.05 -1.1
Q 5.05 -0.7 4.85 -0.5 4.6 -0.25 4.3 -0.25 4.05 -0.25 3.8 -0.5 3.6 -0.8 3.6 -1.1
L 3.6 -1.6
Q 3.6 -1.9 3.8 -2.2 4.05 -2.45 4.3 -2.45 4.6 -2.45 4.85 -2.2 Z"/>
</g>

<g id="DIY_Free_Support_300x250_psd_Asset_1_08_alt__copy_0_Layer0_0_MEMBER_15_FILL">
<path fill="#FFFFFF" stroke="none" d="
M 6.25 -2.7
L 5.85 -2.7 5.85 0 6.25 0 6.25 -2.1 7.55 0 7.9 0 7.9 -2.7 7.55 -2.7 7.55 -0.6 6.25 -2.7 Z"/>
</g>

<g id="DIY_Free_Support_300x250_psd_Asset_1_08_alt__copy_0_Layer0_0_MEMBER_16_FILL">
<path fill="#FFFFFF" stroke="none" d="
M 10.1 -1.25
L 10.1 -1.55 8.85 -1.55 8.85 -2.4 10.25 -2.4 10.25 -2.7 8.5 -2.7 8.5 0 10.25 0 10.25 -0.3 8.85 -0.3 8.85 -1.25 10.1 -1.25 Z"/>
</g>

<g id="DIY_Free_Support_300x250_psd_Asset_1_08_alt__copy_0_Layer0_0_MEMBER_17_FILL">
<path fill="#FFFFFF" stroke="none" d="
M 11.65 -2.5
Q 11.4 -2.35 11.4 -2 11.4 -1.7 11.6 -1.5 11.9 -1.25 12.3 -1.2
L 12.8 -1 12.9 -0.7
Q 12.9 -0.5 12.75 -0.35
L 12.3 -0.25
Q 12 -0.25 11.85 -0.4 11.65 -0.45 11.65 -0.8
L 11.3 -0.8 11.3 -0.75
Q 11.3 -0.4 11.6 -0.2 11.95 0.05 12.3 0.05 12.7 0.05 13 -0.15 13.3 -0.35 13.3 -0.7 13.3 -0.95 13.05 -1.2 12.8 -1.45 12.4 -1.5
L 11.9 -1.7 11.75 -2
Q 11.75 -2.2 11.9 -2.35 12.1 -2.45 12.3 -2.45 12.6 -2.45 12.75 -2.3 12.9 -2.15 12.9 -1.9
L 13.25 -1.9 13.25 -1.95
Q 13.25 -2.3 13 -2.5 12.75 -2.75 12.3 -2.75 11.9 -2.75 11.65 -2.5 Z"/>
</g>

<g id="DIY_Free_Support_300x250_psd_Asset_1_08_alt__copy_0_Layer0_0_MEMBER_18_FILL">
<path fill="#FFFFFF" stroke="none" d="
M 15.15 -0.4
Q 14.95 -0.25 14.65 -0.25 14.35 -0.25 14.2 -0.4 14 -0.6 14 -0.85
L 14 -2.7 13.65 -2.7 13.65 -0.85
Q 13.65 -0.4 13.95 -0.2 14.2 0.05 14.65 0.05 15.05 0.05 15.4 -0.2 15.7 -0.4 15.7 -0.85
L 15.7 -2.7 15.3 -2.7 15.3 -0.85
Q 15.3 -0.55 15.15 -0.4 Z"/>
</g>

<g id="DIY_Free_Support_300x250_psd_Asset_1_08_alt__copy_0_Layer0_0_MEMBER_19_FILL">
<path fill="#FFFFFF" stroke="none" d="
M 16.55 -1.1
L 17.2 -1.1
Q 17.7 -1.1 17.9 -1.3 18.15 -1.55 18.15 -1.9 18.15 -2.25 17.9 -2.5 17.6 -2.7 17.2 -2.7
L 16.2 -2.7 16.2 0 16.55 0 16.55 -1.1
M 16.55 -1.35
L 16.55 -2.4 17.2 -2.4
Q 17.5 -2.4 17.65 -2.25
L 17.75 -1.9 17.65 -1.5
Q 17.5 -1.35 17.2 -1.35
L 16.55 -1.35 Z"/>
</g>

<g id="DIY_Free_Support_300x250_psd_Asset_1_08_alt__copy_0_Layer0_0_MEMBER_20_FILL">
<path fill="#FFFFFF" stroke="none" d="
M 19.55 -2.7
L 18.55 -2.7 18.55 0 18.9 0 18.9 -1.1 19.55 -1.1
Q 20 -1.1 20.25 -1.3 20.45 -1.5 20.45 -1.9 20.45 -2.3 20.25 -2.5 19.85 -2.7 19.55 -2.7
M 19.55 -2.4
Q 19.9 -2.4 19.95 -2.25 20.1 -2.1 20.1 -1.9 20.1 -1.65 19.95 -1.5 19.9 -1.35 19.55 -1.35
L 18.9 -1.35 18.9 -2.4 19.55 -2.4 Z"/>
</g>

<g id="DIY_Free_Support_300x250_psd_Asset_1_08_alt__copy_0_Layer0_0_MEMBER_21_FILL">
<path fill="#FFFFFF" stroke="none" d="
M 22.6 -2.4
Q 22.3 -2.75 21.8 -2.75 21.35 -2.75 21.05 -2.4 20.75 -2.1 20.75 -1.6
L 20.75 -1.1
Q 20.75 -0.6 21.05 -0.3 21.35 0.05 21.8 0.05 22.3 0.05 22.6 -0.3 22.9 -0.6 22.9 -1.1
L 22.9 -1.6
Q 22.9 -2.1 22.6 -2.4
M 22.35 -2.2
Q 22.55 -1.9 22.55 -1.6
L 22.55 -1.1
Q 22.55 -0.8 22.35 -0.5 22.1 -0.25 21.8 -0.25 21.45 -0.25 21.3 -0.5 21.1 -0.7 21.1 -1.1
L 21.1 -1.6
Q 21.1 -2 21.3 -2.2 21.45 -2.45 21.8 -2.45 22.1 -2.45 22.35 -2.2 Z"/>
</g>

<g id="DIY_Free_Support_300x250_psd_Asset_1_08_alt__copy_0_Layer0_0_MEMBER_22_FILL">
<path fill="#FFFFFF" stroke="none" d="
M 25 -2.5
Q 24.8 -2.7 24.35 -2.7
L 23.35 -2.7 23.35 0 23.7 0 23.7 -1.15 24.4 -1.15 24.75 -1.05
Q 24.85 -0.95 24.85 -0.7
L 24.85 -0.45 24.9 -0.2 25 0 25.35 0 25.35 -0.05 25.25 -0.2 25.25 -0.7 25.15 -1.1 24.8 -1.3 25.15 -1.55 25.25 -1.95
Q 25.25 -2.25 25 -2.5
M 24.9 -1.95
Q 24.9 -1.7 24.75 -1.55
L 24.3 -1.45 23.7 -1.45 23.7 -2.4 24.35 -2.4 24.75 -2.3
Q 24.9 -2.15 24.9 -1.95 Z"/>
</g>

<g id="DIY_Free_Support_300x250_psd_Asset_1_08_alt__copy_0_Layer0_0_MEMBER_23_FILL">
<path fill="#FFFFFF" stroke="none" d="
M 27.5 -2.4
L 27.5 -2.7 25.4 -2.7 25.4 -2.4 26.3 -2.4 26.3 0 26.65 0 26.65 -2.4 27.5 -2.4 Z"/>
</g>

<g id="DIY_Free_Support_300x250_psd_Asset_1_08_alt__copy_0_Layer0_0_MEMBER_24_FILL">
<path fill="#FFFFFF" stroke="none" d="
M 27.6 -2.25
L 27.55 -2 28.1 -1.8 27.7 -1.3 27.95 -1.15 28.3 -1.65 28.6 -1.1 28.85 -1.3 28.5 -1.8 29.05 -1.95 28.95 -2.25 28.45 -2.05 28.45 -2.7 28.15 -2.7 28.15 -2.05 27.6 -2.25 Z"/>
</g>

<g id="DIY_Free_Support_300x250_psd_Asset_1_08_alt_Why_pay_for_tax_software__0_Layer0_0_MEMBER_0_FILL">
<path fill="#FFFFFF" stroke="none" d="
M -21.05 -5.8
L -22 -5.8 -23 -2 -23.05 -2 -23.8 -5.8 -25.1 -5.8 -23.8 0 -22.5 0 -21.55 -3.6 -21.5 -3.6 -20.55 0 -19.25 0 -17.95 -5.8 -19.25 -5.8 -20 -2 -20.05 -2 -21.05 -5.8 Z"/>
</g>

<g id="DIY_Free_Support_300x250_psd_Asset_1_08_alt_Why_pay_for_tax_software__0_Layer0_0_MEMBER_1_FILL">
<path fill="#FFFFFF" stroke="none" d="
M -16.3 -2.35
L -14.15 -2.35 -14.15 0 -12.8 0 -12.8 -5.8 -14.15 -5.8 -14.15 -3.4 -16.3 -3.4 -16.3 -5.8 -17.65 -5.8 -17.65 0 -16.3 0 -16.3 -2.35 Z"/>
</g>

<g id="DIY_Free_Support_300x250_psd_Asset_1_08_alt_Why_pay_for_tax_software__0_Layer0_0_MEMBER_2_FILL">
<path fill="#FFFFFF" stroke="none" d="
M -10.05 -3.25
L -11.2 -5.8 -12.65 -5.8 -10.75 -2.1 -10.75 0 -9.4 0 -9.4 -2.05 -7.4 -5.8 -8.9 -5.8 -10.05 -3.25 Z"/>
</g>

<g id="DIY_Free_Support_300x250_psd_Asset_1_08_alt_Why_pay_for_tax_software__0_Layer0_0_MEMBER_3_FILL">
<path fill="#FFFFFF" stroke="none" d="
M -0.75 -3.9
Q -0.75 -4.75 -1.35 -5.3 -1.9 -5.8 -3 -5.8
L -5.35 -5.8 -5.35 0 -4 0 -4 -2 -3 -2
Q -1.9 -2 -1.35 -2.5 -0.75 -3 -0.75 -3.9
M -2.3 -4.55
Q -2.1 -4.3 -2.1 -3.9 -2.1 -3.5 -2.3 -3.25 -2.5 -3.05 -3 -3.05
L -4 -3.05 -4 -4.75 -3 -4.75
Q -2.5 -4.75 -2.3 -4.55 Z"/>
</g>

<g id="DIY_Free_Support_300x250_psd_Asset_1_08_alt_Why_pay_for_tax_software__0_Layer0_0_MEMBER_4_FILL">
<path fill="#FFFFFF" stroke="none" d="
M 0.35 -1.15
L 2.2 -1.15 2.5 0 3.9 0 2 -5.8 0.55 -5.8 -1.3 0 0.05 0 0.35 -1.15
M 0.65 -2.15
L 1.25 -4.25 1.3 -4.25 1.9 -2.15 0.65 -2.15 Z"/>
</g>

<g id="DIY_Free_Support_300x250_psd_Asset_1_08_alt_Why_pay_for_tax_software__0_Layer0_0_MEMBER_5_FILL">
<path fill="#FFFFFF" stroke="none" d="
M 5.65 -3.25
L 4.5 -5.8 3 -5.8 4.95 -2.1 4.95 0 6.3 0 6.3 -2.05 8.3 -5.8 6.8 -5.8 5.65 -3.25 Z"/>
</g>

<g id="DIY_Free_Support_300x250_psd_Asset_1_08_alt_Why_pay_for_tax_software__0_Layer0_0_MEMBER_6_FILL">
<path fill="#FFFFFF" stroke="none" d="
M 14 -2.35
L 14 -3.4 11.7 -3.4 11.7 -4.75 14.45 -4.75 14.45 -5.8 10.35 -5.8 10.35 0 11.7 0 11.7 -2.35 14 -2.35 Z"/>
</g>

<g id="DIY_Free_Support_300x250_psd_Asset_1_08_alt_Why_pay_for_tax_software__0_Layer0_0_MEMBER_7_FILL">
<path fill="#FFFFFF" stroke="none" d="
M 14.7 -3.45
L 14.7 -2.4
Q 14.7 -1.4 15.4 -0.6 16.1 0.1 17.2 0.1 18.25 0.1 18.95 -0.6 19.65 -1.4 19.65 -2.4
L 19.65 -3.45
Q 19.65 -4.5 18.95 -5.2 18.25 -5.9 17.15 -5.9 16.1 -5.9 15.4 -5.2 14.7 -4.5 14.7 -3.45
M 18 -4.45
Q 18.3 -4.05 18.3 -3.45
L 18.3 -2.4
Q 18.3 -1.7 18 -1.35 17.7 -0.95 17.2 -0.95 16.65 -0.95 16.35 -1.35 16.05 -1.7 16.05 -2.4
L 16.05 -3.45
Q 16.05 -4.05 16.35 -4.45 16.65 -4.85 17.15 -4.85 17.7 -4.85 18 -4.45 Z"/>
</g>

<g id="DIY_Free_Support_300x250_psd_Asset_1_08_alt_Why_pay_for_tax_software__0_Layer0_0_MEMBER_8_FILL">
<path fill="#FFFFFF" stroke="none" d="
M 24.65 -4.05
Q 24.65 -4.9 24.05 -5.35 23.45 -5.8 22.45 -5.8
L 20.2 -5.8 20.2 0 21.55 0 21.55 -2.25 22.5 -2.25
Q 22.9 -2.25 23.15 -2 23.35 -1.8 23.35 -1.35
L 23.4 -0.45
Q 23.5 -0.1 23.6 0
L 25 0 25 -0.1
Q 24.85 -0.2 24.75 -0.5
L 24.7 -1.4
Q 24.7 -2 24.45 -2.25 24.25 -2.6 23.7 -2.75 24.15 -3 24.4 -3.3 24.65 -3.65 24.65 -4.05
M 23.3 -4
Q 23.3 -3.6 23.1 -3.45 22.8 -3.25 22.45 -3.25
L 21.55 -3.25 21.55 -4.75 22.45 -4.75
Q 22.9 -4.75 23.1 -4.55 23.3 -4.25 23.3 -4 Z"/>
</g>

<g id="DIY_Free_Support_300x250_psd_Asset_1_08_alt_Why_pay_for_tax_software__0_Layer0_0_MEMBER_9_FILL">
<path fill="#FFFFFF" stroke="none" d="
M -25.9 3.4
L -25.9 2.35 -30.3 2.35 -30.3 3.4 -28.8 3.4 -28.8 8.15 -27.45 8.15 -27.45 3.4 -25.9 3.4 Z"/>
</g>

<g id="DIY_Free_Support_300x250_psd_Asset_1_08_alt_Why_pay_for_tax_software__0_Layer0_0_MEMBER_10_FILL">
<path fill="#FFFFFF" stroke="none" d="
M -23.1 2.35
L -24.55 2.35 -26.4 8.15 -25.05 8.15 -24.75 7.05 -22.9 7.05 -22.55 8.15 -21.2 8.15 -23.1 2.35
M -24.45 6
L -23.85 3.95 -23.8 3.95 -23.2 6 -24.45 6 Z"/>
</g>

<g id="DIY_Free_Support_300x250_psd_Asset_1_08_alt_Why_pay_for_tax_software__0_Layer0_0_MEMBER_11_FILL">
<path fill="#FFFFFF" stroke="none" d="
M -18.9 4.3
L -19.8 2.35 -21.35 2.35 -19.7 5.25 -21.4 8.15 -19.85 8.15 -18.85 6.15 -17.85 8.15 -16.25 8.15 -18.05 5.25 -16.35 2.35 -17.9 2.35 -18.9 4.3 Z"/>
</g>

<g id="DIY_Free_Support_300x250_psd_Asset_1_08_alt_Why_pay_for_tax_software__0_Layer0_0_MEMBER_12_FILL">
<path fill="#FFFFFF" stroke="none" d="
M -9.75 4.1
L -9.75 4.05
Q -9.75 3.25 -10.35 2.8 -10.9 2.3 -11.95 2.3 -12.85 2.3 -13.55 2.75 -14.2 3.25 -14.2 3.9 -14.2 4.65 -13.65 5.05 -13.1 5.45 -12 5.8
L -11.3 6.15
Q -11.1 6.3 -11.1 6.65 -11.1 6.9 -11.3 7.05 -11.45 7.25 -11.9 7.25 -12.4 7.25 -12.75 7 -13 6.85 -13 6.3
L -14.3 6.3 -14.35 6.35
Q -14.35 7.3 -13.6 7.75 -12.95 8.25 -11.9 8.25 -10.95 8.25 -10.35 7.8 -9.75 7.45 -9.75 6.6 -9.75 5.9 -10.25 5.45 -10.7 5 -11.7 4.7
L -12.6 4.35
Q -12.85 4.2 -12.85 3.9 -12.85 3.65 -12.6 3.5 -12.4 3.3 -11.95 3.3 -11.5 3.3 -11.3 3.5 -11.1 3.7 -11.1 4.1
L -9.75 4.1 Z"/>
</g>

<g id="DIY_Free_Support_300x250_psd_Asset_1_08_alt_Why_pay_for_tax_software__0_Layer0_0_MEMBER_13_FILL">
<path fill="#FFFFFF" stroke="none" d="
M -4.4 5.8
L -4.4 4.75
Q -4.4 3.7 -5.1 3 -5.75 2.3 -6.85 2.3 -8 2.3 -8.65 3 -9.35 3.7 -9.35 4.75
L -9.35 5.8
Q -9.35 6.85 -8.65 7.55 -7.95 8.25 -6.85 8.25 -5.8 8.25 -5.1 7.55 -4.4 6.85 -4.4 5.8
M -8 5.8
L -8 4.75
Q -8 4.15 -7.7 3.7 -7.4 3.3 -6.85 3.3 -6.35 3.3 -6.05 3.7 -5.75 4.15 -5.75 4.75
L -5.75 5.8
Q -5.75 6.45 -6.05 6.8 -6.3 7.2 -6.85 7.2 -7.45 7.2 -7.7 6.8 -8 6.45 -8 5.8 Z"/>
</g>

<g id="DIY_Free_Support_300x250_psd_Asset_1_08_alt_Why_pay_for_tax_software__0_Layer0_0_MEMBER_14_FILL">
<path fill="#FFFFFF" stroke="none" d="
M 0.25 3.4
L 0.25 2.35 -3.85 2.35 -3.85 8.15 -2.5 8.15 -2.5 5.85 -0.15 5.85 -0.15 4.8 -2.5 4.8 -2.5 3.4 0.25 3.4 Z"/>
</g>

<g id="DIY_Free_Support_300x250_psd_Asset_1_08_alt_Why_pay_for_tax_software__0_Layer0_0_MEMBER_15_FILL">
<path fill="#FFFFFF" stroke="none" d="
M 4.8 3.4
L 4.8 2.35 0.4 2.35 0.4 3.4 1.9 3.4 1.9 8.15 3.25 8.15 3.25 3.4 4.8 3.4 Z"/>
</g>

<g id="DIY_Free_Support_300x250_psd_Asset_1_08_alt_Why_pay_for_tax_software__0_Layer0_0_MEMBER_16_FILL">
<path fill="#FFFFFF" stroke="none" d="
M 11.95 2.35
L 10.65 2.35 9.9 6.15 9.85 6.15 8.85 2.35 7.9 2.35 6.9 6.15 6.85 6.15 6.1 2.35 4.8 2.35 6.1 8.15 7.4 8.15 8.35 4.6 8.4 4.6 9.35 8.15 10.65 8.15 11.95 2.35 Z"/>
</g>

<g id="DIY_Free_Support_300x250_psd_Asset_1_08_alt_Why_pay_for_tax_software__0_Layer0_0_MEMBER_17_FILL">
<path fill="#FFFFFF" stroke="none" d="
M 15 2.35
L 13.55 2.35 11.65 8.15 13 8.15 13.35 7.05 15.15 7.05 15.5 8.15 16.85 8.15 15 2.35
M 13.65 6
L 14.25 3.95 14.85 6 13.65 6 Z"/>
</g>

<g id="DIY_Free_Support_300x250_psd_Asset_1_08_alt_Why_pay_for_tax_software__0_Layer0_0_MEMBER_18_FILL">
<path fill="#FFFFFF" stroke="none" d="
M 21.5 4.1
Q 21.5 3.3 20.9 2.85 20.35 2.35 19.3 2.35
L 17.05 2.35 17.05 8.15 18.4 8.15 18.4 5.95 19.35 5.95
Q 19.8 5.95 20 6.15 20.2 6.35 20.2 6.8
L 20.25 7.75
Q 20.35 8.1 20.45 8.15
L 21.85 8.15 21.85 8.1 21.6 7.7 21.55 6.8
Q 21.55 6.2 21.3 5.9 21.05 5.55 20.55 5.4 21.05 5.15 21.25 4.9 21.5 4.5 21.5 4.1
M 19.95 3.6
Q 20.15 3.9 20.15 4.2 20.15 4.55 19.95 4.7 19.75 4.9 19.3 4.9
L 18.4 4.9 18.4 3.4 19.3 3.4
Q 19.75 3.4 19.95 3.6 Z"/>
</g>

<g id="DIY_Free_Support_300x250_psd_Asset_1_08_alt_Why_pay_for_tax_software__0_Layer0_0_MEMBER_19_FILL">
<path fill="#FFFFFF" stroke="none" d="
M 25.9 5.7
L 25.9 4.65 23.6 4.65 23.6 3.4 26.3 3.4 26.3 2.35 22.25 2.35 22.25 8.15 26.3 8.15 26.3 7.15 23.6 7.15 23.6 5.7 25.9 5.7 Z"/>
</g>

<g id="DIY_Free_Support_300x250_psd_Asset_1_08_alt_Why_pay_for_tax_software__0_Layer0_0_MEMBER_20_FILL">
<path fill="#FFFFFF" stroke="none" d="
M 29.75 2.75
Q 29.25 2.3 28.25 2.3 27.3 2.3 26.85 2.7 26.3 3.1 26.3 3.95
L 27.65 3.95
Q 27.65 3.65 27.85 3.5 28 3.3 28.25 3.3 28.5 3.3 28.8 3.5 28.95 3.75 28.95 4.05 28.95 4.4 28.8 4.6 28.75 4.7 28.4 5.05 27.8 5.45 27.7 5.7 27.5 5.9 27.5 6.5
L 28.85 6.5 28.9 6
Q 28.95 5.85 29.25 5.65 29.75 5.3 30 4.95 30.3 4.6 30.3 4.05 30.3 3.25 29.75 2.75
M 28.8 8.15
L 28.8 7.1 27.5 7.1 27.5 8.15 28.8 8.15 Z"/>
</g>
</defs>

<g transform="matrix( 1, 0, 0, 1, -45,-192) ">
<g transform="matrix( 1, 0, 0, 1, 113,379) ">
<g transform="matrix( 3.4265289306640625, 0, 0, 3.426055908203125, 50.05,8.8) ">
<use xlink:href="#DIY_Free_Support_300x250_psd_Asset_1_08_alt__Conditions_apply_0_Layer0_0_MEMBER_0_FILL"/>
</g>

<g transform="matrix( 3.4265289306640625, 0, 0, 3.426055908203125, 50.05,8.8) ">
<use xlink:href="#DIY_Free_Support_300x250_psd_Asset_1_08_alt__Conditions_apply_0_Layer0_0_MEMBER_1_FILL"/>
</g>

<g transform="matrix( 3.4265289306640625, 0, 0, 3.426055908203125, 50.05,8.8) ">
<use xlink:href="#DIY_Free_Support_300x250_psd_Asset_1_08_alt__Conditions_apply_0_Layer0_0_MEMBER_2_FILL"/>
</g>

<g transform="matrix( 3.4265289306640625, 0, 0, 3.426055908203125, 50.05,8.8) ">
<use xlink:href="#DIY_Free_Support_300x250_psd_Asset_1_08_alt__Conditions_apply_0_Layer0_0_MEMBER_3_FILL"/>
</g>

<g transform="matrix( 3.4265289306640625, 0, 0, 3.426055908203125, 50.05,8.8) ">
<use xlink:href="#DIY_Free_Support_300x250_psd_Asset_1_08_alt__Conditions_apply_0_Layer0_0_MEMBER_4_FILL"/>
</g>

<g transform="matrix( 3.4265289306640625, 0, 0, 3.426055908203125, 50.05,8.8) ">
<use xlink:href="#DIY_Free_Support_300x250_psd_Asset_1_08_alt__Conditions_apply_0_Layer0_0_MEMBER_5_FILL"/>
</g>

<g transform="matrix( 3.4265289306640625, 0, 0, 3.426055908203125, 50.05,8.8) ">
<use xlink:href="#DIY_Free_Support_300x250_psd_Asset_1_08_alt__Conditions_apply_0_Layer0_0_MEMBER_6_FILL"/>
</g>

<g transform="matrix( 3.4265289306640625, 0, 0, 3.426055908203125, 50.05,8.8) ">
<use xlink:href="#DIY_Free_Support_300x250_psd_Asset_1_08_alt__Conditions_apply_0_Layer0_0_MEMBER_7_FILL"/>
</g>

<g transform="matrix( 3.4265289306640625, 0, 0, 3.426055908203125, 50.05,8.8) ">
<use xlink:href="#DIY_Free_Support_300x250_psd_Asset_1_08_alt__Conditions_apply_0_Layer0_0_MEMBER_8_FILL"/>
</g>

<g transform="matrix( 3.4265289306640625, 0, 0, 3.426055908203125, 50.05,8.8) ">
<use xlink:href="#DIY_Free_Support_300x250_psd_Asset_1_08_alt__Conditions_apply_0_Layer0_0_MEMBER_9_FILL"/>
</g>

<g transform="matrix( 3.4265289306640625, 0, 0, 3.426055908203125, 50.05,8.8) ">
<use xlink:href="#DIY_Free_Support_300x250_psd_Asset_1_08_alt__Conditions_apply_0_Layer0_0_MEMBER_10_FILL"/>
</g>

<g transform="matrix( 3.4265289306640625, 0, 0, 3.426055908203125, 50.05,8.8) ">
<use xlink:href="#DIY_Free_Support_300x250_psd_Asset_1_08_alt__Conditions_apply_0_Layer0_0_MEMBER_11_FILL"/>
</g>

<g transform="matrix( 3.4265289306640625, 0, 0, 3.426055908203125, 50.05,8.8) ">
<use xlink:href="#DIY_Free_Support_300x250_psd_Asset_1_08_alt__Conditions_apply_0_Layer0_0_MEMBER_12_FILL"/>
</g>

<g transform="matrix( 3.4265289306640625, 0, 0, 3.426055908203125, 50.05,8.8) ">
<use xlink:href="#DIY_Free_Support_300x250_psd_Asset_1_08_alt__Conditions_apply_0_Layer0_0_MEMBER_13_FILL"/>
</g>

<g transform="matrix( 3.4265289306640625, 0, 0, 3.426055908203125, 50.05,8.8) ">
<use xlink:href="#DIY_Free_Support_300x250_psd_Asset_1_08_alt__Conditions_apply_0_Layer0_0_MEMBER_14_FILL"/>
</g>

<g transform="matrix( 3.4265289306640625, 0, 0, 3.426055908203125, 50.05,8.8) ">
<use xlink:href="#DIY_Free_Support_300x250_psd_Asset_1_08_alt__Conditions_apply_0_Layer0_0_MEMBER_15_FILL"/>
</g>
</g>

<g transform="matrix( 1, 0, 0, 1, 65,305) ">
<g transform="matrix( 1, 0, 0, 1, 28,9) ">
<g transform="matrix( 1.6842041015625, 0, 0, 1.6857757568359375, -0.2,10.8) ">
<use xlink:href="#DIY_Free_Support_300x250_psd_Asset_1_08_alt_BTN_file_free_now_0_Layer0_0_MEMBER_0_FILL"/>
</g>

<g transform="matrix( 1.6842041015625, 0, 0, 1.6857757568359375, -0.2,10.8) ">
<use xlink:href="#DIY_Free_Support_300x250_psd_Asset_1_08_alt_BTN_file_free_now_0_Layer0_0_MEMBER_1_FILL"/>
</g>

<g transform="matrix( 1.6842041015625, 0, 0, 1.6857757568359375, -0.2,10.8) ">
<use xlink:href="#DIY_Free_Support_300x250_psd_Asset_1_08_alt_BTN_file_free_now_0_Layer0_0_MEMBER_2_FILL"/>
</g>

<g transform="matrix( 1.6842041015625, 0, 0, 1.6857757568359375, -0.2,10.8) ">
<use xlink:href="#DIY_Free_Support_300x250_psd_Asset_1_08_alt_BTN_file_free_now_0_Layer0_0_MEMBER_3_FILL"/>
</g>

<g transform="matrix( 1.6842041015625, 0, 0, 1.6857757568359375, -0.2,10.8) ">
<use xlink:href="#DIY_Free_Support_300x250_psd_Asset_1_08_alt_BTN_file_free_now_0_Layer0_0_MEMBER_4_FILL"/>
</g>

<g transform="matrix( 1.6842041015625, 0, 0, 1.6857757568359375, -0.2,10.8) ">
<use xlink:href="#DIY_Free_Support_300x250_psd_Asset_1_08_alt_BTN_file_free_now_0_Layer0_0_MEMBER_5_FILL"/>
</g>

<g transform="matrix( 1.6842041015625, 0, 0, 1.6857757568359375, -0.2,10.8) ">
<use xlink:href="#DIY_Free_Support_300x250_psd_Asset_1_08_alt_BTN_file_free_now_0_Layer0_0_MEMBER_6_FILL"/>
</g>

<g transform="matrix( 1.6842041015625, 0, 0, 1.6857757568359375, -0.2,10.8) ">
<use xlink:href="#DIY_Free_Support_300x250_psd_Asset_1_08_alt_BTN_file_free_now_0_Layer0_0_MEMBER_7_FILL"/>
</g>

<g transform="matrix( 1.6842041015625, 0, 0, 1.6857757568359375, -0.2,10.8) ">
<use xlink:href="#DIY_Free_Support_300x250_psd_Asset_1_08_alt_BTN_file_free_now_0_Layer0_0_MEMBER_8_FILL"/>
</g>

<g transform="matrix( 1.6842041015625, 0, 0, 1.6857757568359375, -0.2,10.8) ">
<use xlink:href="#DIY_Free_Support_300x250_psd_Asset_1_08_alt_BTN_file_free_now_0_Layer0_0_MEMBER_9_FILL"/>
</g>

<g transform="matrix( 1.6842041015625, 0, 0, 1.6857757568359375, -0.2,10.8) ">
<use xlink:href="#DIY_Free_Support_300x250_psd_Asset_1_08_alt_BTN_file_free_now_0_Layer0_0_MEMBER_10_FILL"/>
</g>

<g transform="matrix( 1.6842041015625, 0, 0, 1.6857757568359375, -0.2,10.8) ">
<use xlink:href="#DIY_Free_Support_300x250_psd_Asset_1_08_alt_BTN_file_free_now_0_Layer0_0_MEMBER_11_FILL"/>
</g>

<g transform="matrix( 1.6842041015625, 0, 0, 1.6857757568359375, -0.2,10.8) ">
<use xlink:href="#DIY_Free_Support_300x250_psd_Asset_1_08_alt_BTN_file_free_now_0_Layer0_0_MEMBER_12_FILL"/>
</g>
</g>

<g transform="matrix( 1, 0, 0, 1, 159,9) ">
<g transform="matrix( 1, 0, 0, 1, 0,0) ">
<use xlink:href="#DIY_Free_Support_300x250_psd_Asset_1_08_alt_BTN_Assets_Arrow_1"/>
</g>
</g>
</g>

<g transform="matrix( 1, 0, 0, 1, 64,362) ">
<g transform="matrix( 3.4265289306640625, 0, 0, 3.426055908203125, 99.05,9.8) ">
<use xlink:href="#DIY_Free_Support_300x250_psd_Asset_1_08_alt__copy_0_Layer0_0_MEMBER_0_FILL"/>
</g>

<g transform="matrix( 3.4265289306640625, 0, 0, 3.426055908203125, 99.05,9.8) ">
<use xlink:href="#DIY_Free_Support_300x250_psd_Asset_1_08_alt__copy_0_Layer0_0_MEMBER_1_FILL"/>
</g>

<g transform="matrix( 3.4265289306640625, 0, 0, 3.426055908203125, 99.05,9.8) ">
<use xlink:href="#DIY_Free_Support_300x250_psd_Asset_1_08_alt__copy_0_Layer0_0_MEMBER_2_FILL"/>
</g>

<g transform="matrix( 3.4265289306640625, 0, 0, 3.426055908203125, 99.05,9.8) ">
<use xlink:href="#DIY_Free_Support_300x250_psd_Asset_1_08_alt__copy_0_Layer0_0_MEMBER_3_FILL"/>
</g>

<g transform="matrix( 3.4265289306640625, 0, 0, 3.426055908203125, 99.05,9.8) ">
<use xlink:href="#DIY_Free_Support_300x250_psd_Asset_1_08_alt__copy_0_Layer0_0_MEMBER_4_FILL"/>
</g>

<g transform="matrix( 3.4265289306640625, 0, 0, 3.426055908203125, 99.05,9.8) ">
<use xlink:href="#DIY_Free_Support_300x250_psd_Asset_1_08_alt__copy_0_Layer0_0_MEMBER_5_FILL"/>
</g>

<g transform="matrix( 3.4265289306640625, 0, 0, 3.426055908203125, 99.05,9.8) ">
<use xlink:href="#DIY_Free_Support_300x250_psd_Asset_1_08_alt__copy_0_Layer0_0_MEMBER_6_FILL"/>
</g>

<g transform="matrix( 3.4265289306640625, 0, 0, 3.426055908203125, 99.05,9.8) ">
<use xlink:href="#DIY_Free_Support_300x250_psd_Asset_1_08_alt__copy_0_Layer0_0_MEMBER_7_FILL"/>
</g>

<g transform="matrix( 3.4265289306640625, 0, 0, 3.426055908203125, 99.05,9.8) ">
<use xlink:href="#DIY_Free_Support_300x250_psd_Asset_1_08_alt__copy_0_Layer0_0_MEMBER_8_FILL"/>
</g>

<g transform="matrix( 3.4265289306640625, 0, 0, 3.426055908203125, 99.05,9.8) ">
<use xlink:href="#DIY_Free_Support_300x250_psd_Asset_1_08_alt__copy_0_Layer0_0_MEMBER_9_FILL"/>
</g>

<g transform="matrix( 3.4265289306640625, 0, 0, 3.426055908203125, 99.05,9.8) ">
<use xlink:href="#DIY_Free_Support_300x250_psd_Asset_1_08_alt__copy_0_Layer0_0_MEMBER_10_FILL"/>
</g>

<g transform="matrix( 3.4265289306640625, 0, 0, 3.426055908203125, 99.05,9.8) ">
<use xlink:href="#DIY_Free_Support_300x250_psd_Asset_1_08_alt__copy_0_Layer0_0_MEMBER_11_FILL"/>
</g>

<g transform="matrix( 3.4265289306640625, 0, 0, 3.426055908203125, 99.05,9.8) ">
<use xlink:href="#DIY_Free_Support_300x250_psd_Asset_1_08_alt__copy_0_Layer0_0_MEMBER_12_FILL"/>
</g>

<g transform="matrix( 3.4265289306640625, 0, 0, 3.426055908203125, 99.05,9.8) ">
<use xlink:href="#DIY_Free_Support_300x250_psd_Asset_1_08_alt__copy_0_Layer0_0_MEMBER_13_FILL"/>
</g>

<g transform="matrix( 3.4265289306640625, 0, 0, 3.426055908203125, 99.05,9.8) ">
<use xlink:href="#DIY_Free_Support_300x250_psd_Asset_1_08_alt__copy_0_Layer0_0_MEMBER_14_FILL"/>
</g>

<g transform="matrix( 3.4265289306640625, 0, 0, 3.426055908203125, 99.05,9.8) ">
<use xlink:href="#DIY_Free_Support_300x250_psd_Asset_1_08_alt__copy_0_Layer0_0_MEMBER_15_FILL"/>
</g>

<g transform="matrix( 3.4265289306640625, 0, 0, 3.426055908203125, 99.05,9.8) ">
<use xlink:href="#DIY_Free_Support_300x250_psd_Asset_1_08_alt__copy_0_Layer0_0_MEMBER_16_FILL"/>
</g>

<g transform="matrix( 3.4265289306640625, 0, 0, 3.426055908203125, 99.05,9.8) ">
<use xlink:href="#DIY_Free_Support_300x250_psd_Asset_1_08_alt__copy_0_Layer0_0_MEMBER_17_FILL"/>
</g>

<g transform="matrix( 3.4265289306640625, 0, 0, 3.426055908203125, 99.05,9.8) ">
<use xlink:href="#DIY_Free_Support_300x250_psd_Asset_1_08_alt__copy_0_Layer0_0_MEMBER_18_FILL"/>
</g>

<g transform="matrix( 3.4265289306640625, 0, 0, 3.426055908203125, 99.05,9.8) ">
<use xlink:href="#DIY_Free_Support_300x250_psd_Asset_1_08_alt__copy_0_Layer0_0_MEMBER_19_FILL"/>
</g>

<g transform="matrix( 3.4265289306640625, 0, 0, 3.426055908203125, 99.05,9.8) ">
<use xlink:href="#DIY_Free_Support_300x250_psd_Asset_1_08_alt__copy_0_Layer0_0_MEMBER_20_FILL"/>
</g>

<g transform="matrix( 3.4265289306640625, 0, 0, 3.426055908203125, 99.05,9.8) ">
<use xlink:href="#DIY_Free_Support_300x250_psd_Asset_1_08_alt__copy_0_Layer0_0_MEMBER_21_FILL"/>
</g>

<g transform="matrix( 3.4265289306640625, 0, 0, 3.426055908203125, 99.05,9.8) ">
<use xlink:href="#DIY_Free_Support_300x250_psd_Asset_1_08_alt__copy_0_Layer0_0_MEMBER_22_FILL"/>
</g>

<g transform="matrix( 3.4265289306640625, 0, 0, 3.426055908203125, 99.05,9.8) ">
<use xlink:href="#DIY_Free_Support_300x250_psd_Asset_1_08_alt__copy_0_Layer0_0_MEMBER_23_FILL"/>
</g>

<g transform="matrix( 3.4265289306640625, 0, 0, 3.426055908203125, 99.05,9.8) ">
<use xlink:href="#DIY_Free_Support_300x250_psd_Asset_1_08_alt__copy_0_Layer0_0_MEMBER_24_FILL"/>
</g>
</g>

<g transform="matrix( 1, 0, 0, 1, 60,238) ">
<g transform="matrix( 3.4265289306640625, 0, 0, 3.426055908203125, 104.05,20.8) ">
<use xlink:href="#DIY_Free_Support_300x250_psd_Asset_1_08_alt_Why_pay_for_tax_software__0_Layer0_0_MEMBER_0_FILL"/>
</g>

<g transform="matrix( 3.4265289306640625, 0, 0, 3.426055908203125, 104.05,20.8) ">
<use xlink:href="#DIY_Free_Support_300x250_psd_Asset_1_08_alt_Why_pay_for_tax_software__0_Layer0_0_MEMBER_1_FILL"/>
</g>

<g transform="matrix( 3.4265289306640625, 0, 0, 3.426055908203125, 104.05,20.8) ">
<use xlink:href="#DIY_Free_Support_300x250_psd_Asset_1_08_alt_Why_pay_for_tax_software__0_Layer0_0_MEMBER_2_FILL"/>
</g>

<g transform="matrix( 3.4265289306640625, 0, 0, 3.426055908203125, 104.05,20.8) ">
<use xlink:href="#DIY_Free_Support_300x250_psd_Asset_1_08_alt_Why_pay_for_tax_software__0_Layer0_0_MEMBER_3_FILL"/>
</g>

<g transform="matrix( 3.4265289306640625, 0, 0, 3.426055908203125, 104.05,20.8) ">
<use xlink:href="#DIY_Free_Support_300x250_psd_Asset_1_08_alt_Why_pay_for_tax_software__0_Layer0_0_MEMBER_4_FILL"/>
</g>

<g transform="matrix( 3.4265289306640625, 0, 0, 3.426055908203125, 104.05,20.8) ">
<use xlink:href="#DIY_Free_Support_300x250_psd_Asset_1_08_alt_Why_pay_for_tax_software__0_Layer0_0_MEMBER_5_FILL"/>
</g>

<g transform="matrix( 3.4265289306640625, 0, 0, 3.426055908203125, 104.05,20.8) ">
<use xlink:href="#DIY_Free_Support_300x250_psd_Asset_1_08_alt_Why_pay_for_tax_software__0_Layer0_0_MEMBER_6_FILL"/>
</g>

<g transform="matrix( 3.4265289306640625, 0, 0, 3.426055908203125, 104.05,20.8) ">
<use xlink:href="#DIY_Free_Support_300x250_psd_Asset_1_08_alt_Why_pay_for_tax_software__0_Layer0_0_MEMBER_7_FILL"/>
</g>

<g transform="matrix( 3.4265289306640625, 0, 0, 3.426055908203125, 104.05,20.8) ">
<use xlink:href="#DIY_Free_Support_300x250_psd_Asset_1_08_alt_Why_pay_for_tax_software__0_Layer0_0_MEMBER_8_FILL"/>
</g>

<g transform="matrix( 3.4265289306640625, 0, 0, 3.426055908203125, 104.05,20.8) ">
<use xlink:href="#DIY_Free_Support_300x250_psd_Asset_1_08_alt_Why_pay_for_tax_software__0_Layer0_0_MEMBER_9_FILL"/>
</g>

<g transform="matrix( 3.4265289306640625, 0, 0, 3.426055908203125, 104.05,20.8) ">
<use xlink:href="#DIY_Free_Support_300x250_psd_Asset_1_08_alt_Why_pay_for_tax_software__0_Layer0_0_MEMBER_10_FILL"/>
</g>

<g transform="matrix( 3.4265289306640625, 0, 0, 3.426055908203125, 104.05,20.8) ">
<use xlink:href="#DIY_Free_Support_300x250_psd_Asset_1_08_alt_Why_pay_for_tax_software__0_Layer0_0_MEMBER_11_FILL"/>
</g>

<g transform="matrix( 3.4265289306640625, 0, 0, 3.426055908203125, 104.05,20.8) ">
<use xlink:href="#DIY_Free_Support_300x250_psd_Asset_1_08_alt_Why_pay_for_tax_software__0_Layer0_0_MEMBER_12_FILL"/>
</g>

<g transform="matrix( 3.4265289306640625, 0, 0, 3.426055908203125, 104.05,20.8) ">
<use xlink:href="#DIY_Free_Support_300x250_psd_Asset_1_08_alt_Why_pay_for_tax_software__0_Layer0_0_MEMBER_13_FILL"/>
</g>

<g transform="matrix( 3.4265289306640625, 0, 0, 3.426055908203125, 104.05,20.8) ">
<use xlink:href="#DIY_Free_Support_300x250_psd_Asset_1_08_alt_Why_pay_for_tax_software__0_Layer0_0_MEMBER_14_FILL"/>
</g>

<g transform="matrix( 3.4265289306640625, 0, 0, 3.426055908203125, 104.05,20.8) ">
<use xlink:href="#DIY_Free_Support_300x250_psd_Asset_1_08_alt_Why_pay_for_tax_software__0_Layer0_0_MEMBER_15_FILL"/>
</g>

<g transform="matrix( 3.4265289306640625, 0, 0, 3.426055908203125, 104.05,20.8) ">
<use xlink:href="#DIY_Free_Support_300x250_psd_Asset_1_08_alt_Why_pay_for_tax_software__0_Layer0_0_MEMBER_16_FILL"/>
</g>

<g transform="matrix( 3.4265289306640625, 0, 0, 3.426055908203125, 104.05,20.8) ">
<use xlink:href="#DIY_Free_Support_300x250_psd_Asset_1_08_alt_Why_pay_for_tax_software__0_Layer0_0_MEMBER_17_FILL"/>
</g>

<g transform="matrix( 3.4265289306640625, 0, 0, 3.426055908203125, 104.05,20.8) ">
<use xlink:href="#DIY_Free_Support_300x250_psd_Asset_1_08_alt_Why_pay_for_tax_software__0_Layer0_0_MEMBER_18_FILL"/>
</g>

<g transform="matrix( 3.4265289306640625, 0, 0, 3.426055908203125, 104.05,20.8) ">
<use xlink:href="#DIY_Free_Support_300x250_psd_Asset_1_08_alt_Why_pay_for_tax_software__0_Layer0_0_MEMBER_19_FILL"/>
</g>

<g transform="matrix( 3.4265289306640625, 0, 0, 3.426055908203125, 104.05,20.8) ">
<use xlink:href="#DIY_Free_Support_300x250_psd_Asset_1_08_alt_Why_pay_for_tax_software__0_Layer0_0_MEMBER_20_FILL"/>
</g>
</g>
</g>
</svg>
