
<svg xmlns="http://www.w3.org/2000/svg" version="1.1" xmlns:xlink="http://www.w3.org/1999/xlink" preserveAspectRatio="none" x="0px" y="0px" width="300px" height="250px" viewBox="0 0 300 250">
<defs>
<g id="DIY_Online_and_Download_300x250_psd_Asset_3_03_Laptop_free_0_Layer0_0_MEMBER_0_FILL">
<path fill="#FFFFFF" stroke="none" d="
M 55.8 -61.25
L 55.8 -74.6 5.95 -74.6 5.95 0 23.25 0 23.25 -30 50.55 -30 50.55 -43.35 23.25 -43.35 23.25 -61.25 55.8 -61.25 Z"/>
</g>

<g id="DIY_Online_and_Download_300x250_psd_Asset_3_03_Laptop_free_0_Layer0_0_MEMBER_1_FILL">
<path fill="#FFFFFF" stroke="none" d="
M 113.65 -68.6
Q 106.1 -74.6 93.1 -74.6
L 67.1 -74.6 67.1 0 84.45 0 84.45 -28.6 93.7 -28.6
Q 99.2 -28.6 101.95 -25.75 104.8 -22.95 104.8 -17.6
L 104.8 -13.1
Q 104.8 -9.55 105.4 -5.6 106 -1.6 108.05 0
L 125.95 0 125.95 -1
Q 123.8 -2.65 122.9 -6.35 122.05 -10.2 122.05 -13
L 122.05 -17.75
Q 122.05 -24.5 119.05 -29 116.1 -33.55 109.2 -35.5 115.15 -38.1 118.2 -42.25 121.25 -46.5 121.25 -52.2 121.25 -62.6 113.65 -68.6
M 101.1 -58.5
Q 103.95 -55.65 103.95 -51.15 103.95 -46.7 101.2 -44.3 98.45 -41.9 93.2 -41.9
L 84.45 -41.9 84.45 -61.25 93.1 -61.25
Q 98.3 -61.25 101.1 -58.5 Z"/>
</g>

<g id="DIY_Online_and_Download_300x250_psd_Asset_3_03_Laptop_free_0_Layer0_0_MEMBER_2_FILL">
<path fill="#FFFFFF" stroke="none" d="
M 153.95 -13.3
L 153.95 -31.9 180.25 -31.9 180.25 -45.25 153.95 -45.25 153.95 -61.25 185.55 -61.25 185.55 -74.6 136.65 -74.6 136.65 0 185.5 0 185.5 -13.3 153.95 -13.3 Z"/>
</g>

<g id="DIY_Online_and_Download_300x250_psd_Asset_3_03_Laptop_free_0_Layer0_0_MEMBER_3_FILL">
<path fill="#FFFFFF" stroke="none" d="
M 241.45 -31.9
L 241.45 -45.25 215.15 -45.25 215.15 -61.25 246.7 -61.25 246.7 -74.6 197.85 -74.6 197.85 0 246.65 0 246.65 -13.3 215.15 -13.3 215.15 -31.9 241.45 -31.9 Z"/>
</g>
</defs>

<g transform="matrix( 1, 0, 0, 1, -200,-71) ">
<g transform="matrix( 1, 0, 0, 1, 204,89) ">
<g transform="matrix( 1, 0, 0, 1, 57,56) ">
<g transform="matrix( 0.7052764892578125, 0, 0, 0.7052764892578125, -4,53.45) ">
<use xlink:href="#DIY_Online_and_Download_300x250_psd_Asset_3_03_Laptop_free_0_Layer0_0_MEMBER_0_FILL"/>
</g>

<g transform="matrix( 0.7052764892578125, 0, 0, 0.7052764892578125, -4,53.45) ">
<use xlink:href="#DIY_Online_and_Download_300x250_psd_Asset_3_03_Laptop_free_0_Layer0_0_MEMBER_1_FILL"/>
</g>

<g transform="matrix( 0.7052764892578125, 0, 0, 0.7052764892578125, -4,53.45) ">
<use xlink:href="#DIY_Online_and_Download_300x250_psd_Asset_3_03_Laptop_free_0_Layer0_0_MEMBER_2_FILL"/>
</g>

<g transform="matrix( 0.7052764892578125, 0, 0, 0.7052764892578125, -4,53.45) ">
<use xlink:href="#DIY_Online_and_Download_300x250_psd_Asset_3_03_Laptop_free_0_Layer0_0_MEMBER_3_FILL"/>
</g>
</g>
</g>
</g>
</svg>
