
<svg xmlns="http://www.w3.org/2000/svg" version="1.1" xmlns:xlink="http://www.w3.org/1999/xlink" preserveAspectRatio="none" x="0px" y="0px" width="300px" height="600px" viewBox="0 0 300 600">
<defs>
<g id="DIY_Simple_to_Complicated_300x600_psd_Asset_01_Free_for_simple__returns_0_Layer0_0_MEMBER_0_FILL">
<path fill="#FFFFFF" stroke="none" d="
M 4.2 -2.4
L 4.2 -3.45 1.85 -3.45 1.85 -4.85 4.6 -4.85 4.6 -5.9 0.45 -5.9 0.45 0 1.85 0 1.85 -2.4 4.2 -2.4 Z"/>
</g>

<g id="DIY_Simple_to_Complicated_300x600_psd_Asset_01_Free_for_simple__returns_0_Layer0_0_MEMBER_1_FILL">
<path fill="#FFFFFF" stroke="none" d="
M 9.55 -4.15
Q 9.55 -4.9 8.95 -5.45 8.35 -5.9 7.3 -5.9
L 5.05 -5.9 5.05 0 6.4 0 6.4 -2.25 7.35 -2.25
Q 7.8 -2.25 8 -2.05 8.25 -1.8 8.25 -1.4
L 8.3 -0.45
Q 8.3 -0.2 8.5 0
L 9.9 0 9.9 -0.1
Q 9.75 -0.2 9.65 -0.5
L 9.6 -1.4
Q 9.6 -1.9 9.35 -2.3 9.15 -2.65 8.55 -2.8 9.05 -3 9.3 -3.35 9.55 -3.7 9.55 -4.15
M 8.15 -4.05
Q 8.15 -3.7 7.95 -3.5 7.65 -3.3 7.3 -3.3
L 6.4 -3.3 6.4 -4.85 7.3 -4.85
Q 7.75 -4.85 7.95 -4.65 8.15 -4.45 8.15 -4.05 Z"/>
</g>

<g id="DIY_Simple_to_Complicated_300x600_psd_Asset_01_Free_for_simple__returns_0_Layer0_0_MEMBER_2_FILL">
<path fill="#FFFFFF" stroke="none" d="
M 14.4 -4.85
L 14.4 -5.9 10.3 -5.9 10.3 0 14.4 0 14.4 -1.05 11.7 -1.05 11.7 -2.55 14 -2.55 14 -3.6 11.7 -3.6 11.7 -4.85 14.4 -4.85 Z"/>
</g>

<g id="DIY_Simple_to_Complicated_300x600_psd_Asset_01_Free_for_simple__returns_0_Layer0_0_MEMBER_3_FILL">
<path fill="#FFFFFF" stroke="none" d="
M 18.5 -3.6
L 16.2 -3.6 16.2 -4.85 18.95 -4.85 18.95 -5.9 14.8 -5.9 14.8 0 18.95 0 18.95 -1.05 16.2 -1.05 16.2 -2.55 18.5 -2.55 18.5 -3.6 Z"/>
</g>

<g id="DIY_Simple_to_Complicated_300x600_psd_Asset_01_Free_for_simple__returns_0_Layer0_0_MEMBER_4_FILL">
<path fill="#FFFFFF" stroke="none" d="
M 24.95 -2.4
L 24.95 -3.45 22.6 -3.45 22.6 -4.85 25.35 -4.85 25.35 -5.9 21.2 -5.9 21.2 0 22.6 0 22.6 -2.4 24.95 -2.4 Z"/>
</g>

<g id="DIY_Simple_to_Complicated_300x600_psd_Asset_01_Free_for_simple__returns_0_Layer0_0_MEMBER_5_FILL">
<path fill="#FFFFFF" stroke="none" d="
M 29.95 -5.3
Q 29.25 -6 28.15 -6 27.05 -6 26.35 -5.3 25.65 -4.6 25.65 -3.5
L 25.65 -2.4
Q 25.65 -1.3 26.35 -0.6 27.05 0.1 28.15 0.1 29.25 0.1 29.95 -0.6 30.65 -1.4 30.65 -2.4
L 30.65 -3.5
Q 30.65 -4.5 29.95 -5.3
M 29 -4.55
Q 29.3 -4.1 29.3 -3.5
L 29.3 -2.4
Q 29.3 -1.75 29 -1.4 28.7 -0.95 28.15 -0.95 27.6 -0.95 27.3 -1.4 27 -1.75 27 -2.4
L 27 -3.5
Q 27 -4.1 27.3 -4.55 27.6 -4.95 28.15 -4.95 28.7 -4.95 29 -4.55 Z"/>
</g>

<g id="DIY_Simple_to_Complicated_300x600_psd_Asset_01_Free_for_simple__returns_0_Layer0_0_MEMBER_6_FILL">
<path fill="#FFFFFF" stroke="none" d="
M 35.15 -5.45
Q 34.55 -5.9 33.5 -5.9
L 31.25 -5.9 31.25 0 32.6 0 32.6 -2.25 33.55 -2.25
Q 34 -2.25 34.2 -2.05 34.45 -1.8 34.45 -1.4
L 34.5 -0.45
Q 34.5 -0.2 34.7 0
L 36.1 0 36.1 -0.1
Q 35.95 -0.2 35.85 -0.5
L 35.8 -1.4
Q 35.8 -2 35.55 -2.3 35.35 -2.65 34.8 -2.8 35.25 -3.05 35.5 -3.35 35.75 -3.7 35.75 -4.15 35.75 -4.9 35.15 -5.45
M 34.15 -3.5
Q 33.85 -3.3 33.5 -3.3
L 32.6 -3.3 32.6 -4.85 33.5 -4.85
Q 33.95 -4.85 34.15 -4.65 34.35 -4.45 34.35 -4.05 34.35 -3.7 34.15 -3.5 Z"/>
</g>

<g id="DIY_Simple_to_Complicated_300x600_psd_Asset_01_Free_for_simple__returns_0_Layer0_0_MEMBER_7_FILL">
<path fill="#FFFFFF" stroke="none" d="
M 4.35 2.8
Q 3.6 2.3 2.75 2.3 1.7 2.3 1.1 2.75 0.45 3.25 0.45 4 0.45 4.7 1 5.15 1.55 5.55 2.65 5.9
L 3.4 6.25
Q 3.6 6.4 3.6 6.75 3.6 7 3.4 7.2 3.2 7.35 2.75 7.35 2.15 7.35 1.9 7.15 1.65 6.9 1.65 6.4
L 0.3 6.4 0.3 6.45
Q 0.3 7.4 1 7.9 1.85 8.4 2.75 8.4 3.75 8.4 4.35 7.95 4.95 7.5 4.95 6.75 4.95 5.9 4.45 5.55 3.95 5.1 2.95 4.8
L 2.05 4.4
Q 1.8 4.25 1.8 4 1.8 3.7 2.05 3.55 2.25 3.35 2.7 3.35 3.15 3.35 3.35 3.55 3.6 3.8 3.6 4.15
L 4.95 4.15 4.95 4.1
Q 4.95 3.35 4.35 2.8 Z"/>
</g>

<g id="DIY_Simple_to_Complicated_300x600_psd_Asset_01_Free_for_simple__returns_0_Layer0_0_MEMBER_8_FILL">
<path fill="#FFFFFF" stroke="none" d="
M 6.95 8.3
L 6.95 2.4 5.6 2.4 5.6 8.3 6.95 8.3 Z"/>
</g>

<g id="DIY_Simple_to_Complicated_300x600_psd_Asset_01_Free_for_simple__returns_0_Layer0_0_MEMBER_9_FILL">
<path fill="#FFFFFF" stroke="none" d="
M 12.8 4.15
L 12.7 8.3 14.05 8.3 14.05 2.4 12.25 2.4 10.9 6.55 9.55 2.4 7.75 2.4 7.75 8.3 9.15 8.3 9 4.2 9.05 4.2 10.45 8.3 11.35 8.3 12.8 4.15 Z"/>
</g>

<g id="DIY_Simple_to_Complicated_300x600_psd_Asset_01_Free_for_simple__returns_0_Layer0_0_MEMBER_10_FILL">
<path fill="#FFFFFF" stroke="none" d="
M 18.85 5.75
Q 19.45 5.25 19.45 4.35 19.45 3.5 18.85 2.95 18.2 2.4 17.2 2.4
L 14.8 2.4 14.8 8.3 16.15 8.3 16.15 6.3 17.2 6.3
Q 18.2 6.3 18.85 5.75
M 16.15 5.25
L 16.15 3.45 17.2 3.45
Q 17.6 3.45 17.85 3.7 18.1 4.05 18.1 4.35 18.1 4.65 17.85 5 17.6 5.25 17.2 5.25
L 16.15 5.25 Z"/>
</g>

<g id="DIY_Simple_to_Complicated_300x600_psd_Asset_01_Free_for_simple__returns_0_Layer0_0_MEMBER_11_FILL">
<path fill="#FFFFFF" stroke="none" d="
M 21.4 7.25
L 21.4 2.4 20.05 2.4 20.05 8.3 23.95 8.3 23.95 7.25 21.4 7.25 Z"/>
</g>

<g id="DIY_Simple_to_Complicated_300x600_psd_Asset_01_Free_for_simple__returns_0_Layer0_0_MEMBER_12_FILL">
<path fill="#FFFFFF" stroke="none" d="
M 28 5.8
L 28 4.75 25.7 4.75 25.7 3.45 28.45 3.45 28.45 2.4 24.3 2.4 24.3 8.3 28.4 8.3 28.4 7.25 25.7 7.25 25.7 5.8 28 5.8 Z"/>
</g>

<g id="DIY_Simple_to_Complicated_300x600_psd_Asset_01_Free_for_simple__returns_0_Layer0_0_MEMBER_13_FILL">
<path fill="#FFFFFF" stroke="none" d="
M 2.75 10.7
L 0.45 10.7 0.45 16.6 1.85 16.6 1.85 14.35 2.8 14.35
Q 3.15 14.35 3.45 14.55 3.65 14.75 3.65 15.2
L 3.7 16.15
Q 3.8 16.55 3.9 16.6
L 5.35 16.6 5.35 16.55
Q 5.2 16.45 5.1 16.1
L 5.05 15.2
Q 5.05 14.7 4.8 14.3 4.55 13.95 4 13.8 4.55 13.55 4.7 13.25 4.95 13 4.95 12.5 4.95 11.65 4.35 11.2 3.8 10.7 2.75 10.7
M 2.75 11.75
Q 3.1 11.75 3.35 12 3.6 12.25 3.6 12.55 3.6 12.95 3.35 13.1 3.2 13.3 2.75 13.3
L 1.85 13.3 1.85 11.75 2.75 11.75 Z"/>
</g>

<g id="DIY_Simple_to_Complicated_300x600_psd_Asset_01_Free_for_simple__returns_0_Layer0_0_MEMBER_14_FILL">
<path fill="#FFFFFF" stroke="none" d="
M 9.85 10.7
L 5.75 10.7 5.75 16.6 9.85 16.6 9.85 15.55 7.1 15.55 7.1 14.1 9.45 14.1 9.45 13.05 7.1 13.05 7.1 11.75 9.85 11.75 9.85 10.7 Z"/>
</g>

<g id="DIY_Simple_to_Complicated_300x600_psd_Asset_01_Free_for_simple__returns_0_Layer0_0_MEMBER_15_FILL">
<path fill="#FFFFFF" stroke="none" d="
M 14.45 11.75
L 14.45 10.7 10 10.7 10 11.75 11.55 11.75 11.55 16.6 12.9 16.6 12.9 11.75 14.45 11.75 Z"/>
</g>

<g id="DIY_Simple_to_Complicated_300x600_psd_Asset_01_Free_for_simple__returns_0_Layer0_0_MEMBER_16_FILL">
<path fill="#FFFFFF" stroke="none" d="
M 19.65 10.7
L 18.3 10.7 18.3 14.6
Q 18.3 15.1 18 15.4 17.65 15.65 17.25 15.65 16.7 15.65 16.45 15.4 16.15 15.1 16.15 14.6
L 16.15 10.7 14.8 10.7 14.8 14.6
Q 14.8 15.55 15.45 16.15 16.15 16.7 17.25 16.7 18.3 16.7 19 16.15 19.65 15.55 19.65 14.6
L 19.65 10.7 Z"/>
</g>

<g id="DIY_Simple_to_Complicated_300x600_psd_Asset_01_Free_for_simple__returns_0_Layer0_0_MEMBER_17_FILL">
<path fill="#FFFFFF" stroke="none" d="
M 22.6 10.7
L 20.35 10.7 20.35 16.6 21.7 16.6 21.7 14.35 22.65 14.35
Q 23 14.35 23.3 14.55 23.55 14.8 23.55 15.2
L 23.6 16.15
Q 23.7 16.55 23.8 16.6
L 25.2 16.6 25.2 16.55
Q 25.1 16.45 25 16.1
L 24.9 15.6 24.9 15.2
Q 24.9 14.6 24.65 14.3 24.4 13.95 23.9 13.8 24.45 13.55 24.6 13.25 24.85 12.9 24.85 12.5 24.85 11.65 24.25 11.2 23.7 10.7 22.6 10.7
M 22.6 11.75
Q 23 11.75 23.25 12 23.5 12.25 23.5 12.55 23.5 12.95 23.25 13.1 23.05 13.3 22.65 13.3
L 21.7 13.3 21.7 11.75 22.6 11.75 Z"/>
</g>

<g id="DIY_Simple_to_Complicated_300x600_psd_Asset_01_Free_for_simple__returns_0_Layer0_0_MEMBER_18_FILL">
<path fill="#FFFFFF" stroke="none" d="
M 27 10.7
L 25.6 10.7 25.6 16.6 27 16.6 27 12.85 29.2 16.6 30.55 16.6 30.55 10.7 29.2 10.7 29.2 14.45 29.15 14.45 27 10.7 Z"/>
</g>

<g id="DIY_Simple_to_Complicated_300x600_psd_Asset_01_Free_for_simple__returns_0_Layer0_0_MEMBER_19_FILL">
<path fill="#FFFFFF" stroke="none" d="
M 31.9 11.1
Q 31.25 11.6 31.25 12.3 31.25 13.05 31.8 13.45 32.35 13.85 33.45 14.2
L 34.2 14.55
Q 34.4 14.75 34.4 15.05 34.4 15.35 34.2 15.5 34 15.65 33.55 15.65 32.95 15.65 32.75 15.45 32.45 15.25 32.45 14.7
L 31.1 14.7 31.1 14.75
Q 31.1 15.7 31.85 16.2 32.5 16.7 33.55 16.7 34.55 16.7 35.15 16.25 35.8 15.8 35.8 15.05 35.8 14.3 35.25 13.85 34.8 13.4 33.75 13.1
L 32.85 12.7
Q 32.65 12.55 32.65 12.3 32.65 12 32.85 11.85 33.05 11.65 33.5 11.65 33.9 11.65 34.15 11.9 34.4 12.1 34.4 12.45
L 35.75 12.45
Q 35.75 11.6 35.15 11.15 34.5 10.6 33.55 10.6 32.65 10.6 31.9 11.1 Z"/>
</g>
</defs>

<g transform="matrix( 1, 0, 0, 1, -1156,-127) ">
<g transform="matrix( 1, 0, 0, 1, 1176,307) ">
<g transform="matrix( 5.2663116455078125, 0, 0, 5.26556396484375, -1.5,32.1) ">
<use xlink:href="#DIY_Simple_to_Complicated_300x600_psd_Asset_01_Free_for_simple__returns_0_Layer0_0_MEMBER_0_FILL"/>
</g>

<g transform="matrix( 5.2663116455078125, 0, 0, 5.26556396484375, -1.5,32.1) ">
<use xlink:href="#DIY_Simple_to_Complicated_300x600_psd_Asset_01_Free_for_simple__returns_0_Layer0_0_MEMBER_1_FILL"/>
</g>

<g transform="matrix( 5.2663116455078125, 0, 0, 5.26556396484375, -1.5,32.1) ">
<use xlink:href="#DIY_Simple_to_Complicated_300x600_psd_Asset_01_Free_for_simple__returns_0_Layer0_0_MEMBER_2_FILL"/>
</g>

<g transform="matrix( 5.2663116455078125, 0, 0, 5.26556396484375, -1.5,32.1) ">
<use xlink:href="#DIY_Simple_to_Complicated_300x600_psd_Asset_01_Free_for_simple__returns_0_Layer0_0_MEMBER_3_FILL"/>
</g>

<g transform="matrix( 5.2663116455078125, 0, 0, 5.26556396484375, -1.5,32.1) ">
<use xlink:href="#DIY_Simple_to_Complicated_300x600_psd_Asset_01_Free_for_simple__returns_0_Layer0_0_MEMBER_4_FILL"/>
</g>

<g transform="matrix( 5.2663116455078125, 0, 0, 5.26556396484375, -1.5,32.1) ">
<use xlink:href="#DIY_Simple_to_Complicated_300x600_psd_Asset_01_Free_for_simple__returns_0_Layer0_0_MEMBER_5_FILL"/>
</g>

<g transform="matrix( 5.2663116455078125, 0, 0, 5.26556396484375, -1.5,32.1) ">
<use xlink:href="#DIY_Simple_to_Complicated_300x600_psd_Asset_01_Free_for_simple__returns_0_Layer0_0_MEMBER_6_FILL"/>
</g>

<g transform="matrix( 5.2663116455078125, 0, 0, 5.26556396484375, -1.5,32.1) ">
<use xlink:href="#DIY_Simple_to_Complicated_300x600_psd_Asset_01_Free_for_simple__returns_0_Layer0_0_MEMBER_7_FILL"/>
</g>

<g transform="matrix( 5.2663116455078125, 0, 0, 5.26556396484375, -1.5,32.1) ">
<use xlink:href="#DIY_Simple_to_Complicated_300x600_psd_Asset_01_Free_for_simple__returns_0_Layer0_0_MEMBER_8_FILL"/>
</g>

<g transform="matrix( 5.2663116455078125, 0, 0, 5.26556396484375, -1.5,32.1) ">
<use xlink:href="#DIY_Simple_to_Complicated_300x600_psd_Asset_01_Free_for_simple__returns_0_Layer0_0_MEMBER_9_FILL"/>
</g>

<g transform="matrix( 5.2663116455078125, 0, 0, 5.26556396484375, -1.5,32.1) ">
<use xlink:href="#DIY_Simple_to_Complicated_300x600_psd_Asset_01_Free_for_simple__returns_0_Layer0_0_MEMBER_10_FILL"/>
</g>

<g transform="matrix( 5.2663116455078125, 0, 0, 5.26556396484375, -1.5,32.1) ">
<use xlink:href="#DIY_Simple_to_Complicated_300x600_psd_Asset_01_Free_for_simple__returns_0_Layer0_0_MEMBER_11_FILL"/>
</g>

<g transform="matrix( 5.2663116455078125, 0, 0, 5.26556396484375, -1.5,32.1) ">
<use xlink:href="#DIY_Simple_to_Complicated_300x600_psd_Asset_01_Free_for_simple__returns_0_Layer0_0_MEMBER_12_FILL"/>
</g>

<g transform="matrix( 5.2663116455078125, 0, 0, 5.26556396484375, -1.5,32.1) ">
<use xlink:href="#DIY_Simple_to_Complicated_300x600_psd_Asset_01_Free_for_simple__returns_0_Layer0_0_MEMBER_13_FILL"/>
</g>

<g transform="matrix( 5.2663116455078125, 0, 0, 5.26556396484375, -1.5,32.1) ">
<use xlink:href="#DIY_Simple_to_Complicated_300x600_psd_Asset_01_Free_for_simple__returns_0_Layer0_0_MEMBER_14_FILL"/>
</g>

<g transform="matrix( 5.2663116455078125, 0, 0, 5.26556396484375, -1.5,32.1) ">
<use xlink:href="#DIY_Simple_to_Complicated_300x600_psd_Asset_01_Free_for_simple__returns_0_Layer0_0_MEMBER_15_FILL"/>
</g>

<g transform="matrix( 5.2663116455078125, 0, 0, 5.26556396484375, -1.5,32.1) ">
<use xlink:href="#DIY_Simple_to_Complicated_300x600_psd_Asset_01_Free_for_simple__returns_0_Layer0_0_MEMBER_16_FILL"/>
</g>

<g transform="matrix( 5.2663116455078125, 0, 0, 5.26556396484375, -1.5,32.1) ">
<use xlink:href="#DIY_Simple_to_Complicated_300x600_psd_Asset_01_Free_for_simple__returns_0_Layer0_0_MEMBER_17_FILL"/>
</g>

<g transform="matrix( 5.2663116455078125, 0, 0, 5.26556396484375, -1.5,32.1) ">
<use xlink:href="#DIY_Simple_to_Complicated_300x600_psd_Asset_01_Free_for_simple__returns_0_Layer0_0_MEMBER_18_FILL"/>
</g>

<g transform="matrix( 5.2663116455078125, 0, 0, 5.26556396484375, -1.5,32.1) ">
<use xlink:href="#DIY_Simple_to_Complicated_300x600_psd_Asset_01_Free_for_simple__returns_0_Layer0_0_MEMBER_19_FILL"/>
</g>
</g>
</g>
</svg>
