
<svg xmlns="http://www.w3.org/2000/svg" version="1.1" xmlns:xlink="http://www.w3.org/1999/xlink" preserveAspectRatio="none" x="0px" y="0px" width="728px" height="90px" viewBox="0 0 728 90">
<defs>
<image id="DIY_Online_and_Download_728x90_psd_Asset_01_Laptop_CTA_Assets_Arrow" x="0" y="0" width="9" height="12" xlink:href="data:image/png;base64,iVBORw0KGgoAAAANSUhEUgAAAAkAAAAMCAYAAACwXJejAAAAx0lEQVQYlW3QsQrCMBAG4Ks4
2MFRMuimqzgJDuLgGxRx903EB/BtnO3mqmPBByjBBgqGHmlyjVPL0XjbJR+X/AcAAEqpmbX2
mqbpCP4VIm6J6OO990T0yrJsHKC6rk+eFRG9i6KYBtAYc+xBqbVeBbCqqg0RaY6NMYcASimF
c+7BobX2MuBICCEB4MvPoihadE2e5xMievamnDugtV62a2D/SXiypJfMIOKePzkAgGHbNE2j
EHEdx/E9SIWIO+fcrSzLeXAJAD9IXch7K7eLSwAAAABJRU5ErkJggg=="/>

<g id="DIY_Online_and_Download_728x90_psd_Asset_01_Laptop_CTA_For_Free_0_Layer0_0_MEMBER_0_FILL">
<path fill="#FFFFFF" stroke="none" d="
M 28.6 -16.15
L 28.6 -23.35 12.5 -23.35 12.5 -33 31.4 -33 31.4 -40.2 3.15 -40.2 3.15 0 12.5 0 12.5 -16.15 28.6 -16.15 Z"/>
</g>

<g id="DIY_Online_and_Download_728x90_psd_Asset_01_Laptop_CTA_For_Free_0_Layer0_0_MEMBER_1_FILL">
<path fill="#FFFFFF" stroke="none" d="
M 34.7 -16.5
Q 34.7 -9.05 39.45 -4.25 44.3 0.6 51.85 0.6 59.4 0.6 64.15 -4.25 68.85 -9 68.85 -16.5
L 68.85 -23.7
Q 68.85 -31.05 64.1 -35.95 59.4 -40.75 51.8 -40.75 44.2 -40.75 39.45 -35.95 34.7 -31.05 34.7 -23.7
L 34.7 -16.5
M 51.8 -33.6
Q 55.5 -33.6 57.55 -30.85 59.55 -28.1 59.55 -23.75
L 59.55 -16.5
Q 59.55 -12.1 57.55 -9.35 55.55 -6.6 51.85 -6.6 48.05 -6.6 46.05 -9.35 44 -12.15 44 -16.5
L 44 -23.75
Q 44 -28 46 -30.85 48.05 -33.6 51.8 -33.6 Z"/>
</g>

<g id="DIY_Online_and_Download_728x90_psd_Asset_01_Laptop_CTA_For_Free_0_Layer0_0_MEMBER_2_FILL">
<path fill="#FFFFFF" stroke="none" d="
M 100.8 -36.95
Q 96.65 -40.2 89.7 -40.2
L 74.25 -40.2 74.25 0 83.6 0 83.6 -15.4 90.05 -15.4
Q 93 -15.4 94.5 -13.9 96 -12.3 96 -9.5
L 96 -7.05
Q 96 -5.6 96.35 -3.05 96.75 -0.75 97.8 0
L 107.4 0 107.4 -0.55
Q 106.25 -1.4 105.8 -3.4 105.3 -5.35 105.3 -7
L 105.3 -9.55
Q 105.3 -13.25 103.7 -15.65 102 -18.1 98.4 -19.15 101.55 -20.5 103.25 -22.75 104.85 -25.05 104.85 -28.1 104.85 -33.7 100.8 -36.95
M 94.05 -31.5
Q 95.55 -30 95.55 -27.55 95.55 -25.15 94.1 -23.85 92.65 -22.6 89.8 -22.6
L 83.6 -22.6 83.6 -33 89.7 -33
Q 92.5 -33 94.05 -31.5 Z"/>
</g>

<g id="DIY_Online_and_Download_728x90_psd_Asset_01_Laptop_CTA_For_Free_0_Layer0_0_MEMBER_3_FILL">
<path fill="#FFFFFF" stroke="none" d="
M 151.1 -16.15
L 151.1 -23.35 135 -23.35 135 -33 153.9 -33 153.9 -40.2 125.65 -40.2 125.65 0 135 0 135 -16.15 151.1 -16.15 Z"/>
</g>

<g id="DIY_Online_and_Download_728x90_psd_Asset_01_Laptop_CTA_For_Free_0_Layer0_0_MEMBER_4_FILL">
<path fill="#FFFFFF" stroke="none" d="
M 188.75 -28.1
Q 188.75 -33.75 184.65 -36.95 180.55 -40.2 173.6 -40.2
L 158.15 -40.2 158.15 0 167.5 0 167.5 -15.4 173.9 -15.4
Q 176.85 -15.4 178.35 -13.9 179.9 -12.35 179.9 -9.5
L 179.9 -7.05
Q 179.9 -5.1 180.25 -3.05 180.55 -0.85 181.7 0
L 191.3 0 191.3 -0.55
Q 190.1 -1.35 189.65 -3.4 189.2 -5.4 189.2 -7
L 189.2 -9.55
Q 189.2 -13.15 187.55 -15.65 185.95 -18.1 182.25 -19.15 185.35 -20.45 187.1 -22.75 188.75 -25 188.75 -28.1
M 177.9 -31.5
Q 179.45 -30 179.45 -27.55 179.45 -25.1 177.95 -23.85 176.5 -22.6 173.65 -22.6
L 167.5 -22.6 167.5 -33 173.6 -33
Q 176.4 -33 177.9 -31.5 Z"/>
</g>

<g id="DIY_Online_and_Download_728x90_psd_Asset_01_Laptop_CTA_For_Free_0_Layer0_0_MEMBER_5_FILL">
<path fill="#FFFFFF" stroke="none" d="
M 220.55 -17.2
L 220.55 -24.35 204.8 -24.35 204.8 -33 223.45 -33 223.45 -40.2 195.45 -40.2 195.45 0 223.4 0 223.4 -7.2 204.8 -7.2 204.8 -17.2 220.55 -17.2 Z"/>
</g>

<g id="DIY_Online_and_Download_728x90_psd_Asset_01_Laptop_CTA_For_Free_0_Layer0_0_MEMBER_6_FILL">
<path fill="#FFFFFF" stroke="none" d="
M 236.95 -7.2
L 236.95 -17.2 252.7 -17.2 252.7 -24.35 236.95 -24.35 236.95 -33 255.6 -33 255.6 -40.2 227.6 -40.2 227.6 0 255.55 0 255.55 -7.2 236.95 -7.2 Z"/>
</g>

<g id="DIY_Online_and_Download_728x90_psd_Asset_01_Download___file__0_Layer0_0_MEMBER_0_FILL">
<path fill="#FFFFFF" stroke="none" d="
M 36.5 -25.25
Q 36.5 -32.85 31.45 -37.85 26.4 -42.75 18.8 -42.75
L 3.35 -42.75 3.35 0 18.8 0
Q 26.35 0 31.45 -4.9 36.5 -9.85 36.5 -17.55
L 36.5 -25.25
M 24.3 -32.45
Q 26.55 -29.75 26.55 -25.3
L 26.55 -17.55
Q 26.55 -13.05 24.3 -10.35 22.15 -7.65 18.1 -7.65
L 13.3 -7.65 13.3 -35.15 18.1 -35.15
Q 22.15 -35.15 24.3 -32.45 Z"/>
</g>

<g id="DIY_Online_and_Download_728x90_psd_Asset_01_Download___file__0_Layer0_0_MEMBER_1_FILL">
<path fill="#FFFFFF" stroke="none" d="
M 78.9 -25.25
Q 78.9 -33.1 73.85 -38.25 68.8 -43.4 60.75 -43.4 52.75 -43.4 47.6 -38.25 42.6 -33.1 42.6 -25.25
L 42.6 -17.55
Q 42.6 -9.6 47.65 -4.5 52.7 0.6 60.85 0.6 68.9 0.6 73.9 -4.5 78.9 -9.65 78.9 -17.55
L 78.9 -25.25
M 66.85 -32.8
Q 69 -29.9 69 -25.3
L 69 -17.55
Q 69 -12.85 66.9 -9.95 64.7 -7 60.85 -7 56.85 -7 54.65 -9.95 52.5 -12.85 52.5 -17.55
L 52.5 -25.3
Q 52.5 -29.9 54.6 -32.85 56.8 -35.75 60.75 -35.75 64.65 -35.75 66.85 -32.8 Z"/>
</g>

<g id="DIY_Online_and_Download_728x90_psd_Asset_01_Download___file__0_Layer0_0_MEMBER_2_FILL">
<path fill="#FFFFFF" stroke="none" d="
M 120 -14.7
L 112.4 -42.75 105.5 -42.75 97.95 -14.7 97.75 -14.7 92.15 -42.75 82.55 -42.75 92.35 0 101.7 0 108.85 -26.4 109 -26.4 116.2 0 125.55 0 135.35 -42.75 125.75 -42.75 120.15 -14.7 120 -14.7 Z"/>
</g>

<g id="DIY_Online_and_Download_728x90_psd_Asset_01_Download___file__0_Layer0_0_MEMBER_3_FILL">
<path fill="#FFFFFF" stroke="none" d="
M 149.85 -27.2
L 150.05 -27.25 165.7 0 175.6 0 175.6 -42.75 165.7 -42.75 165.7 -15.55 165.55 -15.5 149.85 -42.75 139.9 -42.75 139.9 0 149.85 0 149.85 -27.2 Z"/>
</g>

<g id="DIY_Online_and_Download_728x90_psd_Asset_01_Download___file__0_Layer0_0_MEMBER_4_FILL">
<path fill="#FFFFFF" stroke="none" d="
M 193.2 -7.65
L 193.2 -42.75 183.25 -42.75 183.25 0 211.6 0 211.6 -7.65 193.2 -7.65 Z"/>
</g>

<g id="DIY_Online_and_Download_728x90_psd_Asset_01_Download___file__0_Layer0_0_MEMBER_5_FILL">
<path fill="#FFFFFF" stroke="none" d="
M 220.05 -38.25
Q 215 -33.05 215 -25.25
L 215 -17.55
Q 215 -9.7 220.05 -4.5 225.15 0.6 233.25 0.6 241.35 0.6 246.35 -4.5 251.35 -9.65 251.35 -17.55
L 251.35 -25.25
Q 251.35 -33.05 246.3 -38.25 241.15 -43.4 233.2 -43.4 225.15 -43.4 220.05 -38.25
M 239.3 -32.8
Q 241.45 -29.9 241.45 -25.3
L 241.45 -17.55
Q 241.45 -12.85 239.3 -9.95 237.1 -7 233.25 -7 229.25 -7 227.05 -9.95 224.9 -12.95 224.9 -17.55
L 224.9 -25.3
Q 224.9 -29.95 227.05 -32.85 229.2 -35.75 233.2 -35.75 237.1 -35.75 239.3 -32.8 Z"/>
</g>

<g id="DIY_Online_and_Download_728x90_psd_Asset_01_Download___file__0_Layer0_0_MEMBER_6_FILL">
<path fill="#FFFFFF" stroke="none" d="
M 266.65 -8.3
L 280.1 -8.3 282.55 0 292.55 0 278.7 -42.75 268.05 -42.75 254.25 0 264.25 0 266.65 -8.3
M 268.85 -15.95
L 273.3 -31.25 273.45 -31.25 277.9 -15.95 268.85 -15.95 Z"/>
</g>

<g id="DIY_Online_and_Download_728x90_psd_Asset_01_Download___file__0_Layer0_0_MEMBER_7_FILL">
<path fill="#FFFFFF" stroke="none" d="
M 311.95 -42.75
L 296.5 -42.75 296.5 0 311.95 0
Q 319.45 0 324.55 -4.9 329.65 -9.85 329.65 -17.55
L 329.65 -25.25
Q 329.65 -32.9 324.55 -37.85 319.5 -42.75 311.95 -42.75
M 311.25 -35.15
Q 315.2 -35.15 317.45 -32.45 319.7 -29.75 319.7 -25.3
L 319.7 -17.55
Q 319.7 -13.05 317.45 -10.35 315.2 -7.65 311.25 -7.65
L 306.45 -7.65 306.45 -35.15 311.25 -35.15 Z"/>
</g>

<g id="DIY_Online_and_Download_728x90_psd_Asset_01_Download___file__0_Layer0_0_MEMBER_8_FILL">
<path fill="#FFFFFF" stroke="none" d="
M 358.05 -40.15
Q 354.75 -37 354.75 -31.85 354.75 -29.55 355.65 -27.4 356.7 -25.05 358.45 -22.55
L 358.4 -22.45
Q 354.6 -19.7 352.8 -17.3 351 -14.9 351 -11.5 351 -6.05 354.75 -2.75 358.55 0.6 364.95 0.6 368 0.6 370.55 -0.15 373.2 -0.9 375.65 -2.45
L 377.85 0 388.65 0 388.75 -0.15 382.25 -7.6
Q 384.3 -10.35 385.2 -13.75 386.15 -17.1 386.15 -21.4
L 379.15 -21.4
Q 379.15 -19.3 378.6 -17.25 377.95 -15.15 377 -13.65
L 369.85 -21.85 372.4 -23.65
Q 374.8 -25.4 376 -27.75 377.35 -30.2 377.35 -33.1 377.35 -37.4 374.45 -40.4 371.55 -43.4 366.85 -43.4 361.4 -43.4 358.05 -40.15
M 363.3 -31.95
Q 363.3 -33.65 364.25 -34.65 365.15 -35.75 366.8 -35.75 368.3 -35.75 369.2 -34.7 370.05 -33.7 370.05 -32.4 370.05 -31.1 369.5 -30.2 368.95 -29.2 367.3 -28.15
L 365.55 -27
Q 364.5 -28.35 363.9 -29.6 363.3 -30.8 363.3 -31.95
M 362.6 -16.8
L 362.85 -17 370.7 -8.1
Q 369.2 -7.45 368.2 -7.3 366.95 -7 365.65 -7 363.7 -7 362.3 -8.45 360.95 -9.85 360.95 -12.15 360.95 -13.55 361.3 -14.6 361.65 -15.65 362.6 -16.8 Z"/>
</g>

<g id="DIY_Online_and_Download_728x90_psd_Asset_01_Download___file__0_Layer0_0_MEMBER_9_FILL">
<path fill="#FFFFFF" stroke="none" d="
M 436.95 -17.2
L 436.95 -24.85 419.85 -24.85 419.85 -35.15 439.95 -35.15 439.95 -42.75 409.9 -42.75 409.9 0 419.85 0 419.85 -17.2 436.95 -17.2 Z"/>
</g>

<g id="DIY_Online_and_Download_728x90_psd_Asset_01_Download___file__0_Layer0_0_MEMBER_10_FILL">
<path fill="#FFFFFF" stroke="none" d="
M 455.95 -42.75
L 446.05 -42.75 446.05 0 455.95 0 455.95 -42.75 Z"/>
</g>

<g id="DIY_Online_and_Download_728x90_psd_Asset_01_Download___file__0_Layer0_0_MEMBER_11_FILL">
<path fill="#FFFFFF" stroke="none" d="
M 474.15 -7.65
L 474.15 -42.75 464.2 -42.75 464.2 0 492.6 0 492.6 -7.65 474.15 -7.65 Z"/>
</g>

<g id="DIY_Online_and_Download_728x90_psd_Asset_01_Download___file__0_Layer0_0_MEMBER_12_FILL">
<path fill="#FFFFFF" stroke="none" d="
M 524.4 -18.3
L 524.4 -25.95 507.65 -25.95 507.65 -35.15 527.5 -35.15 527.5 -42.75 497.7 -42.75 497.7 0 527.4 0 527.4 -7.65 507.65 -7.65 507.65 -18.3 524.4 -18.3 Z"/>
</g>
</defs>

<g transform="matrix( 1, 0, 0, 1, -4,-156) ">
<g transform="matrix( 1, 0, 0, 1, 462,164) ">
<g transform="matrix( 1, 0, 0, 1, 50,22) ">
<g transform="matrix( 1, 0, 0, 1, 18,10) ">
<g transform="matrix( 0.2641754150390625, 0, 0, 0.265380859375, -0.4,11.3) ">
<use xlink:href="#DIY_Online_and_Download_728x90_psd_Asset_01_Laptop_CTA_For_Free_0_Layer0_0_MEMBER_0_FILL"/>
</g>

<g transform="matrix( 0.2641754150390625, 0, 0, 0.265380859375, -0.4,11.3) ">
<use xlink:href="#DIY_Online_and_Download_728x90_psd_Asset_01_Laptop_CTA_For_Free_0_Layer0_0_MEMBER_1_FILL"/>
</g>

<g transform="matrix( 0.2641754150390625, 0, 0, 0.265380859375, -0.4,11.3) ">
<use xlink:href="#DIY_Online_and_Download_728x90_psd_Asset_01_Laptop_CTA_For_Free_0_Layer0_0_MEMBER_2_FILL"/>
</g>

<g transform="matrix( 0.2641754150390625, 0, 0, 0.265380859375, -0.4,11.3) ">
<use xlink:href="#DIY_Online_and_Download_728x90_psd_Asset_01_Laptop_CTA_For_Free_0_Layer0_0_MEMBER_3_FILL"/>
</g>

<g transform="matrix( 0.2641754150390625, 0, 0, 0.265380859375, -0.4,11.3) ">
<use xlink:href="#DIY_Online_and_Download_728x90_psd_Asset_01_Laptop_CTA_For_Free_0_Layer0_0_MEMBER_4_FILL"/>
</g>

<g transform="matrix( 0.2641754150390625, 0, 0, 0.265380859375, -0.4,11.3) ">
<use xlink:href="#DIY_Online_and_Download_728x90_psd_Asset_01_Laptop_CTA_For_Free_0_Layer0_0_MEMBER_5_FILL"/>
</g>

<g transform="matrix( 0.2641754150390625, 0, 0, 0.265380859375, -0.4,11.3) ">
<use xlink:href="#DIY_Online_and_Download_728x90_psd_Asset_01_Laptop_CTA_For_Free_0_Layer0_0_MEMBER_6_FILL"/>
</g>
</g>

<g transform="matrix( 1, 0, 0, 1, 120,9) ">
<g transform="matrix( 1, 0, 0, 1, 0,0) ">
<use xlink:href="#DIY_Online_and_Download_728x90_psd_Asset_01_Laptop_CTA_Assets_Arrow"/>
</g>
</g>
</g>
</g>

<g transform="matrix( 1, 0, 0, 1, 164,189) ">
<g transform="matrix( 0.562591552734375, 0, 0, 0.5651702880859375, -0.8,23.6) ">
<use xlink:href="#DIY_Online_and_Download_728x90_psd_Asset_01_Download___file__0_Layer0_0_MEMBER_0_FILL"/>
</g>

<g transform="matrix( 0.562591552734375, 0, 0, 0.5651702880859375, -0.8,23.6) ">
<use xlink:href="#DIY_Online_and_Download_728x90_psd_Asset_01_Download___file__0_Layer0_0_MEMBER_1_FILL"/>
</g>

<g transform="matrix( 0.562591552734375, 0, 0, 0.5651702880859375, -0.8,23.6) ">
<use xlink:href="#DIY_Online_and_Download_728x90_psd_Asset_01_Download___file__0_Layer0_0_MEMBER_2_FILL"/>
</g>

<g transform="matrix( 0.562591552734375, 0, 0, 0.5651702880859375, -0.8,23.6) ">
<use xlink:href="#DIY_Online_and_Download_728x90_psd_Asset_01_Download___file__0_Layer0_0_MEMBER_3_FILL"/>
</g>

<g transform="matrix( 0.562591552734375, 0, 0, 0.5651702880859375, -0.8,23.6) ">
<use xlink:href="#DIY_Online_and_Download_728x90_psd_Asset_01_Download___file__0_Layer0_0_MEMBER_4_FILL"/>
</g>

<g transform="matrix( 0.562591552734375, 0, 0, 0.5651702880859375, -0.8,23.6) ">
<use xlink:href="#DIY_Online_and_Download_728x90_psd_Asset_01_Download___file__0_Layer0_0_MEMBER_5_FILL"/>
</g>

<g transform="matrix( 0.562591552734375, 0, 0, 0.5651702880859375, -0.8,23.6) ">
<use xlink:href="#DIY_Online_and_Download_728x90_psd_Asset_01_Download___file__0_Layer0_0_MEMBER_6_FILL"/>
</g>

<g transform="matrix( 0.562591552734375, 0, 0, 0.5651702880859375, -0.8,23.6) ">
<use xlink:href="#DIY_Online_and_Download_728x90_psd_Asset_01_Download___file__0_Layer0_0_MEMBER_7_FILL"/>
</g>

<g transform="matrix( 0.562591552734375, 0, 0, 0.5651702880859375, -0.8,23.6) ">
<use xlink:href="#DIY_Online_and_Download_728x90_psd_Asset_01_Download___file__0_Layer0_0_MEMBER_8_FILL"/>
</g>

<g transform="matrix( 0.562591552734375, 0, 0, 0.5651702880859375, -0.8,23.6) ">
<use xlink:href="#DIY_Online_and_Download_728x90_psd_Asset_01_Download___file__0_Layer0_0_MEMBER_9_FILL"/>
</g>

<g transform="matrix( 0.562591552734375, 0, 0, 0.5651702880859375, -0.8,23.6) ">
<use xlink:href="#DIY_Online_and_Download_728x90_psd_Asset_01_Download___file__0_Layer0_0_MEMBER_10_FILL"/>
</g>

<g transform="matrix( 0.562591552734375, 0, 0, 0.5651702880859375, -0.8,23.6) ">
<use xlink:href="#DIY_Online_and_Download_728x90_psd_Asset_01_Download___file__0_Layer0_0_MEMBER_11_FILL"/>
</g>

<g transform="matrix( 0.562591552734375, 0, 0, 0.5651702880859375, -0.8,23.6) ">
<use xlink:href="#DIY_Online_and_Download_728x90_psd_Asset_01_Download___file__0_Layer0_0_MEMBER_12_FILL"/>
</g>
</g>
</g>
</svg>
