
<svg xmlns="http://www.w3.org/2000/svg" version="1.1" xmlns:xlink="http://www.w3.org/1999/xlink" preserveAspectRatio="none" x="0px" y="0px" width="160px" height="600px" viewBox="0 0 160 600">
<defs>
<image id="DIY_Online_and_Download_160x600_psd_Asset_1_05_alt_BTN_Assets_Arrow" x="0" y="0" width="7" height="10" xlink:href="data:image/png;base64,iVBORw0KGgoAAAANSUhEUgAAAAcAAAAKCAYAAAB4zEQNAAAAwklEQVQYlWNgYGBg+Pjxo8qv
X78yGdDB69evJf/+/Xv5/79////8+jUFRfL2/HCLj9e2/ocBFAUN2gxs50pZat6emvf/39/f
EAV//qy8f/++AFzR/UUReV+fXf0BM+HX109zWGCSkiHTGZig7O+PTzM83VHPyLBq1Sq2379/
18B0fL1/9P+1bt1V+wsYBBheXNxk8ef7B4jEw+P/r/caIRx0qIBB8tHKlMsfLq//f32iJapX
GBgYGM42iKpcbJTFCAQAsiSCdPzbiHMAAAAASUVORK5CYII="/>

<g id="DIY_Online_and_Download_160x600_psd_Asset_1_05_alt_BTN_file_free_now_0_Layer0_0_MEMBER_0_FILL">
<path fill="#FFFFFF" stroke="none" d="
M 4.65 -5.8
L 0.6 -5.8 0.6 0 2 0 2 -2.2 4.4 -2.2 4.4 -3.35 2 -3.35 2 -4.6 4.65 -4.6 4.65 -5.8 Z"/>
</g>

<g id="DIY_Online_and_Download_160x600_psd_Asset_1_05_alt_BTN_file_free_now_0_Layer0_0_MEMBER_1_FILL">
<path fill="#FFFFFF" stroke="none" d="
M 7.2 -5.8
L 5.8 -5.8 5.8 0 7.2 0 7.2 -5.8 Z"/>
</g>

<g id="DIY_Online_and_Download_160x600_psd_Asset_1_05_alt_BTN_file_free_now_0_Layer0_0_MEMBER_2_FILL">
<path fill="#FFFFFF" stroke="none" d="
M 10.05 -5.8
L 8.65 -5.8 8.65 0 12.6 0 12.6 -1.2 10.05 -1.2 10.05 -5.8 Z"/>
</g>

<g id="DIY_Online_and_Download_160x600_psd_Asset_1_05_alt_BTN_file_free_now_0_Layer0_0_MEMBER_3_FILL">
<path fill="#FFFFFF" stroke="none" d="
M 15.15 -1.2
L 15.15 -2.35 17.65 -2.35 17.65 -3.55 15.15 -3.55 15.15 -4.6 17.9 -4.6 17.9 -5.8 13.7 -5.8 13.7 0 17.9 0 17.9 -1.2 15.15 -1.2 Z"/>
</g>

<g id="DIY_Online_and_Download_160x600_psd_Asset_1_05_alt_BTN_file_free_now_0_Layer0_0_MEMBER_4_FILL">
<path fill="#FFFFFF" stroke="none" d="
M 20.75 -4
L 22 -4.4 22 0 23.45 0 23.45 -5.8 22.25 -5.8 20.75 -5.25 20.75 -4 Z"/>
</g>

<g id="DIY_Online_and_Download_160x600_psd_Asset_1_05_alt_BTN_file_free_now_0_Layer0_0_MEMBER_5_FILL">
<path fill="#FFFFFF" stroke="none" d="
M 25.3 -5.35
Q 24.65 -4.8 24.65 -3.85
L 24.65 -1.95
Q 24.65 -1 25.3 -0.45 25.95 0.1 26.95 0.1 27.95 0.1 28.6 -0.45 29.2 -1 29.2 -1.95
L 29.2 -3.85
Q 29.2 -4.8 28.6 -5.35 27.95 -5.95 26.95 -5.95 25.95 -5.95 25.3 -5.35
M 26.95 -4.75
Q 27.8 -4.75 27.8 -3.85
L 27.8 -1.95
Q 27.8 -1.05 26.95 -1.05 26.1 -1.05 26.1 -1.95
L 26.1 -3.85
Q 26.1 -4.75 26.95 -4.75 Z"/>
</g>

<g id="DIY_Online_and_Download_160x600_psd_Asset_1_05_alt_BTN_file_free_now_0_Layer0_0_MEMBER_6_FILL">
<path fill="#FFFFFF" stroke="none" d="
M 30.2 -3.85
L 30.2 -1.95
Q 30.2 -1 30.85 -0.45 31.5 0.1 32.5 0.1 33.5 0.1 34.15 -0.45 34.75 -1 34.75 -1.95
L 34.75 -3.85
Q 34.75 -4.8 34.15 -5.35 33.5 -5.95 32.5 -5.95 31.5 -5.95 30.85 -5.35 30.2 -4.8 30.2 -3.85
M 31.65 -3.85
Q 31.65 -4.75 32.5 -4.75 33.35 -4.75 33.35 -3.85
L 33.35 -1.95
Q 33.35 -1.05 32.5 -1.05 31.65 -1.05 31.65 -1.95
L 31.65 -3.85 Z"/>
</g>

<g id="DIY_Online_and_Download_160x600_psd_Asset_1_05_alt_BTN_file_free_now_0_Layer0_0_MEMBER_7_FILL">
<path fill="#FFFFFF" stroke="none" d="
M 41.15 -5.8
L 40.15 -5.8 37.15 0 38.15 0 41.15 -5.8
M 39.75 -1.9
L 39.75 -1.25
Q 39.75 0.1 41.2 0.1 42.6 0.1 42.6 -1.25
L 42.6 -1.9
Q 42.6 -3.25 41.2 -3.25 39.75 -3.25 39.75 -1.9
M 41.65 -2
L 41.65 -1.15
Q 41.65 -0.75 41.2 -0.75 40.75 -0.75 40.75 -1.15
L 40.75 -2
Q 40.75 -2.4 41.2 -2.4 41.65 -2.4 41.65 -2
M 38.55 -3.9
L 38.55 -4.55
Q 38.55 -5.9 37.15 -5.9 35.7 -5.9 35.7 -4.55
L 35.7 -3.9
Q 35.7 -2.6 37.15 -2.6 38.55 -2.6 38.55 -3.9
M 37.6 -4.65
L 37.6 -3.85
Q 37.6 -3.4 37.15 -3.4 36.7 -3.4 36.7 -3.85
L 36.7 -4.65
Q 36.7 -5.1 37.15 -5.1 37.6 -5.1 37.6 -4.65 Z"/>
</g>

<g id="DIY_Online_and_Download_160x600_psd_Asset_1_05_alt_BTN_file_free_now_0_Layer0_0_MEMBER_8_FILL">
<path fill="#FFFFFF" stroke="none" d="
M 49.8 -5.8
L 45.7 -5.8 45.7 0 47.15 0 47.15 -2.2 49.55 -2.2 49.55 -3.35 47.15 -3.35 47.15 -4.6 49.8 -4.6 49.8 -5.8 Z"/>
</g>

<g id="DIY_Online_and_Download_160x600_psd_Asset_1_05_alt_BTN_file_free_now_0_Layer0_0_MEMBER_9_FILL">
<path fill="#FFFFFF" stroke="none" d="
M 53.6 -5.8
L 50.9 -5.8 50.9 0 52.3 0 52.3 -1.75 53.25 -1.75 54.25 0 55.9 0 54.7 -1.95
Q 55.8 -2.5 55.8 -3.75 55.8 -5.8 53.6 -5.8
M 54.35 -3.75
Q 54.35 -2.85 53.45 -2.85
L 52.3 -2.85 52.3 -4.65 53.45 -4.65
Q 54.35 -4.65 54.35 -3.75 Z"/>
</g>

<g id="DIY_Online_and_Download_160x600_psd_Asset_1_05_alt_BTN_file_free_now_0_Layer0_0_MEMBER_10_FILL">
<path fill="#FFFFFF" stroke="none" d="
M 58.4 -1.2
L 58.4 -2.35 60.95 -2.35 60.95 -3.55 58.4 -3.55 58.4 -4.6 61.2 -4.6 61.2 -5.8 57 -5.8 57 0 61.2 0 61.2 -1.2 58.4 -1.2 Z"/>
</g>

<g id="DIY_Online_and_Download_160x600_psd_Asset_1_05_alt_BTN_file_free_now_0_Layer0_0_MEMBER_11_FILL">
<path fill="#FFFFFF" stroke="none" d="
M 63.8 -1.2
L 63.8 -2.35 66.35 -2.35 66.35 -3.55 63.8 -3.55 63.8 -4.6 66.6 -4.6 66.6 -5.8 62.4 -5.8 62.4 0 66.6 0 66.6 -1.2 63.8 -1.2 Z"/>
</g>

<g id="DIY_Online_and_Download_160x600_psd_Asset_1_05_alt_Why_pay__for_tax__software__0_Layer0_0_MEMBER_0_FILL">
<path fill="#FFFFFF" stroke="none" d="
M 3.55 -5
L 2.7 -5 1.85 -1.75 1.8 -1.75 1.2 -5 0.05 -5 1.2 0 2.25 0 3.1 -3.1 3.15 -3.1 3.95 0 5.05 0 6.2 -5 5 -5 4.4 -1.75 3.55 -5 Z"/>
</g>

<g id="DIY_Online_and_Download_160x600_psd_Asset_1_05_alt_Why_pay__for_tax__software__0_Layer0_0_MEMBER_1_FILL">
<path fill="#FFFFFF" stroke="none" d="
M 7.6 -2
L 9.45 -2 9.45 0 10.6 0 10.6 -5 9.45 -5 9.45 -2.9 7.6 -2.9 7.6 -5 6.45 -5 6.45 0 7.6 0 7.6 -2 Z"/>
</g>

<g id="DIY_Online_and_Download_160x600_psd_Asset_1_05_alt_Why_pay__for_tax__software__0_Layer0_0_MEMBER_2_FILL">
<path fill="#FFFFFF" stroke="none" d="
M 12.95 -2.8
L 12 -5 10.75 -5 12.4 -1.8 12.4 0 13.55 0 13.55 -1.75 15.25 -5 14 -5 13 -2.8 12.95 -2.8 Z"/>
</g>

<g id="DIY_Online_and_Download_160x600_psd_Asset_1_05_alt_Why_pay__for_tax__software__0_Layer0_0_MEMBER_3_FILL">
<path fill="#FFFFFF" stroke="none" d="
M 18.15 -1.7
L 18.9 -1.7
Q 19.8 -1.7 20.3 -2.15 20.85 -2.6 20.85 -3.35 20.85 -4.1 20.3 -4.55 19.8 -5 18.9 -5
L 17 -5 17 0 18.15 0 18.15 -1.7
M 19.5 -3.9
Q 19.7 -3.6 19.7 -3.35 19.7 -3.1 19.5 -2.8 19.3 -2.6 18.9 -2.6
L 18.15 -2.6 18.15 -4.1 18.9 -4.1
Q 19.2 -4.1 19.5 -3.9 Z"/>
</g>

<g id="DIY_Online_and_Download_160x600_psd_Asset_1_05_alt_Why_pay__for_tax__software__0_Layer0_0_MEMBER_4_FILL">
<path fill="#FFFFFF" stroke="none" d="
M 23.15 -5
L 21.95 -5 20.3 0 21.55 0 21.8 -0.95 23.3 -0.95 23.6 0 24.8 0 23.15 -5
M 22.1 -1.85
L 22.55 -3.4 23.05 -1.85 22.1 -1.85 Z"/>
</g>

<g id="DIY_Online_and_Download_160x600_psd_Asset_1_05_alt_Why_pay__for_tax__software__0_Layer0_0_MEMBER_5_FILL">
<path fill="#FFFFFF" stroke="none" d="
M 26.15 -2.8
L 25.15 -5 23.9 -5 25.55 -1.8 25.55 0 26.7 0 26.7 -1.75 28.4 -5 27.15 -5 26.15 -2.8 Z"/>
</g>

<g id="DIY_Online_and_Download_160x600_psd_Asset_1_05_alt_Why_pay__for_tax__software__0_Layer0_0_MEMBER_6_FILL">
<path fill="#FFFFFF" stroke="none" d="
M 3.4 5
L 3.4 4.1 1.55 4.1 1.55 2.9 3.7 2.9 3.7 2 0.4 2 0.4 7 1.55 7 1.55 5 3.4 5 Z"/>
</g>

<g id="DIY_Online_and_Download_160x600_psd_Asset_1_05_alt_Why_pay__for_tax__software__0_Layer0_0_MEMBER_7_FILL">
<path fill="#FFFFFF" stroke="none" d="
M 8.25 4.95
L 8.25 4.05
Q 8.25 3.2 7.7 2.55 7.1 1.95 6.15 1.95 5.2 1.95 4.65 2.55 4.05 3.15 4.05 4.05
L 4.05 4.95
Q 4.05 5.9 4.65 6.5 5.2 7.1 6.15 7.1 7.1 7.1 7.7 6.5 8.25 5.95 8.25 4.95
M 7.1 4.05
L 7.1 4.95
Q 7.1 5.55 6.85 5.85 6.6 6.2 6.15 6.2 5.7 6.2 5.45 5.85 5.2 5.45 5.2 4.95
L 5.2 4.05
Q 5.2 3.45 5.45 3.2 5.65 2.85 6.15 2.85 6.65 2.85 6.85 3.2 7.1 3.45 7.1 4.05 Z"/>
</g>

<g id="DIY_Online_and_Download_160x600_psd_Asset_1_05_alt_Why_pay__for_tax__software__0_Layer0_0_MEMBER_8_FILL">
<path fill="#FFFFFF" stroke="none" d="
M 11.9 2.45
Q 11.4 2 10.55 2
L 8.8 2 8.8 7 9.95 7 9.95 5.1 10.55 5.1
Q 10.95 5.1 11.15 5.3 11.3 5.45 11.3 5.85
L 11.3 6.15 11.35 6.65
Q 11.45 6.95 11.55 7
L 12.75 7 12.75 6.95 12.5 6.6 12.45 6.15 12.45 5.8
Q 12.45 5.3 12.25 5.05 12.1 4.75 11.6 4.65
L 12.2 4.2
Q 12.4 3.95 12.4 3.5 12.4 2.8 11.9 2.45
M 11.05 4.05
Q 10.9 4.2 10.55 4.2
L 9.95 4.2 9.95 2.9 10.55 2.9
Q 10.85 2.9 11.05 3.1 11.25 3.25 11.25 3.6 11.25 3.9 11.05 4.05 Z"/>
</g>

<g id="DIY_Online_and_Download_160x600_psd_Asset_1_05_alt_Why_pay__for_tax__software__0_Layer0_0_MEMBER_9_FILL">
<path fill="#FFFFFF" stroke="none" d="
M 18.15 2.9
L 18.15 2 14.35 2 14.35 2.9 15.65 2.9 15.65 7 16.8 7 16.8 2.9 18.15 2.9 Z"/>
</g>

<g id="DIY_Online_and_Download_160x600_psd_Asset_1_05_alt_Why_pay__for_tax__software__0_Layer0_0_MEMBER_10_FILL">
<path fill="#FFFFFF" stroke="none" d="
M 20.65 6.05
L 20.95 7 22.15 7 20.55 2 19.3 2 17.65 7 18.9 7 19.15 6.05 20.65 6.05
M 19.45 5.15
L 19.9 3.6 20.4 5.15 19.45 5.15 Z"/>
</g>

<g id="DIY_Online_and_Download_160x600_psd_Asset_1_05_alt_Why_pay__for_tax__software__0_Layer0_0_MEMBER_11_FILL">
<path fill="#FFFFFF" stroke="none" d="
M 24.15 3.7
L 23.35 2 22.05 2 23.45 4.5 22 7 23.35 7 24.2 5.3 25 7 26.45 7 24.9 4.5 26.3 2 25 2 24.15 3.7 Z"/>
</g>

<g id="DIY_Online_and_Download_160x600_psd_Asset_1_05_alt_Why_pay__for_tax__software__0_Layer0_0_MEMBER_12_FILL">
<path fill="#FFFFFF" stroke="none" d="
M 0.8 11.35
Q 1.4 11.75 2.15 12
L 2.8 12.3
Q 2.95 12.45 2.95 12.7 2.95 12.9 2.8 13.05 2.6 13.2 2.25 13.2 1.85 13.2 1.6 13.05 1.4 12.85 1.4 12.4
L 0.25 12.4 0.25 12.45
Q 0.25 13.3 0.8 13.7 1.45 14.1 2.25 14.1 3.05 14.1 3.6 13.7 4.1 13.35 4.1 12.7 4.1 12.05 3.7 11.65 3.25 11.3 2.35 11.05
L 1.65 10.7
Q 1.5 10.65 1.5 10.35 1.5 10.15 1.65 10 1.9 9.85 2.15 9.85 2.55 9.85 2.75 10 2.95 10.2 2.95 10.5
L 4.05 10.5
Q 4.05 9.7 3.55 9.35 3 8.95 2.2 8.95 1.4 8.95 0.85 9.35 0.35 9.7 0.35 10.35 0.35 11 0.8 11.35 Z"/>
</g>

<g id="DIY_Online_and_Download_160x600_psd_Asset_1_05_alt_Why_pay__for_tax__software__0_Layer0_0_MEMBER_13_FILL">
<path fill="#FFFFFF" stroke="none" d="
M 5.05 9.55
Q 4.5 10.2 4.5 11.05
L 4.5 11.95
Q 4.5 12.85 5.05 13.5 5.65 14.1 6.6 14.1 7.55 14.1 8.15 13.5 8.7 12.85 8.7 11.95
L 8.7 11.05
Q 8.7 10.2 8.15 9.55 7.55 8.95 6.6 8.95 5.65 8.95 5.05 9.55
M 5.9 10.2
Q 6.1 9.85 6.6 9.85 7.1 9.85 7.3 10.2 7.55 10.45 7.55 11.05
L 7.55 11.95
Q 7.55 12.55 7.3 12.85 7.1 13.2 6.6 13.2 6.1 13.2 5.9 12.85 5.65 12.55 5.65 11.95
L 5.65 11.05
Q 5.65 10.45 5.9 10.2 Z"/>
</g>

<g id="DIY_Online_and_Download_160x600_psd_Asset_1_05_alt_Why_pay__for_tax__software__0_Layer0_0_MEMBER_14_FILL">
<path fill="#FFFFFF" stroke="none" d="
M 12.2 12
L 12.2 11.1 10.4 11.1 10.4 9.9 12.55 9.9 12.55 9.05 9.25 9.05 9.25 14 10.4 14 10.4 12 12.2 12 Z"/>
</g>

<g id="DIY_Online_and_Download_160x600_psd_Asset_1_05_alt_Why_pay__for_tax__software__0_Layer0_0_MEMBER_15_FILL">
<path fill="#FFFFFF" stroke="none" d="
M 16.45 9.9
L 16.45 9.05 12.7 9.05 12.7 9.9 13.95 9.9 13.95 14 15.15 14 15.15 9.9 16.45 9.9 Z"/>
</g>

<g id="DIY_Online_and_Download_160x600_psd_Asset_1_05_alt_Why_pay__for_tax__software__0_Layer0_0_MEMBER_16_FILL">
<path fill="#FFFFFF" stroke="none" d="
M 21.4 9.05
L 20.8 12.25 19.95 9.05 19.05 9.05 18.25 12.25 18.2 12.25 17.6 9.05 16.45 9.05 17.6 14 18.65 14 19.5 10.95 20.35 14 21.45 14 22.6 9.05 21.4 9.05 Z"/>
</g>

<g id="DIY_Online_and_Download_160x600_psd_Asset_1_05_alt_Why_pay__for_tax__software__0_Layer0_0_MEMBER_17_FILL">
<path fill="#FFFFFF" stroke="none" d="
M 25.2 9.05
L 23.95 9.05 22.35 14 23.55 14 23.85 13.05 25.3 13.05 25.6 14 26.8 14 25.2 9.05
M 24.1 12.15
L 24.55 10.6 24.6 10.6 25.05 12.15 24.1 12.15 Z"/>
</g>

<g id="DIY_Online_and_Download_160x600_psd_Asset_1_05_alt_Why_pay__for_tax__software__0_Layer0_0_MEMBER_18_FILL">
<path fill="#FFFFFF" stroke="none" d="
M 30.4 11.2
Q 30.6 10.95 30.6 10.5 30.6 9.8 30.1 9.45 29.65 9.05 28.75 9.05
L 27 9.05 27 14 28.15 14 28.15 12.1 28.8 12.1
Q 29.15 12.1 29.35 12.3 29.5 12.45 29.5 12.85
L 29.5 13.15 29.55 13.65
Q 29.65 13.95 29.75 14
L 30.95 14 30.95 13.95
Q 30.75 13.75 30.75 13.6
L 30.65 13.15 30.65 12.85
Q 30.65 12.3 30.45 12.05 30.35 11.85 29.8 11.65 30.25 11.45 30.4 11.2
M 29.25 10.1
Q 29.45 10.3 29.45 10.6 29.45 10.9 29.3 11.05 29.1 11.2 28.75 11.2
L 28.15 11.2 28.15 9.9 28.75 9.9
Q 29.05 9.9 29.25 10.1 Z"/>
</g>

<g id="DIY_Online_and_Download_160x600_psd_Asset_1_05_alt_Why_pay__for_tax__software__0_Layer0_0_MEMBER_19_FILL">
<path fill="#FFFFFF" stroke="none" d="
M 34.2 11.9
L 34.2 11 32.45 11 32.45 9.9 34.55 9.9 34.55 9.05 31.3 9.05 31.3 14 34.55 14 34.55 13.1 32.45 13.1 32.45 11.9 34.2 11.9 Z"/>
</g>

<g id="DIY_Online_and_Download_160x600_psd_Asset_1_05_alt_Why_pay__for_tax__software__0_Layer0_0_MEMBER_20_FILL">
<path fill="#FFFFFF" stroke="none" d="
M 36.85 14
L 36.85 13.1 35.7 13.1 35.7 14 36.85 14
M 35.15 9.3
Q 34.7 9.7 34.7 10.4
L 35.85 10.4
Q 35.85 10.15 36 10 36.15 9.85 36.35 9.85 36.65 9.85 36.8 10 36.95 10.25 36.95 10.5
L 36.85 10.95
Q 36.65 11.25 36.45 11.3
L 35.85 11.85
Q 35.7 12.15 35.7 12.6
L 36.85 12.6 36.9 12.15
Q 37 11.9 37.2 11.85 37.6 11.65 37.85 11.25 38.1 10.95 38.1 10.5 38.1 9.8 37.65 9.35 37.15 8.95 36.35 8.95 35.7 8.95 35.15 9.3 Z"/>
</g>

<g id="DIY_Online_and_Download_160x600_psd_Asset_1_05_alt__copy_0_Layer0_0_MEMBER_0_FILL">
<path fill="#FFFFFF" stroke="none" d="
M -17.75 -2.9
Q -18.25 -2.9 -18.55 -2.55 -18.9 -2.1 -18.9 -1.7
L -18.9 -1.15
Q -18.9 -0.75 -18.55 -0.3 -18.25 0.05 -17.75 0.05 -17.25 0.05 -16.9 -0.3 -16.6 -0.65 -16.6 -1.15
L -16.6 -1.7
Q -16.6 -2.15 -16.9 -2.55 -17.25 -2.9 -17.75 -2.9
M -18.5 -1.7
Q -18.5 -2.1 -18.3 -2.35 -18.05 -2.6 -17.75 -2.6 -17.45 -2.6 -17.2 -2.35 -16.95 -2 -16.95 -1.7
L -16.95 -1.15
Q -16.95 -0.85 -17.2 -0.5 -17.35 -0.25 -17.75 -0.25 -18.05 -0.25 -18.3 -0.55 -18.5 -0.75 -18.5 -1.15
L -18.5 -1.7 Z"/>
</g>

<g id="DIY_Online_and_Download_160x600_psd_Asset_1_05_alt__copy_0_Layer0_0_MEMBER_1_FILL">
<path fill="#FFFFFF" stroke="none" d="
M -15.75 -2.85
L -16.15 -2.85 -16.15 0 -15.75 0 -15.75 -2.2 -14.4 0 -14 0 -14 -2.85 -14.4 -2.85 -14.4 -0.65 -15.75 -2.85 Z"/>
</g>

<g id="DIY_Online_and_Download_160x600_psd_Asset_1_05_alt__copy_0_Layer0_0_MEMBER_2_FILL">
<path fill="#FFFFFF" stroke="none" d="
M -13.05 -0.3
L -13.05 -2.85 -13.45 -2.85 -13.45 0 -11.7 0 -11.7 -0.3 -13.05 -0.3 Z"/>
</g>

<g id="DIY_Online_and_Download_160x600_psd_Asset_1_05_alt__copy_0_Layer0_0_MEMBER_3_FILL">
<path fill="#FFFFFF" stroke="none" d="
M -11 -2.85
L -11.4 -2.85 -11.4 0 -11 0 -11 -2.85 Z"/>
</g>

<g id="DIY_Online_and_Download_160x600_psd_Asset_1_05_alt__copy_0_Layer0_0_MEMBER_4_FILL">
<path fill="#FFFFFF" stroke="none" d="
M -10 -2.85
L -10.4 -2.85 -10.4 0 -10 0 -10 -2.2 -8.65 0 -8.25 0 -8.25 -2.85 -8.65 -2.85 -8.65 -0.65 -10 -2.85 Z"/>
</g>

<g id="DIY_Online_and_Download_160x600_psd_Asset_1_05_alt__copy_0_Layer0_0_MEMBER_5_FILL">
<path fill="#FFFFFF" stroke="none" d="
M -6 -1.3
L -6 -1.65 -7.3 -1.65 -7.3 -2.55 -5.8 -2.55 -5.8 -2.85 -7.7 -2.85 -7.7 0 -5.8 0 -5.8 -0.3 -7.3 -0.3 -7.3 -1.3 -6 -1.3 Z"/>
</g>

<g id="DIY_Online_and_Download_160x600_psd_Asset_1_05_alt__copy_0_Layer0_0_MEMBER_6_FILL">
<path fill="#FFFFFF" stroke="none" d="
M -3.2 -2.3
Q -3.2 -2.55 -3.4 -2.7 -3.55 -2.9 -3.9 -2.9 -4.25 -2.9 -4.4 -2.7 -4.6 -2.55 -4.6 -2.2
L -4.55 -1.9 -4.3 -1.55
Q -4.4 -1.5 -4.7 -1.2 -4.85 -0.95 -4.85 -0.75 -4.85 -0.45 -4.6 -0.2 -4.35 0.05 -3.9 0.05
L -3.55 0 -3.2 -0.2 -3 0 -2.55 0 -2.9 -0.45 -2.7 -0.85 -2.65 -1.3 -2.95 -1.3 -3 -1 -3.15 -0.7 -3.8 -1.5 -3.6 -1.65 -3.3 -1.95
Q -3.2 -2.05 -3.2 -2.3
M -3.6 -2.1
L -3.75 -1.95 -4 -1.75
Q -4.05 -1.85 -4.15 -2
L -4.2 -2.2 -4.15 -2.5 -3.9 -2.6 -3.65 -2.5
Q -3.55 -2.45 -3.55 -2.3
L -3.6 -2.1
M -4.4 -1
L -4.1 -1.3 -3.4 -0.45 -3.65 -0.3 -3.9 -0.25
Q -4.2 -0.25 -4.35 -0.4
L -4.45 -0.75 -4.4 -1 Z"/>
</g>

<g id="DIY_Online_and_Download_160x600_psd_Asset_1_05_alt__copy_0_Layer0_0_MEMBER_7_FILL">
<path fill="#FFFFFF" stroke="none" d="
M 0.7 -1.6
Q 0.7 -2.2 0.35 -2.5 0.05 -2.85 -0.55 -2.85
L -1.4 -2.85 -1.4 0 -0.55 0
Q 0.05 0 0.35 -0.35 0.7 -0.65 0.7 -1.25
L 0.7 -1.6
M 0.3 -1.25
Q 0.3 -0.8 0.1 -0.55 -0.15 -0.3 -0.55 -0.3
L -1 -0.3 -1 -2.55 -0.55 -2.55
Q -0.15 -2.55 0.1 -2.3 0.3 -2.05 0.3 -1.65
L 0.3 -1.25 Z"/>
</g>

<g id="DIY_Online_and_Download_160x600_psd_Asset_1_05_alt__copy_0_Layer0_0_MEMBER_8_FILL">
<path fill="#FFFFFF" stroke="none" d="
M 2.1 -2.9
Q 1.6 -2.9 1.3 -2.55 0.95 -2.2 0.95 -1.7
L 0.95 -1.15
Q 0.95 -0.65 1.3 -0.3 1.6 0.05 2.1 0.05 2.6 0.05 2.95 -0.3 3.25 -0.65 3.25 -1.15
L 3.25 -1.7
Q 3.25 -2.15 2.95 -2.55 2.6 -2.9 2.1 -2.9
M 1.35 -1.7
Q 1.35 -2.1 1.55 -2.35 1.8 -2.6 2.1 -2.6 2.4 -2.6 2.65 -2.35 2.85 -2.1 2.85 -1.7
L 2.85 -1.15
Q 2.85 -0.75 2.65 -0.5 2.4 -0.25 2.1 -0.25 1.8 -0.25 1.55 -0.55 1.35 -0.75 1.35 -1.15
L 1.35 -1.7 Z"/>
</g>

<g id="DIY_Online_and_Download_160x600_psd_Asset_1_05_alt__copy_0_Layer0_0_MEMBER_9_FILL">
<path fill="#FFFFFF" stroke="none" d="
M 4.3 -0.65
L 3.85 -2.85 3.45 -2.85 4.15 0 4.5 0 5.05 -2 5.1 -2.25 5.15 -2 5.7 0 6.05 0 6.75 -2.85 6.35 -2.85 5.95 -1 5.9 -0.6 5.25 -2.85 4.95 -2.85 4.4 -1 4.35 -0.65 4.3 -0.65 Z"/>
</g>

<g id="DIY_Online_and_Download_160x600_psd_Asset_1_05_alt__copy_0_Layer0_0_MEMBER_10_FILL">
<path fill="#FFFFFF" stroke="none" d="
M 7.5 -2.85
L 7.1 -2.85 7.1 0 7.5 0 7.5 -2.2 8.85 0 9.25 0 9.25 -2.85 8.85 -2.85 8.85 -0.65 7.5 -2.85 Z"/>
</g>

<g id="DIY_Online_and_Download_160x600_psd_Asset_1_05_alt__copy_0_Layer0_0_MEMBER_11_FILL">
<path fill="#FFFFFF" stroke="none" d="
M 10.2 -0.3
L 10.2 -2.85 9.8 -2.85 9.8 0 11.55 0 11.55 -0.3 10.2 -0.3 Z"/>
</g>

<g id="DIY_Online_and_Download_160x600_psd_Asset_1_05_alt__copy_0_Layer0_0_MEMBER_12_FILL">
<path fill="#FFFFFF" stroke="none" d="
M 11.65 -1.15
Q 11.65 -0.65 12 -0.3 12.3 0.05 12.8 0.05 13.3 0.05 13.65 -0.3 13.95 -0.65 13.95 -1.15
L 13.95 -1.7
Q 13.95 -2.15 13.65 -2.55 13.3 -2.9 12.8 -2.9 12.3 -2.9 12 -2.55 11.65 -2.2 11.65 -1.7
L 11.65 -1.15
M 12.05 -1.7
Q 12.05 -2.1 12.25 -2.35 12.5 -2.6 12.8 -2.6 13.1 -2.6 13.35 -2.35 13.55 -2.1 13.55 -1.7
L 13.55 -1.15
Q 13.55 -0.75 13.35 -0.5 13.1 -0.25 12.8 -0.25 12.5 -0.25 12.25 -0.55 12.05 -0.75 12.05 -1.15
L 12.05 -1.7 Z"/>
</g>

<g id="DIY_Online_and_Download_160x600_psd_Asset_1_05_alt__copy_0_Layer0_0_MEMBER_13_FILL">
<path fill="#FFFFFF" stroke="none" d="
M 14.7 -0.75
L 15.9 -0.75 16.15 0 16.55 0 15.45 -2.85 15.15 -2.85 14.05 0 14.45 0 14.7 -0.75
M 14.8 -1.05
L 15.3 -2.35 15.8 -1.05 14.8 -1.05 Z"/>
</g>

<g id="DIY_Online_and_Download_160x600_psd_Asset_1_05_alt__copy_0_Layer0_0_MEMBER_14_FILL">
<path fill="#FFFFFF" stroke="none" d="
M 17.7 -2.85
L 16.8 -2.85 16.8 0 17.7 0
Q 18.25 0 18.6 -0.35 18.9 -0.65 18.9 -1.25
L 18.9 -1.6
Q 18.9 -2.2 18.6 -2.5 18.25 -2.85 17.7 -2.85
M 17.2 -2.55
L 17.7 -2.55
Q 18.05 -2.55 18.3 -2.3 18.55 -1.95 18.55 -1.65
L 18.55 -1.25
Q 18.55 -0.9 18.3 -0.55 18.05 -0.3 17.7 -0.3
L 17.2 -0.3 17.2 -2.55 Z"/>
</g>
</defs>

<g transform="matrix( 1, 0, 0, 1, -685,0) ">
<g transform="matrix( 1, 0, 0, 1, 701,230) ">
<g transform="matrix( 1, 0, 0, 1, 11,7) ">
<g transform="matrix( 1.2587890625, 0, 0, 1.25994873046875, -0.1,7.55) ">
<use xlink:href="#DIY_Online_and_Download_160x600_psd_Asset_1_05_alt_BTN_file_free_now_0_Layer0_0_MEMBER_0_FILL"/>
</g>

<g transform="matrix( 1.2587890625, 0, 0, 1.25994873046875, -0.1,7.55) ">
<use xlink:href="#DIY_Online_and_Download_160x600_psd_Asset_1_05_alt_BTN_file_free_now_0_Layer0_0_MEMBER_1_FILL"/>
</g>

<g transform="matrix( 1.2587890625, 0, 0, 1.25994873046875, -0.1,7.55) ">
<use xlink:href="#DIY_Online_and_Download_160x600_psd_Asset_1_05_alt_BTN_file_free_now_0_Layer0_0_MEMBER_2_FILL"/>
</g>

<g transform="matrix( 1.2587890625, 0, 0, 1.25994873046875, -0.1,7.55) ">
<use xlink:href="#DIY_Online_and_Download_160x600_psd_Asset_1_05_alt_BTN_file_free_now_0_Layer0_0_MEMBER_3_FILL"/>
</g>

<g transform="matrix( 1.2587890625, 0, 0, 1.25994873046875, -0.1,7.55) ">
<use xlink:href="#DIY_Online_and_Download_160x600_psd_Asset_1_05_alt_BTN_file_free_now_0_Layer0_0_MEMBER_4_FILL"/>
</g>

<g transform="matrix( 1.2587890625, 0, 0, 1.25994873046875, -0.1,7.55) ">
<use xlink:href="#DIY_Online_and_Download_160x600_psd_Asset_1_05_alt_BTN_file_free_now_0_Layer0_0_MEMBER_5_FILL"/>
</g>

<g transform="matrix( 1.2587890625, 0, 0, 1.25994873046875, -0.1,7.55) ">
<use xlink:href="#DIY_Online_and_Download_160x600_psd_Asset_1_05_alt_BTN_file_free_now_0_Layer0_0_MEMBER_6_FILL"/>
</g>

<g transform="matrix( 1.2587890625, 0, 0, 1.25994873046875, -0.1,7.55) ">
<use xlink:href="#DIY_Online_and_Download_160x600_psd_Asset_1_05_alt_BTN_file_free_now_0_Layer0_0_MEMBER_7_FILL"/>
</g>

<g transform="matrix( 1.2587890625, 0, 0, 1.25994873046875, -0.1,7.55) ">
<use xlink:href="#DIY_Online_and_Download_160x600_psd_Asset_1_05_alt_BTN_file_free_now_0_Layer0_0_MEMBER_8_FILL"/>
</g>

<g transform="matrix( 1.2587890625, 0, 0, 1.25994873046875, -0.1,7.55) ">
<use xlink:href="#DIY_Online_and_Download_160x600_psd_Asset_1_05_alt_BTN_file_free_now_0_Layer0_0_MEMBER_9_FILL"/>
</g>

<g transform="matrix( 1.2587890625, 0, 0, 1.25994873046875, -0.1,7.55) ">
<use xlink:href="#DIY_Online_and_Download_160x600_psd_Asset_1_05_alt_BTN_file_free_now_0_Layer0_0_MEMBER_10_FILL"/>
</g>

<g transform="matrix( 1.2587890625, 0, 0, 1.25994873046875, -0.1,7.55) ">
<use xlink:href="#DIY_Online_and_Download_160x600_psd_Asset_1_05_alt_BTN_file_free_now_0_Layer0_0_MEMBER_11_FILL"/>
</g>
</g>

<g transform="matrix( 1, 0, 0, 1, 109,7) ">
<g transform="matrix( 1, 0, 0, 1, 0,0) ">
<use xlink:href="#DIY_Online_and_Download_160x600_psd_Asset_1_05_alt_BTN_Assets_Arrow"/>
</g>
</g>
</g>

<g transform="matrix( 1, 0, 0, 1, 700,142) ">
<g transform="matrix( 3.4265289306640625, 0, 0, 3.426055908203125, 0.05,17.8) ">
<use xlink:href="#DIY_Online_and_Download_160x600_psd_Asset_1_05_alt_Why_pay__for_tax__software__0_Layer0_0_MEMBER_0_FILL"/>
</g>

<g transform="matrix( 3.4265289306640625, 0, 0, 3.426055908203125, 0.05,17.8) ">
<use xlink:href="#DIY_Online_and_Download_160x600_psd_Asset_1_05_alt_Why_pay__for_tax__software__0_Layer0_0_MEMBER_1_FILL"/>
</g>

<g transform="matrix( 3.4265289306640625, 0, 0, 3.426055908203125, 0.05,17.8) ">
<use xlink:href="#DIY_Online_and_Download_160x600_psd_Asset_1_05_alt_Why_pay__for_tax__software__0_Layer0_0_MEMBER_2_FILL"/>
</g>

<g transform="matrix( 3.4265289306640625, 0, 0, 3.426055908203125, 0.05,17.8) ">
<use xlink:href="#DIY_Online_and_Download_160x600_psd_Asset_1_05_alt_Why_pay__for_tax__software__0_Layer0_0_MEMBER_3_FILL"/>
</g>

<g transform="matrix( 3.4265289306640625, 0, 0, 3.426055908203125, 0.05,17.8) ">
<use xlink:href="#DIY_Online_and_Download_160x600_psd_Asset_1_05_alt_Why_pay__for_tax__software__0_Layer0_0_MEMBER_4_FILL"/>
</g>

<g transform="matrix( 3.4265289306640625, 0, 0, 3.426055908203125, 0.05,17.8) ">
<use xlink:href="#DIY_Online_and_Download_160x600_psd_Asset_1_05_alt_Why_pay__for_tax__software__0_Layer0_0_MEMBER_5_FILL"/>
</g>

<g transform="matrix( 3.4265289306640625, 0, 0, 3.426055908203125, 0.05,17.8) ">
<use xlink:href="#DIY_Online_and_Download_160x600_psd_Asset_1_05_alt_Why_pay__for_tax__software__0_Layer0_0_MEMBER_6_FILL"/>
</g>

<g transform="matrix( 3.4265289306640625, 0, 0, 3.426055908203125, 0.05,17.8) ">
<use xlink:href="#DIY_Online_and_Download_160x600_psd_Asset_1_05_alt_Why_pay__for_tax__software__0_Layer0_0_MEMBER_7_FILL"/>
</g>

<g transform="matrix( 3.4265289306640625, 0, 0, 3.426055908203125, 0.05,17.8) ">
<use xlink:href="#DIY_Online_and_Download_160x600_psd_Asset_1_05_alt_Why_pay__for_tax__software__0_Layer0_0_MEMBER_8_FILL"/>
</g>

<g transform="matrix( 3.4265289306640625, 0, 0, 3.426055908203125, 0.05,17.8) ">
<use xlink:href="#DIY_Online_and_Download_160x600_psd_Asset_1_05_alt_Why_pay__for_tax__software__0_Layer0_0_MEMBER_9_FILL"/>
</g>

<g transform="matrix( 3.4265289306640625, 0, 0, 3.426055908203125, 0.05,17.8) ">
<use xlink:href="#DIY_Online_and_Download_160x600_psd_Asset_1_05_alt_Why_pay__for_tax__software__0_Layer0_0_MEMBER_10_FILL"/>
</g>

<g transform="matrix( 3.4265289306640625, 0, 0, 3.426055908203125, 0.05,17.8) ">
<use xlink:href="#DIY_Online_and_Download_160x600_psd_Asset_1_05_alt_Why_pay__for_tax__software__0_Layer0_0_MEMBER_11_FILL"/>
</g>

<g transform="matrix( 3.4265289306640625, 0, 0, 3.426055908203125, 0.05,17.8) ">
<use xlink:href="#DIY_Online_and_Download_160x600_psd_Asset_1_05_alt_Why_pay__for_tax__software__0_Layer0_0_MEMBER_12_FILL"/>
</g>

<g transform="matrix( 3.4265289306640625, 0, 0, 3.426055908203125, 0.05,17.8) ">
<use xlink:href="#DIY_Online_and_Download_160x600_psd_Asset_1_05_alt_Why_pay__for_tax__software__0_Layer0_0_MEMBER_13_FILL"/>
</g>

<g transform="matrix( 3.4265289306640625, 0, 0, 3.426055908203125, 0.05,17.8) ">
<use xlink:href="#DIY_Online_and_Download_160x600_psd_Asset_1_05_alt_Why_pay__for_tax__software__0_Layer0_0_MEMBER_14_FILL"/>
</g>

<g transform="matrix( 3.4265289306640625, 0, 0, 3.426055908203125, 0.05,17.8) ">
<use xlink:href="#DIY_Online_and_Download_160x600_psd_Asset_1_05_alt_Why_pay__for_tax__software__0_Layer0_0_MEMBER_15_FILL"/>
</g>

<g transform="matrix( 3.4265289306640625, 0, 0, 3.426055908203125, 0.05,17.8) ">
<use xlink:href="#DIY_Online_and_Download_160x600_psd_Asset_1_05_alt_Why_pay__for_tax__software__0_Layer0_0_MEMBER_16_FILL"/>
</g>

<g transform="matrix( 3.4265289306640625, 0, 0, 3.426055908203125, 0.05,17.8) ">
<use xlink:href="#DIY_Online_and_Download_160x600_psd_Asset_1_05_alt_Why_pay__for_tax__software__0_Layer0_0_MEMBER_17_FILL"/>
</g>

<g transform="matrix( 3.4265289306640625, 0, 0, 3.426055908203125, 0.05,17.8) ">
<use xlink:href="#DIY_Online_and_Download_160x600_psd_Asset_1_05_alt_Why_pay__for_tax__software__0_Layer0_0_MEMBER_18_FILL"/>
</g>

<g transform="matrix( 3.4265289306640625, 0, 0, 3.426055908203125, 0.05,17.8) ">
<use xlink:href="#DIY_Online_and_Download_160x600_psd_Asset_1_05_alt_Why_pay__for_tax__software__0_Layer0_0_MEMBER_19_FILL"/>
</g>

<g transform="matrix( 3.4265289306640625, 0, 0, 3.426055908203125, 0.05,17.8) ">
<use xlink:href="#DIY_Online_and_Download_160x600_psd_Asset_1_05_alt_Why_pay__for_tax__software__0_Layer0_0_MEMBER_20_FILL"/>
</g>
</g>

<g transform="matrix( 1, 0, 0, 1, 701,279) ">
<g transform="matrix( 3.4265289306640625, 0, 0, 3.426055908203125, 65.05,10.8) ">
<use xlink:href="#DIY_Online_and_Download_160x600_psd_Asset_1_05_alt__copy_0_Layer0_0_MEMBER_0_FILL"/>
</g>

<g transform="matrix( 3.4265289306640625, 0, 0, 3.426055908203125, 65.05,10.8) ">
<use xlink:href="#DIY_Online_and_Download_160x600_psd_Asset_1_05_alt__copy_0_Layer0_0_MEMBER_1_FILL"/>
</g>

<g transform="matrix( 3.4265289306640625, 0, 0, 3.426055908203125, 65.05,10.8) ">
<use xlink:href="#DIY_Online_and_Download_160x600_psd_Asset_1_05_alt__copy_0_Layer0_0_MEMBER_2_FILL"/>
</g>

<g transform="matrix( 3.4265289306640625, 0, 0, 3.426055908203125, 65.05,10.8) ">
<use xlink:href="#DIY_Online_and_Download_160x600_psd_Asset_1_05_alt__copy_0_Layer0_0_MEMBER_3_FILL"/>
</g>

<g transform="matrix( 3.4265289306640625, 0, 0, 3.426055908203125, 65.05,10.8) ">
<use xlink:href="#DIY_Online_and_Download_160x600_psd_Asset_1_05_alt__copy_0_Layer0_0_MEMBER_4_FILL"/>
</g>

<g transform="matrix( 3.4265289306640625, 0, 0, 3.426055908203125, 65.05,10.8) ">
<use xlink:href="#DIY_Online_and_Download_160x600_psd_Asset_1_05_alt__copy_0_Layer0_0_MEMBER_5_FILL"/>
</g>

<g transform="matrix( 3.4265289306640625, 0, 0, 3.426055908203125, 65.05,10.8) ">
<use xlink:href="#DIY_Online_and_Download_160x600_psd_Asset_1_05_alt__copy_0_Layer0_0_MEMBER_6_FILL"/>
</g>

<g transform="matrix( 3.4265289306640625, 0, 0, 3.426055908203125, 65.05,10.8) ">
<use xlink:href="#DIY_Online_and_Download_160x600_psd_Asset_1_05_alt__copy_0_Layer0_0_MEMBER_7_FILL"/>
</g>

<g transform="matrix( 3.4265289306640625, 0, 0, 3.426055908203125, 65.05,10.8) ">
<use xlink:href="#DIY_Online_and_Download_160x600_psd_Asset_1_05_alt__copy_0_Layer0_0_MEMBER_8_FILL"/>
</g>

<g transform="matrix( 3.4265289306640625, 0, 0, 3.426055908203125, 65.05,10.8) ">
<use xlink:href="#DIY_Online_and_Download_160x600_psd_Asset_1_05_alt__copy_0_Layer0_0_MEMBER_9_FILL"/>
</g>

<g transform="matrix( 3.4265289306640625, 0, 0, 3.426055908203125, 65.05,10.8) ">
<use xlink:href="#DIY_Online_and_Download_160x600_psd_Asset_1_05_alt__copy_0_Layer0_0_MEMBER_10_FILL"/>
</g>

<g transform="matrix( 3.4265289306640625, 0, 0, 3.426055908203125, 65.05,10.8) ">
<use xlink:href="#DIY_Online_and_Download_160x600_psd_Asset_1_05_alt__copy_0_Layer0_0_MEMBER_11_FILL"/>
</g>

<g transform="matrix( 3.4265289306640625, 0, 0, 3.426055908203125, 65.05,10.8) ">
<use xlink:href="#DIY_Online_and_Download_160x600_psd_Asset_1_05_alt__copy_0_Layer0_0_MEMBER_12_FILL"/>
</g>

<g transform="matrix( 3.4265289306640625, 0, 0, 3.426055908203125, 65.05,10.8) ">
<use xlink:href="#DIY_Online_and_Download_160x600_psd_Asset_1_05_alt__copy_0_Layer0_0_MEMBER_13_FILL"/>
</g>

<g transform="matrix( 3.4265289306640625, 0, 0, 3.426055908203125, 65.05,10.8) ">
<use xlink:href="#DIY_Online_and_Download_160x600_psd_Asset_1_05_alt__copy_0_Layer0_0_MEMBER_14_FILL"/>
</g>
</g>
</g>
</svg>
