
<svg xmlns="http://www.w3.org/2000/svg" version="1.1" xmlns:xlink="http://www.w3.org/1999/xlink" preserveAspectRatio="none" x="0px" y="0px" width="160px" height="600px" viewBox="0 0 160 600">
<defs>
<g id="DIY_Online_and_Download_160x600_psd_Asset_02_File__Online_0_Layer0_0_MEMBER_0_FILL">
<path fill="#FFFFFF" stroke="none" d="
M 27.05 -15.3
L 27.05 -22.1 11.85 -22.1 11.85 -31.25 29.75 -31.25 29.75 -38.05 3 -38.05 3 0 11.85 0 11.85 -15.3 27.05 -15.3 Z"/>
</g>

<g id="DIY_Online_and_Download_160x600_psd_Asset_02_File__Online_0_Layer0_0_MEMBER_1_FILL">
<path fill="#FFFFFF" stroke="none" d="
M 44.75 -38.05
L 35.95 -38.05 35.95 0 44.75 0 44.75 -38.05 Z"/>
</g>

<g id="DIY_Online_and_Download_160x600_psd_Asset_02_File__Online_0_Layer0_0_MEMBER_2_FILL">
<path fill="#FFFFFF" stroke="none" d="
M 61.75 -6.8
L 61.75 -38.05 52.9 -38.05 52.9 0 78.15 0 78.15 -6.8 61.75 -6.8 Z"/>
</g>

<g id="DIY_Online_and_Download_160x600_psd_Asset_02_File__Online_0_Layer0_0_MEMBER_3_FILL">
<path fill="#FFFFFF" stroke="none" d="
M 109.95 -31.25
L 109.95 -38.05 83.5 -38.05 83.5 0 109.9 0 109.9 -6.8 92.35 -6.8 92.35 -16.3 107.25 -16.3 107.25 -23.05 92.35 -23.05 92.35 -31.25 109.95 -31.25 Z"/>
</g>

<g id="DIY_Online_and_Download_160x600_psd_Asset_02_File__Online_0_Layer0_0_MEMBER_4_FILL">
<path fill="#FFFFFF" stroke="none" d="
M 18.3 14.9
Q 11.15 14.9 6.6 19.5 2.1 24.1 2.1 31.05
L 2.1 37.9
Q 2.1 44.95 6.6 49.5 11.1 54.05 18.35 54.05 25.55 54.05 30 49.5 34.45 44.9 34.45 37.9
L 34.45 31.05
Q 34.45 24.1 29.95 19.5 25.45 14.9 18.3 14.9
M 12.8 24.3
Q 14.8 21.7 18.3 21.7 21.8 21.7 23.7 24.3 25.65 26.95 25.65 31
L 25.65 37.9
Q 25.65 42.05 23.7 44.65 21.85 47.25 18.35 47.25 14.7 47.25 12.85 44.65 10.9 42.05 10.9 37.9
L 10.9 31
Q 10.9 26.95 12.8 24.3 Z"/>
</g>

<g id="DIY_Online_and_Download_160x600_psd_Asset_02_File__Online_0_Layer0_0_MEMBER_5_FILL">
<path fill="#FFFFFF" stroke="none" d="
M 50 29.3
L 50.15 29.25 64.1 53.5 72.9 53.5 72.9 15.45 64.1 15.45 64.1 39.65 63.95 39.7 50 15.45 41.15 15.45 41.15 53.5 50 53.5 50 29.3 Z"/>
</g>

<g id="DIY_Online_and_Download_160x600_psd_Asset_02_File__Online_0_Layer0_0_MEMBER_6_FILL">
<path fill="#FFFFFF" stroke="none" d="
M 89.35 46.7
L 89.35 15.45 80.5 15.45 80.5 53.5 105.75 53.5 105.75 46.7 89.35 46.7 Z"/>
</g>

<g id="DIY_Online_and_Download_160x600_psd_Asset_02_File__Online_0_Layer0_0_MEMBER_7_FILL">
<path fill="#FFFFFF" stroke="none" d="
M 120.5 15.45
L 111.65 15.45 111.65 53.5 120.5 53.5 120.5 15.45 Z"/>
</g>

<g id="DIY_Online_and_Download_160x600_psd_Asset_02_File__Online_0_Layer0_0_MEMBER_8_FILL">
<path fill="#FFFFFF" stroke="none" d="
M 137.5 29.3
L 137.65 29.25 151.6 53.5 160.4 53.5 160.4 15.45 151.6 15.45 151.6 39.65 151.4 39.7 137.5 15.45 128.65 15.45 128.65 53.5 137.5 53.5 137.5 29.3 Z"/>
</g>

<g id="DIY_Online_and_Download_160x600_psd_Asset_02_File__Online_0_Layer0_0_MEMBER_9_FILL">
<path fill="#FFFFFF" stroke="none" d="
M 194.45 22.25
L 194.45 15.45 167.95 15.45 167.95 53.5 194.4 53.5 194.4 46.7 176.85 46.7 176.85 37.25 191.75 37.25 191.75 30.45 176.85 30.45 176.85 22.25 194.45 22.25 Z"/>
</g>
</defs>

<g transform="matrix( 1, 0, 0, 1, -440,0) ">
<g transform="matrix( 1, 0, 0, 1, 455,183) ">
<g transform="matrix( 0.66973876953125, 0, 0, 0.672821044921875, -0.6,25.65) ">
<use xlink:href="#DIY_Online_and_Download_160x600_psd_Asset_02_File__Online_0_Layer0_0_MEMBER_0_FILL"/>
</g>

<g transform="matrix( 0.66973876953125, 0, 0, 0.672821044921875, -0.6,25.65) ">
<use xlink:href="#DIY_Online_and_Download_160x600_psd_Asset_02_File__Online_0_Layer0_0_MEMBER_1_FILL"/>
</g>

<g transform="matrix( 0.66973876953125, 0, 0, 0.672821044921875, -0.6,25.65) ">
<use xlink:href="#DIY_Online_and_Download_160x600_psd_Asset_02_File__Online_0_Layer0_0_MEMBER_2_FILL"/>
</g>

<g transform="matrix( 0.66973876953125, 0, 0, 0.672821044921875, -0.6,25.65) ">
<use xlink:href="#DIY_Online_and_Download_160x600_psd_Asset_02_File__Online_0_Layer0_0_MEMBER_3_FILL"/>
</g>

<g transform="matrix( 0.66973876953125, 0, 0, 0.672821044921875, -0.6,25.65) ">
<use xlink:href="#DIY_Online_and_Download_160x600_psd_Asset_02_File__Online_0_Layer0_0_MEMBER_4_FILL"/>
</g>

<g transform="matrix( 0.66973876953125, 0, 0, 0.672821044921875, -0.6,25.65) ">
<use xlink:href="#DIY_Online_and_Download_160x600_psd_Asset_02_File__Online_0_Layer0_0_MEMBER_5_FILL"/>
</g>

<g transform="matrix( 0.66973876953125, 0, 0, 0.672821044921875, -0.6,25.65) ">
<use xlink:href="#DIY_Online_and_Download_160x600_psd_Asset_02_File__Online_0_Layer0_0_MEMBER_6_FILL"/>
</g>

<g transform="matrix( 0.66973876953125, 0, 0, 0.672821044921875, -0.6,25.65) ">
<use xlink:href="#DIY_Online_and_Download_160x600_psd_Asset_02_File__Online_0_Layer0_0_MEMBER_7_FILL"/>
</g>

<g transform="matrix( 0.66973876953125, 0, 0, 0.672821044921875, -0.6,25.65) ">
<use xlink:href="#DIY_Online_and_Download_160x600_psd_Asset_02_File__Online_0_Layer0_0_MEMBER_8_FILL"/>
</g>

<g transform="matrix( 0.66973876953125, 0, 0, 0.672821044921875, -0.6,25.65) ">
<use xlink:href="#DIY_Online_and_Download_160x600_psd_Asset_02_File__Online_0_Layer0_0_MEMBER_9_FILL"/>
</g>
</g>
</g>
</svg>
