
<svg xmlns="http://www.w3.org/2000/svg" version="1.1" xmlns:xlink="http://www.w3.org/1999/xlink" preserveAspectRatio="none" x="0px" y="0px" width="160px" height="600px" viewBox="0 0 160 600">
<defs>
<image id="DIY_Simple_to_Complicated_160x600_psd_Asset_1_08_alt_BTN_copy_Assets_Arrow" x="0" y="0" width="7" height="10" xlink:href="data:image/png;base64,iVBORw0KGgoAAAANSUhEUgAAAAcAAAAKCAYAAAB4zEQNAAAAwklEQVQYlWNgYGBg+Pjxo8qv
X78yGdDB69evJf/+/Xv5/79////8+jUFRfL2/HCLj9e2/ocBFAUN2gxs50pZat6emvf/39/f
EAV//qy8f/++AFzR/UUReV+fXf0BM+HX109zWGCSkiHTGZig7O+PTzM83VHPyLBq1Sq2379/
18B0fL1/9P+1bt1V+wsYBBheXNxk8ef7B4jEw+P/r/caIRx0qIBB8tHKlMsfLq//f32iJapX
GBgYGM42iKpcbJTFCAQAsiSCdPzbiHMAAAAASUVORK5CYII="/>

<g id="DIY_Simple_to_Complicated_160x600_psd_Asset_1_08_alt_BTN_copy_file_free_now_0_Layer0_0_MEMBER_0_FILL">
<path fill="#FFFFFF" stroke="none" d="
M 4.65 -5.8
L 0.6 -5.8 0.6 0 2 0 2 -2.2 4.4 -2.2 4.4 -3.35 2 -3.35 2 -4.6 4.65 -4.6 4.65 -5.8 Z"/>
</g>

<g id="DIY_Simple_to_Complicated_160x600_psd_Asset_1_08_alt_BTN_copy_file_free_now_0_Layer0_0_MEMBER_1_FILL">
<path fill="#FFFFFF" stroke="none" d="
M 7.2 -5.8
L 5.8 -5.8 5.8 0 7.2 0 7.2 -5.8 Z"/>
</g>

<g id="DIY_Simple_to_Complicated_160x600_psd_Asset_1_08_alt_BTN_copy_file_free_now_0_Layer0_0_MEMBER_2_FILL">
<path fill="#FFFFFF" stroke="none" d="
M 10.05 -5.8
L 8.65 -5.8 8.65 0 12.6 0 12.6 -1.2 10.05 -1.2 10.05 -5.8 Z"/>
</g>

<g id="DIY_Simple_to_Complicated_160x600_psd_Asset_1_08_alt_BTN_copy_file_free_now_0_Layer0_0_MEMBER_3_FILL">
<path fill="#FFFFFF" stroke="none" d="
M 15.15 -1.2
L 15.15 -2.35 17.65 -2.35 17.65 -3.55 15.15 -3.55 15.15 -4.6 17.9 -4.6 17.9 -5.8 13.7 -5.8 13.7 0 17.9 0 17.9 -1.2 15.15 -1.2 Z"/>
</g>

<g id="DIY_Simple_to_Complicated_160x600_psd_Asset_1_08_alt_BTN_copy_file_free_now_0_Layer0_0_MEMBER_4_FILL">
<path fill="#FFFFFF" stroke="none" d="
M 25.25 -5.8
L 21.15 -5.8 21.15 0 22.55 0 22.55 -2.2 25 -2.2 25 -3.35 22.55 -3.35 22.55 -4.6 25.25 -4.6 25.25 -5.8 Z"/>
</g>

<g id="DIY_Simple_to_Complicated_160x600_psd_Asset_1_08_alt_BTN_copy_file_free_now_0_Layer0_0_MEMBER_5_FILL">
<path fill="#FFFFFF" stroke="none" d="
M 27.75 -1.75
L 28.65 -1.75 29.65 0 31.3 0 30.15 -1.95
Q 31.2 -2.5 31.2 -3.75 31.2 -4.65 30.65 -5.2 30.1 -5.8 29.05 -5.8
L 26.3 -5.8 26.3 0 27.75 0 27.75 -1.75
M 28.85 -4.65
Q 29.8 -4.65 29.8 -3.75 29.8 -2.85 28.85 -2.85
L 27.75 -2.85 27.75 -4.65 28.85 -4.65 Z"/>
</g>

<g id="DIY_Simple_to_Complicated_160x600_psd_Asset_1_08_alt_BTN_copy_file_free_now_0_Layer0_0_MEMBER_6_FILL">
<path fill="#FFFFFF" stroke="none" d="
M 33.85 -1.2
L 33.85 -2.35 36.35 -2.35 36.35 -3.55 33.85 -3.55 33.85 -4.6 36.6 -4.6 36.6 -5.8 32.4 -5.8 32.4 0 36.6 0 36.6 -1.2 33.85 -1.2 Z"/>
</g>

<g id="DIY_Simple_to_Complicated_160x600_psd_Asset_1_08_alt_BTN_copy_file_free_now_0_Layer0_0_MEMBER_7_FILL">
<path fill="#FFFFFF" stroke="none" d="
M 39.25 -3.55
L 39.25 -4.6 42 -4.6 42 -5.8 37.8 -5.8 37.8 0 42.05 0 42.05 -1.2 39.25 -1.2 39.25 -2.35 41.75 -2.35 41.75 -3.55 39.25 -3.55 Z"/>
</g>

<g id="DIY_Simple_to_Complicated_160x600_psd_Asset_1_08_alt_BTN_copy_file_free_now_0_Layer0_0_MEMBER_8_FILL">
<path fill="#FFFFFF" stroke="none" d="
M 49.2 -5.8
L 44.65 -5.8 44.65 -4.6 46.2 -4.6 46.2 0 47.65 0 47.65 -4.6 49.2 -4.6 49.2 -5.8 Z"/>
</g>

<g id="DIY_Simple_to_Complicated_160x600_psd_Asset_1_08_alt_BTN_copy_file_free_now_0_Layer0_0_MEMBER_9_FILL">
<path fill="#FFFFFF" stroke="none" d="
M 49.9 -2.55
Q 49.9 -1.35 50.55 -0.65 51.25 0.1 52.55 0.1 53.85 0.1 54.6 -0.65 55.25 -1.35 55.25 -2.55
L 55.25 -3.3
Q 55.25 -4.45 54.6 -5.2 53.85 -5.95 52.55 -5.95 51.3 -5.95 50.55 -5.2 49.9 -4.45 49.9 -3.3
L 49.9 -2.55
M 51.35 -3.35
Q 51.35 -4.75 52.55 -4.75 53.8 -4.75 53.8 -3.35
L 53.8 -2.45
Q 53.8 -1.05 52.55 -1.05 51.35 -1.05 51.35 -2.45
L 51.35 -3.35 Z"/>
</g>

<g id="DIY_Simple_to_Complicated_160x600_psd_Asset_1_08_alt_BTN_copy_file_free_now_0_Layer0_0_MEMBER_10_FILL">
<path fill="#FFFFFF" stroke="none" d="
M 58.95 -5.8
L 56.4 -5.8 56.4 0 58.95 0
Q 60.1 0 60.8 -0.65 61.4 -1.25 61.4 -2.3
L 61.4 -3.5
Q 61.4 -4.55 60.8 -5.15 60.1 -5.8 58.95 -5.8
M 59.95 -3.5
L 59.95 -2.3
Q 59.95 -1.15 58.7 -1.15
L 57.85 -1.15 57.85 -4.65 58.7 -4.65
Q 59.95 -4.65 59.95 -3.5 Z"/>
</g>

<g id="DIY_Simple_to_Complicated_160x600_psd_Asset_1_08_alt_BTN_copy_file_free_now_0_Layer0_0_MEMBER_11_FILL">
<path fill="#FFFFFF" stroke="none" d="
M 63.65 -1.1
L 65.75 -1.1 66.05 0 67.5 0 65.4 -5.8 63.95 -5.8 61.9 0 63.3 0 63.65 -1.1
M 64 -2.2
L 64.7 -4.5 65.4 -2.2 64 -2.2 Z"/>
</g>

<g id="DIY_Simple_to_Complicated_160x600_psd_Asset_1_08_alt_BTN_copy_file_free_now_0_Layer0_0_MEMBER_12_FILL">
<path fill="#FFFFFF" stroke="none" d="
M 70.55 -2.05
L 72.5 -5.8 70.95 -5.8 69.85 -3.4 68.75 -5.8 67.2 -5.8 69.15 -2.05 69.15 0 70.55 0 70.55 -2.05 Z"/>
</g>

<g id="DIY_Simple_to_Complicated_160x600_psd_Asset_1_08_alt_Why_pay__for_tax__software__copy_0_Layer0_0_MEMBER_0_FILL">
<path fill="#FFFFFF" stroke="none" d="
M 3.55 -5
L 2.7 -5 1.85 -1.75 1.8 -1.75 1.2 -5 0.05 -5 1.2 0 2.25 0 3.1 -3.1 3.15 -3.1 3.95 0 5.05 0 6.2 -5 5 -5 4.4 -1.75 3.55 -5 Z"/>
</g>

<g id="DIY_Simple_to_Complicated_160x600_psd_Asset_1_08_alt_Why_pay__for_tax__software__copy_0_Layer0_0_MEMBER_1_FILL">
<path fill="#FFFFFF" stroke="none" d="
M 7.6 -2
L 9.45 -2 9.45 0 10.6 0 10.6 -5 9.45 -5 9.45 -2.9 7.6 -2.9 7.6 -5 6.45 -5 6.45 0 7.6 0 7.6 -2 Z"/>
</g>

<g id="DIY_Simple_to_Complicated_160x600_psd_Asset_1_08_alt_Why_pay__for_tax__software__copy_0_Layer0_0_MEMBER_2_FILL">
<path fill="#FFFFFF" stroke="none" d="
M 12.95 -2.8
L 12 -5 10.75 -5 12.4 -1.8 12.4 0 13.55 0 13.55 -1.75 15.25 -5 14 -5 13 -2.8 12.95 -2.8 Z"/>
</g>

<g id="DIY_Simple_to_Complicated_160x600_psd_Asset_1_08_alt_Why_pay__for_tax__software__copy_0_Layer0_0_MEMBER_3_FILL">
<path fill="#FFFFFF" stroke="none" d="
M 18.15 -1.7
L 18.9 -1.7
Q 19.8 -1.7 20.3 -2.15 20.85 -2.6 20.85 -3.35 20.85 -4.1 20.3 -4.55 19.8 -5 18.9 -5
L 17 -5 17 0 18.15 0 18.15 -1.7
M 19.5 -3.9
Q 19.7 -3.6 19.7 -3.35 19.7 -3.1 19.5 -2.8 19.3 -2.6 18.9 -2.6
L 18.15 -2.6 18.15 -4.1 18.9 -4.1
Q 19.2 -4.1 19.5 -3.9 Z"/>
</g>

<g id="DIY_Simple_to_Complicated_160x600_psd_Asset_1_08_alt_Why_pay__for_tax__software__copy_0_Layer0_0_MEMBER_4_FILL">
<path fill="#FFFFFF" stroke="none" d="
M 23.15 -5
L 21.95 -5 20.3 0 21.55 0 21.8 -0.95 23.3 -0.95 23.6 0 24.8 0 23.15 -5
M 22.1 -1.85
L 22.55 -3.4 23.05 -1.85 22.1 -1.85 Z"/>
</g>

<g id="DIY_Simple_to_Complicated_160x600_psd_Asset_1_08_alt_Why_pay__for_tax__software__copy_0_Layer0_0_MEMBER_5_FILL">
<path fill="#FFFFFF" stroke="none" d="
M 26.15 -2.8
L 25.15 -5 23.9 -5 25.55 -1.8 25.55 0 26.7 0 26.7 -1.75 28.4 -5 27.15 -5 26.15 -2.8 Z"/>
</g>

<g id="DIY_Simple_to_Complicated_160x600_psd_Asset_1_08_alt_Why_pay__for_tax__software__copy_0_Layer0_0_MEMBER_6_FILL">
<path fill="#FFFFFF" stroke="none" d="
M 3.4 5
L 3.4 4.1 1.55 4.1 1.55 2.9 3.7 2.9 3.7 2 0.4 2 0.4 7 1.55 7 1.55 5 3.4 5 Z"/>
</g>

<g id="DIY_Simple_to_Complicated_160x600_psd_Asset_1_08_alt_Why_pay__for_tax__software__copy_0_Layer0_0_MEMBER_7_FILL">
<path fill="#FFFFFF" stroke="none" d="
M 8.25 4.95
L 8.25 4.05
Q 8.25 3.2 7.7 2.55 7.1 1.95 6.15 1.95 5.2 1.95 4.65 2.55 4.05 3.15 4.05 4.05
L 4.05 4.95
Q 4.05 5.9 4.65 6.5 5.2 7.1 6.15 7.1 7.1 7.1 7.7 6.5 8.25 5.95 8.25 4.95
M 7.1 4.05
L 7.1 4.95
Q 7.1 5.55 6.85 5.85 6.6 6.2 6.15 6.2 5.7 6.2 5.45 5.85 5.2 5.45 5.2 4.95
L 5.2 4.05
Q 5.2 3.45 5.45 3.2 5.65 2.85 6.15 2.85 6.65 2.85 6.85 3.2 7.1 3.45 7.1 4.05 Z"/>
</g>

<g id="DIY_Simple_to_Complicated_160x600_psd_Asset_1_08_alt_Why_pay__for_tax__software__copy_0_Layer0_0_MEMBER_8_FILL">
<path fill="#FFFFFF" stroke="none" d="
M 11.9 2.45
Q 11.4 2 10.55 2
L 8.8 2 8.8 7 9.95 7 9.95 5.1 10.55 5.1
Q 10.95 5.1 11.15 5.3 11.3 5.45 11.3 5.85
L 11.3 6.15 11.35 6.65
Q 11.45 6.95 11.55 7
L 12.75 7 12.75 6.95 12.5 6.6 12.45 6.15 12.45 5.8
Q 12.45 5.3 12.25 5.05 12.1 4.75 11.6 4.65
L 12.2 4.2
Q 12.4 3.95 12.4 3.5 12.4 2.8 11.9 2.45
M 11.05 4.05
Q 10.9 4.2 10.55 4.2
L 9.95 4.2 9.95 2.9 10.55 2.9
Q 10.85 2.9 11.05 3.1 11.25 3.25 11.25 3.6 11.25 3.9 11.05 4.05 Z"/>
</g>

<g id="DIY_Simple_to_Complicated_160x600_psd_Asset_1_08_alt_Why_pay__for_tax__software__copy_0_Layer0_0_MEMBER_9_FILL">
<path fill="#FFFFFF" stroke="none" d="
M 18.15 2.9
L 18.15 2 14.35 2 14.35 2.9 15.65 2.9 15.65 7 16.8 7 16.8 2.9 18.15 2.9 Z"/>
</g>

<g id="DIY_Simple_to_Complicated_160x600_psd_Asset_1_08_alt_Why_pay__for_tax__software__copy_0_Layer0_0_MEMBER_10_FILL">
<path fill="#FFFFFF" stroke="none" d="
M 20.65 6.05
L 20.95 7 22.15 7 20.55 2 19.3 2 17.65 7 18.9 7 19.15 6.05 20.65 6.05
M 19.45 5.15
L 19.9 3.6 20.4 5.15 19.45 5.15 Z"/>
</g>

<g id="DIY_Simple_to_Complicated_160x600_psd_Asset_1_08_alt_Why_pay__for_tax__software__copy_0_Layer0_0_MEMBER_11_FILL">
<path fill="#FFFFFF" stroke="none" d="
M 24.15 3.7
L 23.35 2 22.05 2 23.45 4.5 22 7 23.35 7 24.2 5.3 25 7 26.45 7 24.9 4.5 26.3 2 25 2 24.15 3.7 Z"/>
</g>

<g id="DIY_Simple_to_Complicated_160x600_psd_Asset_1_08_alt_Why_pay__for_tax__software__copy_0_Layer0_0_MEMBER_12_FILL">
<path fill="#FFFFFF" stroke="none" d="
M 0.8 11.35
Q 1.4 11.75 2.15 12
L 2.8 12.3
Q 2.95 12.45 2.95 12.7 2.95 12.9 2.8 13.05 2.6 13.2 2.25 13.2 1.85 13.2 1.6 13.05 1.4 12.85 1.4 12.4
L 0.25 12.4 0.25 12.45
Q 0.25 13.3 0.8 13.7 1.45 14.1 2.25 14.1 3.05 14.1 3.6 13.7 4.1 13.35 4.1 12.7 4.1 12.05 3.7 11.65 3.25 11.3 2.35 11.05
L 1.65 10.7
Q 1.5 10.65 1.5 10.35 1.5 10.15 1.65 10 1.9 9.85 2.15 9.85 2.55 9.85 2.75 10 2.95 10.2 2.95 10.5
L 4.05 10.5
Q 4.05 9.7 3.55 9.35 3 8.95 2.2 8.95 1.4 8.95 0.85 9.35 0.35 9.7 0.35 10.35 0.35 11 0.8 11.35 Z"/>
</g>

<g id="DIY_Simple_to_Complicated_160x600_psd_Asset_1_08_alt_Why_pay__for_tax__software__copy_0_Layer0_0_MEMBER_13_FILL">
<path fill="#FFFFFF" stroke="none" d="
M 5.05 9.55
Q 4.5 10.2 4.5 11.05
L 4.5 11.95
Q 4.5 12.85 5.05 13.5 5.65 14.1 6.6 14.1 7.55 14.1 8.15 13.5 8.7 12.85 8.7 11.95
L 8.7 11.05
Q 8.7 10.2 8.15 9.55 7.55 8.95 6.6 8.95 5.65 8.95 5.05 9.55
M 5.9 10.2
Q 6.1 9.85 6.6 9.85 7.1 9.85 7.3 10.2 7.55 10.45 7.55 11.05
L 7.55 11.95
Q 7.55 12.55 7.3 12.85 7.1 13.2 6.6 13.2 6.1 13.2 5.9 12.85 5.65 12.55 5.65 11.95
L 5.65 11.05
Q 5.65 10.45 5.9 10.2 Z"/>
</g>

<g id="DIY_Simple_to_Complicated_160x600_psd_Asset_1_08_alt_Why_pay__for_tax__software__copy_0_Layer0_0_MEMBER_14_FILL">
<path fill="#FFFFFF" stroke="none" d="
M 12.2 12
L 12.2 11.1 10.4 11.1 10.4 9.9 12.55 9.9 12.55 9.05 9.25 9.05 9.25 14 10.4 14 10.4 12 12.2 12 Z"/>
</g>

<g id="DIY_Simple_to_Complicated_160x600_psd_Asset_1_08_alt_Why_pay__for_tax__software__copy_0_Layer0_0_MEMBER_15_FILL">
<path fill="#FFFFFF" stroke="none" d="
M 16.45 9.9
L 16.45 9.05 12.7 9.05 12.7 9.9 13.95 9.9 13.95 14 15.15 14 15.15 9.9 16.45 9.9 Z"/>
</g>

<g id="DIY_Simple_to_Complicated_160x600_psd_Asset_1_08_alt_Why_pay__for_tax__software__copy_0_Layer0_0_MEMBER_16_FILL">
<path fill="#FFFFFF" stroke="none" d="
M 21.4 9.05
L 20.8 12.25 19.95 9.05 19.05 9.05 18.25 12.25 18.2 12.25 17.6 9.05 16.45 9.05 17.6 14 18.65 14 19.5 10.95 20.35 14 21.45 14 22.6 9.05 21.4 9.05 Z"/>
</g>

<g id="DIY_Simple_to_Complicated_160x600_psd_Asset_1_08_alt_Why_pay__for_tax__software__copy_0_Layer0_0_MEMBER_17_FILL">
<path fill="#FFFFFF" stroke="none" d="
M 25.2 9.05
L 23.95 9.05 22.35 14 23.55 14 23.85 13.05 25.3 13.05 25.6 14 26.8 14 25.2 9.05
M 24.1 12.15
L 24.55 10.6 24.6 10.6 25.05 12.15 24.1 12.15 Z"/>
</g>

<g id="DIY_Simple_to_Complicated_160x600_psd_Asset_1_08_alt_Why_pay__for_tax__software__copy_0_Layer0_0_MEMBER_18_FILL">
<path fill="#FFFFFF" stroke="none" d="
M 30.4 11.2
Q 30.6 10.95 30.6 10.5 30.6 9.8 30.1 9.45 29.65 9.05 28.75 9.05
L 27 9.05 27 14 28.15 14 28.15 12.1 28.8 12.1
Q 29.15 12.1 29.35 12.3 29.5 12.45 29.5 12.85
L 29.5 13.15 29.55 13.65
Q 29.65 13.95 29.75 14
L 30.95 14 30.95 13.95
Q 30.75 13.75 30.75 13.6
L 30.65 13.15 30.65 12.85
Q 30.65 12.3 30.45 12.05 30.35 11.85 29.8 11.65 30.25 11.45 30.4 11.2
M 29.25 10.1
Q 29.45 10.3 29.45 10.6 29.45 10.9 29.3 11.05 29.1 11.2 28.75 11.2
L 28.15 11.2 28.15 9.9 28.75 9.9
Q 29.05 9.9 29.25 10.1 Z"/>
</g>

<g id="DIY_Simple_to_Complicated_160x600_psd_Asset_1_08_alt_Why_pay__for_tax__software__copy_0_Layer0_0_MEMBER_19_FILL">
<path fill="#FFFFFF" stroke="none" d="
M 34.2 11.9
L 34.2 11 32.45 11 32.45 9.9 34.55 9.9 34.55 9.05 31.3 9.05 31.3 14 34.55 14 34.55 13.1 32.45 13.1 32.45 11.9 34.2 11.9 Z"/>
</g>

<g id="DIY_Simple_to_Complicated_160x600_psd_Asset_1_08_alt_Why_pay__for_tax__software__copy_0_Layer0_0_MEMBER_20_FILL">
<path fill="#FFFFFF" stroke="none" d="
M 36.85 14
L 36.85 13.1 35.7 13.1 35.7 14 36.85 14
M 35.15 9.3
Q 34.7 9.7 34.7 10.4
L 35.85 10.4
Q 35.85 10.15 36 10 36.15 9.85 36.35 9.85 36.65 9.85 36.8 10 36.95 10.25 36.95 10.5
L 36.85 10.95
Q 36.65 11.25 36.45 11.3
L 35.85 11.85
Q 35.7 12.15 35.7 12.6
L 36.85 12.6 36.9 12.15
Q 37 11.9 37.2 11.85 37.6 11.65 37.85 11.25 38.1 10.95 38.1 10.5 38.1 9.8 37.65 9.35 37.15 8.95 36.35 8.95 35.7 8.95 35.15 9.3 Z"/>
</g>

<g id="DIY_Simple_to_Complicated_160x600_psd_Asset_1_08_alt__copy_2_0_Layer0_0_MEMBER_0_FILL">
<path fill="#FFFFFF" stroke="none" d="
M -7.75 -2.5
Q -8 -2.75 -8.45 -2.75 -8.85 -2.75 -9.1 -2.5 -9.35 -2.35 -9.35 -2 -9.35 -1.7 -9.15 -1.5 -8.85 -1.25 -8.45 -1.2 -8.3 -1.15 -7.95 -1 -7.85 -0.9 -7.85 -0.7 -7.85 -0.5 -8 -0.35
L -8.45 -0.25
Q -8.65 -0.25 -8.9 -0.4 -9.1 -0.45 -9.1 -0.8
L -9.45 -0.8 -9.45 -0.75
Q -9.45 -0.4 -9.15 -0.2 -8.8 0.05 -8.45 0.05 -8.05 0.05 -7.75 -0.15 -7.45 -0.35 -7.45 -0.7 -7.45 -0.95 -7.7 -1.2 -7.95 -1.45 -8.35 -1.5
L -8.85 -1.7 -9 -2
Q -9 -2.2 -8.85 -2.35
L -8.45 -2.45
Q -8.15 -2.45 -8 -2.3 -7.85 -2.15 -7.85 -1.9
L -7.5 -1.9 -7.5 -1.95
Q -7.4 -2.25 -7.75 -2.5 Z"/>
</g>

<g id="DIY_Simple_to_Complicated_160x600_psd_Asset_1_08_alt__copy_2_0_Layer0_0_MEMBER_1_FILL">
<path fill="#FFFFFF" stroke="none" d="
M -6.65 -2.7
L -7 -2.7 -7 0 -6.65 0 -6.65 -2.7 Z"/>
</g>

<g id="DIY_Simple_to_Complicated_160x600_psd_Asset_1_08_alt__copy_2_0_Layer0_0_MEMBER_2_FILL">
<path fill="#FFFFFF" stroke="none" d="
M -5.6 -2.7
L -6.05 -2.7 -6.05 0 -5.7 0 -5.7 -2.15 -4.85 0 -4.6 0 -3.7 -2.15 -3.75 0 -3.4 0 -3.4 -2.7 -3.85 -2.7 -4.7 -0.5 -5.6 -2.7 Z"/>
</g>

<g id="DIY_Simple_to_Complicated_160x600_psd_Asset_1_08_alt__copy_2_0_Layer0_0_MEMBER_3_FILL">
<path fill="#FFFFFF" stroke="none" d="
M -0.85 -1.9
Q -0.85 -2.25 -1.1 -2.5 -1.4 -2.7 -1.8 -2.7
L -2.8 -2.7 -2.8 0 -2.45 0 -2.45 -1.1 -1.8 -1.1
Q -1.3 -1.1 -1.1 -1.3 -0.85 -1.55 -0.85 -1.9
M -2.45 -2.4
L -1.8 -2.4
Q -1.5 -2.4 -1.35 -2.25
L -1.25 -1.9 -1.35 -1.5
Q -1.5 -1.35 -1.8 -1.35
L -2.45 -1.35 -2.45 -2.4 Z"/>
</g>

<g id="DIY_Simple_to_Complicated_160x600_psd_Asset_1_08_alt__copy_2_0_Layer0_0_MEMBER_4_FILL">
<path fill="#FFFFFF" stroke="none" d="
M -0.1 -0.3
L -0.1 -2.7 -0.45 -2.7 -0.45 0 1.15 0 1.15 -0.3 -0.1 -0.3 Z"/>
</g>

<g id="DIY_Simple_to_Complicated_160x600_psd_Asset_1_08_alt__copy_2_0_Layer0_0_MEMBER_5_FILL">
<path fill="#FFFFFF" stroke="none" d="
M 1.85 -0.3
L 1.85 -1.25 3.1 -1.25 3.1 -1.55 1.85 -1.55 1.85 -2.4 3.25 -2.4 3.25 -2.7 1.5 -2.7 1.5 0 3.25 0 3.25 -0.3 1.85 -0.3 Z"/>
</g>

<g id="DIY_Simple_to_Complicated_160x600_psd_Asset_1_08_alt__copy_2_0_Layer0_0_MEMBER_6_FILL">
<path fill="#FFFFFF" stroke="none" d="
M 6.3 -2.4
L 6.3 -2.7 4.2 -2.7 4.2 -2.4 5.05 -2.4 5.05 0 5.4 0 5.4 -2.4 6.3 -2.4 Z"/>
</g>

<g id="DIY_Simple_to_Complicated_160x600_psd_Asset_1_08_alt__copy_2_0_Layer0_0_MEMBER_7_FILL">
<path fill="#FFFFFF" stroke="none" d="
M 7.45 -2.75
Q 7 -2.75 6.7 -2.4 6.4 -2.1 6.4 -1.6
L 6.4 -1.1
Q 6.4 -0.6 6.7 -0.3 7 0.05 7.45 0.05 7.95 0.05 8.25 -0.3 8.55 -0.6 8.55 -1.1
L 8.55 -1.6
Q 8.55 -2.1 8.25 -2.4 7.95 -2.75 7.45 -2.75
M 6.75 -1.6
Q 6.75 -1.9 6.95 -2.2 7.2 -2.45 7.45 -2.45 7.75 -2.45 8 -2.2 8.2 -2 8.2 -1.6
L 8.2 -1.1
Q 8.2 -0.7 8 -0.5 7.75 -0.25 7.45 -0.25 7.2 -0.25 6.95 -0.5 6.75 -0.8 6.75 -1.1
L 6.75 -1.6 Z"/>
</g>

<g id="DIY_Simple_to_Complicated_160x600_psd_Asset_1_08_alt__copy_2_0_Layer0_0_MEMBER_8_FILL">
<path fill="#FFFFFF" stroke="none" d="
M -11.55 2.5
Q -11.95 2.5 -12.3 2.85 -12.55 3.2 -12.55 3.65
L -12.55 4.15
Q -12.55 4.6 -12.3 4.95 -12 5.3 -11.55 5.3 -11.15 5.3 -10.8 5.05 -10.55 4.7 -10.55 4.4
L -10.9 4.4
Q -10.9 4.7 -11.05 4.85 -11.25 5 -11.55 5 -11.85 5 -12 4.75 -12.2 4.55 -12.2 4.15
L -12.2 3.65
Q -12.2 3.25 -12 3.05 -11.85 2.8 -11.55 2.8 -11.25 2.8 -11.05 2.95 -10.9 3.2 -10.9 3.4
L -10.55 3.4
Q -10.55 3 -10.8 2.75 -11.15 2.5 -11.55 2.5 Z"/>
</g>

<g id="DIY_Simple_to_Complicated_160x600_psd_Asset_1_08_alt__copy_2_0_Layer0_0_MEMBER_9_FILL">
<path fill="#FFFFFF" stroke="none" d="
M -9.2 2.5
Q -9.7 2.5 -9.95 2.85 -10.25 3.15 -10.25 3.65
L -10.25 4.15
Q -10.25 4.65 -9.95 4.95 -9.75 5.3 -9.2 5.3 -8.7 5.3 -8.4 4.95 -8.1 4.65 -8.1 4.15
L -8.1 3.65
Q -8.1 3.15 -8.4 2.85 -8.75 2.5 -9.2 2.5
M -9.2 2.8
Q -8.9 2.8 -8.65 3.05 -8.45 3.35 -8.45 3.65
L -8.45 4.15
Q -8.45 4.45 -8.65 4.75 -8.9 5 -9.2 5 -9.55 5 -9.7 4.75 -9.9 4.55 -9.9 4.15
L -9.9 3.65
Q -9.9 3.25 -9.7 3.05 -9.55 2.8 -9.2 2.8 Z"/>
</g>

<g id="DIY_Simple_to_Complicated_160x600_psd_Asset_1_08_alt__copy_2_0_Layer0_0_MEMBER_10_FILL">
<path fill="#FFFFFF" stroke="none" d="
M -5 5.25
L -5 2.55 -5.45 2.55 -6.3 4.75 -6.35 4.75 -7.2 2.55 -7.65 2.55 -7.65 5.25 -7.3 5.25 -7.3 3.1 -6.45 5.25 -6.2 5.25 -5.35 3.1 -5.3 3.1 -5.35 5.25 -5 5.25 Z"/>
</g>

<g id="DIY_Simple_to_Complicated_160x600_psd_Asset_1_08_alt__copy_2_0_Layer0_0_MEMBER_11_FILL">
<path fill="#FFFFFF" stroke="none" d="
M -3.4 2.55
L -4.4 2.55 -4.4 5.25 -4.05 5.25 -4.05 4.15 -3.4 4.15
Q -2.9 4.15 -2.7 3.95 -2.45 3.7 -2.45 3.35 -2.45 3.05 -2.7 2.8 -2.95 2.55 -3.4 2.55
M -3.4 2.85
Q -3.05 2.85 -3 3 -2.85 3.15 -2.85 3.35
L -2.95 3.75
Q -3.1 3.9 -3.4 3.9
L -4.05 3.9 -4.05 2.85 -3.4 2.85 Z"/>
</g>

<g id="DIY_Simple_to_Complicated_160x600_psd_Asset_1_08_alt__copy_2_0_Layer0_0_MEMBER_12_FILL">
<path fill="#FFFFFF" stroke="none" d="
M -1.7 4.95
L -1.7 2.55 -2.1 2.55 -2.1 5.25 -0.45 5.25 -0.45 4.95 -1.7 4.95 Z"/>
</g>

<g id="DIY_Simple_to_Complicated_160x600_psd_Asset_1_08_alt__copy_2_0_Layer0_0_MEMBER_13_FILL">
<path fill="#FFFFFF" stroke="none" d="
M 0.25 5.25
L 0.25 2.55 -0.1 2.55 -0.1 5.25 0.25 5.25 Z"/>
</g>

<g id="DIY_Simple_to_Complicated_160x600_psd_Asset_1_08_alt__copy_2_0_Layer0_0_MEMBER_14_FILL">
<path fill="#FFFFFF" stroke="none" d="
M 1.75 2.5
Q 1.3 2.5 1.05 2.85 0.75 3.15 0.75 3.65
L 0.75 4.15
Q 0.75 4.65 1.05 4.95 1.25 5.3 1.75 5.3 2.15 5.3 2.5 5.05 2.75 4.8 2.75 4.4
L 2.4 4.4
Q 2.4 4.7 2.25 4.85 2.1 5 1.75 5 1.45 5 1.3 4.75 1.1 4.55 1.1 4.15
L 1.1 3.65
Q 1.1 3.25 1.3 3.05 1.45 2.8 1.75 2.8 2.1 2.8 2.25 2.95
L 2.4 3.4 2.75 3.4
Q 2.75 2.95 2.5 2.75 2.15 2.5 1.75 2.5 Z"/>
</g>

<g id="DIY_Simple_to_Complicated_160x600_psd_Asset_1_08_alt__copy_2_0_Layer0_0_MEMBER_15_FILL">
<path fill="#FFFFFF" stroke="none" d="
M 4.2 2.55
L 3.9 2.55 2.85 5.25 3.25 5.25 3.5 4.55 4.6 4.55 4.85 5.25 5.25 5.25 4.2 2.55
M 4.5 4.25
L 3.6 4.25 4.05 3 4.5 4.25 Z"/>
</g>

<g id="DIY_Simple_to_Complicated_160x600_psd_Asset_1_08_alt__copy_2_0_Layer0_0_MEMBER_16_FILL">
<path fill="#FFFFFF" stroke="none" d="
M 7.35 2.85
L 7.35 2.55 5.25 2.55 5.25 2.85 6.1 2.85 6.1 5.25 6.5 5.25 6.5 2.85 7.35 2.85 Z"/>
</g>

<g id="DIY_Simple_to_Complicated_160x600_psd_Asset_1_08_alt__copy_2_0_Layer0_0_MEMBER_17_FILL">
<path fill="#FFFFFF" stroke="none" d="
M 9.4 2.55
L 7.65 2.55 7.65 5.25 9.45 5.25 9.45 4.95 8 4.95 8 4 9.25 4 9.25 3.7 8 3.7 8 2.85 9.4 2.85 9.4 2.55 Z"/>
</g>

<g id="DIY_Simple_to_Complicated_160x600_psd_Asset_1_08_alt__copy_2_0_Layer0_0_MEMBER_18_FILL">
<path fill="#FFFFFF" stroke="none" d="
M 11.45 2.9
Q 11.15 2.55 10.6 2.55
L 9.75 2.55 9.75 5.25 10.6 5.25
Q 11.15 5.25 11.45 4.95 11.75 4.6 11.75 4.1
L 11.75 3.7
Q 11.75 3.2 11.45 2.9
M 10.15 2.85
L 10.6 2.85
Q 10.95 2.85 11.2 3.1 11.4 3.3 11.4 3.7
L 11.4 4.1
Q 11.4 4.5 11.2 4.7 11 4.95 10.6 4.95
L 10.15 4.95 10.15 2.85 Z"/>
</g>

<g id="DIY_Simple_to_Complicated_160x600_psd_Asset_1_08_alt__copy_2_0_Layer0_0_MEMBER_19_FILL">
<path fill="#FFFFFF" stroke="none" d="
M -6.3 8
Q -6.6 7.8 -7 7.8
L -7.95 7.8 -7.95 10.5 -7.6 10.5 -7.6 9.35 -6.9 9.35 -6.55 9.45 -6.45 9.8 -6.45 10.05 -6.35 10.5 -5.95 10.5 -5.95 10.45 -6.05 10.3 -6.1 10.05 -6.1 9.8 -6.15 9.4 -6.5 9.2 -6.2 8.95
Q -6.05 8.8 -6.05 8.6 -6.05 8.25 -6.3 8
M -6.55 8.95
L -7 9.05 -7.6 9.05 -7.6 8.1 -7 8.1 -6.55 8.2
Q -6.45 8.4 -6.45 8.6
L -6.55 8.95 Z"/>
</g>

<g id="DIY_Simple_to_Complicated_160x600_psd_Asset_1_08_alt__copy_2_0_Layer0_0_MEMBER_20_FILL">
<path fill="#FFFFFF" stroke="none" d="
M -5.15 10.2
L -5.15 9.25 -3.95 9.25 -3.95 8.95 -5.15 8.95 -5.15 8.1 -3.75 8.1 -3.75 7.8 -5.55 7.8 -5.55 10.5 -3.75 10.5 -3.75 10.2 -5.15 10.2 Z"/>
</g>

<g id="DIY_Simple_to_Complicated_160x600_psd_Asset_1_08_alt__copy_2_0_Layer0_0_MEMBER_21_FILL">
<path fill="#FFFFFF" stroke="none" d="
M -1.55 8.1
L -1.55 7.8 -3.65 7.8 -3.65 8.1 -2.8 8.1 -2.8 10.5 -2.4 10.5 -2.4 8.1 -1.55 8.1 Z"/>
</g>

<g id="DIY_Simple_to_Complicated_160x600_psd_Asset_1_08_alt__copy_2_0_Layer0_0_MEMBER_22_FILL">
<path fill="#FFFFFF" stroke="none" d="
M 0.7 7.8
L 0.35 7.8 0.35 9.65
Q 0.35 9.95 0.15 10.1 0 10.25 -0.3 10.25 -0.6 10.25 -0.75 10.1 -0.95 9.95 -0.95 9.65
L -0.95 7.8 -1.3 7.8 -1.3 9.65
Q -1.3 10.05 -1.05 10.3 -0.7 10.55 -0.3 10.55 0.1 10.55 0.45 10.3 0.7 10.1 0.7 9.65
L 0.7 7.8 Z"/>
</g>

<g id="DIY_Simple_to_Complicated_160x600_psd_Asset_1_08_alt__copy_2_0_Layer0_0_MEMBER_23_FILL">
<path fill="#FFFFFF" stroke="none" d="
M 3.1 8.6
Q 3.1 8.2 2.9 8 2.5 7.8 2.2 7.8
L 1.25 7.8 1.25 10.5 1.6 10.5 1.6 9.35 2.25 9.35 2.6 9.45
Q 2.75 9.6 2.75 9.8
L 2.75 10.3 2.85 10.5 3.25 10.5 3.25 10.45 3.15 10.3 3.1 10.05 3.1 9.8 3 9.4
Q 2.95 9.3 2.7 9.2
L 3 8.95
Q 3.1 8.85 3.1 8.6
M 2.75 8.6
Q 2.75 8.8 2.6 8.95
L 2.15 9.05 1.6 9.05 1.6 8.1 2.2 8.1
Q 2.5 8.1 2.6 8.2 2.75 8.35 2.75 8.6 Z"/>
</g>

<g id="DIY_Simple_to_Complicated_160x600_psd_Asset_1_08_alt__copy_2_0_Layer0_0_MEMBER_24_FILL">
<path fill="#FFFFFF" stroke="none" d="
M 4 10.5
L 4 8.4 5.3 10.5 5.7 10.5 5.7 7.8 5.3 7.8 5.3 9.9 4 7.8 3.65 7.8 3.65 10.5 4 10.5 Z"/>
</g>

<g id="DIY_Simple_to_Complicated_160x600_psd_Asset_1_08_alt__copy_2_0_Layer0_0_MEMBER_25_FILL">
<path fill="#FFFFFF" stroke="none" d="
M 8.05 8.6
Q 8.1 8.3 7.8 8 7.55 7.75 7.1 7.75 6.7 7.75 6.45 8 6.2 8.15 6.2 8.5 6.2 8.9 6.45 9 6.7 9.25 7.1 9.3
L 7.6 9.5
Q 7.75 9.65 7.75 9.85 7.75 9.95 7.55 10.15
L 7.15 10.25
Q 6.9 10.25 6.65 10.1 6.45 10 6.45 9.75
L 6.1 9.75
Q 6.1 10.15 6.4 10.35 6.8 10.55 7.15 10.55 7.6 10.55 7.8 10.35 8.1 10.15 8.1 9.8 8.1 9.55 7.85 9.3 7.45 9.05 7.2 9 6.8 8.9 6.7 8.8
L 6.55 8.5
Q 6.55 8.3 6.7 8.2 6.85 8.05 7.1 8.05 7.4 8.05 7.55 8.2 7.7 8.35 7.7 8.6
L 8.05 8.6 Z"/>
</g>
</defs>

<g transform="matrix( 1, 0, 0, 1, -1076,0) ">
<g transform="matrix( 1, 0, 0, 1, 1092,230) ">
<g transform="matrix( 1, 0, 0, 1, 11,7) ">
<g transform="matrix( 1.2587890625, 0, 0, 1.25994873046875, -0.1,7.55) ">
<use xlink:href="#DIY_Simple_to_Complicated_160x600_psd_Asset_1_08_alt_BTN_copy_file_free_now_0_Layer0_0_MEMBER_0_FILL"/>
</g>

<g transform="matrix( 1.2587890625, 0, 0, 1.25994873046875, -0.1,7.55) ">
<use xlink:href="#DIY_Simple_to_Complicated_160x600_psd_Asset_1_08_alt_BTN_copy_file_free_now_0_Layer0_0_MEMBER_1_FILL"/>
</g>

<g transform="matrix( 1.2587890625, 0, 0, 1.25994873046875, -0.1,7.55) ">
<use xlink:href="#DIY_Simple_to_Complicated_160x600_psd_Asset_1_08_alt_BTN_copy_file_free_now_0_Layer0_0_MEMBER_2_FILL"/>
</g>

<g transform="matrix( 1.2587890625, 0, 0, 1.25994873046875, -0.1,7.55) ">
<use xlink:href="#DIY_Simple_to_Complicated_160x600_psd_Asset_1_08_alt_BTN_copy_file_free_now_0_Layer0_0_MEMBER_3_FILL"/>
</g>

<g transform="matrix( 1.2587890625, 0, 0, 1.25994873046875, -0.1,7.55) ">
<use xlink:href="#DIY_Simple_to_Complicated_160x600_psd_Asset_1_08_alt_BTN_copy_file_free_now_0_Layer0_0_MEMBER_4_FILL"/>
</g>

<g transform="matrix( 1.2587890625, 0, 0, 1.25994873046875, -0.1,7.55) ">
<use xlink:href="#DIY_Simple_to_Complicated_160x600_psd_Asset_1_08_alt_BTN_copy_file_free_now_0_Layer0_0_MEMBER_5_FILL"/>
</g>

<g transform="matrix( 1.2587890625, 0, 0, 1.25994873046875, -0.1,7.55) ">
<use xlink:href="#DIY_Simple_to_Complicated_160x600_psd_Asset_1_08_alt_BTN_copy_file_free_now_0_Layer0_0_MEMBER_6_FILL"/>
</g>

<g transform="matrix( 1.2587890625, 0, 0, 1.25994873046875, -0.1,7.55) ">
<use xlink:href="#DIY_Simple_to_Complicated_160x600_psd_Asset_1_08_alt_BTN_copy_file_free_now_0_Layer0_0_MEMBER_7_FILL"/>
</g>

<g transform="matrix( 1.2587890625, 0, 0, 1.25994873046875, -0.1,7.55) ">
<use xlink:href="#DIY_Simple_to_Complicated_160x600_psd_Asset_1_08_alt_BTN_copy_file_free_now_0_Layer0_0_MEMBER_8_FILL"/>
</g>

<g transform="matrix( 1.2587890625, 0, 0, 1.25994873046875, -0.1,7.55) ">
<use xlink:href="#DIY_Simple_to_Complicated_160x600_psd_Asset_1_08_alt_BTN_copy_file_free_now_0_Layer0_0_MEMBER_9_FILL"/>
</g>

<g transform="matrix( 1.2587890625, 0, 0, 1.25994873046875, -0.1,7.55) ">
<use xlink:href="#DIY_Simple_to_Complicated_160x600_psd_Asset_1_08_alt_BTN_copy_file_free_now_0_Layer0_0_MEMBER_10_FILL"/>
</g>

<g transform="matrix( 1.2587890625, 0, 0, 1.25994873046875, -0.1,7.55) ">
<use xlink:href="#DIY_Simple_to_Complicated_160x600_psd_Asset_1_08_alt_BTN_copy_file_free_now_0_Layer0_0_MEMBER_11_FILL"/>
</g>

<g transform="matrix( 1.2587890625, 0, 0, 1.25994873046875, -0.1,7.55) ">
<use xlink:href="#DIY_Simple_to_Complicated_160x600_psd_Asset_1_08_alt_BTN_copy_file_free_now_0_Layer0_0_MEMBER_12_FILL"/>
</g>
</g>

<g transform="matrix( 1, 0, 0, 1, 109,7) ">
<g transform="matrix( 1, 0, 0, 1, 0,0) ">
<use xlink:href="#DIY_Simple_to_Complicated_160x600_psd_Asset_1_08_alt_BTN_copy_Assets_Arrow"/>
</g>
</g>
</g>

<g transform="matrix( 1, 0, 0, 1, 1091,142) ">
<g transform="matrix( 3.4265289306640625, 0, 0, 3.426055908203125, 0.05,17.8) ">
<use xlink:href="#DIY_Simple_to_Complicated_160x600_psd_Asset_1_08_alt_Why_pay__for_tax__software__copy_0_Layer0_0_MEMBER_0_FILL"/>
</g>

<g transform="matrix( 3.4265289306640625, 0, 0, 3.426055908203125, 0.05,17.8) ">
<use xlink:href="#DIY_Simple_to_Complicated_160x600_psd_Asset_1_08_alt_Why_pay__for_tax__software__copy_0_Layer0_0_MEMBER_1_FILL"/>
</g>

<g transform="matrix( 3.4265289306640625, 0, 0, 3.426055908203125, 0.05,17.8) ">
<use xlink:href="#DIY_Simple_to_Complicated_160x600_psd_Asset_1_08_alt_Why_pay__for_tax__software__copy_0_Layer0_0_MEMBER_2_FILL"/>
</g>

<g transform="matrix( 3.4265289306640625, 0, 0, 3.426055908203125, 0.05,17.8) ">
<use xlink:href="#DIY_Simple_to_Complicated_160x600_psd_Asset_1_08_alt_Why_pay__for_tax__software__copy_0_Layer0_0_MEMBER_3_FILL"/>
</g>

<g transform="matrix( 3.4265289306640625, 0, 0, 3.426055908203125, 0.05,17.8) ">
<use xlink:href="#DIY_Simple_to_Complicated_160x600_psd_Asset_1_08_alt_Why_pay__for_tax__software__copy_0_Layer0_0_MEMBER_4_FILL"/>
</g>

<g transform="matrix( 3.4265289306640625, 0, 0, 3.426055908203125, 0.05,17.8) ">
<use xlink:href="#DIY_Simple_to_Complicated_160x600_psd_Asset_1_08_alt_Why_pay__for_tax__software__copy_0_Layer0_0_MEMBER_5_FILL"/>
</g>

<g transform="matrix( 3.4265289306640625, 0, 0, 3.426055908203125, 0.05,17.8) ">
<use xlink:href="#DIY_Simple_to_Complicated_160x600_psd_Asset_1_08_alt_Why_pay__for_tax__software__copy_0_Layer0_0_MEMBER_6_FILL"/>
</g>

<g transform="matrix( 3.4265289306640625, 0, 0, 3.426055908203125, 0.05,17.8) ">
<use xlink:href="#DIY_Simple_to_Complicated_160x600_psd_Asset_1_08_alt_Why_pay__for_tax__software__copy_0_Layer0_0_MEMBER_7_FILL"/>
</g>

<g transform="matrix( 3.4265289306640625, 0, 0, 3.426055908203125, 0.05,17.8) ">
<use xlink:href="#DIY_Simple_to_Complicated_160x600_psd_Asset_1_08_alt_Why_pay__for_tax__software__copy_0_Layer0_0_MEMBER_8_FILL"/>
</g>

<g transform="matrix( 3.4265289306640625, 0, 0, 3.426055908203125, 0.05,17.8) ">
<use xlink:href="#DIY_Simple_to_Complicated_160x600_psd_Asset_1_08_alt_Why_pay__for_tax__software__copy_0_Layer0_0_MEMBER_9_FILL"/>
</g>

<g transform="matrix( 3.4265289306640625, 0, 0, 3.426055908203125, 0.05,17.8) ">
<use xlink:href="#DIY_Simple_to_Complicated_160x600_psd_Asset_1_08_alt_Why_pay__for_tax__software__copy_0_Layer0_0_MEMBER_10_FILL"/>
</g>

<g transform="matrix( 3.4265289306640625, 0, 0, 3.426055908203125, 0.05,17.8) ">
<use xlink:href="#DIY_Simple_to_Complicated_160x600_psd_Asset_1_08_alt_Why_pay__for_tax__software__copy_0_Layer0_0_MEMBER_11_FILL"/>
</g>

<g transform="matrix( 3.4265289306640625, 0, 0, 3.426055908203125, 0.05,17.8) ">
<use xlink:href="#DIY_Simple_to_Complicated_160x600_psd_Asset_1_08_alt_Why_pay__for_tax__software__copy_0_Layer0_0_MEMBER_12_FILL"/>
</g>

<g transform="matrix( 3.4265289306640625, 0, 0, 3.426055908203125, 0.05,17.8) ">
<use xlink:href="#DIY_Simple_to_Complicated_160x600_psd_Asset_1_08_alt_Why_pay__for_tax__software__copy_0_Layer0_0_MEMBER_13_FILL"/>
</g>

<g transform="matrix( 3.4265289306640625, 0, 0, 3.426055908203125, 0.05,17.8) ">
<use xlink:href="#DIY_Simple_to_Complicated_160x600_psd_Asset_1_08_alt_Why_pay__for_tax__software__copy_0_Layer0_0_MEMBER_14_FILL"/>
</g>

<g transform="matrix( 3.4265289306640625, 0, 0, 3.426055908203125, 0.05,17.8) ">
<use xlink:href="#DIY_Simple_to_Complicated_160x600_psd_Asset_1_08_alt_Why_pay__for_tax__software__copy_0_Layer0_0_MEMBER_15_FILL"/>
</g>

<g transform="matrix( 3.4265289306640625, 0, 0, 3.426055908203125, 0.05,17.8) ">
<use xlink:href="#DIY_Simple_to_Complicated_160x600_psd_Asset_1_08_alt_Why_pay__for_tax__software__copy_0_Layer0_0_MEMBER_16_FILL"/>
</g>

<g transform="matrix( 3.4265289306640625, 0, 0, 3.426055908203125, 0.05,17.8) ">
<use xlink:href="#DIY_Simple_to_Complicated_160x600_psd_Asset_1_08_alt_Why_pay__for_tax__software__copy_0_Layer0_0_MEMBER_17_FILL"/>
</g>

<g transform="matrix( 3.4265289306640625, 0, 0, 3.426055908203125, 0.05,17.8) ">
<use xlink:href="#DIY_Simple_to_Complicated_160x600_psd_Asset_1_08_alt_Why_pay__for_tax__software__copy_0_Layer0_0_MEMBER_18_FILL"/>
</g>

<g transform="matrix( 3.4265289306640625, 0, 0, 3.426055908203125, 0.05,17.8) ">
<use xlink:href="#DIY_Simple_to_Complicated_160x600_psd_Asset_1_08_alt_Why_pay__for_tax__software__copy_0_Layer0_0_MEMBER_19_FILL"/>
</g>

<g transform="matrix( 3.4265289306640625, 0, 0, 3.426055908203125, 0.05,17.8) ">
<use xlink:href="#DIY_Simple_to_Complicated_160x600_psd_Asset_1_08_alt_Why_pay__for_tax__software__copy_0_Layer0_0_MEMBER_20_FILL"/>
</g>
</g>

<g transform="matrix( 1, 0, 0, 1, 1114,280) ">
<g transform="matrix( 3.4265289306640625, 0, 0, 3.426055908203125, 43.05,9.8) ">
<use xlink:href="#DIY_Simple_to_Complicated_160x600_psd_Asset_1_08_alt__copy_2_0_Layer0_0_MEMBER_0_FILL"/>
</g>

<g transform="matrix( 3.4265289306640625, 0, 0, 3.426055908203125, 43.05,9.8) ">
<use xlink:href="#DIY_Simple_to_Complicated_160x600_psd_Asset_1_08_alt__copy_2_0_Layer0_0_MEMBER_1_FILL"/>
</g>

<g transform="matrix( 3.4265289306640625, 0, 0, 3.426055908203125, 43.05,9.8) ">
<use xlink:href="#DIY_Simple_to_Complicated_160x600_psd_Asset_1_08_alt__copy_2_0_Layer0_0_MEMBER_2_FILL"/>
</g>

<g transform="matrix( 3.4265289306640625, 0, 0, 3.426055908203125, 43.05,9.8) ">
<use xlink:href="#DIY_Simple_to_Complicated_160x600_psd_Asset_1_08_alt__copy_2_0_Layer0_0_MEMBER_3_FILL"/>
</g>

<g transform="matrix( 3.4265289306640625, 0, 0, 3.426055908203125, 43.05,9.8) ">
<use xlink:href="#DIY_Simple_to_Complicated_160x600_psd_Asset_1_08_alt__copy_2_0_Layer0_0_MEMBER_4_FILL"/>
</g>

<g transform="matrix( 3.4265289306640625, 0, 0, 3.426055908203125, 43.05,9.8) ">
<use xlink:href="#DIY_Simple_to_Complicated_160x600_psd_Asset_1_08_alt__copy_2_0_Layer0_0_MEMBER_5_FILL"/>
</g>

<g transform="matrix( 3.4265289306640625, 0, 0, 3.426055908203125, 43.05,9.8) ">
<use xlink:href="#DIY_Simple_to_Complicated_160x600_psd_Asset_1_08_alt__copy_2_0_Layer0_0_MEMBER_6_FILL"/>
</g>

<g transform="matrix( 3.4265289306640625, 0, 0, 3.426055908203125, 43.05,9.8) ">
<use xlink:href="#DIY_Simple_to_Complicated_160x600_psd_Asset_1_08_alt__copy_2_0_Layer0_0_MEMBER_7_FILL"/>
</g>

<g transform="matrix( 3.4265289306640625, 0, 0, 3.426055908203125, 43.05,9.8) ">
<use xlink:href="#DIY_Simple_to_Complicated_160x600_psd_Asset_1_08_alt__copy_2_0_Layer0_0_MEMBER_8_FILL"/>
</g>

<g transform="matrix( 3.4265289306640625, 0, 0, 3.426055908203125, 43.05,9.8) ">
<use xlink:href="#DIY_Simple_to_Complicated_160x600_psd_Asset_1_08_alt__copy_2_0_Layer0_0_MEMBER_9_FILL"/>
</g>

<g transform="matrix( 3.4265289306640625, 0, 0, 3.426055908203125, 43.05,9.8) ">
<use xlink:href="#DIY_Simple_to_Complicated_160x600_psd_Asset_1_08_alt__copy_2_0_Layer0_0_MEMBER_10_FILL"/>
</g>

<g transform="matrix( 3.4265289306640625, 0, 0, 3.426055908203125, 43.05,9.8) ">
<use xlink:href="#DIY_Simple_to_Complicated_160x600_psd_Asset_1_08_alt__copy_2_0_Layer0_0_MEMBER_11_FILL"/>
</g>

<g transform="matrix( 3.4265289306640625, 0, 0, 3.426055908203125, 43.05,9.8) ">
<use xlink:href="#DIY_Simple_to_Complicated_160x600_psd_Asset_1_08_alt__copy_2_0_Layer0_0_MEMBER_12_FILL"/>
</g>

<g transform="matrix( 3.4265289306640625, 0, 0, 3.426055908203125, 43.05,9.8) ">
<use xlink:href="#DIY_Simple_to_Complicated_160x600_psd_Asset_1_08_alt__copy_2_0_Layer0_0_MEMBER_13_FILL"/>
</g>

<g transform="matrix( 3.4265289306640625, 0, 0, 3.426055908203125, 43.05,9.8) ">
<use xlink:href="#DIY_Simple_to_Complicated_160x600_psd_Asset_1_08_alt__copy_2_0_Layer0_0_MEMBER_14_FILL"/>
</g>

<g transform="matrix( 3.4265289306640625, 0, 0, 3.426055908203125, 43.05,9.8) ">
<use xlink:href="#DIY_Simple_to_Complicated_160x600_psd_Asset_1_08_alt__copy_2_0_Layer0_0_MEMBER_15_FILL"/>
</g>

<g transform="matrix( 3.4265289306640625, 0, 0, 3.426055908203125, 43.05,9.8) ">
<use xlink:href="#DIY_Simple_to_Complicated_160x600_psd_Asset_1_08_alt__copy_2_0_Layer0_0_MEMBER_16_FILL"/>
</g>

<g transform="matrix( 3.4265289306640625, 0, 0, 3.426055908203125, 43.05,9.8) ">
<use xlink:href="#DIY_Simple_to_Complicated_160x600_psd_Asset_1_08_alt__copy_2_0_Layer0_0_MEMBER_17_FILL"/>
</g>

<g transform="matrix( 3.4265289306640625, 0, 0, 3.426055908203125, 43.05,9.8) ">
<use xlink:href="#DIY_Simple_to_Complicated_160x600_psd_Asset_1_08_alt__copy_2_0_Layer0_0_MEMBER_18_FILL"/>
</g>

<g transform="matrix( 3.4265289306640625, 0, 0, 3.426055908203125, 43.05,9.8) ">
<use xlink:href="#DIY_Simple_to_Complicated_160x600_psd_Asset_1_08_alt__copy_2_0_Layer0_0_MEMBER_19_FILL"/>
</g>

<g transform="matrix( 3.4265289306640625, 0, 0, 3.426055908203125, 43.05,9.8) ">
<use xlink:href="#DIY_Simple_to_Complicated_160x600_psd_Asset_1_08_alt__copy_2_0_Layer0_0_MEMBER_20_FILL"/>
</g>

<g transform="matrix( 3.4265289306640625, 0, 0, 3.426055908203125, 43.05,9.8) ">
<use xlink:href="#DIY_Simple_to_Complicated_160x600_psd_Asset_1_08_alt__copy_2_0_Layer0_0_MEMBER_21_FILL"/>
</g>

<g transform="matrix( 3.4265289306640625, 0, 0, 3.426055908203125, 43.05,9.8) ">
<use xlink:href="#DIY_Simple_to_Complicated_160x600_psd_Asset_1_08_alt__copy_2_0_Layer0_0_MEMBER_22_FILL"/>
</g>

<g transform="matrix( 3.4265289306640625, 0, 0, 3.426055908203125, 43.05,9.8) ">
<use xlink:href="#DIY_Simple_to_Complicated_160x600_psd_Asset_1_08_alt__copy_2_0_Layer0_0_MEMBER_23_FILL"/>
</g>

<g transform="matrix( 3.4265289306640625, 0, 0, 3.426055908203125, 43.05,9.8) ">
<use xlink:href="#DIY_Simple_to_Complicated_160x600_psd_Asset_1_08_alt__copy_2_0_Layer0_0_MEMBER_24_FILL"/>
</g>

<g transform="matrix( 3.4265289306640625, 0, 0, 3.426055908203125, 43.05,9.8) ">
<use xlink:href="#DIY_Simple_to_Complicated_160x600_psd_Asset_1_08_alt__copy_2_0_Layer0_0_MEMBER_25_FILL"/>
</g>
</g>
</g>
</svg>
