
<svg xmlns="http://www.w3.org/2000/svg" version="1.1" xmlns:xlink="http://www.w3.org/1999/xlink" preserveAspectRatio="none" x="0px" y="0px" width="300px" height="600px" viewBox="0 0 300 600">
<defs>
<image id="DIY_Online_and_Download_300x600_psd_Asset_01_Laptop_copy_3_CTA_Assets_Arrow" x="0" y="0" width="15" height="22" xlink:href="data:image/png;base64,iVBORw0KGgoAAAANSUhEUgAAAA8AAAAWCAYAAAAfD8YZAAAA3UlEQVQ4ja3UOw7CMAwG4AgO
wfMsFPE6AZVAiAEQjLBwSo7BS+ojs2u3Vlk6RFXjtBVek/9TFDtRyigiuiLiRjUtIjrkRQGA
1yR4yktVCyCiSzloADMxDAAeM2sBmIuA1nrMzF8bkCTJQgSiKBoy80cAVi5gwMxvG4CIaxEI
w7DPzE8B2IlAEAQ9CSCivQj4vt/NsuxhA9I0vXdEQancsf7HY7e+sKJVLyFY3apiSKw9tg5J
HMcjx3QtK4MAMGn9MIjoLATlJ1kAVZ/B1Bk0gKMRrP8NGcANEbd19/8A9mhLbUjWhtkAAAAA
SUVORK5CYII="/>

<g id="DIY_Online_and_Download_300x600_psd_Asset_01_Download____file__0_Layer0_0_MEMBER_0_FILL">
<path fill="#FFFFFF" stroke="none" d="
M 17.85 -40.55
L 3.2 -40.55 3.2 0 17.85 0
Q 25 0 29.8 -4.65 34.65 -9.35 34.65 -16.65
L 34.65 -23.95
Q 34.65 -31.2 29.8 -35.9 25 -40.55 17.85 -40.55
M 12.6 -33.3
L 17.2 -33.3
Q 20.95 -33.3 23.05 -30.75 25.2 -28.25 25.2 -24
L 25.2 -16.65
Q 25.2 -12.4 23.05 -9.8 20.95 -7.25 17.2 -7.25
L 12.6 -7.25 12.6 -33.3 Z"/>
</g>

<g id="DIY_Online_and_Download_300x600_psd_Asset_01_Download____file__0_Layer0_0_MEMBER_1_FILL">
<path fill="#FFFFFF" stroke="none" d="
M 38.1 -23.95
L 38.1 -16.65
Q 38.1 -9.1 42.9 -4.3 47.75 0.6 55.4 0.6 63.05 0.6 67.8 -4.3 72.55 -9.05 72.55 -16.65
L 72.55 -23.95
Q 72.55 -31.35 67.8 -36.25 63.05 -41.15 55.35 -41.15 47.6 -41.15 42.9 -36.25 38.1 -31.35 38.1 -23.95
M 49.5 -31.15
Q 51.5 -33.9 55.35 -33.9 59.1 -33.9 61.15 -31.1 63.2 -28.3 63.2 -24
L 63.2 -16.65
Q 63.2 -12.25 61.15 -9.45 59.1 -6.65 55.4 -6.65 51.6 -6.65 49.55 -9.45 47.5 -12.25 47.5 -16.65
L 47.5 -24
Q 47.5 -28.4 49.5 -31.15 Z"/>
</g>

<g id="DIY_Online_and_Download_300x600_psd_Asset_01_Download____file__0_Layer0_0_MEMBER_2_FILL">
<path fill="#FFFFFF" stroke="none" d="
M 109.25 -13.95
L 102.05 -40.55 95.5 -40.55 88.35 -13.95 88.15 -13.95 82.85 -40.55 73.7 -40.55 83.05 0 91.9 0 98.65 -25 98.85 -25 105.65 0 114.55 0 123.85 -40.55 114.7 -40.55 109.4 -13.95 109.25 -13.95 Z"/>
</g>

<g id="DIY_Online_and_Download_300x600_psd_Asset_01_Download____file__0_Layer0_0_MEMBER_3_FILL">
<path fill="#FFFFFF" stroke="none" d="
M 135.3 -25.8
L 135.45 -25.85 150.3 0 159.7 0 159.7 -40.55 150.3 -40.55 150.3 -14.75 150.15 -14.7 135.3 -40.55 125.85 -40.55 125.85 0 135.3 0 135.3 -25.8 Z"/>
</g>

<g id="DIY_Online_and_Download_300x600_psd_Asset_01_Download____file__0_Layer0_0_MEMBER_4_FILL">
<path fill="#FFFFFF" stroke="none" d="
M 174.1 -7.25
L 174.1 -40.55 164.65 -40.55 164.65 0 191.6 0 191.6 -7.25 174.1 -7.25 Z"/>
</g>

<g id="DIY_Online_and_Download_300x600_psd_Asset_01_Download____file__0_Layer0_0_MEMBER_5_FILL">
<path fill="#FFFFFF" stroke="none" d="
M 192.5 -16.65
Q 192.5 -9.1 197.3 -4.3 202.15 0.6 209.8 0.6 217.45 0.6 222.25 -4.3 227 -9.1 227 -16.65
L 227 -23.95
Q 227 -31.35 222.2 -36.25 217.45 -41.15 209.75 -41.15 202.05 -41.15 197.3 -36.25 192.5 -31.35 192.5 -23.95
L 192.5 -16.65
M 201.9 -16.65
L 201.9 -24
Q 201.9 -28.35 203.95 -31.15 205.9 -33.9 209.75 -33.9 213.55 -33.9 215.55 -31.1 217.6 -28.3 217.6 -24
L 217.6 -16.65
Q 217.6 -12.25 215.55 -9.45 213.5 -6.65 209.8 -6.65 206 -6.65 203.95 -9.45 201.9 -12.25 201.9 -16.65 Z"/>
</g>

<g id="DIY_Online_and_Download_300x600_psd_Asset_01_Download____file__0_Layer0_0_MEMBER_6_FILL">
<path fill="#FFFFFF" stroke="none" d="
M 239.2 -7.9
L 252 -7.9 254.3 0 263.8 0 250.65 -40.55 240.55 -40.55 227.45 0 236.9 0 239.2 -7.9
M 245.65 -29.65
L 249.9 -15.15 241.3 -15.15 245.5 -29.65 245.65 -29.65 Z"/>
</g>

<g id="DIY_Online_and_Download_300x600_psd_Asset_01_Download____file__0_Layer0_0_MEMBER_7_FILL">
<path fill="#FFFFFF" stroke="none" d="
M 279.9 -40.55
L 265.2 -40.55 265.2 0 279.9 0
Q 287.05 0 291.85 -4.65 296.7 -9.35 296.7 -16.65
L 296.7 -23.95
Q 296.7 -31.2 291.85 -35.9 287.05 -40.55 279.9 -40.55
M 274.65 -33.3
L 279.25 -33.3
Q 283 -33.3 285.1 -30.75 287.25 -28.25 287.25 -24
L 287.25 -16.65
Q 287.25 -12.4 285.1 -9.8 283 -7.25 279.25 -7.25
L 274.65 -7.25 274.65 -33.3 Z"/>
</g>

<g id="DIY_Online_and_Download_300x600_psd_Asset_01_Download____file__0_Layer0_0_MEMBER_8_FILL">
<path fill="#FFFFFF" stroke="none" d="
M 16.7 15.9
Q 11.6 15.9 8.4 18.95 5.25 22.05 5.25 26.85 5.25 28.95 6.1 31.1 6.95 33.05 8.8 35.7
L 8.7 35.75
Q 5.2 38.3 3.4 40.65 1.65 43 1.65 46.15 1.65 51.3 5.25 54.45 8.8 57.65 14.95 57.65 17.75 57.65 20.25 56.95 22.65 56.2 25.05 54.7
L 27.15 57.05 37.4 57.05 37.45 56.9 31.35 49.85
Q 33.2 47.4 34.15 44 35 40.95 35 36.8
L 28.4 36.8
Q 28.4 38.75 27.85 40.7 27.35 42.6 26.35 44.15
L 19.55 36.35 22 34.65
Q 24.2 33.05 25.4 30.75 26.7 28.3 26.7 25.65 26.7 21.65 23.9 18.75 21.15 15.9 16.7 15.9
M 16.7 23.15
Q 18.05 23.15 18.95 24.15 19.8 25.15 19.8 26.35 19.8 27.45 19.25 28.4 18.75 29.4 17.15 30.35
L 15.5 31.45
Q 14.4 30.05 13.9 28.95 13.35 27.75 13.35 26.75 13.35 25.2 14.25 24.2 15.1 23.15 16.7 23.15
M 12.4 49.05
Q 11.1 47.65 11.1 45.5 11.1 44.4 11.45 43.25 11.85 42.2 12.7 41.1
L 12.95 40.95 20.35 49.35
Q 19.05 49.95 18 50.15 16.65 50.4 15.55 50.4 13.75 50.4 12.4 49.05 Z"/>
</g>

<g id="DIY_Online_and_Download_300x600_psd_Asset_01_Download____file__0_Layer0_0_MEMBER_9_FILL">
<path fill="#FFFFFF" stroke="none" d="
M 81.5 23.75
L 81.5 16.5 53 16.5 53 57.05 62.45 57.05 62.45 40.75 78.65 40.75 78.65 33.5 62.45 33.5 62.45 23.75 81.5 23.75 Z"/>
</g>

<g id="DIY_Online_and_Download_300x600_psd_Asset_01_Download____file__0_Layer0_0_MEMBER_10_FILL">
<path fill="#FFFFFF" stroke="none" d="
M 94.4 16.5
L 85 16.5 85 57.05 94.4 57.05 94.4 16.5 Z"/>
</g>

<g id="DIY_Online_and_Download_300x600_psd_Asset_01_Download____file__0_Layer0_0_MEMBER_11_FILL">
<path fill="#FFFFFF" stroke="none" d="
M 109.4 16.5
L 99.95 16.5 99.95 57.05 126.85 57.05 126.85 49.8 109.4 49.8 109.4 16.5 Z"/>
</g>

<g id="DIY_Online_and_Download_300x600_psd_Asset_01_Download____file__0_Layer0_0_MEMBER_12_FILL">
<path fill="#FFFFFF" stroke="none" d="
M 154.75 39.7
L 154.75 32.45 138.85 32.45 138.85 23.75 157.65 23.75 157.65 16.5 129.4 16.5 129.4 57.05 157.6 57.05 157.6 49.8 138.85 49.8 138.85 39.7 154.75 39.7 Z"/>
</g>

<g id="DIY_Online_and_Download_300x600_psd_Asset_01_Laptop_copy_3_CTA_For_Free_0_Layer0_0_MEMBER_0_FILL">
<path fill="#FFFFFF" stroke="none" d="
M 37.85 -21.4
L 37.85 -30.9 16.55 -30.9 16.55 -43.7 41.6 -43.7 41.6 -53.2 4.15 -53.2 4.15 0 16.55 0 16.55 -21.4 37.85 -21.4 Z"/>
</g>

<g id="DIY_Online_and_Download_300x600_psd_Asset_01_Laptop_copy_3_CTA_For_Free_0_Layer0_0_MEMBER_1_FILL">
<path fill="#FFFFFF" stroke="none" d="
M 52.25 -47.6
Q 46 -41.2 46 -31.4
L 46 -21.8
Q 46 -11.9 52.25 -5.6 58.55 0.75 68.65 0.75 78.75 0.75 84.95 -5.6 91.2 -12 91.2 -21.8
L 91.2 -31.4
Q 91.2 -41.15 84.9 -47.6 78.6 -54 68.6 -54 58.5 -54 52.25 -47.6
M 76.2 -40.8
Q 78.85 -37.25 78.85 -31.45
L 78.85 -21.8
Q 78.85 -16 76.2 -12.4 73.5 -8.75 68.65 -8.75 63.6 -8.75 61 -12.4 58.3 -16.05 58.3 -21.8
L 58.3 -31.45
Q 58.3 -37.15 60.95 -40.85 63.6 -44.5 68.6 -44.5 73.5 -44.5 76.2 -40.8 Z"/>
</g>

<g id="DIY_Online_and_Download_300x600_psd_Asset_01_Laptop_copy_3_CTA_For_Free_0_Layer0_0_MEMBER_2_FILL">
<path fill="#FFFFFF" stroke="none" d="
M 118.8 -53.2
L 98.35 -53.2 98.35 0 110.75 0 110.75 -20.4 119.25 -20.4
Q 123.05 -20.4 125.15 -18.4 127.15 -16.4 127.15 -12.55
L 127.15 -9.35
Q 127.15 -6.9 127.6 -4 128.05 -1.1 129.55 0
L 142.25 0 142.25 -0.75
Q 140.7 -1.85 140.1 -4.55 139.45 -7.4 139.45 -9.3
L 139.45 -12.65
Q 139.45 -17.45 137.35 -20.7 135.2 -23.9 130.3 -25.35 134.45 -27.15 136.7 -30.15 138.9 -33.2 138.9 -37.25 138.9 -44.65 133.5 -48.95 128.05 -53.2 118.8 -53.2
M 110.75 -29.9
L 110.75 -43.7 118.8 -43.7
Q 122.55 -43.7 124.55 -41.7 126.55 -39.75 126.55 -36.5 126.55 -33.3 124.6 -31.6 122.7 -29.9 118.9 -29.9
L 110.75 -29.9 Z"/>
</g>

<g id="DIY_Online_and_Download_300x600_psd_Asset_01_Laptop_copy_3_CTA_For_Free_0_Layer0_0_MEMBER_3_FILL">
<path fill="#FFFFFF" stroke="none" d="
M 200.1 -21.4
L 200.1 -30.9 178.8 -30.9 178.8 -43.7 203.85 -43.7 203.85 -53.2 166.4 -53.2 166.4 0 178.8 0 178.8 -21.4 200.1 -21.4 Z"/>
</g>

<g id="DIY_Online_and_Download_300x600_psd_Asset_01_Laptop_copy_3_CTA_For_Free_0_Layer0_0_MEMBER_4_FILL">
<path fill="#FFFFFF" stroke="none" d="
M 229.9 -53.2
L 209.4 -53.2 209.4 0 221.8 0 221.8 -20.4 230.35 -20.4
Q 234.1 -20.4 236.2 -18.4 238.2 -16.4 238.2 -12.55
L 238.2 -9.35
Q 238.2 -7.25 238.7 -4 239.15 -1.1 240.6 0
L 253.3 0 253.3 -0.75
Q 251.8 -1.85 251.15 -4.55 250.55 -7.15 250.55 -9.3
L 250.55 -12.65
Q 250.55 -17.5 248.4 -20.7 246.3 -23.9 241.35 -25.35 245.55 -27.1 247.8 -30.15 249.95 -33.1 249.95 -37.25 249.95 -44.65 244.55 -48.95 239.2 -53.2 229.9 -53.2
M 235.65 -31.6
Q 233.75 -29.9 229.95 -29.9
L 221.8 -29.9 221.8 -43.7 229.9 -43.7
Q 233.6 -43.7 235.6 -41.7 237.65 -39.7 237.65 -36.5 237.65 -33.3 235.65 -31.6 Z"/>
</g>

<g id="DIY_Online_and_Download_300x600_psd_Asset_01_Laptop_copy_3_CTA_For_Free_0_Layer0_0_MEMBER_5_FILL">
<path fill="#FFFFFF" stroke="none" d="
M 271.25 -9.5
L 271.25 -22.75 292.1 -22.75 292.1 -32.25 271.25 -32.25 271.25 -43.7 295.9 -43.7 295.9 -53.2 258.85 -53.2 258.85 0 295.8 0 295.8 -9.5 271.25 -9.5 Z"/>
</g>

<g id="DIY_Online_and_Download_300x600_psd_Asset_01_Laptop_copy_3_CTA_For_Free_0_Layer0_0_MEMBER_6_FILL">
<path fill="#FFFFFF" stroke="none" d="
M 313.8 -9.5
L 313.8 -22.75 334.65 -22.75 334.65 -32.25 313.8 -32.25 313.8 -43.7 338.5 -43.7 338.5 -53.2 301.4 -53.2 301.4 0 338.4 0 338.4 -9.5 313.8 -9.5 Z"/>
</g>
</defs>

<g transform="matrix( 1, 0, 0, 1, -665,-17) ">
<g transform="matrix( 1, 0, 0, 1, 685,209) ">
<g transform="matrix( 0.8808746337890625, 0, 0, 0.884918212890625, -0.85,35.6) ">
<use xlink:href="#DIY_Online_and_Download_300x600_psd_Asset_01_Download____file__0_Layer0_0_MEMBER_0_FILL"/>
</g>

<g transform="matrix( 0.8808746337890625, 0, 0, 0.884918212890625, -0.85,35.6) ">
<use xlink:href="#DIY_Online_and_Download_300x600_psd_Asset_01_Download____file__0_Layer0_0_MEMBER_1_FILL"/>
</g>

<g transform="matrix( 0.8808746337890625, 0, 0, 0.884918212890625, -0.85,35.6) ">
<use xlink:href="#DIY_Online_and_Download_300x600_psd_Asset_01_Download____file__0_Layer0_0_MEMBER_2_FILL"/>
</g>

<g transform="matrix( 0.8808746337890625, 0, 0, 0.884918212890625, -0.85,35.6) ">
<use xlink:href="#DIY_Online_and_Download_300x600_psd_Asset_01_Download____file__0_Layer0_0_MEMBER_3_FILL"/>
</g>

<g transform="matrix( 0.8808746337890625, 0, 0, 0.884918212890625, -0.85,35.6) ">
<use xlink:href="#DIY_Online_and_Download_300x600_psd_Asset_01_Download____file__0_Layer0_0_MEMBER_4_FILL"/>
</g>

<g transform="matrix( 0.8808746337890625, 0, 0, 0.884918212890625, -0.85,35.6) ">
<use xlink:href="#DIY_Online_and_Download_300x600_psd_Asset_01_Download____file__0_Layer0_0_MEMBER_5_FILL"/>
</g>

<g transform="matrix( 0.8808746337890625, 0, 0, 0.884918212890625, -0.85,35.6) ">
<use xlink:href="#DIY_Online_and_Download_300x600_psd_Asset_01_Download____file__0_Layer0_0_MEMBER_6_FILL"/>
</g>

<g transform="matrix( 0.8808746337890625, 0, 0, 0.884918212890625, -0.85,35.6) ">
<use xlink:href="#DIY_Online_and_Download_300x600_psd_Asset_01_Download____file__0_Layer0_0_MEMBER_7_FILL"/>
</g>

<g transform="matrix( 0.8808746337890625, 0, 0, 0.884918212890625, -0.85,35.6) ">
<use xlink:href="#DIY_Online_and_Download_300x600_psd_Asset_01_Download____file__0_Layer0_0_MEMBER_8_FILL"/>
</g>

<g transform="matrix( 0.8808746337890625, 0, 0, 0.884918212890625, -0.85,35.6) ">
<use xlink:href="#DIY_Online_and_Download_300x600_psd_Asset_01_Download____file__0_Layer0_0_MEMBER_9_FILL"/>
</g>

<g transform="matrix( 0.8808746337890625, 0, 0, 0.884918212890625, -0.85,35.6) ">
<use xlink:href="#DIY_Online_and_Download_300x600_psd_Asset_01_Download____file__0_Layer0_0_MEMBER_10_FILL"/>
</g>

<g transform="matrix( 0.8808746337890625, 0, 0, 0.884918212890625, -0.85,35.6) ">
<use xlink:href="#DIY_Online_and_Download_300x600_psd_Asset_01_Download____file__0_Layer0_0_MEMBER_11_FILL"/>
</g>

<g transform="matrix( 0.8808746337890625, 0, 0, 0.884918212890625, -0.85,35.6) ">
<use xlink:href="#DIY_Online_and_Download_300x600_psd_Asset_01_Download____file__0_Layer0_0_MEMBER_12_FILL"/>
</g>
</g>

<g transform="matrix( 1, 0, 0, 1, 641,316) ">
<g transform="matrix( 1, 0, 0, 1, 68,54) ">
<g transform="matrix( 1, 0, 0, 1, 28,24) ">
<g transform="matrix( 0.3476409912109375, 0, 0, 0.3492279052734375, -1.45,18.55) ">
<use xlink:href="#DIY_Online_and_Download_300x600_psd_Asset_01_Laptop_copy_3_CTA_For_Free_0_Layer0_0_MEMBER_0_FILL"/>
</g>

<g transform="matrix( 0.3476409912109375, 0, 0, 0.3492279052734375, -1.45,18.55) ">
<use xlink:href="#DIY_Online_and_Download_300x600_psd_Asset_01_Laptop_copy_3_CTA_For_Free_0_Layer0_0_MEMBER_1_FILL"/>
</g>

<g transform="matrix( 0.3476409912109375, 0, 0, 0.3492279052734375, -1.45,18.55) ">
<use xlink:href="#DIY_Online_and_Download_300x600_psd_Asset_01_Laptop_copy_3_CTA_For_Free_0_Layer0_0_MEMBER_2_FILL"/>
</g>

<g transform="matrix( 0.3476409912109375, 0, 0, 0.3492279052734375, -1.45,18.55) ">
<use xlink:href="#DIY_Online_and_Download_300x600_psd_Asset_01_Laptop_copy_3_CTA_For_Free_0_Layer0_0_MEMBER_3_FILL"/>
</g>

<g transform="matrix( 0.3476409912109375, 0, 0, 0.3492279052734375, -1.45,18.55) ">
<use xlink:href="#DIY_Online_and_Download_300x600_psd_Asset_01_Laptop_copy_3_CTA_For_Free_0_Layer0_0_MEMBER_4_FILL"/>
</g>

<g transform="matrix( 0.3476409912109375, 0, 0, 0.3492279052734375, -1.45,18.55) ">
<use xlink:href="#DIY_Online_and_Download_300x600_psd_Asset_01_Laptop_copy_3_CTA_For_Free_0_Layer0_0_MEMBER_5_FILL"/>
</g>

<g transform="matrix( 0.3476409912109375, 0, 0, 0.3492279052734375, -1.45,18.55) ">
<use xlink:href="#DIY_Online_and_Download_300x600_psd_Asset_01_Laptop_copy_3_CTA_For_Free_0_Layer0_0_MEMBER_6_FILL"/>
</g>
</g>

<g transform="matrix( 1, 0, 0, 1, 175,24) ">
<g transform="matrix( 1, 0, 0, 1, 0,0) ">
<use xlink:href="#DIY_Online_and_Download_300x600_psd_Asset_01_Laptop_copy_3_CTA_Assets_Arrow"/>
</g>
</g>
</g>
</g>
</g>
</svg>
