<?xml version="1.0" encoding="utf-8"?>
<!-- Generator: Adobe Illustrator 19.2.1, SVG Export Plug-In . SVG Version: 6.00 Build 0)  -->
<svg version="1.1" id="Layer_1" xmlns="http://www.w3.org/2000/svg" xmlns:xlink="http://www.w3.org/1999/xlink" x="0px" y="0px"
	 viewBox="0 0 160 600" style="enable-background:new 0 0 160 600;" xml:space="preserve">
<style type="text/css">
	.st0{fill:#FFFFFF;}
</style>
<g transform="matrix( 1, 0, 0, 1, -737,-536) ">
	<g transform="matrix( 1, 0, 0, 1, 752,774) ">
		<g transform="matrix( 0.66973876953125, 0, 0, 0.672821044921875, -0.6,38.65) ">
			<g>
				<g id="DIY_Free_Support_160x600_psd_Asset_04_Free__filing___Free__support__0_Layer0_0_MEMBER_0_FILL">
					<path class="st0" d="M18.1-33.8v-14h27.3v-10.3H4.5V0h13.5v-23.4h23.2v-10.4H18.1z"/>
				</g>
			</g>
		</g>
		<g transform="matrix( 0.66973876953125, 0, 0, 0.672821044921875, -0.6,38.65) ">
			<g>
				<g id="DIY_Free_Support_160x600_psd_Asset_04_Free__filing___Free__support__0_Layer0_0_MEMBER_1_FILL">
					<path class="st0" d="M74.6-58.1H52.3V0h13.5v-22.3h9.3c2.8,0,5,0.7,6.4,2.1c1.5,1.5,2.2,3.6,2.2,6.4v3.6c0,1.5,0.2,3.5,0.5,5.8
						c0.4,2.1,1.1,3.6,2.1,4.4h13.9v-0.8C99.1-1.6,98.4-3,97.9-5c-0.5-2-0.7-3.8-0.7-5.2v-3.7c0-3.5-0.8-6.5-2.3-8.8
						c-1.6-2.4-4.1-4-7.7-5c3.1-1.3,5.4-3.1,7-5.3c1.6-2.1,2.4-4.7,2.4-7.7c0-5.4-2-9.7-5.9-12.8C86.7-56.6,81.4-58.1,74.6-58.1
						 M65.8-32.7v-15.1h8.8c2.7,0,4.8,0.7,6.2,2.2c1.5,1.5,2.3,3.4,2.3,5.7c0,2.3-0.7,4.1-2.2,5.3c-1.4,1.2-3.4,1.8-6.2,1.8H65.8z"
						/>
				</g>
			</g>
		</g>
		<g transform="matrix( 0.66973876953125, 0, 0, 0.672821044921875, -0.6,38.65) ">
			<g>
				<g id="DIY_Free_Support_160x600_psd_Asset_04_Free__filing___Free__support__0_Layer0_0_MEMBER_2_FILL">
					<path class="st0" d="M120.6-10.4v-14.5h22.8v-10.4h-22.8v-12.5h26.9v-10.3h-40.4V0h40.4v-10.4H120.6z"/>
				</g>
			</g>
		</g>
		<g transform="matrix( 0.66973876953125, 0, 0, 0.672821044921875, -0.6,38.65) ">
			<g>
				<g id="DIY_Free_Support_160x600_psd_Asset_04_Free__filing___Free__support__0_Layer0_0_MEMBER_3_FILL">
					<path class="st0" d="M191.7-24.9v-10.4h-22.8v-12.5h26.9v-10.3h-40.4V0h40.4v-10.4h-26.9v-14.5H191.7z"/>
				</g>
			</g>
		</g>
		<g transform="matrix( 0.66973876953125, 0, 0, 0.672821044921875, -0.6,38.65) ">
			<g>
				<g id="DIY_Free_Support_160x600_psd_Asset_04_Free__filing___Free__support__0_Layer0_0_MEMBER_4_FILL">
					<path class="st0" d="M32.3,38.2v-8.1H14.1v-11h21.3v-8.1H3.5v45.5h10.6V38.2H32.3z"/>
				</g>
			</g>
		</g>
		<g transform="matrix( 0.66973876953125, 0, 0, 0.672821044921875, -0.6,38.65) ">
			<g>
				<g id="DIY_Free_Support_160x600_psd_Asset_04_Free__filing___Free__support__0_Layer0_0_MEMBER_5_FILL">
					<path class="st0" d="M51.9,11.1H41.4v45.5h10.5V11.1z"/>
				</g>
			</g>
		</g>
		<g transform="matrix( 0.66973876953125, 0, 0, 0.672821044921875, -0.6,38.65) ">
			<g>
				<g id="DIY_Free_Support_160x600_psd_Asset_04_Free__filing___Free__support__0_Layer0_0_MEMBER_6_FILL">
					<path class="st0" d="M90.5,56.5v-8.2H70.9V11.1H60.3v45.5H90.5z"/>
				</g>
			</g>
		</g>
		<g transform="matrix( 0.66973876953125, 0, 0, 0.672821044921875, -0.6,38.65) ">
			<g>
				<g id="DIY_Free_Support_160x600_psd_Asset_04_Free__filing___Free__support__0_Layer0_0_MEMBER_7_FILL">
					<path class="st0" d="M106.7,11.1H96.2v45.5h10.5V11.1z"/>
				</g>
			</g>
		</g>
		<g transform="matrix( 0.66973876953125, 0, 0, 0.672821044921875, -0.6,38.65) ">
			<g>
				<g id="DIY_Free_Support_160x600_psd_Asset_04_Free__filing___Free__support__0_Layer0_0_MEMBER_8_FILL">
					<path class="st0" d="M125.8,27.6l0.2-0.1l16.6,29h10.5V11.1h-10.5V40l-0.2,0l-16.6-29h-10.5v45.5h10.5V27.6z"/>
				</g>
			</g>
		</g>
		<g transform="matrix( 0.66973876953125, 0, 0, 0.672821044921875, -0.6,38.65) ">
			<g>
				<g id="DIY_Free_Support_160x600_psd_Asset_04_Free__filing___Free__support__0_Layer0_0_MEMBER_9_FILL">
					<path class="st0" d="M178.6,10.4c-5.4,0-9.8,1.7-13.2,5.2c-3.4,3.4-5.1,7.9-5.1,13.4v9.5c0,5.5,1.8,10,5.3,13.5
						c3.5,3.5,8.1,5.2,13.7,5.2c4.4,0,8.1-0.7,11.1-2.1c3-1.4,5.2-3,6.7-4.8V33.2h-17.8v7h7.2v7.1c-0.7,0.6-1.6,1-2.6,1.3
						c-1.1,0.3-2.6,0.5-4.6,0.5c-2.7,0-4.7-1-6.2-2.8c-1.5-1.9-2.3-4.5-2.3-7.7V29c0-3.1,0.8-5.6,2.3-7.6c1.5-1.9,3.5-2.9,5.9-2.9
						c2.4,0,4.3,0.6,5.4,1.8c1.2,1.2,2,3,2.4,5.4h9.9l0.1-0.2c-0.4-4.7-2-8.4-4.9-11.1C188.8,11.8,184.4,10.4,178.6,10.4z"/>
				</g>
			</g>
		</g>
		<g transform="matrix( 0.66973876953125, 0, 0, 0.672821044921875, -0.6,38.65) ">
			<g>
				<g id="DIY_Free_Support_160x600_psd_Asset_04_Free__filing___Free__support__0_Layer0_0_MEMBER_10_FILL">
					<path class="st0" d="M17,66.7c-3.5,0-6.3,1-8.5,3.1c-2.1,2.1-3.2,4.8-3.2,8c0,1.5,0.3,2.9,0.9,4.3c0.6,1.4,1.5,3,2.7,4.7l0,0
						c-2.5,1.8-4.3,3.5-5.4,5c-1.2,1.6-1.7,3.4-1.7,5.6c0,3.5,1.2,6.3,3.6,8.4c2.5,2.2,5.7,3.3,9.8,3.3c2,0,3.8-0.3,5.4-0.8
						c1.7-0.5,3.3-1.2,4.9-2.3l2.1,2.4H38l0-0.2l-6.2-7.2c1.3-1.8,2.3-3.7,2.9-5.9s0.9-4.7,0.9-7.3h-6.7c0,1.3-0.2,2.6-0.6,4
						c-0.4,1.3-0.9,2.4-1.5,3.4l-6.9-7.9l2.5-1.8c1.4-1,2.6-2.3,3.5-3.9c0.8-1.6,1.3-3.3,1.3-5.2c0-2.8-0.9-5.1-2.8-7
						C22.4,67.7,20,66.7,17,66.7 M13.6,77.7c0-1,0.3-1.9,0.8-2.6c0.6-0.7,1.4-1,2.5-1c0.9,0,1.7,0.3,2.3,1c0.6,0.7,0.8,1.4,0.8,2.3
						c0,0.7-0.2,1.4-0.6,2.1c-0.3,0.6-1,1.3-2.1,2l-1.7,1c-0.6-0.7-1.1-1.5-1.6-2.5C13.8,79.3,13.6,78.5,13.6,77.7 M11.3,96.8
						c0-0.9,0.1-1.7,0.3-2.4c0.3-0.7,0.7-1.4,1.2-2.1l0.3-0.2l7.5,8.5c-0.7,0.3-1.5,0.6-2.4,0.8c-0.9,0.2-1.7,0.3-2.4,0.3
						c-1.2,0-2.3-0.5-3.2-1.4C11.7,99.4,11.3,98.2,11.3,96.8z"/>
				</g>
			</g>
		</g>
		<g transform="matrix( 0.66973876953125, 0, 0, 0.672821044921875, -0.6,38.65) ">
			<g>
				<g id="DIY_Free_Support_160x600_psd_Asset_04_Free__filing___Free__support__0_Layer0_0_MEMBER_11_FILL">
					<path class="st0" d="M85.7,91.9v-7.3H69.2v-9.9h19.4v-7.4h-29v41.2h9.6V91.9H85.7z"/>
				</g>
			</g>
		</g>
		<g transform="matrix( 0.66973876953125, 0, 0, 0.672821044921875, -0.6,38.65) ">
			<g>
				<g id="DIY_Free_Support_160x600_psd_Asset_04_Free__filing___Free__support__0_Layer0_0_MEMBER_12_FILL">
					<path class="st0" d="M120.9,70.6c-2.8-2.2-6.6-3.3-11.3-3.3H93.7v41.2h9.6V92.7h6.6c2,0,3.5,0.5,4.5,1.6c1,1,1.6,2.5,1.6,4.5
						v2.5c0,1,0.1,2.4,0.3,4.2c0.2,1.5,0.7,2.5,1.5,3.1h9.8V108c-0.8-0.6-1.3-1.6-1.6-2.9c-0.3-1.3-0.5-2.6-0.5-3.7v-2.6
						c0-2.5-0.6-4.5-1.7-6.3c-1.1-1.7-2.9-2.8-5.4-3.5c2.3-1,3.9-2.3,4.9-3.8c1.1-1.5,1.7-3.4,1.7-5.5
						C125.1,75.8,123.7,72.8,120.9,70.6 M115.5,80.3c0,1.6-0.5,2.9-1.5,3.8c-1.1,0.9-2.6,1.3-4.5,1.3h-6.3V74.7h6.3
						c1.9,0,3.4,0.5,4.4,1.5C115,77.2,115.5,78.6,115.5,80.3z"/>
				</g>
			</g>
		</g>
		<g transform="matrix( 0.66973876953125, 0, 0, 0.672821044921875, -0.6,38.65) ">
			<g>
				<g id="DIY_Free_Support_160x600_psd_Asset_04_Free__filing___Free__support__0_Layer0_0_MEMBER_13_FILL">
					<path class="st0" d="M158.5,90.9v-7.3h-16.1v-8.8h19.1v-7.4h-28.7v41.2h28.6v-7.3h-19V90.9H158.5z"/>
				</g>
			</g>
		</g>
		<g transform="matrix( 0.66973876953125, 0, 0, 0.672821044921875, -0.6,38.65) ">
			<g>
				<g id="DIY_Free_Support_160x600_psd_Asset_04_Free__filing___Free__support__0_Layer0_0_MEMBER_14_FILL">
					<path class="st0" d="M193,90.9v-7.3h-16.1v-8.8h19.1v-7.4h-28.7v41.2h28.6v-7.3h-19V90.9H193z"/>
				</g>
			</g>
		</g>
		<g transform="matrix( 0.66973876953125, 0, 0, 0.672821044921875, -0.6,38.65) ">
			<g>
				<g id="DIY_Free_Support_160x600_psd_Asset_04_Free__filing___Free__support__0_Layer0_0_MEMBER_15_FILL">
					<path class="st0" d="M13.1,118.2c-3.2,0-5.8,0.7-7.8,2.2c-2.1,1.5-3.1,3.4-3.1,5.8c0,2.5,0.9,4.4,2.6,5.7
						c1.6,1.3,4.3,2.5,8,3.6c1.7,0.6,2.9,1.2,3.6,1.8c0.7,0.6,1,1.4,1,2.4c0,0.9-0.3,1.6-1,2.1c-0.6,0.5-1.6,0.8-3,0.8
						c-1.8,0-3.1-0.4-4-1.1c-0.9-0.7-1.3-1.9-1.3-3.6H1.5l0,0.2c0,3.1,1.1,5.4,3.4,7c2.3,1.6,5.1,2.4,8.4,2.4c3.2,0,5.8-0.7,7.7-2.1
						c2-1.4,3-3.4,3-5.9c0-2.5-0.8-4.4-2.5-5.9c-1.7-1.4-4.1-2.6-7.3-3.6c-2-0.7-3.4-1.3-4.3-1.9c-0.7-0.5-1.1-1.2-1.1-2
						c0-0.9,0.4-1.6,1.1-2.2c0.8-0.6,1.8-0.9,3.1-0.9c1.3,0,2.4,0.3,3.2,1.1c0.8,0.8,1.1,1.7,1.1,2.8h6.4v-0.2
						c0.1-2.5-0.9-4.6-2.9-6.3C18.9,119,16.3,118.2,13.1,118.2z"/>
				</g>
			</g>
		</g>
		<g transform="matrix( 0.66973876953125, 0, 0, 0.672821044921875, -0.6,38.65) ">
			<g>
				<g id="DIY_Free_Support_160x600_psd_Asset_04_Free__filing___Free__support__0_Layer0_0_MEMBER_16_FILL">
					<path class="st0" d="M52,118.6h-6.6v18.7c0,1.8-0.5,3.1-1.3,3.9c-0.8,0.8-2.1,1.3-3.8,1.3c-1.6,0-2.9-0.4-3.8-1.3
						c-0.9-0.8-1.4-2.1-1.4-3.9v-18.7h-6.6v18.7c0,3.3,1.1,5.8,3.2,7.6c2.2,1.8,5,2.7,8.5,2.7c3.5,0,6.4-0.9,8.5-2.7
						c2.2-1.8,3.2-4.3,3.2-7.6V118.6z"/>
				</g>
			</g>
		</g>
		<g transform="matrix( 0.66973876953125, 0, 0, 0.672821044921875, -0.6,38.65) ">
			<g>
				<g id="DIY_Free_Support_160x600_psd_Asset_04_Free__filing___Free__support__0_Layer0_0_MEMBER_17_FILL">
					<path class="st0" d="M76.9,121.2c-2-1.7-4.7-2.6-8-2.6H57.3v28.6H64v-9.8h4.9c3.4,0,6.1-0.9,8-2.6c2-1.7,3-4,3-6.8
						C79.9,125.2,78.9,123,76.9,121.2 M64,123.7h4.9c1.5,0,2.6,0.4,3.3,1.2c0.8,0.9,1.2,1.9,1.2,3.2c0,1.2-0.4,2.2-1.2,3.1
						c-0.8,0.8-1.9,1.1-3.3,1.1H64V123.7z"/>
				</g>
			</g>
		</g>
		<g transform="matrix( 0.66973876953125, 0, 0, 0.672821044921875, -0.6,38.65) ">
			<g>
				<g id="DIY_Free_Support_160x600_psd_Asset_04_Free__filing___Free__support__0_Layer0_0_MEMBER_18_FILL">
					<path class="st0" d="M96.2,118.6H84.7v28.6h6.6v-9.8h4.9c3.4,0,6.1-0.9,8-2.6c2-1.7,3-4,3-6.8c0-2.8-1-5-3-6.8
						C102.3,119.5,99.6,118.6,96.2,118.6 M91.3,123.7h4.9c1.5,0,2.6,0.4,3.3,1.2c0.7,0.8,1.1,1.9,1.1,3.2c0,1.3-0.4,2.3-1.1,3.1
						c-0.8,0.8-1.9,1.1-3.3,1.1h-4.9V123.7z"/>
				</g>
			</g>
		</g>
		<g transform="matrix( 0.66973876953125, 0, 0, 0.672821044921875, -0.6,38.65) ">
			<g>
				<g id="DIY_Free_Support_160x600_psd_Asset_04_Free__filing___Free__support__0_Layer0_0_MEMBER_19_FILL">
					<path class="st0" d="M132.2,121.7c-2.2-2.3-5.2-3.5-8.8-3.5c-3.6,0-6.5,1.2-8.7,3.5c-2.3,2.3-3.4,5.2-3.4,8.7v5.1
						c0,3.5,1.1,6.4,3.4,8.7c2.3,2.3,5.2,3.4,8.8,3.4c3.6,0,6.5-1.1,8.7-3.4c2.2-2.3,3.4-5.2,3.4-8.7v-5.1
						C135.6,126.8,134.5,123.9,132.2,121.7 M129,130.3v5.2c0,2.1-0.5,3.8-1.4,5.1c-1,1.3-2.3,1.9-4,1.9c-1.8,0-3.2-0.6-4.1-1.9
						c-1-1.3-1.5-3-1.5-5.1v-5.2c0-2,0.5-3.7,1.5-5c1-1.3,2.3-1.9,4.1-1.9c1.8,0,3.1,0.7,4.1,1.9C128.5,126.5,129,128.2,129,130.3z"
						/>
				</g>
			</g>
		</g>
		<g transform="matrix( 0.66973876953125, 0, 0, 0.672821044921875, -0.6,38.65) ">
			<g>
				<g id="DIY_Free_Support_160x600_psd_Asset_04_Free__filing___Free__support__0_Layer0_0_MEMBER_20_FILL">
					<path class="st0" d="M162.5,142.2v-1.8c0-1.7-0.4-3.1-1.1-4.3c-0.8-1.2-2-2-3.8-2.5c1.5-0.7,2.7-1.5,3.4-2.6
						c0.8-1.1,1.2-2.4,1.2-3.9c0-2.6-1-4.7-2.9-6.3c-2-1.5-4.6-2.3-7.8-2.3h-11v28.6h6.7v-10.9h4.5c1.4,0,2.4,0.4,3.2,1.1
						c0.7,0.7,1.1,1.7,1.1,3.1v1.8c0,0.7,0.1,1.7,0.3,2.9c0.2,1,0.5,1.8,1,2.1h6.9v-0.4c-0.6-0.4-0.9-1.1-1.1-2.1
						C162.6,143.8,162.5,143,162.5,142.2 M147.1,123.7h4.3c1.3,0,2.3,0.3,3.1,1.1c0.7,0.8,1.1,1.8,1.1,2.8c0,1.1-0.4,2-1.1,2.6
						c-0.7,0.6-1.7,0.9-3.1,0.9h-4.3V123.7z"/>
				</g>
			</g>
		</g>
		<g transform="matrix( 0.66973876953125, 0, 0, 0.672821044921875, -0.6,38.65) ">
			<g>
				<g id="DIY_Free_Support_160x600_psd_Asset_04_Free__filing___Free__support__0_Layer0_0_MEMBER_21_FILL">
					<path class="st0" d="M187.8,123.7v-5.1h-21.7v5.1h7.5v23.5h6.7v-23.5H187.8z"/>
				</g>
			</g>
		</g>
		<g transform="matrix( 0.66973876953125, 0, 0, 0.672821044921875, -0.6,38.65) ">
			<g>
				<g id="DIY_Free_Support_160x600_psd_Asset_04_Free__filing___Free__support__0_Layer0_0_MEMBER_22_FILL">
					<path class="st0" d="M192.3,120l-1.3,4.2l6.8,2l-4.7,6l3.6,2.5l3.8-6.2l3.8,6.5l3.7-2.6l-4.6-6l6.9-2l-1.3-4.2l-6.5,2.9l0.6-8
						h-4.4l0.5,7.8L192.3,120z"/>
				</g>
			</g>
		</g>
	</g>
</g>
</svg>
