
<svg xmlns="http://www.w3.org/2000/svg" version="1.1" xmlns:xlink="http://www.w3.org/1999/xlink" preserveAspectRatio="none" x="0px" y="0px" width="160px" height="600px" viewBox="0 0 160 600">
<defs>
<image id="DIY_Simple_to_Complicated_160x600_psd_Asset_08_BTN_copy_Assets_Arrow" x="0" y="0" width="7" height="10" xlink:href="data:image/png;base64,iVBORw0KGgoAAAANSUhEUgAAAAcAAAAKCAYAAAB4zEQNAAAAwklEQVQYlWNgYGBg+Pjxo8qv
X78yGdDB69evJf/+/Xv5/79////8+jUFRfL2/HCLj9e2/ocBFAUN2gxs50pZat6emvf/39/f
EAV//qy8f/++AFzR/UUReV+fXf0BM+HX109zWGCSkiHTGZig7O+PTzM83VHPyLBq1Sq2379/
18B0fL1/9P+1bt1V+wsYBBheXNxk8ef7B4jEw+P/r/caIRx0qIBB8tHKlMsfLq//f32iJapX
GBgYGM42iKpcbJTFCAQAsiSCdPzbiHMAAAAASUVORK5CYII="/>

<g id="DIY_Simple_to_Complicated_160x600_psd_Asset_08_BTN_copy_file_free_now_0_Layer0_0_MEMBER_0_FILL">
<path fill="#FFFFFF" stroke="none" d="
M 4.65 -5.8
L 0.6 -5.8 0.6 0 2 0 2 -2.2 4.4 -2.2 4.4 -3.35 2 -3.35 2 -4.6 4.65 -4.6 4.65 -5.8 Z"/>
</g>

<g id="DIY_Simple_to_Complicated_160x600_psd_Asset_08_BTN_copy_file_free_now_0_Layer0_0_MEMBER_1_FILL">
<path fill="#FFFFFF" stroke="none" d="
M 7.2 -5.8
L 5.8 -5.8 5.8 0 7.2 0 7.2 -5.8 Z"/>
</g>

<g id="DIY_Simple_to_Complicated_160x600_psd_Asset_08_BTN_copy_file_free_now_0_Layer0_0_MEMBER_2_FILL">
<path fill="#FFFFFF" stroke="none" d="
M 10.05 -5.8
L 8.65 -5.8 8.65 0 12.6 0 12.6 -1.2 10.05 -1.2 10.05 -5.8 Z"/>
</g>

<g id="DIY_Simple_to_Complicated_160x600_psd_Asset_08_BTN_copy_file_free_now_0_Layer0_0_MEMBER_3_FILL">
<path fill="#FFFFFF" stroke="none" d="
M 15.15 -1.2
L 15.15 -2.35 17.65 -2.35 17.65 -3.55 15.15 -3.55 15.15 -4.6 17.9 -4.6 17.9 -5.8 13.7 -5.8 13.7 0 17.9 0 17.9 -1.2 15.15 -1.2 Z"/>
</g>

<g id="DIY_Simple_to_Complicated_160x600_psd_Asset_08_BTN_copy_file_free_now_0_Layer0_0_MEMBER_4_FILL">
<path fill="#FFFFFF" stroke="none" d="
M 25.25 -5.8
L 21.15 -5.8 21.15 0 22.55 0 22.55 -2.2 25 -2.2 25 -3.35 22.55 -3.35 22.55 -4.6 25.25 -4.6 25.25 -5.8 Z"/>
</g>

<g id="DIY_Simple_to_Complicated_160x600_psd_Asset_08_BTN_copy_file_free_now_0_Layer0_0_MEMBER_5_FILL">
<path fill="#FFFFFF" stroke="none" d="
M 27.75 -1.75
L 28.65 -1.75 29.65 0 31.3 0 30.15 -1.95
Q 31.2 -2.5 31.2 -3.75 31.2 -4.65 30.65 -5.2 30.1 -5.8 29.05 -5.8
L 26.3 -5.8 26.3 0 27.75 0 27.75 -1.75
M 28.85 -4.65
Q 29.8 -4.65 29.8 -3.75 29.8 -2.85 28.85 -2.85
L 27.75 -2.85 27.75 -4.65 28.85 -4.65 Z"/>
</g>

<g id="DIY_Simple_to_Complicated_160x600_psd_Asset_08_BTN_copy_file_free_now_0_Layer0_0_MEMBER_6_FILL">
<path fill="#FFFFFF" stroke="none" d="
M 33.85 -1.2
L 33.85 -2.35 36.35 -2.35 36.35 -3.55 33.85 -3.55 33.85 -4.6 36.6 -4.6 36.6 -5.8 32.4 -5.8 32.4 0 36.6 0 36.6 -1.2 33.85 -1.2 Z"/>
</g>

<g id="DIY_Simple_to_Complicated_160x600_psd_Asset_08_BTN_copy_file_free_now_0_Layer0_0_MEMBER_7_FILL">
<path fill="#FFFFFF" stroke="none" d="
M 39.25 -3.55
L 39.25 -4.6 42 -4.6 42 -5.8 37.8 -5.8 37.8 0 42.05 0 42.05 -1.2 39.25 -1.2 39.25 -2.35 41.75 -2.35 41.75 -3.55 39.25 -3.55 Z"/>
</g>

<g id="DIY_Simple_to_Complicated_160x600_psd_Asset_08_BTN_copy_file_free_now_0_Layer0_0_MEMBER_8_FILL">
<path fill="#FFFFFF" stroke="none" d="
M 49.2 -5.8
L 44.65 -5.8 44.65 -4.6 46.2 -4.6 46.2 0 47.65 0 47.65 -4.6 49.2 -4.6 49.2 -5.8 Z"/>
</g>

<g id="DIY_Simple_to_Complicated_160x600_psd_Asset_08_BTN_copy_file_free_now_0_Layer0_0_MEMBER_9_FILL">
<path fill="#FFFFFF" stroke="none" d="
M 49.9 -2.55
Q 49.9 -1.35 50.55 -0.65 51.25 0.1 52.55 0.1 53.85 0.1 54.6 -0.65 55.25 -1.35 55.25 -2.55
L 55.25 -3.3
Q 55.25 -4.45 54.6 -5.2 53.85 -5.95 52.55 -5.95 51.3 -5.95 50.55 -5.2 49.9 -4.45 49.9 -3.3
L 49.9 -2.55
M 51.35 -3.35
Q 51.35 -4.75 52.55 -4.75 53.8 -4.75 53.8 -3.35
L 53.8 -2.45
Q 53.8 -1.05 52.55 -1.05 51.35 -1.05 51.35 -2.45
L 51.35 -3.35 Z"/>
</g>

<g id="DIY_Simple_to_Complicated_160x600_psd_Asset_08_BTN_copy_file_free_now_0_Layer0_0_MEMBER_10_FILL">
<path fill="#FFFFFF" stroke="none" d="
M 58.95 -5.8
L 56.4 -5.8 56.4 0 58.95 0
Q 60.1 0 60.8 -0.65 61.4 -1.25 61.4 -2.3
L 61.4 -3.5
Q 61.4 -4.55 60.8 -5.15 60.1 -5.8 58.95 -5.8
M 59.95 -3.5
L 59.95 -2.3
Q 59.95 -1.15 58.7 -1.15
L 57.85 -1.15 57.85 -4.65 58.7 -4.65
Q 59.95 -4.65 59.95 -3.5 Z"/>
</g>

<g id="DIY_Simple_to_Complicated_160x600_psd_Asset_08_BTN_copy_file_free_now_0_Layer0_0_MEMBER_11_FILL">
<path fill="#FFFFFF" stroke="none" d="
M 63.65 -1.1
L 65.75 -1.1 66.05 0 67.5 0 65.4 -5.8 63.95 -5.8 61.9 0 63.3 0 63.65 -1.1
M 64 -2.2
L 64.7 -4.5 65.4 -2.2 64 -2.2 Z"/>
</g>

<g id="DIY_Simple_to_Complicated_160x600_psd_Asset_08_BTN_copy_file_free_now_0_Layer0_0_MEMBER_12_FILL">
<path fill="#FFFFFF" stroke="none" d="
M 70.55 -2.05
L 72.5 -5.8 70.95 -5.8 69.85 -3.4 68.75 -5.8 67.2 -5.8 69.15 -2.05 69.15 0 70.55 0 70.55 -2.05 Z"/>
</g>

<g id="DIY_Simple_to_Complicated_160x600_psd_Asset_08_Why_pay__for_tax__software__copy_0_Layer0_0_MEMBER_0_FILL">
<path fill="#FFFFFF" stroke="none" d="
M 4.4 -1.7
L 3.5 -5 2.7 -5 1.85 -1.7 1.8 -1.7 1.15 -5 0.05 -5 1.2 0 2.25 0 3.1 -3.05 3.95 0 5.05 0 6.2 -5 5.05 -5 4.4 -1.7 Z"/>
</g>

<g id="DIY_Simple_to_Complicated_160x600_psd_Asset_08_Why_pay__for_tax__software__copy_0_Layer0_0_MEMBER_1_FILL">
<path fill="#FFFFFF" stroke="none" d="
M 7.6 -2
L 9.45 -2 9.45 0 10.6 0 10.6 -5 9.45 -5 9.45 -2.9 7.6 -2.9 7.6 -5 6.45 -5 6.45 0 7.6 0 7.6 -2 Z"/>
</g>

<g id="DIY_Simple_to_Complicated_160x600_psd_Asset_08_Why_pay__for_tax__software__copy_0_Layer0_0_MEMBER_2_FILL">
<path fill="#FFFFFF" stroke="none" d="
M 12.95 -2.8
L 11.95 -5 10.7 -5 12.35 -1.8 12.35 0 13.5 0 13.5 -1.75 15.2 -5 13.95 -5 12.95 -2.8 Z"/>
</g>

<g id="DIY_Simple_to_Complicated_160x600_psd_Asset_08_Why_pay__for_tax__software__copy_0_Layer0_0_MEMBER_3_FILL">
<path fill="#FFFFFF" stroke="none" d="
M 18.15 -1.7
L 19 -1.7
Q 19.9 -1.7 20.4 -2.15 20.95 -2.6 20.95 -3.35 20.95 -4 20.4 -4.55 19.9 -5 19 -5
L 17 -5 17 0 18.15 0 18.15 -1.7
M 19.55 -3.9
Q 19.75 -3.7 19.75 -3.35 19.75 -3 19.55 -2.8 19.4 -2.6 19 -2.6
L 18.15 -2.6 18.15 -4.1 19 -4.1
Q 19.35 -4.1 19.55 -3.9 Z"/>
</g>

<g id="DIY_Simple_to_Complicated_160x600_psd_Asset_08_Why_pay__for_tax__software__copy_0_Layer0_0_MEMBER_4_FILL">
<path fill="#FFFFFF" stroke="none" d="
M 21.85 -0.95
L 23.45 -0.95 23.7 0 24.9 0 23.3 -5 22.05 -5 20.45 0 21.6 0 21.85 -0.95
M 22.15 -1.85
L 22.65 -3.65 23.2 -1.85 22.15 -1.85 Z"/>
</g>

<g id="DIY_Simple_to_Complicated_160x600_psd_Asset_08_Why_pay__for_tax__software__copy_0_Layer0_0_MEMBER_5_FILL">
<path fill="#FFFFFF" stroke="none" d="
M 26.4 -2.8
L 25.4 -5 24.15 -5 25.8 -1.8 25.8 0 26.95 0 26.95 -1.75 28.65 -5 27.4 -5 26.4 -2.8 Z"/>
</g>

<g id="DIY_Simple_to_Complicated_160x600_psd_Asset_08_Why_pay__for_tax__software__copy_0_Layer0_0_MEMBER_6_FILL">
<path fill="#FFFFFF" stroke="none" d="
M 3.55 5
L 3.55 4.1 1.55 4.1 1.55 2.9 3.9 2.9 3.9 2 0.4 2 0.4 7 1.55 7 1.55 5 3.55 5 Z"/>
</g>

<g id="DIY_Simple_to_Complicated_160x600_psd_Asset_08_Why_pay__for_tax__software__copy_0_Layer0_0_MEMBER_7_FILL">
<path fill="#FFFFFF" stroke="none" d="
M 8.35 4.95
L 8.35 4.05
Q 8.35 3.15 7.75 2.55 7.25 1.95 6.25 1.95 5.3 1.95 4.7 2.55 4.15 3.1 4.15 4.05
L 4.15 4.95
Q 4.15 5.95 4.7 6.5 5.3 7.1 6.25 7.1 7.2 7.1 7.8 6.5 8.35 5.85 8.35 4.95
M 7.2 4.05
L 7.2 4.95
Q 7.2 5.45 6.95 5.85 6.7 6.2 6.25 6.2 5.8 6.2 5.55 5.85 5.3 5.55 5.3 4.95
L 5.3 4.05
Q 5.3 3.45 5.55 3.2 5.75 2.85 6.25 2.85 6.75 2.85 6.95 3.2 7.2 3.55 7.2 4.05 Z"/>
</g>

<g id="DIY_Simple_to_Complicated_160x600_psd_Asset_08_Why_pay__for_tax__software__copy_0_Layer0_0_MEMBER_8_FILL">
<path fill="#FFFFFF" stroke="none" d="
M 12.15 2.45
Q 11.65 2 10.75 2
L 8.85 2 8.85 7 10 7 10 5.1 10.8 5.1
Q 11.2 5.1 11.35 5.3 11.55 5.45 11.55 5.85
L 11.55 6.15 11.6 6.65
Q 11.6 6.85 11.75 7
L 12.95 7 12.95 6.95 12.75 6.6 12.7 6.15 12.7 5.8
Q 12.7 5.3 12.5 5.05 12.25 4.7 11.85 4.65
L 12.45 4.2
Q 12.65 3.95 12.65 3.5 12.65 2.8 12.15 2.45
M 11.3 4.05
Q 11.15 4.2 10.8 4.2
L 10 4.2 10 2.9 10.75 2.9
Q 11.1 2.9 11.3 3.1 11.5 3.25 11.5 3.6 11.5 3.9 11.3 4.05 Z"/>
</g>

<g id="DIY_Simple_to_Complicated_160x600_psd_Asset_08_Why_pay__for_tax__software__copy_0_Layer0_0_MEMBER_9_FILL">
<path fill="#FFFFFF" stroke="none" d="
M 18.35 2.9
L 18.35 2 14.55 2 14.55 2.9 15.9 2.9 15.9 7 17.05 7 17.05 2.9 18.35 2.9 Z"/>
</g>

<g id="DIY_Simple_to_Complicated_160x600_psd_Asset_08_Why_pay__for_tax__software__copy_0_Layer0_0_MEMBER_10_FILL">
<path fill="#FFFFFF" stroke="none" d="
M 21.2 7
L 22.35 7 20.75 2 19.5 2 17.9 7 19.05 7 19.35 6.05 20.9 6.05 21.2 7
M 19.6 5.15
L 20.1 3.35 20.15 3.35 20.65 5.15 19.6 5.15 Z"/>
</g>

<g id="DIY_Simple_to_Complicated_160x600_psd_Asset_08_Why_pay__for_tax__software__copy_0_Layer0_0_MEMBER_11_FILL">
<path fill="#FFFFFF" stroke="none" d="
M 24.35 3.7
L 23.55 2 22.25 2 23.65 4.5 22.2 7 23.55 7 24.4 5.3 25.25 7 26.65 7 25.1 4.5 26.5 2 25.2 2 24.35 3.7 Z"/>
</g>

<g id="DIY_Simple_to_Complicated_160x600_psd_Asset_08_Why_pay__for_tax__software__copy_0_Layer0_0_MEMBER_12_FILL">
<path fill="#FFFFFF" stroke="none" d="
M 0.85 11.35
Q 1.45 11.75 2.25 12
L 2.85 12.3
Q 3.05 12.45 3.05 12.7 3.05 12.9 2.85 13.05 2.7 13.2 2.3 13.2 1.85 13.2 1.6 13.05 1.4 12.85 1.4 12.4
L 0.25 12.4 0.25 12.45
Q 0.25 13.2 0.85 13.65 1.45 14.1 2.3 14.1 3.15 14.1 3.7 13.7 4.2 13.3 4.2 12.7 4.2 12.05 3.75 11.65 3.3 11.25 2.5 11.05 1.85 10.8 1.75 10.7 1.55 10.65 1.55 10.35 1.55 10.15 1.75 10 1.9 9.85 2.3 9.85 2.65 9.85 2.85 10 3.05 10.3 3.05 10.5
L 4.15 10.5
Q 4.25 9.8 3.65 9.4 3.15 8.95 2.3 8.95 1.55 8.95 0.9 9.35 0.4 9.7 0.4 10.35 0.4 11 0.85 11.35 Z"/>
</g>

<g id="DIY_Simple_to_Complicated_160x600_psd_Asset_08_Why_pay__for_tax__software__copy_0_Layer0_0_MEMBER_13_FILL">
<path fill="#FFFFFF" stroke="none" d="
M 4.5 11.05
L 4.5 11.95
Q 4.5 12.9 5.1 13.5 5.7 14.1 6.65 14.1 7.65 14.1 8.15 13.5 8.75 12.9 8.75 11.95
L 8.75 11.05
Q 8.75 10.15 8.15 9.55 7.65 8.95 6.65 8.95 5.7 8.95 5.1 9.55 4.5 10.15 4.5 11.05
M 5.95 10.2
Q 6.15 9.85 6.65 9.85 7.15 9.85 7.35 10.2 7.6 10.55 7.6 11.05
L 7.6 11.95
Q 7.6 12.45 7.35 12.85 7.15 13.2 6.65 13.2 6.15 13.2 5.95 12.85 5.7 12.55 5.7 11.95
L 5.7 11.05
Q 5.7 10.45 5.95 10.2 Z"/>
</g>

<g id="DIY_Simple_to_Complicated_160x600_psd_Asset_08_Why_pay__for_tax__software__copy_0_Layer0_0_MEMBER_14_FILL">
<path fill="#FFFFFF" stroke="none" d="
M 12.4 12
L 12.4 11.1 10.4 11.1 10.4 9.9 12.75 9.9 12.75 9.05 9.25 9.05 9.25 14 10.4 14 10.4 12 12.4 12 Z"/>
</g>

<g id="DIY_Simple_to_Complicated_160x600_psd_Asset_08_Why_pay__for_tax__software__copy_0_Layer0_0_MEMBER_15_FILL">
<path fill="#FFFFFF" stroke="none" d="
M 16.65 9.9
L 16.65 9.05 12.85 9.05 12.85 9.9 14.15 9.9 14.15 14 15.35 14 15.35 9.9 16.65 9.9 Z"/>
</g>

<g id="DIY_Simple_to_Complicated_160x600_psd_Asset_08_Why_pay__for_tax__software__copy_0_Layer0_0_MEMBER_16_FILL">
<path fill="#FFFFFF" stroke="none" d="
M 21.65 9.05
L 21 12.3 20.1 9.05 19.3 9.05 18.45 12.3 18.4 12.3 17.75 9.05 16.65 9.05 17.8 14 18.85 14 19.7 10.95 20.55 14 21.65 14 22.8 9.05 21.65 9.05 Z"/>
</g>

<g id="DIY_Simple_to_Complicated_160x600_psd_Asset_08_Why_pay__for_tax__software__copy_0_Layer0_0_MEMBER_17_FILL">
<path fill="#FFFFFF" stroke="none" d="
M 25.35 9.05
L 24.15 9.05 22.5 14 23.7 14 23.95 13.05 25.55 13.05 25.8 14 27 14 25.35 9.05
M 24.2 12.15
L 24.75 10.35 25.3 12.15 24.2 12.15 Z"/>
</g>

<g id="DIY_Simple_to_Complicated_160x600_psd_Asset_08_Why_pay__for_tax__software__copy_0_Layer0_0_MEMBER_18_FILL">
<path fill="#FFFFFF" stroke="none" d="
M 30.95 10.5
Q 30.95 9.8 30.45 9.45 30 9.05 29.1 9.05
L 27.15 9.05 27.15 14 28.3 14 28.3 12.1 29.1 12.1
Q 29.5 12.1 29.65 12.3 29.85 12.45 29.85 12.85
L 29.85 13.15 29.9 13.65
Q 30 13.95 30.1 14
L 31.25 14 31.25 13.95 31.05 13.6 31 13.15 31 12.85
Q 31 12.3 30.8 12.05 30.7 11.85 30.15 11.65
L 30.75 11.2
Q 30.95 10.95 30.95 10.5
M 29.6 10.1
Q 29.8 10.3 29.8 10.6 29.8 10.9 29.6 11.05 29.45 11.2 29.1 11.2
L 28.3 11.2 28.3 9.9 29.1 9.9
Q 29.4 9.9 29.6 10.1 Z"/>
</g>

<g id="DIY_Simple_to_Complicated_160x600_psd_Asset_08_Why_pay__for_tax__software__copy_0_Layer0_0_MEMBER_19_FILL">
<path fill="#FFFFFF" stroke="none" d="
M 34.7 11.9
L 34.7 11 32.75 11 32.75 9.9 35.1 9.9 35.1 9.05 31.6 9.05 31.6 14 35.05 14 35.05 13.1 32.75 13.1 32.75 11.9 34.7 11.9 Z"/>
</g>

<g id="DIY_Simple_to_Complicated_160x600_psd_Asset_08_Why_pay__for_tax__software__copy_0_Layer0_0_MEMBER_20_FILL">
<path fill="#FFFFFF" stroke="none" d="
M 37.25 14
L 37.25 13.1 36.1 13.1 36.1 14 37.25 14
M 36.85 11.3
L 36.25 11.85
Q 36.1 12.15 36.1 12.6
L 37.25 12.6 37.3 12.15
Q 37.4 11.9 37.6 11.85 38 11.65 38.25 11.25 38.5 10.95 38.5 10.5 38.5 9.8 38.05 9.35 37.55 8.95 36.75 8.95 36.1 8.95 35.55 9.3 35.1 9.7 35.1 10.4
L 36.2 10.4 36.4 10
Q 36.55 9.85 36.75 9.85 37.05 9.85 37.2 10 37.35 10.25 37.35 10.5
L 37.25 10.95
Q 37.05 11.25 36.85 11.3 Z"/>
</g>

<g id="DIY_Simple_to_Complicated_160x600_psd_Asset_08__copy_2_0_Layer0_0_MEMBER_0_FILL">
<path fill="#FFFFFF" stroke="none" d="
M -18.15 -1.1
Q -18.15 -0.6 -17.85 -0.3 -17.55 0.05 -17.1 0.05 -16.6 0.05 -16.3 -0.3 -16 -0.6 -16 -1.1
L -16 -1.6
Q -16 -2.1 -16.3 -2.4 -16.6 -2.75 -17.1 -2.75 -17.55 -2.75 -17.85 -2.4 -18.15 -2.1 -18.15 -1.6
L -18.15 -1.1
M -17.8 -1.1
L -17.8 -1.6
Q -17.8 -1.9 -17.6 -2.2 -17.35 -2.45 -17.1 -2.45 -16.8 -2.45 -16.55 -2.2 -16.35 -2 -16.35 -1.6
L -16.35 -1.1
Q -16.35 -0.7 -16.55 -0.5 -16.8 -0.25 -17.1 -0.25 -17.35 -0.25 -17.6 -0.5 -17.8 -0.8 -17.8 -1.1 Z"/>
</g>

<g id="DIY_Simple_to_Complicated_160x600_psd_Asset_08__copy_2_0_Layer0_0_MEMBER_1_FILL">
<path fill="#FFFFFF" stroke="none" d="
M -15.15 -2.7
L -15.55 -2.7 -15.55 0 -15.15 0 -15.15 -2.1 -13.85 0 -13.5 0 -13.5 -2.7 -13.85 -2.7 -13.85 -0.6 -15.15 -2.7 Z"/>
</g>

<g id="DIY_Simple_to_Complicated_160x600_psd_Asset_08__copy_2_0_Layer0_0_MEMBER_2_FILL">
<path fill="#FFFFFF" stroke="none" d="
M -12.55 -0.3
L -12.55 -2.7 -12.9 -2.7 -12.9 0 -11.3 0 -11.3 -0.3 -12.55 -0.3 Z"/>
</g>

<g id="DIY_Simple_to_Complicated_160x600_psd_Asset_08__copy_2_0_Layer0_0_MEMBER_3_FILL">
<path fill="#FFFFFF" stroke="none" d="
M -10.6 -2.7
L -10.95 -2.7 -10.95 0 -10.6 0 -10.6 -2.7 Z"/>
</g>

<g id="DIY_Simple_to_Complicated_160x600_psd_Asset_08__copy_2_0_Layer0_0_MEMBER_4_FILL">
<path fill="#FFFFFF" stroke="none" d="
M -9.65 -2.1
L -9.6 -2.1 -8.3 0 -7.95 0 -7.95 -2.7 -8.3 -2.7 -8.3 -0.6 -8.35 -0.6 -9.65 -2.7 -10 -2.7 -10 0 -9.65 0 -9.65 -2.1 Z"/>
</g>

<g id="DIY_Simple_to_Complicated_160x600_psd_Asset_08__copy_2_0_Layer0_0_MEMBER_5_FILL">
<path fill="#FFFFFF" stroke="none" d="
M -5.6 -2.4
L -5.6 -2.7 -7.4 -2.7 -7.4 0 -5.6 0 -5.6 -0.3 -7 -0.3 -7 -1.25 -5.8 -1.25 -5.8 -1.55 -7 -1.55 -7 -2.4 -5.6 -2.4 Z"/>
</g>

<g id="DIY_Simple_to_Complicated_160x600_psd_Asset_08__copy_2_0_Layer0_0_MEMBER_6_FILL">
<path fill="#FFFFFF" stroke="none" d="
M -3.45 -1.6
Q -3.25 -1.65 -3.15 -1.85
L -3.05 -2.15
Q -3.05 -2.4 -3.25 -2.55 -3.4 -2.75 -3.7 -2.75 -4.05 -2.75 -4.2 -2.55 -4.4 -2.4 -4.4 -2.1
L -4.3 -1.8 -4.1 -1.45
Q -4.35 -1.3 -4.5 -1.1 -4.6 -1 -4.6 -0.75 -4.6 -0.35 -4.4 -0.15 -4.1 0.05 -3.75 0.05
L -3.35 0 -3.05 -0.2 -2.9 0 -2.45 0 -2.8 -0.4 -2.6 -0.8 -2.5 -1.25 -2.85 -1.25 -2.9 -0.95 -3 -0.65 -3.65 -1.45 -3.45 -1.6
M -3.4 -2
L -3.55 -1.85 -3.8 -1.65
Q -3.95 -1.8 -3.95 -1.9
L -4 -2.1 -3.95 -2.35 -3.7 -2.45 -3.5 -2.35
Q -3.4 -2.3 -3.4 -2.15
L -3.4 -2
M -4.2 -0.95
L -3.9 -1.25 -3.25 -0.4 -3.5 -0.3 -3.75 -0.25
Q -4 -0.25 -4.15 -0.4
L -4.25 -0.75 -4.2 -0.95 Z"/>
</g>

<g id="DIY_Simple_to_Complicated_160x600_psd_Asset_08__copy_2_0_Layer0_0_MEMBER_7_FILL">
<path fill="#FFFFFF" stroke="none" d="
M 0.7 -1.55
Q 0.7 -2.05 0.4 -2.35 0.05 -2.7 -0.45 -2.7
L -1.3 -2.7 -1.3 0 -0.45 0
Q 0.05 0 0.4 -0.3 0.7 -0.65 0.7 -1.15
L 0.7 -1.55
M 0.35 -1.15
Q 0.35 -0.85 0.15 -0.55 -0.05 -0.3 -0.45 -0.3
L -0.95 -0.3 -0.95 -2.4 -0.45 -2.4
Q -0.05 -2.4 0.15 -2.15 0.35 -1.85 0.35 -1.55
L 0.35 -1.15 Z"/>
</g>

<g id="DIY_Simple_to_Complicated_160x600_psd_Asset_08__copy_2_0_Layer0_0_MEMBER_8_FILL">
<path fill="#FFFFFF" stroke="none" d="
M 2.05 -2.75
Q 1.6 -2.75 1.3 -2.4 1 -2.1 1 -1.6
L 1 -1.1
Q 1 -0.6 1.3 -0.3 1.6 0.05 2.05 0.05 2.55 0.05 2.85 -0.3 3.15 -0.6 3.15 -1.1
L 3.15 -1.6
Q 3.15 -2.1 2.85 -2.4 2.55 -2.75 2.05 -2.75
M 1.35 -1.6
Q 1.35 -2 1.55 -2.2 1.7 -2.45 2.05 -2.45 2.35 -2.45 2.6 -2.2 2.8 -1.9 2.8 -1.6
L 2.8 -1.1
Q 2.8 -0.8 2.6 -0.5 2.35 -0.25 2.05 -0.25 1.7 -0.25 1.55 -0.5 1.35 -0.7 1.35 -1.1
L 1.35 -1.6 Z"/>
</g>

<g id="DIY_Simple_to_Complicated_160x600_psd_Asset_08__copy_2_0_Layer0_0_MEMBER_9_FILL">
<path fill="#FFFFFF" stroke="none" d="
M 4.75 -2.7
L 4.2 -0.6 4.15 -0.95 3.75 -2.7 3.35 -2.7 4 0 4.35 0 4.9 -1.85 4.95 -2.1 5.5 0 5.85 0 6.5 -2.7 6.15 -2.7 5.75 -0.95 5.7 -0.6 5.65 -0.6 5.6 -0.95 5.1 -2.7 4.75 -2.7 Z"/>
</g>

<g id="DIY_Simple_to_Complicated_160x600_psd_Asset_08__copy_2_0_Layer0_0_MEMBER_10_FILL">
<path fill="#FFFFFF" stroke="none" d="
M 7.25 -2.7
L 6.85 -2.7 6.85 0 7.25 0 7.25 -2.1 8.55 0 8.9 0 8.9 -2.7 8.55 -2.7 8.55 -0.6 7.25 -2.7 Z"/>
</g>

<g id="DIY_Simple_to_Complicated_160x600_psd_Asset_08__copy_2_0_Layer0_0_MEMBER_11_FILL">
<path fill="#FFFFFF" stroke="none" d="
M 9.85 -0.3
L 9.85 -2.7 9.45 -2.7 9.45 0 11.1 0 11.1 -0.3 9.85 -0.3 Z"/>
</g>

<g id="DIY_Simple_to_Complicated_160x600_psd_Asset_08__copy_2_0_Layer0_0_MEMBER_12_FILL">
<path fill="#FFFFFF" stroke="none" d="
M 12.3 -2.75
Q 11.85 -2.75 11.55 -2.4 11.25 -2.1 11.25 -1.6
L 11.25 -1.1
Q 11.25 -0.6 11.55 -0.3 11.85 0.05 12.3 0.05 12.8 0.05 13.1 -0.3 13.4 -0.6 13.4 -1.1
L 13.4 -1.6
Q 13.4 -2.1 13.1 -2.4 12.8 -2.75 12.3 -2.75
M 11.6 -1.6
Q 11.6 -1.9 11.8 -2.2 12.05 -2.45 12.3 -2.45 12.6 -2.45 12.85 -2.2 13.05 -2 13.05 -1.6
L 13.05 -1.1
Q 13.05 -0.7 12.85 -0.5 12.7 -0.25 12.3 -0.25 12.05 -0.25 11.8 -0.5 11.6 -0.8 11.6 -1.1
L 11.6 -1.6 Z"/>
</g>

<g id="DIY_Simple_to_Complicated_160x600_psd_Asset_08__copy_2_0_Layer0_0_MEMBER_13_FILL">
<path fill="#FFFFFF" stroke="none" d="
M 14.15 -0.7
L 15.3 -0.7 15.55 0 15.9 0 14.9 -2.7 14.6 -2.7 13.55 0 13.9 0 14.15 -0.7
M 14.3 -1
L 14.75 -2.25 15.2 -1 14.3 -1 Z"/>
</g>

<g id="DIY_Simple_to_Complicated_160x600_psd_Asset_08__copy_2_0_Layer0_0_MEMBER_14_FILL">
<path fill="#FFFFFF" stroke="none" d="
M 17 -2.7
L 16.2 -2.7 16.2 0 17 0
Q 17.55 0 17.85 -0.3 18.2 -0.65 18.2 -1.15
L 18.2 -1.55
Q 18.2 -2.05 17.85 -2.35 17.55 -2.7 17 -2.7
M 16.55 -2.4
L 17 -2.4
Q 17.4 -2.4 17.6 -2.15 17.85 -1.9 17.85 -1.55
L 17.85 -1.15
Q 17.85 -0.8 17.6 -0.55 17.4 -0.3 17 -0.3
L 16.55 -0.3 16.55 -2.4 Z"/>
</g>
</defs>

<g transform="matrix( 1, 0, 0, 1, -1076,0) ">
<g transform="matrix( 1, 0, 0, 1, 1092,230) ">
<g transform="matrix( 1, 0, 0, 1, 11,7) ">
<g transform="matrix( 1.2587890625, 0, 0, 1.25994873046875, -0.1,7.55) ">
<use xlink:href="#DIY_Simple_to_Complicated_160x600_psd_Asset_08_BTN_copy_file_free_now_0_Layer0_0_MEMBER_0_FILL"/>
</g>

<g transform="matrix( 1.2587890625, 0, 0, 1.25994873046875, -0.1,7.55) ">
<use xlink:href="#DIY_Simple_to_Complicated_160x600_psd_Asset_08_BTN_copy_file_free_now_0_Layer0_0_MEMBER_1_FILL"/>
</g>

<g transform="matrix( 1.2587890625, 0, 0, 1.25994873046875, -0.1,7.55) ">
<use xlink:href="#DIY_Simple_to_Complicated_160x600_psd_Asset_08_BTN_copy_file_free_now_0_Layer0_0_MEMBER_2_FILL"/>
</g>

<g transform="matrix( 1.2587890625, 0, 0, 1.25994873046875, -0.1,7.55) ">
<use xlink:href="#DIY_Simple_to_Complicated_160x600_psd_Asset_08_BTN_copy_file_free_now_0_Layer0_0_MEMBER_3_FILL"/>
</g>

<g transform="matrix( 1.2587890625, 0, 0, 1.25994873046875, -0.1,7.55) ">
<use xlink:href="#DIY_Simple_to_Complicated_160x600_psd_Asset_08_BTN_copy_file_free_now_0_Layer0_0_MEMBER_4_FILL"/>
</g>

<g transform="matrix( 1.2587890625, 0, 0, 1.25994873046875, -0.1,7.55) ">
<use xlink:href="#DIY_Simple_to_Complicated_160x600_psd_Asset_08_BTN_copy_file_free_now_0_Layer0_0_MEMBER_5_FILL"/>
</g>

<g transform="matrix( 1.2587890625, 0, 0, 1.25994873046875, -0.1,7.55) ">
<use xlink:href="#DIY_Simple_to_Complicated_160x600_psd_Asset_08_BTN_copy_file_free_now_0_Layer0_0_MEMBER_6_FILL"/>
</g>

<g transform="matrix( 1.2587890625, 0, 0, 1.25994873046875, -0.1,7.55) ">
<use xlink:href="#DIY_Simple_to_Complicated_160x600_psd_Asset_08_BTN_copy_file_free_now_0_Layer0_0_MEMBER_7_FILL"/>
</g>

<g transform="matrix( 1.2587890625, 0, 0, 1.25994873046875, -0.1,7.55) ">
<use xlink:href="#DIY_Simple_to_Complicated_160x600_psd_Asset_08_BTN_copy_file_free_now_0_Layer0_0_MEMBER_8_FILL"/>
</g>

<g transform="matrix( 1.2587890625, 0, 0, 1.25994873046875, -0.1,7.55) ">
<use xlink:href="#DIY_Simple_to_Complicated_160x600_psd_Asset_08_BTN_copy_file_free_now_0_Layer0_0_MEMBER_9_FILL"/>
</g>

<g transform="matrix( 1.2587890625, 0, 0, 1.25994873046875, -0.1,7.55) ">
<use xlink:href="#DIY_Simple_to_Complicated_160x600_psd_Asset_08_BTN_copy_file_free_now_0_Layer0_0_MEMBER_10_FILL"/>
</g>

<g transform="matrix( 1.2587890625, 0, 0, 1.25994873046875, -0.1,7.55) ">
<use xlink:href="#DIY_Simple_to_Complicated_160x600_psd_Asset_08_BTN_copy_file_free_now_0_Layer0_0_MEMBER_11_FILL"/>
</g>

<g transform="matrix( 1.2587890625, 0, 0, 1.25994873046875, -0.1,7.55) ">
<use xlink:href="#DIY_Simple_to_Complicated_160x600_psd_Asset_08_BTN_copy_file_free_now_0_Layer0_0_MEMBER_12_FILL"/>
</g>
</g>

<g transform="matrix( 1, 0, 0, 1, 109,7) ">
<g transform="matrix( 1, 0, 0, 1, 0,0) ">
<use xlink:href="#DIY_Simple_to_Complicated_160x600_psd_Asset_08_BTN_copy_Assets_Arrow"/>
</g>
</g>
</g>

<g transform="matrix( 1, 0, 0, 1, 1091,142) ">
<g transform="matrix( 3.4265289306640625, 0, 0, 3.426055908203125, 0.05,17.8) ">
<use xlink:href="#DIY_Simple_to_Complicated_160x600_psd_Asset_08_Why_pay__for_tax__software__copy_0_Layer0_0_MEMBER_0_FILL"/>
</g>

<g transform="matrix( 3.4265289306640625, 0, 0, 3.426055908203125, 0.05,17.8) ">
<use xlink:href="#DIY_Simple_to_Complicated_160x600_psd_Asset_08_Why_pay__for_tax__software__copy_0_Layer0_0_MEMBER_1_FILL"/>
</g>

<g transform="matrix( 3.4265289306640625, 0, 0, 3.426055908203125, 0.05,17.8) ">
<use xlink:href="#DIY_Simple_to_Complicated_160x600_psd_Asset_08_Why_pay__for_tax__software__copy_0_Layer0_0_MEMBER_2_FILL"/>
</g>

<g transform="matrix( 3.4265289306640625, 0, 0, 3.426055908203125, 0.05,17.8) ">
<use xlink:href="#DIY_Simple_to_Complicated_160x600_psd_Asset_08_Why_pay__for_tax__software__copy_0_Layer0_0_MEMBER_3_FILL"/>
</g>

<g transform="matrix( 3.4265289306640625, 0, 0, 3.426055908203125, 0.05,17.8) ">
<use xlink:href="#DIY_Simple_to_Complicated_160x600_psd_Asset_08_Why_pay__for_tax__software__copy_0_Layer0_0_MEMBER_4_FILL"/>
</g>

<g transform="matrix( 3.4265289306640625, 0, 0, 3.426055908203125, 0.05,17.8) ">
<use xlink:href="#DIY_Simple_to_Complicated_160x600_psd_Asset_08_Why_pay__for_tax__software__copy_0_Layer0_0_MEMBER_5_FILL"/>
</g>

<g transform="matrix( 3.4265289306640625, 0, 0, 3.426055908203125, 0.05,17.8) ">
<use xlink:href="#DIY_Simple_to_Complicated_160x600_psd_Asset_08_Why_pay__for_tax__software__copy_0_Layer0_0_MEMBER_6_FILL"/>
</g>

<g transform="matrix( 3.4265289306640625, 0, 0, 3.426055908203125, 0.05,17.8) ">
<use xlink:href="#DIY_Simple_to_Complicated_160x600_psd_Asset_08_Why_pay__for_tax__software__copy_0_Layer0_0_MEMBER_7_FILL"/>
</g>

<g transform="matrix( 3.4265289306640625, 0, 0, 3.426055908203125, 0.05,17.8) ">
<use xlink:href="#DIY_Simple_to_Complicated_160x600_psd_Asset_08_Why_pay__for_tax__software__copy_0_Layer0_0_MEMBER_8_FILL"/>
</g>

<g transform="matrix( 3.4265289306640625, 0, 0, 3.426055908203125, 0.05,17.8) ">
<use xlink:href="#DIY_Simple_to_Complicated_160x600_psd_Asset_08_Why_pay__for_tax__software__copy_0_Layer0_0_MEMBER_9_FILL"/>
</g>

<g transform="matrix( 3.4265289306640625, 0, 0, 3.426055908203125, 0.05,17.8) ">
<use xlink:href="#DIY_Simple_to_Complicated_160x600_psd_Asset_08_Why_pay__for_tax__software__copy_0_Layer0_0_MEMBER_10_FILL"/>
</g>

<g transform="matrix( 3.4265289306640625, 0, 0, 3.426055908203125, 0.05,17.8) ">
<use xlink:href="#DIY_Simple_to_Complicated_160x600_psd_Asset_08_Why_pay__for_tax__software__copy_0_Layer0_0_MEMBER_11_FILL"/>
</g>

<g transform="matrix( 3.4265289306640625, 0, 0, 3.426055908203125, 0.05,17.8) ">
<use xlink:href="#DIY_Simple_to_Complicated_160x600_psd_Asset_08_Why_pay__for_tax__software__copy_0_Layer0_0_MEMBER_12_FILL"/>
</g>

<g transform="matrix( 3.4265289306640625, 0, 0, 3.426055908203125, 0.05,17.8) ">
<use xlink:href="#DIY_Simple_to_Complicated_160x600_psd_Asset_08_Why_pay__for_tax__software__copy_0_Layer0_0_MEMBER_13_FILL"/>
</g>

<g transform="matrix( 3.4265289306640625, 0, 0, 3.426055908203125, 0.05,17.8) ">
<use xlink:href="#DIY_Simple_to_Complicated_160x600_psd_Asset_08_Why_pay__for_tax__software__copy_0_Layer0_0_MEMBER_14_FILL"/>
</g>

<g transform="matrix( 3.4265289306640625, 0, 0, 3.426055908203125, 0.05,17.8) ">
<use xlink:href="#DIY_Simple_to_Complicated_160x600_psd_Asset_08_Why_pay__for_tax__software__copy_0_Layer0_0_MEMBER_15_FILL"/>
</g>

<g transform="matrix( 3.4265289306640625, 0, 0, 3.426055908203125, 0.05,17.8) ">
<use xlink:href="#DIY_Simple_to_Complicated_160x600_psd_Asset_08_Why_pay__for_tax__software__copy_0_Layer0_0_MEMBER_16_FILL"/>
</g>

<g transform="matrix( 3.4265289306640625, 0, 0, 3.426055908203125, 0.05,17.8) ">
<use xlink:href="#DIY_Simple_to_Complicated_160x600_psd_Asset_08_Why_pay__for_tax__software__copy_0_Layer0_0_MEMBER_17_FILL"/>
</g>

<g transform="matrix( 3.4265289306640625, 0, 0, 3.426055908203125, 0.05,17.8) ">
<use xlink:href="#DIY_Simple_to_Complicated_160x600_psd_Asset_08_Why_pay__for_tax__software__copy_0_Layer0_0_MEMBER_18_FILL"/>
</g>

<g transform="matrix( 3.4265289306640625, 0, 0, 3.426055908203125, 0.05,17.8) ">
<use xlink:href="#DIY_Simple_to_Complicated_160x600_psd_Asset_08_Why_pay__for_tax__software__copy_0_Layer0_0_MEMBER_19_FILL"/>
</g>

<g transform="matrix( 3.4265289306640625, 0, 0, 3.426055908203125, 0.05,17.8) ">
<use xlink:href="#DIY_Simple_to_Complicated_160x600_psd_Asset_08_Why_pay__for_tax__software__copy_0_Layer0_0_MEMBER_20_FILL"/>
</g>
</g>

<g transform="matrix( 1, 0, 0, 1, 1095,280) ">
<g transform="matrix( 3.4265289306640625, 0, 0, 3.426055908203125, 62.05,9.8) ">
<use xlink:href="#DIY_Simple_to_Complicated_160x600_psd_Asset_08__copy_2_0_Layer0_0_MEMBER_0_FILL"/>
</g>

<g transform="matrix( 3.4265289306640625, 0, 0, 3.426055908203125, 62.05,9.8) ">
<use xlink:href="#DIY_Simple_to_Complicated_160x600_psd_Asset_08__copy_2_0_Layer0_0_MEMBER_1_FILL"/>
</g>

<g transform="matrix( 3.4265289306640625, 0, 0, 3.426055908203125, 62.05,9.8) ">
<use xlink:href="#DIY_Simple_to_Complicated_160x600_psd_Asset_08__copy_2_0_Layer0_0_MEMBER_2_FILL"/>
</g>

<g transform="matrix( 3.4265289306640625, 0, 0, 3.426055908203125, 62.05,9.8) ">
<use xlink:href="#DIY_Simple_to_Complicated_160x600_psd_Asset_08__copy_2_0_Layer0_0_MEMBER_3_FILL"/>
</g>

<g transform="matrix( 3.4265289306640625, 0, 0, 3.426055908203125, 62.05,9.8) ">
<use xlink:href="#DIY_Simple_to_Complicated_160x600_psd_Asset_08__copy_2_0_Layer0_0_MEMBER_4_FILL"/>
</g>

<g transform="matrix( 3.4265289306640625, 0, 0, 3.426055908203125, 62.05,9.8) ">
<use xlink:href="#DIY_Simple_to_Complicated_160x600_psd_Asset_08__copy_2_0_Layer0_0_MEMBER_5_FILL"/>
</g>

<g transform="matrix( 3.4265289306640625, 0, 0, 3.426055908203125, 62.05,9.8) ">
<use xlink:href="#DIY_Simple_to_Complicated_160x600_psd_Asset_08__copy_2_0_Layer0_0_MEMBER_6_FILL"/>
</g>

<g transform="matrix( 3.4265289306640625, 0, 0, 3.426055908203125, 62.05,9.8) ">
<use xlink:href="#DIY_Simple_to_Complicated_160x600_psd_Asset_08__copy_2_0_Layer0_0_MEMBER_7_FILL"/>
</g>

<g transform="matrix( 3.4265289306640625, 0, 0, 3.426055908203125, 62.05,9.8) ">
<use xlink:href="#DIY_Simple_to_Complicated_160x600_psd_Asset_08__copy_2_0_Layer0_0_MEMBER_8_FILL"/>
</g>

<g transform="matrix( 3.4265289306640625, 0, 0, 3.426055908203125, 62.05,9.8) ">
<use xlink:href="#DIY_Simple_to_Complicated_160x600_psd_Asset_08__copy_2_0_Layer0_0_MEMBER_9_FILL"/>
</g>

<g transform="matrix( 3.4265289306640625, 0, 0, 3.426055908203125, 62.05,9.8) ">
<use xlink:href="#DIY_Simple_to_Complicated_160x600_psd_Asset_08__copy_2_0_Layer0_0_MEMBER_10_FILL"/>
</g>

<g transform="matrix( 3.4265289306640625, 0, 0, 3.426055908203125, 62.05,9.8) ">
<use xlink:href="#DIY_Simple_to_Complicated_160x600_psd_Asset_08__copy_2_0_Layer0_0_MEMBER_11_FILL"/>
</g>

<g transform="matrix( 3.4265289306640625, 0, 0, 3.426055908203125, 62.05,9.8) ">
<use xlink:href="#DIY_Simple_to_Complicated_160x600_psd_Asset_08__copy_2_0_Layer0_0_MEMBER_12_FILL"/>
</g>

<g transform="matrix( 3.4265289306640625, 0, 0, 3.426055908203125, 62.05,9.8) ">
<use xlink:href="#DIY_Simple_to_Complicated_160x600_psd_Asset_08__copy_2_0_Layer0_0_MEMBER_13_FILL"/>
</g>

<g transform="matrix( 3.4265289306640625, 0, 0, 3.426055908203125, 62.05,9.8) ">
<use xlink:href="#DIY_Simple_to_Complicated_160x600_psd_Asset_08__copy_2_0_Layer0_0_MEMBER_14_FILL"/>
</g>
</g>
</g>
</svg>
