
<svg xmlns="http://www.w3.org/2000/svg" version="1.1" xmlns:xlink="http://www.w3.org/1999/xlink" preserveAspectRatio="none" x="0px" y="0px" width="300px" height="250px" viewBox="0 0 300 250">
<defs>
<image id="DIY_Simple_to_Complicated_300x250_psd_Asset_1_08_BTN_Assets_Arrow_1" x="0" y="0" width="9" height="13" xlink:href="data:image/png;base64,iVBORw0KGgoAAAANSUhEUgAAAAkAAAANCAYAAAB7AEQGAAABB0lEQVQYlXXRsUrDUBQG4BO9
FB18BKfGrSC4NDh1cJYOgoKb4ls4XCT2HTpoIDj5DI4iHQQJXWuVkEVBS3NvTpObc3MdbIyt
8Z8/zs85B2AeRGwjogP/BREdypXUpGQt5JwzSpPIzKPzGsg7wEbX3ZDw0yzB3QUYXDZbz1f7
E0o+KqipUEqd1EI9m5pC59+QlPkD3x76XZX8qs2keR94HiuBEKK1vtbwVlkDAACKTEJ4ewYy
err/AZrUpJxAaWzG/kEx7Nmn1QmyWVhVCDP2D+XQbVbb8Q6w15vjSKfCUBqbF/9IBq69cCcL
ACBwbWdjc+fOslYgDh/3ts9Hg9rXBBdb7eUJZb4AXxTXXwtK7dQAAAAASUVORK5CYII="/>

<g id="DIY_Simple_to_Complicated_300x250_psd_Asset_1_08_BTN_file_free_now_0_Layer0_0_MEMBER_0_FILL">
<path fill="#FFFFFF" stroke="none" d="
M 4.65 -5.8
L 0.6 -5.8 0.6 0 2 0 2 -2.2 4.4 -2.2 4.4 -3.35 2 -3.35 2 -4.6 4.65 -4.6 4.65 -5.8 Z"/>
</g>

<g id="DIY_Simple_to_Complicated_300x250_psd_Asset_1_08_BTN_file_free_now_0_Layer0_0_MEMBER_1_FILL">
<path fill="#FFFFFF" stroke="none" d="
M 7.2 -5.8
L 5.8 -5.8 5.8 0 7.2 0 7.2 -5.8 Z"/>
</g>

<g id="DIY_Simple_to_Complicated_300x250_psd_Asset_1_08_BTN_file_free_now_0_Layer0_0_MEMBER_2_FILL">
<path fill="#FFFFFF" stroke="none" d="
M 10.05 -5.8
L 8.65 -5.8 8.65 0 12.6 0 12.6 -1.2 10.05 -1.2 10.05 -5.8 Z"/>
</g>

<g id="DIY_Simple_to_Complicated_300x250_psd_Asset_1_08_BTN_file_free_now_0_Layer0_0_MEMBER_3_FILL">
<path fill="#FFFFFF" stroke="none" d="
M 15.15 -1.2
L 15.15 -2.35 17.65 -2.35 17.65 -3.55 15.15 -3.55 15.15 -4.6 17.9 -4.6 17.9 -5.8 13.7 -5.8 13.7 0 17.9 0 17.9 -1.2 15.15 -1.2 Z"/>
</g>

<g id="DIY_Simple_to_Complicated_300x250_psd_Asset_1_08_BTN_file_free_now_0_Layer0_0_MEMBER_4_FILL">
<path fill="#FFFFFF" stroke="none" d="
M 25.25 -5.8
L 21.15 -5.8 21.15 0 22.55 0 22.55 -2.2 25 -2.2 25 -3.35 22.55 -3.35 22.55 -4.6 25.25 -4.6 25.25 -5.8 Z"/>
</g>

<g id="DIY_Simple_to_Complicated_300x250_psd_Asset_1_08_BTN_file_free_now_0_Layer0_0_MEMBER_5_FILL">
<path fill="#FFFFFF" stroke="none" d="
M 27.75 -1.75
L 28.65 -1.75 29.65 0 31.3 0 30.15 -1.95
Q 31.2 -2.5 31.2 -3.75 31.2 -4.65 30.65 -5.2 30.1 -5.8 29.05 -5.8
L 26.3 -5.8 26.3 0 27.75 0 27.75 -1.75
M 28.85 -4.65
Q 29.8 -4.65 29.8 -3.75 29.8 -2.85 28.85 -2.85
L 27.75 -2.85 27.75 -4.65 28.85 -4.65 Z"/>
</g>

<g id="DIY_Simple_to_Complicated_300x250_psd_Asset_1_08_BTN_file_free_now_0_Layer0_0_MEMBER_6_FILL">
<path fill="#FFFFFF" stroke="none" d="
M 33.85 -1.2
L 33.85 -2.35 36.35 -2.35 36.35 -3.55 33.85 -3.55 33.85 -4.6 36.6 -4.6 36.6 -5.8 32.4 -5.8 32.4 0 36.6 0 36.6 -1.2 33.85 -1.2 Z"/>
</g>

<g id="DIY_Simple_to_Complicated_300x250_psd_Asset_1_08_BTN_file_free_now_0_Layer0_0_MEMBER_7_FILL">
<path fill="#FFFFFF" stroke="none" d="
M 39.25 -3.55
L 39.25 -4.6 42 -4.6 42 -5.8 37.8 -5.8 37.8 0 42.05 0 42.05 -1.2 39.25 -1.2 39.25 -2.35 41.75 -2.35 41.75 -3.55 39.25 -3.55 Z"/>
</g>

<g id="DIY_Simple_to_Complicated_300x250_psd_Asset_1_08_BTN_file_free_now_0_Layer0_0_MEMBER_8_FILL">
<path fill="#FFFFFF" stroke="none" d="
M 49.2 -5.8
L 44.65 -5.8 44.65 -4.6 46.2 -4.6 46.2 0 47.65 0 47.65 -4.6 49.2 -4.6 49.2 -5.8 Z"/>
</g>

<g id="DIY_Simple_to_Complicated_300x250_psd_Asset_1_08_BTN_file_free_now_0_Layer0_0_MEMBER_9_FILL">
<path fill="#FFFFFF" stroke="none" d="
M 49.9 -2.55
Q 49.9 -1.35 50.55 -0.65 51.25 0.1 52.55 0.1 53.85 0.1 54.6 -0.65 55.25 -1.35 55.25 -2.55
L 55.25 -3.3
Q 55.25 -4.45 54.6 -5.2 53.85 -5.95 52.55 -5.95 51.3 -5.95 50.55 -5.2 49.9 -4.45 49.9 -3.3
L 49.9 -2.55
M 51.35 -3.35
Q 51.35 -4.75 52.55 -4.75 53.8 -4.75 53.8 -3.35
L 53.8 -2.45
Q 53.8 -1.05 52.55 -1.05 51.35 -1.05 51.35 -2.45
L 51.35 -3.35 Z"/>
</g>

<g id="DIY_Simple_to_Complicated_300x250_psd_Asset_1_08_BTN_file_free_now_0_Layer0_0_MEMBER_10_FILL">
<path fill="#FFFFFF" stroke="none" d="
M 58.95 -5.8
L 56.4 -5.8 56.4 0 58.95 0
Q 60.1 0 60.8 -0.65 61.4 -1.25 61.4 -2.3
L 61.4 -3.5
Q 61.4 -4.55 60.8 -5.15 60.1 -5.8 58.95 -5.8
M 59.95 -3.5
L 59.95 -2.3
Q 59.95 -1.15 58.7 -1.15
L 57.85 -1.15 57.85 -4.65 58.7 -4.65
Q 59.95 -4.65 59.95 -3.5 Z"/>
</g>

<g id="DIY_Simple_to_Complicated_300x250_psd_Asset_1_08_BTN_file_free_now_0_Layer0_0_MEMBER_11_FILL">
<path fill="#FFFFFF" stroke="none" d="
M 63.65 -1.1
L 65.75 -1.1 66.05 0 67.5 0 65.4 -5.8 63.95 -5.8 61.9 0 63.3 0 63.65 -1.1
M 64 -2.2
L 64.7 -4.5 65.4 -2.2 64 -2.2 Z"/>
</g>

<g id="DIY_Simple_to_Complicated_300x250_psd_Asset_1_08_BTN_file_free_now_0_Layer0_0_MEMBER_12_FILL">
<path fill="#FFFFFF" stroke="none" d="
M 70.55 -2.05
L 72.5 -5.8 70.95 -5.8 69.85 -3.4 68.75 -5.8 67.2 -5.8 69.15 -2.05 69.15 0 70.55 0 70.55 -2.05 Z"/>
</g>

<g id="DIY_Simple_to_Complicated_300x250_psd_Asset_1_08__copy_0_Layer0_0_MEMBER_0_FILL">
<path fill="#FFFFFF" stroke="none" d="
M -19.25 -2.6
Q -19.55 -2.2 -19.55 -1.7
L -19.55 -1.2
Q -19.55 -0.65 -19.25 -0.3 -18.8 0.05 -18.4 0.05 -17.9 0.05 -17.55 -0.3 -17.2 -0.75 -17.2 -1.2
L -17.2 -1.7
Q -17.2 -2.15 -17.55 -2.6 -17.85 -2.95 -18.4 -2.95 -18.9 -2.95 -19.25 -2.6
M -18.4 -2.6
Q -18 -2.6 -17.8 -2.35 -17.6 -2.05 -17.6 -1.7
L -17.6 -1.2
Q -17.6 -0.85 -17.8 -0.55 -18 -0.3 -18.4 -0.3 -18.75 -0.3 -18.95 -0.55 -19.15 -0.75 -19.15 -1.2
L -19.15 -1.7
Q -19.15 -2.15 -18.95 -2.35 -18.75 -2.6 -18.4 -2.6 Z"/>
</g>

<g id="DIY_Simple_to_Complicated_300x250_psd_Asset_1_08__copy_0_Layer0_0_MEMBER_1_FILL">
<path fill="#FFFFFF" stroke="none" d="
M -16.35 -2.9
L -16.75 -2.9 -16.75 0 -16.35 0 -16.35 -2.25 -14.95 0 -14.55 0 -14.55 -2.9 -14.95 -2.9 -14.95 -0.65 -16.35 -2.9 Z"/>
</g>

<g id="DIY_Simple_to_Complicated_300x250_psd_Asset_1_08__copy_0_Layer0_0_MEMBER_2_FILL">
<path fill="#FFFFFF" stroke="none" d="
M -13.55 -0.3
L -13.55 -2.9 -13.9 -2.9 -13.9 0 -12.15 0 -12.15 -0.3 -13.55 -0.3 Z"/>
</g>

<g id="DIY_Simple_to_Complicated_300x250_psd_Asset_1_08__copy_0_Layer0_0_MEMBER_3_FILL">
<path fill="#FFFFFF" stroke="none" d="
M -11.4 -2.9
L -11.8 -2.9 -11.8 0 -11.4 0 -11.4 -2.9 Z"/>
</g>

<g id="DIY_Simple_to_Complicated_300x250_psd_Asset_1_08__copy_0_Layer0_0_MEMBER_4_FILL">
<path fill="#FFFFFF" stroke="none" d="
M -10.35 -2.9
L -10.75 -2.9 -10.75 0 -10.35 0 -10.35 -2.25 -8.95 0 -8.55 0 -8.55 -2.9 -8.95 -2.9 -8.95 -0.65 -10.35 -2.9 Z"/>
</g>

<g id="DIY_Simple_to_Complicated_300x250_psd_Asset_1_08__copy_0_Layer0_0_MEMBER_5_FILL">
<path fill="#FFFFFF" stroke="none" d="
M -6.2 -1.35
L -6.2 -1.65 -7.55 -1.65 -7.55 -2.6 -6.05 -2.6 -6.05 -2.9 -7.95 -2.9 -7.95 0 -6 0 -6 -0.3 -7.55 -0.3 -7.55 -1.35 -6.2 -1.35 Z"/>
</g>

<g id="DIY_Simple_to_Complicated_300x250_psd_Asset_1_08__copy_0_Layer0_0_MEMBER_6_FILL">
<path fill="#FFFFFF" stroke="none" d="
M -3.3 -2.35
Q -3.3 -2.6 -3.5 -2.75 -3.65 -2.95 -4 -2.95 -4.35 -2.95 -4.55 -2.75 -4.75 -2.55 -4.75 -2.25
L -4.65 -1.95 -4.4 -1.55
Q -4.7 -1.4 -4.85 -1.2 -5 -1.05 -5 -0.8 -5 -0.4 -4.7 -0.2 -4.45 0.05 -4.05 0.05
L -3.65 0 -3.3 -0.2 -3.1 0 -2.65 0 -3 -0.45 -2.8 -0.85 -2.7 -1.35 -3.05 -1.35 -3.1 -1 -3.25 -0.7 -3.9 -1.55 -3.7 -1.7 -3.4 -2
Q -3.3 -2.1 -3.3 -2.35
M -3.65 -2.35
L -3.7 -2.15
Q -3.7 -2 -3.85 -1.95
L -4.1 -1.8 -4.3 -2.05 -4.35 -2.25 -4.25 -2.55 -4 -2.65 -3.75 -2.55 -3.65 -2.35
M -4.05 -0.25
Q -4.3 -0.25 -4.45 -0.4 -4.6 -0.55 -4.6 -0.8
L -4.55 -1 -4.3 -1.25 -4.2 -1.3 -3.5 -0.45 -3.75 -0.3 -4.05 -0.25 Z"/>
</g>

<g id="DIY_Simple_to_Complicated_300x250_psd_Asset_1_08__copy_0_Layer0_0_MEMBER_7_FILL">
<path fill="#FFFFFF" stroke="none" d="
M 0.75 -1.65
Q 0.75 -2.2 0.4 -2.55 0.1 -2.9 -0.5 -2.9
L -1.4 -2.9 -1.4 0 -0.5 0
Q 0.1 0 0.4 -0.35 0.75 -0.7 0.75 -1.25
L 0.75 -1.65
M 0.35 -1.25
Q 0.35 -0.8 0.15 -0.55 -0.1 -0.3 -0.5 -0.3
L -1 -0.3 -1 -2.6 -0.5 -2.6
Q -0.1 -2.6 0.15 -2.35 0.35 -2.1 0.35 -1.65
L 0.35 -1.25 Z"/>
</g>

<g id="DIY_Simple_to_Complicated_300x250_psd_Asset_1_08__copy_0_Layer0_0_MEMBER_8_FILL">
<path fill="#FFFFFF" stroke="none" d="
M 2.2 -2.95
Q 1.7 -2.95 1.4 -2.6 1.05 -2.25 1.05 -1.7
L 1.05 -1.2
Q 1.05 -0.65 1.4 -0.3 1.75 0.05 2.2 0.05 2.7 0.05 3.05 -0.3 3.4 -0.65 3.4 -1.2
L 3.4 -1.7
Q 3.4 -2.25 3.05 -2.6 2.75 -2.95 2.2 -2.95
M 1.45 -1.7
Q 1.45 -2.05 1.65 -2.35 1.85 -2.6 2.2 -2.6 2.6 -2.6 2.8 -2.35 3 -2.15 3 -1.7
L 3 -1.2
Q 3 -0.75 2.8 -0.55 2.6 -0.3 2.2 -0.3 1.85 -0.3 1.65 -0.55 1.45 -0.85 1.45 -1.2
L 1.45 -1.7 Z"/>
</g>

<g id="DIY_Simple_to_Complicated_300x250_psd_Asset_1_08__copy_0_Layer0_0_MEMBER_9_FILL">
<path fill="#FFFFFF" stroke="none" d="
M 4.45 -1
L 4 -2.9 3.65 -2.9 4.35 0 4.7 0 5.25 -2 5.3 -2.3 5.95 0 6.3 0 7 -2.9 6.6 -2.9 6.15 -1 6.1 -0.65 5.5 -2.9 5.15 -2.9 4.6 -1 4.55 -0.65 4.5 -0.65 4.45 -1 Z"/>
</g>

<g id="DIY_Simple_to_Complicated_300x250_psd_Asset_1_08__copy_0_Layer0_0_MEMBER_10_FILL">
<path fill="#FFFFFF" stroke="none" d="
M 7.8 -2.9
L 7.4 -2.9 7.4 0 7.8 0 7.8 -2.25 9.2 0 9.6 0 9.6 -2.9 9.2 -2.9 9.2 -0.65 7.8 -2.9 Z"/>
</g>

<g id="DIY_Simple_to_Complicated_300x250_psd_Asset_1_08__copy_0_Layer0_0_MEMBER_11_FILL">
<path fill="#FFFFFF" stroke="none" d="
M 10.6 -0.3
L 10.6 -2.9 10.2 -2.9 10.2 0 11.95 0 11.95 -0.3 10.6 -0.3 Z"/>
</g>

<g id="DIY_Simple_to_Complicated_300x250_psd_Asset_1_08__copy_0_Layer0_0_MEMBER_12_FILL">
<path fill="#FFFFFF" stroke="none" d="
M 12.1 -1.2
Q 12.1 -0.75 12.45 -0.3 12.8 0.05 13.25 0.05 13.7 0.05 14.15 -0.3 14.45 -0.65 14.45 -1.2
L 14.45 -1.7
Q 14.45 -2.2 14.15 -2.6 13.8 -2.95 13.25 -2.95 12.75 -2.95 12.45 -2.6 12.1 -2.15 12.1 -1.7
L 12.1 -1.2
M 12.5 -1.2
L 12.5 -1.7
Q 12.5 -2.05 12.7 -2.35 12.9 -2.6 13.25 -2.6 13.65 -2.6 13.85 -2.35 14.05 -2.15 14.05 -1.7
L 14.05 -1.2
Q 14.05 -0.75 13.85 -0.55 13.65 -0.3 13.25 -0.3 12.9 -0.3 12.7 -0.55 12.5 -0.85 12.5 -1.2 Z"/>
</g>

<g id="DIY_Simple_to_Complicated_300x250_psd_Asset_1_08__copy_0_Layer0_0_MEMBER_13_FILL">
<path fill="#FFFFFF" stroke="none" d="
M 15.25 -0.75
L 16.45 -0.75 16.75 0 17.15 0 16.05 -2.9 15.7 -2.9 14.6 0 15 0 15.25 -0.75
M 15.4 -1.1
L 15.85 -2.4 15.9 -2.4 16.35 -1.1 15.4 -1.1 Z"/>
</g>

<g id="DIY_Simple_to_Complicated_300x250_psd_Asset_1_08__copy_0_Layer0_0_MEMBER_14_FILL">
<path fill="#FFFFFF" stroke="none" d="
M 19.6 -1.65
Q 19.6 -2.2 19.25 -2.55 18.9 -2.9 18.35 -2.9
L 17.45 -2.9 17.45 0 18.35 0
Q 18.9 0 19.25 -0.35 19.6 -0.7 19.6 -1.25
L 19.6 -1.65
M 17.85 -2.6
L 18.35 -2.6
Q 18.7 -2.6 18.95 -2.35 19.2 -2 19.2 -1.65
L 19.2 -1.25
Q 19.2 -0.9 18.95 -0.55 18.7 -0.3 18.35 -0.3
L 17.85 -0.3 17.85 -2.6 Z"/>
</g>

<g id="DIY_Simple_to_Complicated_300x250_psd_Asset_1_08_Why_pay_for_tax_software__0_Layer0_0_MEMBER_0_FILL">
<path fill="#FFFFFF" stroke="none" d="
M -19.75 -2.05
L -20.75 -5.8 -21.75 -5.8 -22.75 -2.05 -23.45 -5.8 -24.85 -5.8 -23.5 0 -22.25 0 -21.25 -3.6 -20.25 0 -19 0 -17.65 -5.8 -19 -5.8 -19.7 -2.05 -19.75 -2.05 Z"/>
</g>

<g id="DIY_Simple_to_Complicated_300x250_psd_Asset_1_08_Why_pay_for_tax_software__0_Layer0_0_MEMBER_1_FILL">
<path fill="#FFFFFF" stroke="none" d="
M -16 -2.35
L -13.85 -2.35 -13.85 0 -12.5 0 -12.5 -5.8 -13.85 -5.8 -13.85 -3.4 -16 -3.4 -16 -5.8 -17.35 -5.8 -17.35 0 -16 0 -16 -2.35 Z"/>
</g>

<g id="DIY_Simple_to_Complicated_300x250_psd_Asset_1_08_Why_pay_for_tax_software__0_Layer0_0_MEMBER_2_FILL">
<path fill="#FFFFFF" stroke="none" d="
M -9.75 -3.25
L -10.9 -5.8 -12.35 -5.8 -10.45 -2.1 -10.45 0 -9.1 0 -9.1 -2.05 -7.1 -5.8 -8.6 -5.8 -9.75 -3.25 Z"/>
</g>

<g id="DIY_Simple_to_Complicated_300x250_psd_Asset_1_08_Why_pay_for_tax_software__0_Layer0_0_MEMBER_3_FILL">
<path fill="#FFFFFF" stroke="none" d="
M -0.6 -3.9
Q -0.6 -4.75 -1.2 -5.3 -1.75 -5.8 -2.85 -5.8
L -5.05 -5.8 -5.05 0 -3.7 0 -3.7 -2 -2.85 -2
Q -1.75 -2 -1.2 -2.5 -0.6 -3 -0.6 -3.9
M -1.9 -3.9
Q -1.9 -3.6 -2.15 -3.25 -2.35 -3.05 -2.85 -3.05
L -3.7 -3.05 -3.7 -4.75 -2.85 -4.75
Q -2.35 -4.75 -2.15 -4.55 -1.9 -4.2 -1.9 -3.9 Z"/>
</g>

<g id="DIY_Simple_to_Complicated_300x250_psd_Asset_1_08_Why_pay_for_tax_software__0_Layer0_0_MEMBER_4_FILL">
<path fill="#FFFFFF" stroke="none" d="
M 2.15 -5.8
L 0.7 -5.8 -1.2 0 0.25 0 0.55 -1.15 2.3 -1.15 2.65 0 4.05 0 2.15 -5.8
M 0.9 -2.15
L 1.4 -3.95 1.45 -3.95 2 -2.15 0.9 -2.15 Z"/>
</g>

<g id="DIY_Simple_to_Complicated_300x250_psd_Asset_1_08_Why_pay_for_tax_software__0_Layer0_0_MEMBER_5_FILL">
<path fill="#FFFFFF" stroke="none" d="
M 5.6 -3.25
L 4.45 -5.8 3 -5.8 4.95 -2.1 4.95 0 6.3 0 6.3 -2.05 8.25 -5.8 6.8 -5.8 5.65 -3.25 5.6 -3.25 Z"/>
</g>

<g id="DIY_Simple_to_Complicated_300x250_psd_Asset_1_08_Why_pay_for_tax_software__0_Layer0_0_MEMBER_6_FILL">
<path fill="#FFFFFF" stroke="none" d="
M 13.8 -2.35
L 13.8 -3.4 11.7 -3.4 11.7 -4.75 14.2 -4.75 14.2 -5.8 10.35 -5.8 10.35 0 11.7 0 11.7 -2.35 13.8 -2.35 Z"/>
</g>

<g id="DIY_Simple_to_Complicated_300x250_psd_Asset_1_08_Why_pay_for_tax_software__0_Layer0_0_MEMBER_7_FILL">
<path fill="#FFFFFF" stroke="none" d="
M 14.6 -3.45
L 14.6 -2.4
Q 14.6 -1.3 15.25 -0.6 15.95 0.1 17.05 0.1 18.15 0.1 18.85 -0.6 19.5 -1.3 19.5 -2.4
L 19.5 -3.45
Q 19.5 -4.55 18.85 -5.2 18.05 -5.9 17.05 -5.9 15.95 -5.9 15.25 -5.2 14.6 -4.55 14.6 -3.45
M 17.9 -4.45
Q 18.15 -4.05 18.15 -3.45
L 18.15 -2.4
Q 18.15 -1.75 17.9 -1.35 17.6 -0.95 17.05 -0.95 16.5 -0.95 16.2 -1.35 15.95 -1.65 15.95 -2.4
L 15.95 -3.45
Q 15.95 -4.15 16.2 -4.45 16.5 -4.85 17.05 -4.85 17.6 -4.85 17.9 -4.45 Z"/>
</g>

<g id="DIY_Simple_to_Complicated_300x250_psd_Asset_1_08_Why_pay_for_tax_software__0_Layer0_0_MEMBER_8_FILL">
<path fill="#FFFFFF" stroke="none" d="
M 24.35 -4.05
Q 24.35 -4.9 23.75 -5.35 23.15 -5.8 22.15 -5.8
L 20.15 -5.8 20.15 0 21.5 0 21.5 -2.25 22.2 -2.25
Q 22.6 -2.25 22.85 -2 23.05 -1.8 23.05 -1.35
L 23.1 -0.45
Q 23.2 -0.1 23.3 0
L 24.7 0 24.7 -0.1
Q 24.6 -0.15 24.5 -0.5
L 24.4 -1 24.4 -1.4
Q 24.4 -2 24.2 -2.25 23.9 -2.6 23.4 -2.75 23.85 -3 24.1 -3.3 24.35 -3.65 24.35 -4.05
M 23 -4
Q 23 -3.6 22.8 -3.45 22.5 -3.25 22.15 -3.25
L 21.5 -3.25 21.5 -4.75 22.15 -4.75
Q 22.6 -4.75 22.8 -4.55 23 -4.35 23 -4 Z"/>
</g>

<g id="DIY_Simple_to_Complicated_300x250_psd_Asset_1_08_Why_pay_for_tax_software__0_Layer0_0_MEMBER_9_FILL">
<path fill="#FFFFFF" stroke="none" d="
M -25.7 3.4
L -25.7 2.35 -30.05 2.35 -30.05 3.4 -28.55 3.4 -28.55 8.15 -27.2 8.15 -27.2 3.4 -25.7 3.4 Z"/>
</g>

<g id="DIY_Simple_to_Complicated_300x250_psd_Asset_1_08_Why_pay_for_tax_software__0_Layer0_0_MEMBER_10_FILL">
<path fill="#FFFFFF" stroke="none" d="
M -22.85 2.35
L -24.3 2.35 -26.2 8.15 -24.8 8.15 -24.45 7.05 -22.75 7.05 -22.4 8.15 -20.95 8.15 -22.85 2.35
M -24.15 6
L -23.6 4.2 -23.05 6 -24.15 6 Z"/>
</g>

<g id="DIY_Simple_to_Complicated_300x250_psd_Asset_1_08_Why_pay_for_tax_software__0_Layer0_0_MEMBER_11_FILL">
<path fill="#FFFFFF" stroke="none" d="
M -18.65 4.3
L -19.6 2.35 -21.1 2.35 -19.45 5.25 -21.15 8.15 -19.6 8.15 -18.6 6.15 -17.65 8.15 -16 8.15 -17.8 5.25 -16.1 2.35 -17.7 2.35 -18.65 4.3 Z"/>
</g>

<g id="DIY_Simple_to_Complicated_300x250_psd_Asset_1_08_Why_pay_for_tax_software__0_Layer0_0_MEMBER_12_FILL">
<path fill="#FFFFFF" stroke="none" d="
M -9.65 4.1
L -9.65 4.05
Q -9.65 3.2 -10.25 2.75 -10.85 2.3 -11.85 2.3 -12.8 2.3 -13.4 2.75 -14 3.2 -14 3.9 -14 4.65 -13.45 5.05 -12.9 5.45 -11.85 5.8
L -11.15 6.15
Q -10.9 6.3 -10.9 6.65 -10.9 6.9 -11.15 7.05 -11.3 7.25 -11.75 7.25 -12.2 7.25 -12.5 7.05 -12.75 6.85 -12.75 6.3
L -14.1 6.3 -14.1 6.35
Q -14.1 7.35 -13.45 7.8 -12.7 8.25 -11.75 8.25 -10.75 8.25 -10.15 7.8 -9.55 7.45 -9.55 6.6 -9.55 5.9 -10.1 5.45 -10.6 5 -11.6 4.7
L -12.45 4.35
Q -12.65 4.2 -12.65 3.9 -12.65 3.65 -12.45 3.5 -12.25 3.3 -11.85 3.3 -11.4 3.3 -11.2 3.5 -10.95 3.65 -10.95 4.1
L -9.65 4.1 Z"/>
</g>

<g id="DIY_Simple_to_Complicated_300x250_psd_Asset_1_08_Why_pay_for_tax_software__0_Layer0_0_MEMBER_13_FILL">
<path fill="#FFFFFF" stroke="none" d="
M -4.2 5.8
L -4.2 4.75
Q -4.2 3.7 -4.9 3 -5.55 2.3 -6.7 2.3 -7.8 2.3 -8.45 3 -9.15 3.7 -9.15 4.75
L -9.15 5.8
Q -9.15 6.85 -8.45 7.55 -7.75 8.25 -6.65 8.25 -5.6 8.25 -4.9 7.55 -4.2 6.85 -4.2 5.8
M -7.8 5.8
L -7.8 4.75
Q -7.8 4.15 -7.5 3.7 -7.2 3.3 -6.7 3.3 -6.15 3.3 -5.85 3.7 -5.55 4.15 -5.55 4.75
L -5.55 5.8
Q -5.55 6.45 -5.85 6.8 -6.1 7.2 -6.65 7.2 -7.25 7.2 -7.5 6.8 -7.8 6.45 -7.8 5.8 Z"/>
</g>

<g id="DIY_Simple_to_Complicated_300x250_psd_Asset_1_08_Why_pay_for_tax_software__0_Layer0_0_MEMBER_14_FILL">
<path fill="#FFFFFF" stroke="none" d="
M 0.3 3.4
L 0.3 2.35 -3.6 2.35 -3.6 8.15 -2.25 8.15 -2.25 5.85 -0.1 5.85 -0.1 4.8 -2.25 4.8 -2.25 3.4 0.3 3.4 Z"/>
</g>

<g id="DIY_Simple_to_Complicated_300x250_psd_Asset_1_08_Why_pay_for_tax_software__0_Layer0_0_MEMBER_15_FILL">
<path fill="#FFFFFF" stroke="none" d="
M 4.8 3.4
L 4.8 2.35 0.4 2.35 0.4 3.4 1.9 3.4 1.9 8.15 3.25 8.15 3.25 3.4 4.8 3.4 Z"/>
</g>

<g id="DIY_Simple_to_Complicated_300x250_psd_Asset_1_08_Why_pay_for_tax_software__0_Layer0_0_MEMBER_16_FILL">
<path fill="#FFFFFF" stroke="none" d="
M 11.95 2.35
L 10.6 2.35 9.9 6.15 8.9 2.35 7.85 2.35 6.9 6.15 6.85 6.15 6.15 2.35 4.8 2.35 6.15 8.15 7.4 8.15 8.35 4.6 8.4 4.6 9.35 8.15 10.65 8.15 11.95 2.35 Z"/>
</g>

<g id="DIY_Simple_to_Complicated_300x250_psd_Asset_1_08_Why_pay_for_tax_software__0_Layer0_0_MEMBER_17_FILL">
<path fill="#FFFFFF" stroke="none" d="
M 15 2.35
L 13.55 2.35 11.65 8.15 13.1 8.15 13.4 7.05 15.15 7.05 15.5 8.15 16.9 8.15 15 2.35
M 13.75 6
L 14.25 4.2 14.3 4.2 14.85 6 13.75 6 Z"/>
</g>

<g id="DIY_Simple_to_Complicated_300x250_psd_Asset_1_08_Why_pay_for_tax_software__0_Layer0_0_MEMBER_18_FILL">
<path fill="#FFFFFF" stroke="none" d="
M 21.35 4.1
Q 21.35 3.3 20.75 2.85 20.2 2.35 19.15 2.35
L 17.1 2.35 17.1 8.15 18.45 8.15 18.45 5.95 19.2 5.95
Q 19.65 5.95 19.85 6.15 20.05 6.35 20.05 6.8
L 20.1 7.75
Q 20.2 8.1 20.3 8.15
L 21.7 8.15 21.7 8.1 21.45 7.7 21.4 6.8
Q 21.4 6.3 21.15 5.9 20.9 5.55 20.4 5.4 20.9 5.15 21.1 4.9 21.35 4.5 21.35 4.1
M 19.75 3.6
Q 20 3.85 20 4.2 20 4.5 19.8 4.7 19.6 4.9 19.15 4.9
L 18.45 4.9 18.45 3.4 19.15 3.4
Q 19.55 3.4 19.75 3.6 Z"/>
</g>

<g id="DIY_Simple_to_Complicated_300x250_psd_Asset_1_08_Why_pay_for_tax_software__0_Layer0_0_MEMBER_19_FILL">
<path fill="#FFFFFF" stroke="none" d="
M 25.55 5.7
L 25.55 4.65 23.5 4.65 23.5 3.4 25.95 3.4 25.95 2.35 22.15 2.35 22.15 8.15 25.95 8.15 25.95 7.15 23.5 7.15 23.5 5.7 25.55 5.7 Z"/>
</g>

<g id="DIY_Simple_to_Complicated_300x250_psd_Asset_1_08_Why_pay_for_tax_software__0_Layer0_0_MEMBER_20_FILL">
<path fill="#FFFFFF" stroke="none" d="
M 28.6 8.15
L 28.6 7.1 27.25 7.1 27.25 8.15 28.6 8.15
M 29.55 2.75
Q 29.05 2.3 28.05 2.3 27.15 2.3 26.6 2.7 26.1 3.05 26.1 3.95
L 27.4 3.95
Q 27.4 3.7 27.6 3.5 27.75 3.3 28.05 3.3 28.35 3.3 28.55 3.5 28.75 3.7 28.75 4.05 28.75 4.4 28.6 4.6 28.5 4.8 28.15 5.05 27.7 5.4 27.45 5.7 27.25 5.9 27.25 6.5
L 28.6 6.5 28.7 6
Q 28.75 5.8 29.05 5.65 29.55 5.3 29.8 4.95 30.1 4.6 30.1 4.05 30.1 3.3 29.55 2.75 Z"/>
</g>
</defs>

<g transform="matrix( 1, 0, 0, 1, -436,-89) ">
<g transform="matrix( 1, 0, 0, 1, 518,212) ">
<g transform="matrix( 1, 0, 0, 1, 28,9) ">
<g transform="matrix( 1.6842041015625, 0, 0, 1.6857757568359375, -0.2,10.8) ">
<use xlink:href="#DIY_Simple_to_Complicated_300x250_psd_Asset_1_08_BTN_file_free_now_0_Layer0_0_MEMBER_0_FILL"/>
</g>

<g transform="matrix( 1.6842041015625, 0, 0, 1.6857757568359375, -0.2,10.8) ">
<use xlink:href="#DIY_Simple_to_Complicated_300x250_psd_Asset_1_08_BTN_file_free_now_0_Layer0_0_MEMBER_1_FILL"/>
</g>

<g transform="matrix( 1.6842041015625, 0, 0, 1.6857757568359375, -0.2,10.8) ">
<use xlink:href="#DIY_Simple_to_Complicated_300x250_psd_Asset_1_08_BTN_file_free_now_0_Layer0_0_MEMBER_2_FILL"/>
</g>

<g transform="matrix( 1.6842041015625, 0, 0, 1.6857757568359375, -0.2,10.8) ">
<use xlink:href="#DIY_Simple_to_Complicated_300x250_psd_Asset_1_08_BTN_file_free_now_0_Layer0_0_MEMBER_3_FILL"/>
</g>

<g transform="matrix( 1.6842041015625, 0, 0, 1.6857757568359375, -0.2,10.8) ">
<use xlink:href="#DIY_Simple_to_Complicated_300x250_psd_Asset_1_08_BTN_file_free_now_0_Layer0_0_MEMBER_4_FILL"/>
</g>

<g transform="matrix( 1.6842041015625, 0, 0, 1.6857757568359375, -0.2,10.8) ">
<use xlink:href="#DIY_Simple_to_Complicated_300x250_psd_Asset_1_08_BTN_file_free_now_0_Layer0_0_MEMBER_5_FILL"/>
</g>

<g transform="matrix( 1.6842041015625, 0, 0, 1.6857757568359375, -0.2,10.8) ">
<use xlink:href="#DIY_Simple_to_Complicated_300x250_psd_Asset_1_08_BTN_file_free_now_0_Layer0_0_MEMBER_6_FILL"/>
</g>

<g transform="matrix( 1.6842041015625, 0, 0, 1.6857757568359375, -0.2,10.8) ">
<use xlink:href="#DIY_Simple_to_Complicated_300x250_psd_Asset_1_08_BTN_file_free_now_0_Layer0_0_MEMBER_7_FILL"/>
</g>

<g transform="matrix( 1.6842041015625, 0, 0, 1.6857757568359375, -0.2,10.8) ">
<use xlink:href="#DIY_Simple_to_Complicated_300x250_psd_Asset_1_08_BTN_file_free_now_0_Layer0_0_MEMBER_8_FILL"/>
</g>

<g transform="matrix( 1.6842041015625, 0, 0, 1.6857757568359375, -0.2,10.8) ">
<use xlink:href="#DIY_Simple_to_Complicated_300x250_psd_Asset_1_08_BTN_file_free_now_0_Layer0_0_MEMBER_9_FILL"/>
</g>

<g transform="matrix( 1.6842041015625, 0, 0, 1.6857757568359375, -0.2,10.8) ">
<use xlink:href="#DIY_Simple_to_Complicated_300x250_psd_Asset_1_08_BTN_file_free_now_0_Layer0_0_MEMBER_10_FILL"/>
</g>

<g transform="matrix( 1.6842041015625, 0, 0, 1.6857757568359375, -0.2,10.8) ">
<use xlink:href="#DIY_Simple_to_Complicated_300x250_psd_Asset_1_08_BTN_file_free_now_0_Layer0_0_MEMBER_11_FILL"/>
</g>

<g transform="matrix( 1.6842041015625, 0, 0, 1.6857757568359375, -0.2,10.8) ">
<use xlink:href="#DIY_Simple_to_Complicated_300x250_psd_Asset_1_08_BTN_file_free_now_0_Layer0_0_MEMBER_12_FILL"/>
</g>
</g>

<g transform="matrix( 1, 0, 0, 1, 159,9) ">
<g transform="matrix( 1, 0, 0, 1, 0,0) ">
<use xlink:href="#DIY_Simple_to_Complicated_300x250_psd_Asset_1_08_BTN_Assets_Arrow_1"/>
</g>
</g>
</g>

<g transform="matrix( 1, 0, 0, 1, 550,260) ">
<g transform="matrix( 3.4265289306640625, 0, 0, 3.426055908203125, 67.05,10.8) ">
<use xlink:href="#DIY_Simple_to_Complicated_300x250_psd_Asset_1_08__copy_0_Layer0_0_MEMBER_0_FILL"/>
</g>

<g transform="matrix( 3.4265289306640625, 0, 0, 3.426055908203125, 67.05,10.8) ">
<use xlink:href="#DIY_Simple_to_Complicated_300x250_psd_Asset_1_08__copy_0_Layer0_0_MEMBER_1_FILL"/>
</g>

<g transform="matrix( 3.4265289306640625, 0, 0, 3.426055908203125, 67.05,10.8) ">
<use xlink:href="#DIY_Simple_to_Complicated_300x250_psd_Asset_1_08__copy_0_Layer0_0_MEMBER_2_FILL"/>
</g>

<g transform="matrix( 3.4265289306640625, 0, 0, 3.426055908203125, 67.05,10.8) ">
<use xlink:href="#DIY_Simple_to_Complicated_300x250_psd_Asset_1_08__copy_0_Layer0_0_MEMBER_3_FILL"/>
</g>

<g transform="matrix( 3.4265289306640625, 0, 0, 3.426055908203125, 67.05,10.8) ">
<use xlink:href="#DIY_Simple_to_Complicated_300x250_psd_Asset_1_08__copy_0_Layer0_0_MEMBER_4_FILL"/>
</g>

<g transform="matrix( 3.4265289306640625, 0, 0, 3.426055908203125, 67.05,10.8) ">
<use xlink:href="#DIY_Simple_to_Complicated_300x250_psd_Asset_1_08__copy_0_Layer0_0_MEMBER_5_FILL"/>
</g>

<g transform="matrix( 3.4265289306640625, 0, 0, 3.426055908203125, 67.05,10.8) ">
<use xlink:href="#DIY_Simple_to_Complicated_300x250_psd_Asset_1_08__copy_0_Layer0_0_MEMBER_6_FILL"/>
</g>

<g transform="matrix( 3.4265289306640625, 0, 0, 3.426055908203125, 67.05,10.8) ">
<use xlink:href="#DIY_Simple_to_Complicated_300x250_psd_Asset_1_08__copy_0_Layer0_0_MEMBER_7_FILL"/>
</g>

<g transform="matrix( 3.4265289306640625, 0, 0, 3.426055908203125, 67.05,10.8) ">
<use xlink:href="#DIY_Simple_to_Complicated_300x250_psd_Asset_1_08__copy_0_Layer0_0_MEMBER_8_FILL"/>
</g>

<g transform="matrix( 3.4265289306640625, 0, 0, 3.426055908203125, 67.05,10.8) ">
<use xlink:href="#DIY_Simple_to_Complicated_300x250_psd_Asset_1_08__copy_0_Layer0_0_MEMBER_9_FILL"/>
</g>

<g transform="matrix( 3.4265289306640625, 0, 0, 3.426055908203125, 67.05,10.8) ">
<use xlink:href="#DIY_Simple_to_Complicated_300x250_psd_Asset_1_08__copy_0_Layer0_0_MEMBER_10_FILL"/>
</g>

<g transform="matrix( 3.4265289306640625, 0, 0, 3.426055908203125, 67.05,10.8) ">
<use xlink:href="#DIY_Simple_to_Complicated_300x250_psd_Asset_1_08__copy_0_Layer0_0_MEMBER_11_FILL"/>
</g>

<g transform="matrix( 3.4265289306640625, 0, 0, 3.426055908203125, 67.05,10.8) ">
<use xlink:href="#DIY_Simple_to_Complicated_300x250_psd_Asset_1_08__copy_0_Layer0_0_MEMBER_12_FILL"/>
</g>

<g transform="matrix( 3.4265289306640625, 0, 0, 3.426055908203125, 67.05,10.8) ">
<use xlink:href="#DIY_Simple_to_Complicated_300x250_psd_Asset_1_08__copy_0_Layer0_0_MEMBER_13_FILL"/>
</g>

<g transform="matrix( 3.4265289306640625, 0, 0, 3.426055908203125, 67.05,10.8) ">
<use xlink:href="#DIY_Simple_to_Complicated_300x250_psd_Asset_1_08__copy_0_Layer0_0_MEMBER_14_FILL"/>
</g>
</g>

<g transform="matrix( 1, 0, 0, 1, 514,145) ">
<g transform="matrix( 3.4265289306640625, 0, 0, 3.426055908203125, 103.05,20.8) ">
<use xlink:href="#DIY_Simple_to_Complicated_300x250_psd_Asset_1_08_Why_pay_for_tax_software__0_Layer0_0_MEMBER_0_FILL"/>
</g>

<g transform="matrix( 3.4265289306640625, 0, 0, 3.426055908203125, 103.05,20.8) ">
<use xlink:href="#DIY_Simple_to_Complicated_300x250_psd_Asset_1_08_Why_pay_for_tax_software__0_Layer0_0_MEMBER_1_FILL"/>
</g>

<g transform="matrix( 3.4265289306640625, 0, 0, 3.426055908203125, 103.05,20.8) ">
<use xlink:href="#DIY_Simple_to_Complicated_300x250_psd_Asset_1_08_Why_pay_for_tax_software__0_Layer0_0_MEMBER_2_FILL"/>
</g>

<g transform="matrix( 3.4265289306640625, 0, 0, 3.426055908203125, 103.05,20.8) ">
<use xlink:href="#DIY_Simple_to_Complicated_300x250_psd_Asset_1_08_Why_pay_for_tax_software__0_Layer0_0_MEMBER_3_FILL"/>
</g>

<g transform="matrix( 3.4265289306640625, 0, 0, 3.426055908203125, 103.05,20.8) ">
<use xlink:href="#DIY_Simple_to_Complicated_300x250_psd_Asset_1_08_Why_pay_for_tax_software__0_Layer0_0_MEMBER_4_FILL"/>
</g>

<g transform="matrix( 3.4265289306640625, 0, 0, 3.426055908203125, 103.05,20.8) ">
<use xlink:href="#DIY_Simple_to_Complicated_300x250_psd_Asset_1_08_Why_pay_for_tax_software__0_Layer0_0_MEMBER_5_FILL"/>
</g>

<g transform="matrix( 3.4265289306640625, 0, 0, 3.426055908203125, 103.05,20.8) ">
<use xlink:href="#DIY_Simple_to_Complicated_300x250_psd_Asset_1_08_Why_pay_for_tax_software__0_Layer0_0_MEMBER_6_FILL"/>
</g>

<g transform="matrix( 3.4265289306640625, 0, 0, 3.426055908203125, 103.05,20.8) ">
<use xlink:href="#DIY_Simple_to_Complicated_300x250_psd_Asset_1_08_Why_pay_for_tax_software__0_Layer0_0_MEMBER_7_FILL"/>
</g>

<g transform="matrix( 3.4265289306640625, 0, 0, 3.426055908203125, 103.05,20.8) ">
<use xlink:href="#DIY_Simple_to_Complicated_300x250_psd_Asset_1_08_Why_pay_for_tax_software__0_Layer0_0_MEMBER_8_FILL"/>
</g>

<g transform="matrix( 3.4265289306640625, 0, 0, 3.426055908203125, 103.05,20.8) ">
<use xlink:href="#DIY_Simple_to_Complicated_300x250_psd_Asset_1_08_Why_pay_for_tax_software__0_Layer0_0_MEMBER_9_FILL"/>
</g>

<g transform="matrix( 3.4265289306640625, 0, 0, 3.426055908203125, 103.05,20.8) ">
<use xlink:href="#DIY_Simple_to_Complicated_300x250_psd_Asset_1_08_Why_pay_for_tax_software__0_Layer0_0_MEMBER_10_FILL"/>
</g>

<g transform="matrix( 3.4265289306640625, 0, 0, 3.426055908203125, 103.05,20.8) ">
<use xlink:href="#DIY_Simple_to_Complicated_300x250_psd_Asset_1_08_Why_pay_for_tax_software__0_Layer0_0_MEMBER_11_FILL"/>
</g>

<g transform="matrix( 3.4265289306640625, 0, 0, 3.426055908203125, 103.05,20.8) ">
<use xlink:href="#DIY_Simple_to_Complicated_300x250_psd_Asset_1_08_Why_pay_for_tax_software__0_Layer0_0_MEMBER_12_FILL"/>
</g>

<g transform="matrix( 3.4265289306640625, 0, 0, 3.426055908203125, 103.05,20.8) ">
<use xlink:href="#DIY_Simple_to_Complicated_300x250_psd_Asset_1_08_Why_pay_for_tax_software__0_Layer0_0_MEMBER_13_FILL"/>
</g>

<g transform="matrix( 3.4265289306640625, 0, 0, 3.426055908203125, 103.05,20.8) ">
<use xlink:href="#DIY_Simple_to_Complicated_300x250_psd_Asset_1_08_Why_pay_for_tax_software__0_Layer0_0_MEMBER_14_FILL"/>
</g>

<g transform="matrix( 3.4265289306640625, 0, 0, 3.426055908203125, 103.05,20.8) ">
<use xlink:href="#DIY_Simple_to_Complicated_300x250_psd_Asset_1_08_Why_pay_for_tax_software__0_Layer0_0_MEMBER_15_FILL"/>
</g>

<g transform="matrix( 3.4265289306640625, 0, 0, 3.426055908203125, 103.05,20.8) ">
<use xlink:href="#DIY_Simple_to_Complicated_300x250_psd_Asset_1_08_Why_pay_for_tax_software__0_Layer0_0_MEMBER_16_FILL"/>
</g>

<g transform="matrix( 3.4265289306640625, 0, 0, 3.426055908203125, 103.05,20.8) ">
<use xlink:href="#DIY_Simple_to_Complicated_300x250_psd_Asset_1_08_Why_pay_for_tax_software__0_Layer0_0_MEMBER_17_FILL"/>
</g>

<g transform="matrix( 3.4265289306640625, 0, 0, 3.426055908203125, 103.05,20.8) ">
<use xlink:href="#DIY_Simple_to_Complicated_300x250_psd_Asset_1_08_Why_pay_for_tax_software__0_Layer0_0_MEMBER_18_FILL"/>
</g>

<g transform="matrix( 3.4265289306640625, 0, 0, 3.426055908203125, 103.05,20.8) ">
<use xlink:href="#DIY_Simple_to_Complicated_300x250_psd_Asset_1_08_Why_pay_for_tax_software__0_Layer0_0_MEMBER_19_FILL"/>
</g>

<g transform="matrix( 3.4265289306640625, 0, 0, 3.426055908203125, 103.05,20.8) ">
<use xlink:href="#DIY_Simple_to_Complicated_300x250_psd_Asset_1_08_Why_pay_for_tax_software__0_Layer0_0_MEMBER_20_FILL"/>
</g>
</g>
</g>
</svg>
