<?xml version="1.0" encoding="utf-8"?>
<!-- Generator: Adobe Illustrator 18.1.1, SVG Export Plug-In . SVG Version: 6.00 Build 0)  -->
<svg version="1.1" id="Layer_1" xmlns="http://www.w3.org/2000/svg" xmlns:xlink="http://www.w3.org/1999/xlink" x="0px" y="0px"
	 viewBox="339 -20 728 90" enable-background="new 339 -20 728 90" xml:space="preserve">
<g transform="matrix( 1, 0, 0, 1, 0,-286) ">
	<g transform="matrix( 1, 0, 0, 1, 164,313) ">
		<g transform="matrix( 0.66973876953125, 0, 0, 0.672821044921875, -0.6,13.65) ">
			<g>
				<g id="DIY_Free_Support_728x90_psd_Asset_01_Free_to_ask_questions_by_chat__online____0_Layer0_0_MEMBER_0_FILL">
					<path fill="#FFFFFF" d="M521.2-38.2V-42h-8.5v-5.1h9.9v-3.8h-14.8v21.2h5v-8.5H521.2z"/>
				</g>
			</g>
		</g>
		<g transform="matrix( 0.66973876953125, 0, 0, 0.672821044921875, -0.6,13.65) ">
			<g>
				<g id="DIY_Free_Support_728x90_psd_Asset_01_Free_to_ask_questions_by_chat__online____0_Layer0_0_MEMBER_1_FILL">
					<path fill="#FFFFFF" d="M540.9-44.5c0-1.9-0.7-3.5-2.1-4.7c-1.5-1.1-3.5-1.7-5.9-1.7h-8.1v21.2h4.9v-8.1h3.4
						c1,0,1.8,0.3,2.4,0.8c0.5,0.6,0.8,1.4,0.8,2.3l0.1,3.4c0.2,0.8,0.4,1.3,0.8,1.6h5V-30c-0.4-0.3-0.6-0.8-0.8-1.5
						c-0.2-0.8-0.3-1.4-0.3-1.9v-1.3c0-1.3-0.3-2.4-0.8-3.2c-0.5-0.9-1.5-1.5-2.8-1.8c1.1-0.5,1.9-1.1,2.5-1.9
						C540.6-42.5,540.9-43.5,540.9-44.5 M536-44.2c0,0.9-0.3,1.5-0.8,2c-0.5,0.5-1.3,0.7-2.3,0.7h-3.3v-5.5h3.2c1,0,1.8,0.3,2.3,0.8
						C535.8-45.8,536-45.1,536-44.2z"/>
				</g>
			</g>
		</g>
		<g transform="matrix( 0.66973876953125, 0, 0, 0.672821044921875, -0.6,13.65) ">
			<g>
				<g id="DIY_Free_Support_728x90_psd_Asset_01_Free_to_ask_questions_by_chat__online____0_Layer0_0_MEMBER_2_FILL">
					<path fill="#FFFFFF" d="M557.6-38.8v-3.8h-8.3v-4.6h9.8v-3.8h-14.7v21.2h14.7v-3.8h-9.8v-5.3H557.6z"/>
				</g>
			</g>
		</g>
		<g transform="matrix( 0.66973876953125, 0, 0, 0.672821044921875, -0.6,13.65) ">
			<g>
				<g id="DIY_Free_Support_728x90_psd_Asset_01_Free_to_ask_questions_by_chat__online____0_Layer0_0_MEMBER_3_FILL">
					<path fill="#FFFFFF" d="M566.4-42.5v-4.6h9.8v-3.8h-14.7v21.2h14.7v-3.8h-9.8v-5.3h8.3v-3.8H566.4z"/>
				</g>
			</g>
		</g>
		<g transform="matrix( 0.66973876953125, 0, 0, 0.672821044921875, -0.6,13.65) ">
			<g>
				<g id="DIY_Free_Support_728x90_psd_Asset_01_Free_to_ask_questions_by_chat__online____0_Layer0_0_MEMBER_4_FILL">
					<path fill="#FFFFFF" d="M584.6-50.9v3.8h5.5v17.4h4.9v-17.4h5.6v-3.8H584.6z"/>
				</g>
			</g>
		</g>
		<g transform="matrix( 0.66973876953125, 0, 0, 0.672821044921875, -0.6,13.65) ">
			<g>
				<g id="DIY_Free_Support_728x90_psd_Asset_01_Free_to_ask_questions_by_chat__online____0_Layer0_0_MEMBER_5_FILL">
					<path fill="#FFFFFF" d="M604.3-48.6c-1.7,1.7-2.5,3.9-2.5,6.5v3.8c0,2.6,0.8,4.7,2.5,6.4c1.7,1.7,3.8,2.6,6.5,2.6
						c2.7,0,4.9-0.9,6.5-2.6c1.6-1.6,2.5-3.8,2.5-6.4v-3.8c0-2.6-0.8-4.7-2.5-6.5c-1.6-1.7-3.8-2.6-6.4-2.5
						C608.2-51.2,606-50.3,604.3-48.6 M606.7-38.4v-3.9c0-1.5,0.4-2.7,1-3.7c0.7-1,1.7-1.5,3.1-1.5c1.3,0,2.3,0.5,3,1.5
						c0.7,1,1,2.2,1,3.7v3.9c0,1.5-0.4,2.8-1,3.8c-0.7,1-1.7,1.4-3,1.4c-1.3,0-2.4-0.5-3.1-1.4C607.1-35.6,606.7-36.9,606.7-38.4z"
						/>
				</g>
			</g>
		</g>
		<g transform="matrix( 0.66973876953125, 0, 0, 0.672821044921875, -0.6,13.65) ">
			<g>
				<g id="DIY_Free_Support_728x90_psd_Asset_01_Free_to_ask_questions_by_chat__online____0_Layer0_0_MEMBER_6_FILL">
					<path fill="#FFFFFF" d="M634.6-33.8h6.6l1.2,4.1h5l-6.9-21.2h-5.3l-6.8,21.2h5L634.6-33.8 M635.7-37.6l2.2-7.5h0.1l2.2,7.5
						H635.7z"/>
				</g>
			</g>
		</g>
		<g transform="matrix( 0.66973876953125, 0, 0, 0.672821044921875, -0.6,13.65) ">
			<g>
				<g id="DIY_Free_Support_728x90_psd_Asset_01_Free_to_ask_questions_by_chat__online____0_Layer0_0_MEMBER_7_FILL">
					<path fill="#FFFFFF" d="M664.7-44.7c0.1-1.9-0.7-3.5-2.2-4.7c-1.5-1.2-3.4-1.8-5.8-1.8c-2.3,0-4.3,0.5-5.8,1.7
						c-1.5,1.1-2.3,2.6-2.3,4.3c0,1.8,0.7,3.2,2,4.2c1.3,1,3.3,1.9,6,2.8c1.3,0.5,2.2,0.9,2.7,1.3c0.5,0.4,0.7,1,0.7,1.8
						c0,0.7-0.2,1.2-0.7,1.6c-0.5,0.4-1.3,0.6-2.3,0.6c-1.4,0-2.4-0.3-3-0.8c-0.6-0.5-0.9-1.4-0.9-2.6h-4.8l0,0.1
						c0,2.3,0.9,4,2.6,5.2c1.8,1.2,3.8,1.8,6.2,1.8c2.4,0,4.3-0.5,5.8-1.6c1.5-1.1,2.2-2.5,2.2-4.4c0-1.8-0.6-3.2-1.8-4.3
						c-1.1-1-2.9-1.9-5.4-2.6c-1.7-0.6-2.7-1.1-3.2-1.4c-0.6-0.4-0.8-0.8-0.8-1.5c0-0.6,0.3-1.2,0.8-1.7c0.6-0.4,1.4-0.6,2.3-0.6
						c1,0,1.8,0.3,2.4,0.8c0.6,0.6,0.9,1.3,0.9,2L664.7-44.7L664.7-44.7z"/>
				</g>
			</g>
		</g>
		<g transform="matrix( 0.66973876953125, 0, 0, 0.672821044921875, -0.6,13.65) ">
			<g>
				<g id="DIY_Free_Support_728x90_psd_Asset_01_Free_to_ask_questions_by_chat__online____0_Layer0_0_MEMBER_8_FILL">
					<path fill="#FFFFFF" d="M672.3-38.2h2.3l4.7,8.5h6l-7.1-11.5l6.5-9.6h-6.1l-4.6,8.3h-1.7v-8.3h-4.9v21.2h4.9V-38.2z"/>
				</g>
			</g>
		</g>
		<g transform="matrix( 0.66973876953125, 0, 0, 0.672821044921875, -0.6,13.65) ">
			<g>
				<g id="DIY_Free_Support_728x90_psd_Asset_01_Free_to_ask_questions_by_chat__online____0_Layer0_0_MEMBER_9_FILL">
					<path fill="#FFFFFF" d="M696.1-48.6c-1.7,1.7-2.5,3.9-2.5,6.5v3.8c0,2.6,0.8,4.7,2.5,6.4c1.7,1.7,3.9,2.6,6.5,2.6l1.8-0.1
						c0.6-0.1,1.1-0.3,1.7-0.5l3.8,3.7l3-2.4l-3.5-3.5c0.7-0.8,1.3-1.7,1.7-2.8c0.4-1,0.6-2.2,0.6-3.4v-3.8c0-2.6-0.8-4.7-2.5-6.5
						c-1.7-1.7-3.9-2.6-6.5-2.5C700-51.2,697.8-50.3,696.1-48.6 M705.6-45.9c0.7,0.9,1.1,2.2,1.1,3.7v3.9c0,1.5-0.4,2.8-1.1,3.8
						c-0.8,1-1.8,1.4-3,1.4c-1.3,0-2.3-0.5-3-1.4c-0.7-1-1.1-2.2-1.1-3.8v-3.9c0-1.5,0.3-2.7,1-3.7c0.7-1,1.7-1.5,3-1.5
						C704-47.4,705-46.9,705.6-45.9z"/>
				</g>
			</g>
		</g>
		<g transform="matrix( 0.66973876953125, 0, 0, 0.672821044921875, -0.6,13.65) ">
			<g>
				<g id="DIY_Free_Support_728x90_psd_Asset_01_Free_to_ask_questions_by_chat__online____0_Layer0_0_MEMBER_10_FILL">
					<path fill="#FFFFFF" d="M714.4-37c0,2.4,0.8,4.3,2.4,5.6c1.6,1.3,3.7,2,6.3,2c2.6,0,4.7-0.7,6.3-2c1.6-1.3,2.4-3.2,2.4-5.6
						v-13.9h-5V-37c0,1.3-0.3,2.3-0.9,2.9c-0.7,0.6-1.6,0.9-2.8,0.9c-1.2,0-2.1-0.3-2.8-0.9c-0.7-0.7-1-1.6-1-2.9v-13.9h-4.9V-37z"
						/>
				</g>
			</g>
		</g>
		<g transform="matrix( 0.66973876953125, 0, 0, 0.672821044921875, -0.6,13.65) ">
			<g>
				<g id="DIY_Free_Support_728x90_psd_Asset_01_Free_to_ask_questions_by_chat__online____0_Layer0_0_MEMBER_11_FILL">
					<path fill="#FFFFFF" d="M748.3-38.8v-3.8H740v-4.6h9.8v-3.8h-14.8v21.2h14.7v-3.8H740v-5.3H748.3z"/>
				</g>
			</g>
		</g>
		<g transform="matrix( 0.66973876953125, 0, 0, 0.672821044921875, -0.6,13.65) ">
			<g>
				<g id="DIY_Free_Support_728x90_psd_Asset_01_Free_to_ask_questions_by_chat__online____0_Layer0_0_MEMBER_12_FILL">
					<path fill="#FFFFFF" d="M765.9-49.4c-1.5-1.2-3.4-1.8-5.8-1.8c-2.4,0-4.3,0.5-5.8,1.7c-1.5,1.1-2.3,2.5-2.3,4.3
						c0,1.8,0.6,3.2,1.9,4.2c1.3,1,3.3,1.9,6,2.8c1.3,0.5,2.2,0.9,2.6,1.3c0.5,0.5,0.8,1,0.8,1.8c0,0.7-0.3,1.2-0.8,1.6
						c-0.5,0.4-1.3,0.6-2.3,0.6c-1.3,0-2.3-0.3-3-0.8c-0.7-0.5-1-1.4-1-2.6h-4.8v0.1c0,2.3,0.8,4,2.5,5.2c1.8,1.2,3.8,1.8,6.2,1.8
						c2.4,0,4.4-0.5,5.8-1.6c1.4-1,2.2-2.5,2.2-4.4c0-1.8-0.6-3.2-1.8-4.3c-1.2-1-3-1.9-5.5-2.6c-1.6-0.6-2.6-1-3.2-1.4
						s-0.9-0.8-0.8-1.5c0-0.6,0.3-1.2,0.8-1.7c0.7-0.4,1.5-0.6,2.4-0.6c1,0,1.8,0.3,2.3,0.8c0.6,0.6,0.8,1.3,0.8,2h4.8l0.1-0.1
						C768.1-46.6,767.4-48.1,765.9-49.4z"/>
				</g>
			</g>
		</g>
		<g transform="matrix( 0.66973876953125, 0, 0, 0.672821044921875, -0.6,13.65) ">
			<g>
				<g id="DIY_Free_Support_728x90_psd_Asset_01_Free_to_ask_questions_by_chat__online____0_Layer0_0_MEMBER_13_FILL">
					<path fill="#FFFFFF" d="M785.7-47.1v-3.8h-16v3.8h5.5v17.4h4.9v-17.4H785.7z"/>
				</g>
			</g>
		</g>
		<g transform="matrix( 0.66973876953125, 0, 0, 0.672821044921875, -0.6,13.65) ">
			<g>
				<g id="DIY_Free_Support_728x90_psd_Asset_01_Free_to_ask_questions_by_chat__online____0_Layer0_0_MEMBER_14_FILL">
					<path fill="#FFFFFF" d="M792.7-50.9h-4.9v21.2h4.9V-50.9z"/>
				</g>
			</g>
		</g>
		<g transform="matrix( 0.66973876953125, 0, 0, 0.672821044921875, -0.6,13.65) ">
			<g>
				<g id="DIY_Free_Support_728x90_psd_Asset_01_Free_to_ask_questions_by_chat__online____0_Layer0_0_MEMBER_15_FILL">
					<path fill="#FFFFFF" d="M798.2-48.6c-1.7,1.7-2.5,3.9-2.5,6.5v3.8c0,2.6,0.8,4.7,2.5,6.4c1.7,1.7,3.8,2.6,6.5,2.6
						c2.7,0,4.9-0.9,6.5-2.6c1.6-1.6,2.5-3.8,2.5-6.4v-3.8c0-2.6-0.8-4.7-2.5-6.5c-1.6-1.7-3.8-2.6-6.5-2.5
						C802.1-51.2,799.9-50.3,798.2-48.6 M807.7-45.9c0.7,1,1,2.2,1,3.7v3.9c0,1.5-0.3,2.8-1,3.8c-0.7,1-1.7,1.4-3,1.4
						c-1.3,0-2.4-0.5-3-1.4c-0.7-1-1-2.3-1-3.8v-3.9c0-1.5,0.3-2.7,1-3.7c0.7-1,1.7-1.5,3-1.5C806.1-47.4,807.1-46.9,807.7-45.9z"/>
				</g>
			</g>
		</g>
		<g transform="matrix( 0.66973876953125, 0, 0, 0.672821044921875, -0.6,13.65) ">
			<g>
				<g id="DIY_Free_Support_728x90_psd_Asset_01_Free_to_ask_questions_by_chat__online____0_Layer0_0_MEMBER_16_FILL">
					<path fill="#FFFFFF" d="M821.4-43.2L821.4-43.2l7.8,13.5h4.9v-21.2h-4.9v13.5l-0.1,0l-7.7-13.5h-5v21.2h5V-43.2z"/>
				</g>
			</g>
		</g>
		<g transform="matrix( 0.66973876953125, 0, 0, 0.672821044921875, -0.6,13.65) ">
			<g>
				<g id="DIY_Free_Support_728x90_psd_Asset_01_Free_to_ask_questions_by_chat__online____0_Layer0_0_MEMBER_17_FILL">
					<path fill="#FFFFFF" d="M847.5-46.7c0.6,0.5,0.8,1.2,0.8,2h4.8v-0.1c0.1-1.9-0.7-3.5-2.2-4.7c-1.5-1.2-3.4-1.8-5.8-1.8
						c-2.3,0-4.3,0.5-5.8,1.7c-1.5,1.1-2.3,2.5-2.3,4.3c0,1.8,0.7,3.2,2,4.2c1.2,1,3.2,1.9,5.9,2.8c1.3,0.4,2.1,0.8,2.6,1.3
						c0.5,0.5,0.8,1,0.8,1.8c0,0.7-0.3,1.2-0.8,1.6c-0.5,0.4-1.3,0.6-2.3,0.6c-1.4,0-2.4-0.3-3-0.8c-0.7-0.5-1-1.4-1-2.6h-4.8l0,0.1
						c0,2.3,0.8,4,2.5,5.2c1.8,1.2,3.9,1.8,6.3,1.8c2.4,0,4.3-0.5,5.8-1.6c1.4-1,2.1-2.5,2.2-4.4c0-1.8-0.6-3.2-1.8-4.3
						c-1.1-1-3-1.8-5.5-2.6c-1.6-0.6-2.7-1-3.2-1.4c-0.6-0.3-0.8-0.8-0.8-1.5c0-0.7,0.3-1.2,0.8-1.7c0.6-0.4,1.4-0.6,2.3-0.6
						C846.1-47.5,846.9-47.2,847.5-46.7z"/>
				</g>
			</g>
		</g>
		<g transform="matrix( 0.66973876953125, 0, 0, 0.672821044921875, -0.6,13.65) ">
			<g>
				<g id="DIY_Free_Support_728x90_psd_Asset_01_Free_to_ask_questions_by_chat__online____0_Layer0_0_MEMBER_18_FILL">
					<path fill="#FFFFFF" d="M870.5-50.9h-7.3v21.2h8.3c2.6,0,4.6-0.5,6-1.6c1.4-1,2.1-2.6,2.1-4.7c0-1.1-0.3-2.1-0.9-3
						c-0.6-0.9-1.5-1.4-2.8-1.6c1-0.4,1.8-1,2.2-1.8c0.5-0.8,0.7-1.7,0.7-2.7c0-1.9-0.7-3.4-2.2-4.3
						C875.2-50.4,873.2-50.9,870.5-50.9 M868.2-42v-5.1h2.3c1.2,0,2.1,0.2,2.6,0.6c0.6,0.4,0.8,1,0.8,2c0,0.8-0.3,1.4-0.8,1.8
						c-0.5,0.4-1.4,0.6-2.5,0.7H868.2 M868.2-33.5v-5.3h3.7c1,0,1.7,0.2,2.2,0.7c0.5,0.5,0.7,1.1,0.7,2c0,0.9-0.3,1.5-0.8,1.9
						c-0.5,0.4-1.3,0.6-2.3,0.6H868.2z"/>
				</g>
			</g>
		</g>
		<g transform="matrix( 0.66973876953125, 0, 0, 0.672821044921875, -0.6,13.65) ">
			<g>
				<g id="DIY_Free_Support_728x90_psd_Asset_01_Free_to_ask_questions_by_chat__online____0_Layer0_0_MEMBER_19_FILL">
					<path fill="#FFFFFF" d="M889.3-41.6l-4.2-9.3h-5.3l7,13.5v7.7h4.9v-7.5l7.2-13.7h-5.3L889.3-41.6L889.3-41.6z"/>
				</g>
			</g>
		</g>
		<g transform="matrix( 0.66973876953125, 0, 0, 0.672821044921875, -0.6,13.65) ">
			<g>
				<g id="DIY_Free_Support_728x90_psd_Asset_01_Free_to_ask_questions_by_chat__online____0_Layer0_0_MEMBER_20_FILL">
					<path fill="#FFFFFF" d="M907.4-38.1c0,2.6,0.8,4.7,2.5,6.3c1.7,1.6,3.8,2.4,6.3,2.4c2.6,0,4.6-0.6,6-2c1.4-1.3,2.1-3.2,2.2-5.7
						v-0.1h-4.8c0,1.3-0.3,2.3-0.9,3c-0.5,0.6-1.3,0.9-2.5,0.9c-1.2,0-2.1-0.5-2.8-1.3c-0.7-0.9-1-2.1-1-3.5v-4.5
						c0-1.5,0.3-2.7,1-3.5c0.7-0.9,1.5-1.4,2.6-1.4c1.4,0,2.3,0.3,2.8,1c0.6,0.7,0.9,1.7,1,3.1h4.8l0-0.1c-0.2-2.5-1-4.4-2.4-5.7
						c-1.4-1.4-3.4-2.1-6.1-2c-2.6,0-4.6,0.8-6.1,2.5c-1.6,1.6-2.4,3.7-2.4,6.3V-38.1z"/>
				</g>
			</g>
		</g>
		<g transform="matrix( 0.66973876953125, 0, 0, 0.672821044921875, -0.6,13.65) ">
			<g>
				<g id="DIY_Free_Support_728x90_psd_Asset_01_Free_to_ask_questions_by_chat__online____0_Layer0_0_MEMBER_21_FILL">
					<path fill="#FFFFFF" d="M931.8-38.2h7.8v8.5h4.9v-21.2h-4.9v8.9h-7.8v-8.9h-4.9v21.2h4.9V-38.2z"/>
				</g>
			</g>
		</g>
		<g transform="matrix( 0.66973876953125, 0, 0, 0.672821044921875, -0.6,13.65) ">
			<g>
				<g id="DIY_Free_Support_728x90_psd_Asset_01_Free_to_ask_questions_by_chat__online____0_Layer0_0_MEMBER_22_FILL">
					<path fill="#FFFFFF" d="M952.6-33.8h6.7l1.2,4.1h5l-6.9-21.2h-5.3l-6.8,21.2h5L952.6-33.8 M953.7-37.6l2.1-7.5h0.1l2.2,7.5
						H953.7z"/>
				</g>
			</g>
		</g>
		<g transform="matrix( 0.66973876953125, 0, 0, 0.672821044921875, -0.6,13.65) ">
			<g>
				<g id="DIY_Free_Support_728x90_psd_Asset_01_Free_to_ask_questions_by_chat__online____0_Layer0_0_MEMBER_23_FILL">
					<path fill="#FFFFFF" d="M979.7-47.1v-3.8h-16v3.8h5.5v17.4h5v-17.4H979.7z"/>
				</g>
			</g>
		</g>
		<g transform="matrix( 0.66973876953125, 0, 0, 0.672821044921875, -0.6,13.65) ">
			<g>
				<g id="DIY_Free_Support_728x90_psd_Asset_01_Free_to_ask_questions_by_chat__online____0_Layer0_0_MEMBER_24_FILL">
					<path fill="#FFFFFF" d="M983.9-33.4h-4.3v3.7l-1,4.8h2.9l2.4-4.7V-33.4z"/>
				</g>
			</g>
		</g>
		<g transform="matrix( 0.66973876953125, 0, 0, 0.672821044921875, -0.6,13.65) ">
			<g>
				<g id="DIY_Free_Support_728x90_psd_Asset_01_Free_to_ask_questions_by_chat__online____0_Layer0_0_MEMBER_25_FILL">
					<path fill="#FFFFFF" d="M1009.7-48.6c-1.6-1.7-3.8-2.6-6.5-2.5c-2.7,0-4.8,0.8-6.5,2.5c-1.7,1.7-2.5,3.9-2.5,6.5v3.8
						c0,2.6,0.8,4.7,2.5,6.4c1.7,1.7,3.8,2.6,6.5,2.6c2.7,0,4.9-0.9,6.5-2.6c1.6-1.6,2.5-3.8,2.5-6.4v-3.8
						C1012.2-44.8,1011.3-47,1009.7-48.6 M1006.2-45.9c0.7,1,1,2.2,1,3.7v3.9c0,1.5-0.3,2.8-1,3.8c-0.7,1-1.7,1.4-3,1.4
						c-1.3,0-2.3-0.5-3-1.4c-0.7-1-1-2.3-1-3.8v-3.9c0-1.5,0.3-2.7,1-3.7c0.7-1,1.7-1.5,3-1.5C1004.6-47.4,1005.6-46.9,1006.2-45.9z
						"/>
				</g>
			</g>
		</g>
		<g transform="matrix( 0.66973876953125, 0, 0, 0.672821044921875, -0.6,13.65) ">
			<g>
				<g id="DIY_Free_Support_728x90_psd_Asset_01_Free_to_ask_questions_by_chat__online____0_Layer0_0_MEMBER_26_FILL">
					<path fill="#FFFFFF" d="M1019.9-43.2L1019.9-43.2l7.8,13.5h4.9v-21.2h-4.9v13.5l0,0l-7.8-13.5h-4.9v21.2h4.9V-43.2z"/>
				</g>
			</g>
		</g>
		<g transform="matrix( 0.66973876953125, 0, 0, 0.672821044921875, -0.6,13.65) ">
			<g>
				<g id="DIY_Free_Support_728x90_psd_Asset_01_Free_to_ask_questions_by_chat__online____0_Layer0_0_MEMBER_27_FILL">
					<path fill="#FFFFFF" d="M1040.8-33.5v-17.4h-4.9v21.2h14v-3.8H1040.8z"/>
				</g>
			</g>
		</g>
		<g transform="matrix( 0.66973876953125, 0, 0, 0.672821044921875, -0.6,13.65) ">
			<g>
				<g id="DIY_Free_Support_728x90_psd_Asset_01_Free_to_ask_questions_by_chat__online____0_Layer0_0_MEMBER_28_FILL">
					<path fill="#FFFFFF" d="M1057.1-50.9h-4.9v21.2h4.9V-50.9z"/>
				</g>
			</g>
		</g>
		<g transform="matrix( 0.66973876953125, 0, 0, 0.672821044921875, -0.6,13.65) ">
			<g>
				<g id="DIY_Free_Support_728x90_psd_Asset_01_Free_to_ask_questions_by_chat__online____0_Layer0_0_MEMBER_29_FILL">
					<path fill="#FFFFFF" d="M1065.5-43.2L1065.5-43.2l7.8,13.5h4.9v-21.2h-4.9v13.5l0,0l-7.8-13.5h-4.9v21.2h4.9V-43.2z"/>
				</g>
			</g>
		</g>
		<g transform="matrix( 0.66973876953125, 0, 0, 0.672821044921875, -0.6,13.65) ">
			<g>
				<g id="DIY_Free_Support_728x90_psd_Asset_01_Free_to_ask_questions_by_chat__online____0_Layer0_0_MEMBER_30_FILL">
					<path fill="#FFFFFF" d="M1086.4-42.5v-4.6h9.8v-3.8h-14.7v21.2h14.7v-3.8h-9.8v-5.3h8.3v-3.8H1086.4z"/>
				</g>
			</g>
		</g>
		<g transform="matrix( 0.66973876953125, 0, 0, 0.672821044921875, -0.6,13.65) ">
			<g>
				<g id="DIY_Free_Support_728x90_psd_Asset_01_Free_to_ask_questions_by_chat__online____0_Layer0_0_MEMBER_24_FILL_1_">
					<path fill="#FFFFFF" d="M1106.3-33.4h-4.3v3.7l-1,4.8h2.9l2.4-4.7V-33.4z"/>
				</g>
			</g>
		</g>
	</g>
</g>
</svg>
